[INFO -- 2018-12-04 11:15:40]
sending 5 signals using command: 'killall -2 smith_waterman' after 3.39425165153s
[INFO -- 2018-12-04 11:15:41]
sending 5 signals using command: 'killall -2 smith_waterman' after 4.26894759196s
[INFO -- 2018-12-04 11:15:41]
Starting GDB script
[INFO -- 2018-12-04 11:15:41]
initSignal:0.0
[INFO -- 2018-12-04 11:15:41]
endSignal:6.0
[INFO -- 2018-12-04 11:15:42]
sending 5 signals using command: 'killall -2 smith_waterman' after 1.24081329918s
[INFO -- 2018-12-04 11:15:47]
sending 5 signals using command: 'killall -2 smith_waterman' after 5.71111650815s
[INFO -- 2018-12-04 11:15:47]
sending 5 signals using command: 'killall -2 smith_waterman' after 5.72495859797s
[INFO -- 2018-12-04 11:16:01]
Execution did not finish before waitTime
