[INFO -- 2018-12-04 06:20:15]
Starting GDB script
[INFO -- 2018-12-04 06:20:15]
initSignal:0.0
[INFO -- 2018-12-04 06:20:15]
endSignal:6.0
[INFO -- 2018-12-04 06:20:15]
sending 5 signals using command: 'killall -2 smith_waterman' after 0.00182737523755s
[INFO -- 2018-12-04 06:20:15]
sending 5 signals using command: 'killall -2 smith_waterman' after 0.845916201277s
[INFO -- 2018-12-04 06:20:20]
sending 5 signals using command: 'killall -2 smith_waterman' after 5.62995757216s
[INFO -- 2018-12-04 06:20:21]
Execution finished before waitTime
