[INFO -- 2018-12-08 15:42:42]
Starting GDB script
[INFO -- 2018-12-08 15:42:42]
initSignal:0.0
[INFO -- 2018-12-08 15:42:42]
endSignal:6.0
[INFO -- 2018-12-08 15:42:45]
sending 5 signals using command: 'killall -2 smith_waterman' after 3.13334084129s
[INFO -- 2018-12-08 15:42:46]
sending 5 signals using command: 'killall -2 smith_waterman' after 4.09111756285s
[INFO -- 2018-12-08 15:42:47]
sending 5 signals using command: 'killall -2 smith_waterman' after 4.71403803362s
[INFO -- 2018-12-08 15:42:49]
Execution finished before waitTime
