[INFO -- 2018-12-05 03:54:12]
Starting GDB script
[INFO -- 2018-12-05 03:54:12]
initSignal:0.0
[INFO -- 2018-12-05 03:54:12]
endSignal:6.0
[INFO -- 2018-12-05 03:54:15]
sending 5 signals using command: 'killall -2 smith_waterman' after 3.15996899844s
[INFO -- 2018-12-05 03:54:16]
sending 5 signals using command: 'killall -2 smith_waterman' after 4.21804094197s
[INFO -- 2018-12-05 03:54:16]
sending 5 signals using command: 'killall -2 smith_waterman' after 4.5602125224s
[INFO -- 2018-12-05 03:54:19]
Execution finished before waitTime
