[INFO -- 2018-12-03 17:23:09]
sending 5 signals using command: 'killall -2 smith_waterman' after 5.17081493911s
[INFO -- 2018-12-03 17:23:09]
Starting GDB script
[INFO -- 2018-12-03 17:23:09]
initSignal:0.0
[INFO -- 2018-12-03 17:23:09]
endSignal:6.0
[INFO -- 2018-12-03 17:23:09]
sending 5 signals using command: 'killall -2 smith_waterman' after 0.388889804233s
[INFO -- 2018-12-03 17:23:10]
Execution finished before waitTime
