[INFO -- 2018-12-08 07:30:20]
sending 5 signals using command: 'killall -2 smith_waterman' after 4.32566716999s
[INFO -- 2018-12-08 07:30:21]
sending 5 signals using command: 'killall -2 smith_waterman' after 5.35492501628s
[INFO -- 2018-12-08 07:30:21]
Starting GDB script
[INFO -- 2018-12-08 07:30:21]
initSignal:0.0
[INFO -- 2018-12-08 07:30:21]
endSignal:6.0
[INFO -- 2018-12-08 07:30:23]
sending 5 signals using command: 'killall -2 smith_waterman' after 1.76320855421s
[INFO -- 2018-12-08 07:30:24]
sending 5 signals using command: 'killall -2 smith_waterman' after 3.35699954684s
[INFO -- 2018-12-08 07:30:25]
sending 5 signals using command: 'killall -2 smith_waterman' after 3.89928061247s
[INFO -- 2018-12-08 07:30:29]
Execution finished before waitTime
