[INFO -- 2018-12-03 15:43:08]
Starting GDB script
[INFO -- 2018-12-03 15:43:08]
initSignal:0.0
[INFO -- 2018-12-03 15:43:08]
endSignal:6.0
[INFO -- 2018-12-03 15:43:10]
sending 5 signals using command: 'killall -2 smith_waterman' after 1.74922267258s
[INFO -- 2018-12-03 15:43:14]
sending 5 signals using command: 'killall -2 smith_waterman' after 5.5768878274s
[INFO -- 2018-12-03 15:43:14]
sending 5 signals using command: 'killall -2 smith_waterman' after 5.66444904333s
[INFO -- 2018-12-03 15:43:28]
Execution did not finish before waitTime
