[INFO -- 2018-09-23 20:11:06]
Starting GDB script
[INFO -- 2018-09-23 20:11:06]
initSignal:0.0
[INFO -- 2018-09-23 20:11:06]
endSignal:2.0
[INFO -- 2018-09-23 20:11:06]
sending 5 signals using command: 'killall -2 smith_waterman' after 0.13774521167s
[INFO -- 2018-09-23 20:11:07]
sending 5 signals using command: 'killall -2 smith_waterman' after 0.351455729335s
[INFO -- 2018-09-23 20:11:08]
sending 5 signals using command: 'killall -2 smith_waterman' after 1.90752676988s
[INFO -- 2018-09-23 20:11:13]
Execution finished before waitTime
