[INFO -- 2018-12-04 12:08:56]
Starting GDB script
[INFO -- 2018-12-04 12:08:56]
initSignal:0.0
[INFO -- 2018-12-04 12:08:56]
endSignal:6.0
[INFO -- 2018-12-04 12:08:57]
sending 5 signals using command: 'killall -2 smith_waterman' after 0.769728960151s
[INFO -- 2018-12-04 12:08:58]
sending 5 signals using command: 'killall -2 smith_waterman' after 2.47680335794s
[INFO -- 2018-12-04 12:09:01]
Execution finished before waitTime
