[INFO -- 2018-12-08 22:35:49]
sending 5 signals using command: 'killall -2 smith_waterman' after 3.36299007772s
[INFO -- 2018-12-08 22:35:52]
sending 5 signals using command: 'killall -2 smith_waterman' after 5.60089669947s
[INFO -- 2018-12-08 22:35:52]
Starting GDB script
[INFO -- 2018-12-08 22:35:52]
initSignal:0.0
[INFO -- 2018-12-08 22:35:52]
endSignal:6.0
[INFO -- 2018-12-08 22:35:52]
sending 5 signals using command: 'killall -2 smith_waterman' after 0.710365020605s
[INFO -- 2018-12-08 22:35:56]
sending 5 signals using command: 'killall -2 smith_waterman' after 3.89230644974s
[INFO -- 2018-12-08 22:35:57]
sending 5 signals using command: 'killall -2 smith_waterman' after 5.51914236844s
[INFO -- 2018-12-08 22:35:58]
Execution finished before waitTime
