[INFO -- 2018-12-08 07:54:54]
Starting GDB script
[INFO -- 2018-12-08 07:54:54]
initSignal:0.0
[INFO -- 2018-12-08 07:54:54]
endSignal:6.0
[INFO -- 2018-12-08 07:54:55]
sending 5 signals using command: 'killall -2 smith_waterman' after 0.301825762902s
[INFO -- 2018-12-08 07:54:55]
sending 5 signals using command: 'killall -2 smith_waterman' after 0.88029797253s
[INFO -- 2018-12-08 07:54:55]
Execution finished before waitTime
