[INFO -- 2018-12-04 01:22:20]
Starting GDB script
[INFO -- 2018-12-04 01:22:20]
initSignal:0.0
[INFO -- 2018-12-04 01:22:20]
endSignal:6.0
[INFO -- 2018-12-04 01:22:20]
sending 5 signals using command: 'killall -2 smith_waterman' after 0.729258938688s
[INFO -- 2018-12-04 01:22:23]
sending 5 signals using command: 'killall -2 smith_waterman' after 3.50109414393s
[INFO -- 2018-12-04 01:22:25]
sending 5 signals using command: 'killall -2 smith_waterman' after 5.75096219452s
[INFO -- 2018-12-04 01:22:27]
Execution finished before waitTime
