[INFO -- 2018-12-04 12:30:37]
sending 5 signals using command: 'killall -2 smith_waterman' after 5.7598563757s
[INFO -- 2018-12-04 12:30:37]
Starting GDB script
[INFO -- 2018-12-04 12:30:37]
initSignal:0.0
[INFO -- 2018-12-04 12:30:37]
endSignal:6.0
[INFO -- 2018-12-04 12:30:39]
sending 5 signals using command: 'killall -2 smith_waterman' after 2.01725468101s
[INFO -- 2018-12-04 12:30:40]
sending 5 signals using command: 'killall -2 smith_waterman' after 3.1356628982s
[INFO -- 2018-12-04 12:30:41]
sending 5 signals using command: 'killall -2 smith_waterman' after 4.30783801315s
[INFO -- 2018-12-04 12:30:42]
Execution finished before waitTime
