[INFO -- 2018-09-27 17:36:07]
Starting GDB script
[INFO -- 2018-09-27 17:36:07]
initSignal:0.0
[INFO -- 2018-09-27 17:36:07]
endSignal:2.0
[INFO -- 2018-09-27 17:36:08]
sending 5 signals using command: 'killall -2 smith_waterman' after 0.901889592044s
[INFO -- 2018-09-27 17:36:08]
sending 5 signals using command: 'killall -2 smith_waterman' after 0.985723394856s
[INFO -- 2018-09-27 17:36:08]
sending 5 signals using command: 'killall -2 smith_waterman' after 1.49632766168s
[INFO -- 2018-09-27 17:36:13]
Execution finished before waitTime
