[INFO -- 2018-09-25 04:51:05]
Starting GDB script
[INFO -- 2018-09-25 04:51:05]
initSignal:0.0
[INFO -- 2018-09-25 04:51:05]
endSignal:2.0
[INFO -- 2018-09-25 04:51:06]
sending 5 signals using command: 'killall -2 smith_waterman' after 0.715505636265s
[INFO -- 2018-09-25 04:51:07]
sending 5 signals using command: 'killall -2 smith_waterman' after 1.4509407763s
[INFO -- 2018-09-25 04:51:07]
sending 5 signals using command: 'killall -2 smith_waterman' after 1.97495206013s
[INFO -- 2018-09-25 04:51:11]
Execution finished before waitTime
