[INFO -- 2018-09-27 19:34:02]
Starting GDB script
[INFO -- 2018-09-27 19:34:02]
initSignal:0.0
[INFO -- 2018-09-27 19:34:02]
endSignal:2.0
[INFO -- 2018-09-27 19:34:02]
sending 5 signals using command: 'killall -2 smith_waterman' after 0.139395810059s
[INFO -- 2018-09-27 19:34:03]
sending 5 signals using command: 'killall -2 smith_waterman' after 0.507720374978s
[INFO -- 2018-09-27 19:34:04]
sending 5 signals using command: 'killall -2 smith_waterman' after 1.96725930981s
[INFO -- 2018-09-27 19:34:07]
Execution finished before waitTime
