[INFO -- 2018-12-08 18:08:37]
Starting GDB script
[INFO -- 2018-12-08 18:08:37]
initSignal:0.0
[INFO -- 2018-12-08 18:08:37]
endSignal:6.0
[INFO -- 2018-12-08 18:08:40]
sending 5 signals using command: 'killall -2 smith_waterman' after 2.96929922741s
[INFO -- 2018-12-08 18:08:42]
sending 5 signals using command: 'killall -2 smith_waterman' after 5.50240969731s
[INFO -- 2018-12-08 18:08:43]
sending 5 signals using command: 'killall -2 smith_waterman' after 5.8840472369s
[INFO -- 2018-12-08 18:08:44]
Execution finished before waitTime
