[INFO -- 2018-09-23 12:44:21]
Starting flip_value script
version: 1.1
[INFO -- 2018-09-23 12:44:21]
Initialization strings:
[INFO -- 2018-09-23 12:44:21]
(1) file /tmp/smith_waterman/smith_waterman
[INFO -- 2018-09-23 12:44:21]
(2) set args -x /tmp/smith_waterman/randInputX -y /tmp/smith_waterman/randInputY -o /tmp/smith_waterman/output
[INFO -- 2018-09-23 12:44:21]
initSignal:0
[INFO -- 2018-09-23 12:44:21]
endSignal:2
[INFO -- 2018-09-23 12:44:21]
faultModel:1
[INFO -- 2018-09-23 12:44:21]
Backtrace BEGIN:
#0  0x0000555555554d71 in my_maxof (a=-1, b=-2, c=-2, d=0) at smith_waterman.c:65
#1  0x00005555555550d7 in smith_waterman (x_num=15000, y_num=13650, str_x=0x5555557586c0 "HWSGMTGFLZNMTWDCKEIUOQOZUWZGZJGJFYPURVZCUORNLURXBBSPRGRLCQTBBZMJXBDQWCVSSMHFIADLBXBUDUHHKBKMCXVAAYSXCNRUBZAKZFVDCYXHSFODIARKZOMAMFXQUQMWPOGRTDWXCVEUAUZKXSVWGJWUQVKLOZHDPPWLSSIUOPRQJSDILAFRJDMABYLPXUUN"..., str_y=0x55555575c170 "WSSMMTGLLZMMTWDKKEIUOOOUWWZZZGGJFPPURZZCUORNUURBBSSPGGLLCQTBBMJJBDDQCVVSMHHFIDLLXBBDDUHKKBKCCXVAASXCNRRBBAKKZFVCYYHHSFODARRKOOMAMFQUUMMWOORRTDWXVEUUAZKKXVWWGWWQQKKOZZDPPWWLSSUUPRQQJDIIAFFRDDMABYLPUUUJ"..., fo=0x555555758260) at smith_waterman.c:98
#2  0x0000555555555e38 in main (argc=7, argv=0x7fffffffdcb8) at smith_waterman.c:298

60	}
61	
62	double my_maxof(double a, double b, double c, double d)
63	{
64	    double ans=a;
65	    if(ans<b) ans=b;
66	    if(ans<c) ans=c;
67	    if(ans<d) ans=d;
68	    return ans;
69	}

Backtrace END
Fliping a bit of the value pointed by a pointer
Fliping a bit of the pointer
Memory content before bitflip:0x100xd00xf80x950xff0x7f0x000x00
Fault Model: Double bit-flip
base address to flip value: 0x55555575f6d0
address max offset: 8
Memory content after  bitflip:0x100xda0xf80x950xff0x7f0x000x00
frame name: smith_waterman
symbol name: matrix
symbol filename: smith_waterman.c
symbol line: 81
value: 0x55555575f6d0
value address: 0x7fffffffdad8
Type: The type is a pointer.
Type sizeof: 8

[INFO -- 2018-09-23 12:44:21]
Fault Injection Successful after 0.8615972995758057s
[INFO -- 2018-09-23 12:44:27]
event type: exit
[EXCEPTION -- 2018-09-23 12:44:27]
exit code: no exit code available
