[INFO -- 2018-09-26 00:14:17]
sending 5 signals using command: 'killall -2 smith_waterman' after 1.5722008615s
[INFO -- 2018-09-26 00:14:17]
Starting GDB script
[INFO -- 2018-09-26 00:14:17]
initSignal:0.0
[INFO -- 2018-09-26 00:14:17]
endSignal:2.0
[INFO -- 2018-09-26 00:14:17]
sending 5 signals using command: 'killall -2 smith_waterman' after 0.201791707762s
[INFO -- 2018-09-26 00:14:17]
sending 5 signals using command: 'killall -2 smith_waterman' after 0.33923030659s
[INFO -- 2018-09-26 00:14:19]
sending 5 signals using command: 'killall -2 smith_waterman' after 1.97296564331s
[INFO -- 2018-09-26 00:14:22]
Execution finished before waitTime
