[INFO -- 2018-12-04 00:52:21]
Starting GDB script
[INFO -- 2018-12-04 00:52:21]
initSignal:0.0
[INFO -- 2018-12-04 00:52:21]
endSignal:6.0
[INFO -- 2018-12-04 00:52:24]
sending 5 signals using command: 'killall -2 smith_waterman' after 2.62571710917s
[INFO -- 2018-12-04 00:52:24]
sending 5 signals using command: 'killall -2 smith_waterman' after 2.89114291577s
[INFO -- 2018-12-04 00:52:24]
Execution finished before waitTime
