[INFO -- 2018-12-09 08:36:15]
sending 5 signals using command: 'killall -2 smith_waterman' after 1.7932992396s
[INFO -- 2018-12-09 08:36:15]
Starting GDB script
[INFO -- 2018-12-09 08:36:15]
initSignal:0.0
[INFO -- 2018-12-09 08:36:15]
endSignal:6.0
[INFO -- 2018-12-09 08:36:16]
sending 5 signals using command: 'killall -2 smith_waterman' after 1.17780430791s
[INFO -- 2018-12-09 08:36:18]
sending 5 signals using command: 'killall -2 smith_waterman' after 2.79924596669s
[INFO -- 2018-12-09 08:36:20]
sending 5 signals using command: 'killall -2 smith_waterman' after 4.353180188s
[INFO -- 2018-12-09 08:36:23]
Execution finished before waitTime
