[INFO -- 2018-12-03 11:22:28]
Starting flip_value script
version: 1.1
[INFO -- 2018-12-03 11:22:28]
Initialization strings:
[INFO -- 2018-12-03 11:22:28]
(1) file /tmp/smith_waterman/smith_waterman
[INFO -- 2018-12-03 11:22:28]
(2) set args -x /tmp/smith_waterman/randInputX -y /tmp/smith_waterman/randInputY -o /tmp/smith_waterman/output -z /tmp/smith_waterman/detected.log
[INFO -- 2018-12-03 11:22:28]
initSignal:0
[INFO -- 2018-12-03 11:22:28]
endSignal:6
[INFO -- 2018-12-03 11:22:28]
faultModel:2
[INFO -- 2018-12-03 11:22:31]
Backtrace BEGIN:
#0  0x0000555555555256 in smith_waterman (x_num=12900, y_num=15000, str_x=0x5555557586c0 "KJUUVWERRROQCIOHBBHMTJJJJYWWWMMXXISKEEDDVLATJJHAQOOFXIWYYFBRFFKUUSGXXGJUEEOODRZUUFHFFEEDUBBKKEGGDPMVVZQBTFFXWWTBBAGOEELKOOYXZDFUPPHMMGICCFBBLVUTWWJBJJUOXMZZZEUHHNMWWLYMQQBXNOOJRMSUVJUHXXTMMZVNNRRLCCLU"..., str_y=0x55555575b930 "QKJUTVWERROQCIOHHBHMTVJDJYWEWMEMXPISKEXDVLTATJHAKQOFLXIWYFBWRFKQUSJGXGJUTEUONDRZUFHHFPEDUFBOKLEGDPMCVVZQBTFOXWPTBWAGOELKLOYXZFDFUPHSMGIPCNFBLVUPTWXJBJUOXSMZZPEUHNMVWWLYMQBXNVOJRMSUVMJUHXTGMZCVNQRLNCLZ"...) at smith_waterman.c:130
#1  0x0000555555555cbf in execute (file_x_name=0x7fffffffe1f3 "/tmp/smith_waterman/randInputX", file_y_name=0x7fffffffe215 "/tmp/smith_waterman/randInputY") at smith_waterman.c:263
#2  0x0000555555555f08 in main (argc=9, argv=0x7fffffffde38) at smith_waterman.c:314

125	            if(i==0 && j==0){
126	                maxValue = matrix[i][j];
127	                y = i;
128	                x = j;
129	            }
130	            if(maxValue < matrix[i][j]){
131	                maxValue = matrix[i][j];
132	                y = i;
133	                x = j;
134	            }

Backtrace END
Memory content before bitflip:0x000x000x000x000x000x000x000xc0
Fault Model: Random bit-flip
base address to flip value: 0x555555757038 
address max offset: 8
Memory content after  bitflip:0xb90x0d0x690xe60x580xf80x9c0x3f
frame name: execute
symbol name: gap_score2
symbol filename: smith_waterman.c
symbol line: 12
value: 0.028291119635708493
value address: 0x555555757038 <gap_score2>
Type: A floating point type.
Type sizeof: 8

[INFO -- 2018-12-03 11:22:31]
Fault Injection Successful after 3.107541084289551s
[INFO -- 2018-12-03 11:22:33]
event type: exit
[INFO -- 2018-12-03 11:22:33]
exit code: 0
