[INFO -- 2018-12-08 17:42:42]
Starting GDB script
[INFO -- 2018-12-08 17:42:42]
initSignal:0.0
[INFO -- 2018-12-08 17:42:42]
endSignal:6.0
[INFO -- 2018-12-08 17:42:44]
sending 5 signals using command: 'killall -2 smith_waterman' after 2.2075398667s
[INFO -- 2018-12-08 17:42:45]
Execution finished before waitTime
