[INFO -- 2018-12-04 06:44:04]
Starting GDB script
[INFO -- 2018-12-04 06:44:04]
initSignal:0.0
[INFO -- 2018-12-04 06:44:04]
endSignal:6.0
[INFO -- 2018-12-04 06:44:05]
sending 5 signals using command: 'killall -2 smith_waterman' after 0.441266298865s
[INFO -- 2018-12-04 06:44:06]
sending 5 signals using command: 'killall -2 smith_waterman' after 2.14939379856s
[INFO -- 2018-12-04 06:44:07]
sending 5 signals using command: 'killall -2 smith_waterman' after 3.06511913062s
[INFO -- 2018-12-04 06:44:24]
Execution did not finish before waitTime
