[INFO -- 2018-09-23 13:32:59]
Starting GDB script
[INFO -- 2018-09-23 13:32:59]
initSignal:0.0
[INFO -- 2018-09-23 13:32:59]
endSignal:2.0
[INFO -- 2018-09-23 13:33:00]
sending 5 signals using command: 'killall -2 smith_waterman' after 1.18464358749s
[INFO -- 2018-09-23 13:33:01]
sending 5 signals using command: 'killall -2 smith_waterman' after 1.68219478029s
[INFO -- 2018-09-23 13:33:01]
sending 5 signals using command: 'killall -2 smith_waterman' after 1.80769091368s
[INFO -- 2018-09-23 13:33:04]
Execution finished before waitTime
