[INFO -- 2018-09-24 00:47:28]
sending 5 signals using command: 'killall -2 smith_waterman' after 1.75953640573s
[INFO -- 2018-09-24 00:47:29]
Starting GDB script
[INFO -- 2018-09-24 00:47:29]
initSignal:0.0
[INFO -- 2018-09-24 00:47:29]
endSignal:2.0
[INFO -- 2018-09-24 00:47:29]
sending 5 signals using command: 'killall -2 smith_waterman' after 0.723420685605s
[INFO -- 2018-09-24 00:47:30]
sending 5 signals using command: 'killall -2 smith_waterman' after 0.957886328206s
[INFO -- 2018-09-24 00:47:30]
sending 5 signals using command: 'killall -2 smith_waterman' after 1.56750044389s
[INFO -- 2018-09-24 00:47:35]
Execution finished before waitTime
