[INFO -- 2018-09-25 00:40:58]
Starting GDB script
[INFO -- 2018-09-25 00:40:58]
initSignal:0.0
[INFO -- 2018-09-25 00:40:58]
endSignal:2.0
[INFO -- 2018-09-25 00:40:58]
sending 5 signals using command: 'killall -2 smith_waterman' after 0.651129581724s
[INFO -- 2018-09-25 00:40:59]
sending 5 signals using command: 'killall -2 smith_waterman' after 1.24756621577s
[INFO -- 2018-09-25 00:40:59]
sending 5 signals using command: 'killall -2 smith_waterman' after 1.5284175874s
[INFO -- 2018-09-25 00:41:04]
Execution finished before waitTime
