[INFO -- 2018-09-23 16:41:43]
Starting flip_value script
version: 1.1
[INFO -- 2018-09-23 16:41:43]
Initialization strings:
[INFO -- 2018-09-23 16:41:43]
(1) file /tmp/smith_waterman/smith_waterman
[INFO -- 2018-09-23 16:41:43]
(2) set args -x /tmp/smith_waterman/randInputX -y /tmp/smith_waterman/randInputY -o /tmp/smith_waterman/output
[INFO -- 2018-09-23 16:41:43]
initSignal:0
[INFO -- 2018-09-23 16:41:43]
endSignal:2
[INFO -- 2018-09-23 16:41:43]
faultModel:2
[INFO -- 2018-09-23 16:41:44]
Backtrace BEGIN:
#0  0x0000555555554d71 in my_maxof (a=1, b=-2, c=-2, d=0) at smith_waterman.c:65
#1  0x00005555555550d7 in smith_waterman (x_num=15000, y_num=10050, str_x=0x5555557586c0 "FPCPKWVEDJKMTXYVDFKCLMYQTBEQOECVVFKGDFMGQYTJXTHBBRFOGFEZJIRXPUSKBESEMGKCEFOCBVFCOMQUSWWBHPAWLUIMABSMHFROKHSNEZRSLHPFGNINEILQEVEFYXTICKWORQCVPVQADFILUQAYBNOFIVMHSGPWQNKKDOHUKXWPEEAYVCZYPPDXKSGCYVAQKLCP"..., str_y=0x55555575c170 "PPCKKWVEJKKTTXYDDFKCMMQQTEQOOEVVFKGGDFGGYYJXXTHBBRFOFFZZJRRPPSKBESEEMKKCEFOBVFCCOMQSWWWHHPWWLIMMBSMMFFROKHNEERRLLPPGNINNELQEEVFFXTTIKWORRCVPVVQDDFLLUQYYNOOFIVMHSPWQNKKKDHHKXWWPEEYYVZYYPPXKKSCCYAAKLLPB"..., fo=0x555555758260) at smith_waterman.c:98
#2  0x0000555555555e38 in main (argc=7, argv=0x7fffffffdcb8) at smith_waterman.c:298

60	}
61	
62	double my_maxof(double a, double b, double c, double d)
63	{
64	    double ans=a;
65	    if(ans<b) ans=b;
66	    if(ans<c) ans=c;
67	    if(ans<d) ans=d;
68	    return ans;
69	}

Backtrace END
Memory content before bitflip:0xb00xdc0xff0xff0xff0x7f0x000x00
Fault Model: Random bit-flip
base address to flip value: 0x7fffffffdab0
address max offset: 8
Memory content after  bitflip:0x070x9c0x860x190xe00x460x240x11
frame name: smith_waterman
symbol name: maxValue
symbol filename: smith_waterman.c
symbol line: 114
value: 4.2797056804051677e-226
value address: 0x7fffffffdab0
Type: A floating point type.
Type sizeof: 8

[INFO -- 2018-09-23 16:41:44]
Fault Injection Successful after 1.1394102573394775s
[INFO -- 2018-09-23 16:41:48]
event type: exit
[INFO -- 2018-09-23 16:41:48]
exit code: 0
