[INFO -- 2018-12-08 23:33:32]
sending 5 signals using command: 'killall -2 smith_waterman' after 5.31812814331s
[INFO -- 2018-12-08 23:33:32]
Starting GDB script
[INFO -- 2018-12-08 23:33:32]
initSignal:0.0
[INFO -- 2018-12-08 23:33:32]
endSignal:6.0
[INFO -- 2018-12-08 23:33:34]
sending 5 signals using command: 'killall -2 smith_waterman' after 1.33454798094s
[INFO -- 2018-12-08 23:33:36]
sending 5 signals using command: 'killall -2 smith_waterman' after 3.2387996518s
[INFO -- 2018-12-08 23:33:36]
sending 5 signals using command: 'killall -2 smith_waterman' after 3.723540453s
[INFO -- 2018-12-08 23:33:38]
Execution finished before waitTime
