[INFO -- 2018-12-04 15:45:47]
Starting GDB script
[INFO -- 2018-12-04 15:45:47]
initSignal:0.0
[INFO -- 2018-12-04 15:45:47]
endSignal:6.0
[INFO -- 2018-12-04 15:45:47]
sending 5 signals using command: 'killall -2 smith_waterman' after 0.120918401013s
[INFO -- 2018-12-04 15:45:47]
sending 5 signals using command: 'killall -2 smith_waterman' after 0.433377679053s
[INFO -- 2018-12-04 15:45:51]
sending 5 signals using command: 'killall -2 smith_waterman' after 4.50756930679s
[INFO -- 2018-12-04 15:45:53]
Execution finished before waitTime
