[INFO -- 2018-12-08 16:06:22]
Starting GDB script
[INFO -- 2018-12-08 16:06:22]
initSignal:0.0
[INFO -- 2018-12-08 16:06:22]
endSignal:6.0
[INFO -- 2018-12-08 16:06:24]
sending 5 signals using command: 'killall -2 smith_waterman' after 1.88671217264s
[INFO -- 2018-12-08 16:06:25]
sending 5 signals using command: 'killall -2 smith_waterman' after 2.59453128107s
[INFO -- 2018-12-08 16:06:25]
Execution finished before waitTime
