[INFO -- 2018-09-24 22:50:22]
Starting GDB script
[INFO -- 2018-09-24 22:50:22]
initSignal:0.0
[INFO -- 2018-09-24 22:50:22]
endSignal:2.0
[INFO -- 2018-09-24 22:50:23]
sending 5 signals using command: 'killall -2 smith_waterman' after 0.824979584131s
[INFO -- 2018-09-24 22:50:24]
sending 5 signals using command: 'killall -2 smith_waterman' after 1.06771758569s
[INFO -- 2018-09-24 22:50:24]
sending 5 signals using command: 'killall -2 smith_waterman' after 1.2888728433s
[INFO -- 2018-09-24 22:50:28]
Execution finished before waitTime
