[INFO -- 2018-09-26 17:44:32]
Starting GDB script
[INFO -- 2018-09-26 17:44:32]
initSignal:0.0
[INFO -- 2018-09-26 17:44:32]
endSignal:2.0
[INFO -- 2018-09-26 17:44:32]
sending 5 signals using command: 'killall -2 smith_waterman' after 0.216104947043s
[INFO -- 2018-09-26 17:44:33]
sending 5 signals using command: 'killall -2 smith_waterman' after 1.07327253203s
[INFO -- 2018-09-26 17:44:33]
sending 5 signals using command: 'killall -2 smith_waterman' after 1.34633177381s
[INFO -- 2018-09-26 17:44:37]
Execution finished before waitTime
