[INFO -- 2018-11-09 00:21:10]
Starting flip_value script
version: 1.1
[INFO -- 2018-11-09 00:21:10]
Initialization strings:
[INFO -- 2018-11-09 00:21:10]
(1) file /tmp/smith_waterman/smith_waterman
[INFO -- 2018-11-09 00:21:10]
(2) set args -x /tmp/smith_waterman/randInputX -y /tmp/smith_waterman/randInputY -o /tmp/smith_waterman/output
[INFO -- 2018-11-09 00:21:10]
initSignal:0
[INFO -- 2018-11-09 00:21:10]
endSignal:6
[INFO -- 2018-11-09 00:21:10]
faultModel:0
[INFO -- 2018-11-09 00:21:13]
event type: exit
[INFO -- 2018-11-09 00:21:13]
exit code: 0
