[INFO -- 2018-09-28 05:16:41]
Starting GDB script
[INFO -- 2018-09-28 05:16:41]
initSignal:0.0
[INFO -- 2018-09-28 05:16:41]
endSignal:2.0
[INFO -- 2018-09-28 05:16:41]
sending 5 signals using command: 'killall -2 smith_waterman' after 0.0487653369989s
[INFO -- 2018-09-28 05:16:41]
sending 5 signals using command: 'killall -2 smith_waterman' after 0.321999115156s
[INFO -- 2018-09-28 05:16:42]
Execution finished before waitTime
