[INFO -- 2018-09-26 23:35:18]
Starting GDB script
[INFO -- 2018-09-26 23:35:18]
initSignal:0.0
[INFO -- 2018-09-26 23:35:18]
endSignal:2.0
[INFO -- 2018-09-26 23:35:19]
sending 5 signals using command: 'killall -2 smith_waterman' after 0.510938766073s
[INFO -- 2018-09-26 23:35:19]
sending 5 signals using command: 'killall -2 smith_waterman' after 0.70257600283s
[INFO -- 2018-09-26 23:35:20]
sending 5 signals using command: 'killall -2 smith_waterman' after 1.73138519802s
[INFO -- 2018-09-26 23:35:26]
Execution finished before waitTime
