[INFO -- 2018-09-27 19:32:00]
Starting GDB script
[INFO -- 2018-09-27 19:32:00]
initSignal:0.0
[INFO -- 2018-09-27 19:32:00]
endSignal:2.0
[INFO -- 2018-09-27 19:32:01]
sending 5 signals using command: 'killall -2 smith_waterman' after 0.874229701612s
[INFO -- 2018-09-27 19:32:01]
sending 5 signals using command: 'killall -2 smith_waterman' after 1.03567105023s
[INFO -- 2018-09-27 19:32:02]
sending 5 signals using command: 'killall -2 smith_waterman' after 1.95656487256s
[INFO -- 2018-09-27 19:32:05]
Execution finished before waitTime
