[INFO -- 2018-12-08 12:39:05]
Starting GDB script
[INFO -- 2018-12-08 12:39:05]
initSignal:0.0
[INFO -- 2018-12-08 12:39:05]
endSignal:6.0
[INFO -- 2018-12-08 12:39:06]
sending 5 signals using command: 'killall -2 smith_waterman' after 0.710867973376s
[INFO -- 2018-12-08 12:39:08]
sending 5 signals using command: 'killall -2 smith_waterman' after 2.95394842408s
[INFO -- 2018-12-08 12:39:09]
sending 5 signals using command: 'killall -2 smith_waterman' after 3.74898907976s
[INFO -- 2018-12-08 12:39:13]
Execution finished before waitTime
