[INFO -- 2018-12-05 12:52:40]
Starting GDB script
[INFO -- 2018-12-05 12:52:40]
initSignal:0.0
[INFO -- 2018-12-05 12:52:40]
endSignal:6.0
[INFO -- 2018-12-05 12:52:44]
sending 5 signals using command: 'killall -2 smith_waterman' after 3.5518364971s
[INFO -- 2018-12-05 12:52:46]
sending 5 signals using command: 'killall -2 smith_waterman' after 5.61359079784s
[INFO -- 2018-12-05 12:52:46]
sending 5 signals using command: 'killall -2 smith_waterman' after 5.68977141828s
[INFO -- 2018-12-05 12:52:47]
Execution finished before waitTime
