[INFO -- 2018-12-05 15:06:31]
sending 5 signals using command: 'killall -2 smith_waterman' after 5.76760723772s
[INFO -- 2018-12-05 15:06:31]
Starting GDB script
[INFO -- 2018-12-05 15:06:31]
initSignal:0.0
[INFO -- 2018-12-05 15:06:31]
endSignal:6.0
[INFO -- 2018-12-05 15:06:33]
sending 5 signals using command: 'killall -2 smith_waterman' after 1.94263720546s
[INFO -- 2018-12-05 15:06:34]
sending 5 signals using command: 'killall -2 smith_waterman' after 3.17861541218s
[INFO -- 2018-12-05 15:06:36]
Execution finished before waitTime
