[INFO -- 2018-09-23 18:36:10]
Starting GDB script
[INFO -- 2018-09-23 18:36:10]
initSignal:0.0
[INFO -- 2018-09-23 18:36:10]
endSignal:2.0
[INFO -- 2018-09-23 18:36:10]
sending 5 signals using command: 'killall -2 smith_waterman' after 0.0552712466254s
[INFO -- 2018-09-23 18:36:11]
sending 5 signals using command: 'killall -2 smith_waterman' after 0.533369756956s
[INFO -- 2018-09-23 18:36:11]
sending 5 signals using command: 'killall -2 smith_waterman' after 1.15990358056s
[INFO -- 2018-09-23 18:36:15]
Execution finished before waitTime
