[INFO -- 2018-12-03 09:29:51]
Starting GDB script
[INFO -- 2018-12-03 09:29:51]
initSignal:0.0
[INFO -- 2018-12-03 09:29:51]
endSignal:6.0
[INFO -- 2018-12-03 09:29:53]
sending 5 signals using command: 'killall -2 smith_waterman' after 1.32728679981s
[INFO -- 2018-12-03 09:29:54]
sending 5 signals using command: 'killall -2 smith_waterman' after 2.86338168743s
[INFO -- 2018-12-03 09:29:55]
sending 5 signals using command: 'killall -2 smith_waterman' after 3.36662242154s
[INFO -- 2018-12-03 09:29:56]
Execution finished before waitTime
