[INFO -- 2018-09-24 13:50:09]
Starting GDB script
[INFO -- 2018-09-24 13:50:09]
initSignal:0.0
[INFO -- 2018-09-24 13:50:09]
endSignal:2.0
[INFO -- 2018-09-24 13:50:10]
sending 5 signals using command: 'killall -2 smith_waterman' after 0.255895865977s
[INFO -- 2018-09-24 13:50:10]
sending 5 signals using command: 'killall -2 smith_waterman' after 0.494554648321s
[INFO -- 2018-09-24 13:50:10]
sending 5 signals using command: 'killall -2 smith_waterman' after 0.821501154677s
[INFO -- 2018-09-24 13:50:15]
Execution finished before waitTime
