[INFO -- 2018-12-05 15:35:19]
Starting GDB script
[INFO -- 2018-12-05 15:35:19]
initSignal:0.0
[INFO -- 2018-12-05 15:35:19]
endSignal:6.0
[INFO -- 2018-12-05 15:35:20]
sending 5 signals using command: 'killall -2 smith_waterman' after 1.54457231472s
[INFO -- 2018-12-05 15:35:21]
sending 5 signals using command: 'killall -2 smith_waterman' after 2.90294769587s
[INFO -- 2018-12-05 15:35:22]
sending 5 signals using command: 'killall -2 smith_waterman' after 3.46461831225s
[INFO -- 2018-12-05 15:35:24]
Execution finished before waitTime
