[INFO -- 2018-09-27 06:39:27]
Starting GDB script
[INFO -- 2018-09-27 06:39:27]
initSignal:0.0
[INFO -- 2018-09-27 06:39:27]
endSignal:2.0
[INFO -- 2018-09-27 06:39:28]
sending 5 signals using command: 'killall -2 smith_waterman' after 0.45779708852s
[INFO -- 2018-09-27 06:39:28]
sending 5 signals using command: 'killall -2 smith_waterman' after 0.54624676659s
[INFO -- 2018-09-27 06:39:29]
sending 5 signals using command: 'killall -2 smith_waterman' after 1.44259012147s
[INFO -- 2018-09-27 06:39:32]
Execution finished before waitTime
