[INFO -- 2018-11-08 20:41:19]
Starting GDB script
[INFO -- 2018-11-08 20:41:19]
initSignal:0.0
[INFO -- 2018-11-08 20:41:19]
endSignal:6.0
[INFO -- 2018-11-08 20:41:22]
Execution finished before waitTime
