[INFO -- 2018-09-25 01:26:59]
Starting GDB script
[INFO -- 2018-09-25 01:26:59]
initSignal:0.0
[INFO -- 2018-09-25 01:26:59]
endSignal:2.0
[INFO -- 2018-09-25 01:26:59]
sending 5 signals using command: 'killall -2 smith_waterman' after 0.222307186487s
[INFO -- 2018-09-25 01:27:00]
sending 5 signals using command: 'killall -2 smith_waterman' after 0.827537912215s
[INFO -- 2018-09-25 01:27:01]
sending 5 signals using command: 'killall -2 smith_waterman' after 1.77408737164s
[INFO -- 2018-09-25 01:27:05]
Execution finished before waitTime
