[INFO -- 2018-12-09 07:50:58]
sending 5 signals using command: 'killall -2 smith_waterman' after 4.10064174069s
[INFO -- 2018-12-09 07:50:58]
Starting GDB script
[INFO -- 2018-12-09 07:50:58]
initSignal:0.0
[INFO -- 2018-12-09 07:50:58]
endSignal:6.0
[INFO -- 2018-12-09 07:50:58]
sending 5 signals using command: 'killall -2 smith_waterman' after 0.223114878741s
[INFO -- 2018-12-09 07:50:59]
sending 5 signals using command: 'killall -2 smith_waterman' after 0.844350948189s
[INFO -- 2018-12-09 07:51:02]
sending 5 signals using command: 'killall -2 smith_waterman' after 4.23593472559s
[INFO -- 2018-12-09 07:51:06]
Execution finished before waitTime
