[INFO -- 2018-12-04 00:12:12]
Starting GDB script
[INFO -- 2018-12-04 00:12:12]
initSignal:0.0
[INFO -- 2018-12-04 00:12:12]
endSignal:6.0
[INFO -- 2018-12-04 00:12:13]
sending 5 signals using command: 'killall -2 smith_waterman' after 0.950774706157s
[INFO -- 2018-12-04 00:12:18]
sending 5 signals using command: 'killall -2 smith_waterman' after 5.1700555202s
[INFO -- 2018-12-04 00:12:18]
sending 5 signals using command: 'killall -2 smith_waterman' after 5.8317278167s
[INFO -- 2018-12-04 00:12:32]
Execution did not finish before waitTime
