[INFO -- 2018-09-24 16:59:51]
sending 5 signals using command: 'killall -2 smith_waterman' after 1.25845259751s
[INFO -- 2018-09-24 16:59:51]
sending 5 signals using command: 'killall -2 smith_waterman' after 1.47848288562s
[INFO -- 2018-09-24 16:59:51]
Starting GDB script
[INFO -- 2018-09-24 16:59:51]
initSignal:0.0
[INFO -- 2018-09-24 16:59:51]
endSignal:2.0
[INFO -- 2018-09-24 16:59:51]
sending 5 signals using command: 'killall -2 smith_waterman' after 0.0890161521113s
[INFO -- 2018-09-24 16:59:52]
sending 5 signals using command: 'killall -2 smith_waterman' after 0.697743835787s
[INFO -- 2018-09-24 16:59:53]
sending 5 signals using command: 'killall -2 smith_waterman' after 1.71711195634s
[INFO -- 2018-09-24 16:59:57]
Execution finished before waitTime
