[INFO -- 2018-12-09 11:12:50]
Starting GDB script
[INFO -- 2018-12-09 11:12:50]
initSignal:0.0
[INFO -- 2018-12-09 11:12:50]
endSignal:6.0
[INFO -- 2018-12-09 11:12:53]
sending 5 signals using command: 'killall -2 smith_waterman' after 2.90631689162s
[INFO -- 2018-12-09 11:12:54]
sending 5 signals using command: 'killall -2 smith_waterman' after 4.06546509756s
[INFO -- 2018-12-09 11:12:55]
sending 5 signals using command: 'killall -2 smith_waterman' after 4.96139365734s
[INFO -- 2018-12-09 11:12:59]
Execution finished before waitTime
