[INFO -- 2018-11-08 19:31:36]
Starting flip_value script
version: 1.1
[INFO -- 2018-11-08 19:31:36]
Initialization strings:
[INFO -- 2018-11-08 19:31:36]
(1) file /tmp/smith_waterman/smith_waterman
[INFO -- 2018-11-08 19:31:36]
(2) set args -x /tmp/smith_waterman/randInputX -y /tmp/smith_waterman/randInputY -o /tmp/smith_waterman/output
[INFO -- 2018-11-08 19:31:36]
initSignal:0
[INFO -- 2018-11-08 19:31:36]
endSignal:6
[INFO -- 2018-11-08 19:31:36]
faultModel:2
[INFO -- 2018-11-08 19:31:38]
event type: exit
[INFO -- 2018-11-08 19:31:38]
exit code: 0
