[INFO -- 2018-09-26 15:49:20]
Starting GDB script
[INFO -- 2018-09-26 15:49:20]
initSignal:0.0
[INFO -- 2018-09-26 15:49:20]
endSignal:2.0
[INFO -- 2018-09-26 15:49:20]
sending 5 signals using command: 'killall -2 smith_waterman' after 0.276741826304s
[INFO -- 2018-09-26 15:49:20]
sending 5 signals using command: 'killall -2 smith_waterman' after 0.298567996296s
[INFO -- 2018-09-26 15:49:22]
sending 5 signals using command: 'killall -2 smith_waterman' after 1.40894822224s
[INFO -- 2018-09-26 15:49:26]
Execution finished before waitTime
