[INFO -- 2018-12-03 13:19:40]
Starting GDB script
[INFO -- 2018-12-03 13:19:40]
initSignal:0.0
[INFO -- 2018-12-03 13:19:40]
endSignal:6.0
[INFO -- 2018-12-03 13:19:41]
sending 5 signals using command: 'killall -2 smith_waterman' after 0.568985537083s
[INFO -- 2018-12-03 13:19:44]
Execution finished before waitTime
