[INFO -- 2018-12-08 00:03:20]
Starting GDB script
[INFO -- 2018-12-08 00:03:20]
initSignal:0.0
[INFO -- 2018-12-08 00:03:20]
endSignal:6.0
[INFO -- 2018-12-08 00:03:23]
sending 5 signals using command: 'killall -2 smith_waterman' after 2.54348522656s
[INFO -- 2018-12-08 00:03:24]
Execution finished before waitTime
