[INFO -- 2018-12-08 05:39:07]
sending 5 signals using command: 'killall -2 smith_waterman' after 4.43184973605s
[INFO -- 2018-12-08 05:39:07]
Starting GDB script
[INFO -- 2018-12-08 05:39:07]
initSignal:0.0
[INFO -- 2018-12-08 05:39:07]
endSignal:6.0
[INFO -- 2018-12-08 05:39:07]
sending 5 signals using command: 'killall -2 smith_waterman' after 0.541950179086s
[INFO -- 2018-12-08 05:39:08]
Execution finished before waitTime
