[INFO -- 2018-09-26 00:25:31]
Starting GDB script
[INFO -- 2018-09-26 00:25:31]
initSignal:0.0
[INFO -- 2018-09-26 00:25:31]
endSignal:2.0
[INFO -- 2018-09-26 00:25:31]
sending 5 signals using command: 'killall -2 smith_waterman' after 0.143493343206s
[INFO -- 2018-09-26 00:25:32]
sending 5 signals using command: 'killall -2 smith_waterman' after 0.831766096535s
[INFO -- 2018-09-26 00:25:33]
sending 5 signals using command: 'killall -2 smith_waterman' after 1.85447082785s
[INFO -- 2018-09-26 00:25:36]
Execution finished before waitTime
