[INFO -- 2018-12-03 10:54:30]
Starting GDB script
[INFO -- 2018-12-03 10:54:30]
initSignal:0.0
[INFO -- 2018-12-03 10:54:30]
endSignal:6.0
[INFO -- 2018-12-03 10:54:32]
sending 5 signals using command: 'killall -2 smith_waterman' after 1.8694075127s
[INFO -- 2018-12-03 10:54:34]
sending 5 signals using command: 'killall -2 smith_waterman' after 4.04990519729s
[INFO -- 2018-12-03 10:54:35]
sending 5 signals using command: 'killall -2 smith_waterman' after 4.82847146205s
[INFO -- 2018-12-03 10:54:35]
Execution finished before waitTime
