[INFO -- 2018-12-09 00:17:05]
sending 5 signals using command: 'killall -2 smith_waterman' after 4.09064533136s
[INFO -- 2018-12-09 00:17:06]
sending 5 signals using command: 'killall -2 smith_waterman' after 5.50070704195s
[INFO -- 2018-12-09 00:17:06]
Starting GDB script
[INFO -- 2018-12-09 00:17:06]
initSignal:0.0
[INFO -- 2018-12-09 00:17:06]
endSignal:6.0
[INFO -- 2018-12-09 00:17:07]
sending 5 signals using command: 'killall -2 smith_waterman' after 0.955294749559s
[INFO -- 2018-12-09 00:17:10]
sending 5 signals using command: 'killall -2 smith_waterman' after 3.08168674998s
[INFO -- 2018-12-09 00:17:10]
sending 5 signals using command: 'killall -2 smith_waterman' after 3.23744447806s
[INFO -- 2018-12-09 00:17:13]
Execution finished before waitTime
