[INFO -- 2018-12-08 00:49:00]
sending 5 signals using command: 'killall -2 smith_waterman' after 4.67546519235s
[INFO -- 2018-12-08 00:49:01]
sending 5 signals using command: 'killall -2 smith_waterman' after 5.03749444376s
[INFO -- 2018-12-08 00:49:01]
Starting GDB script
[INFO -- 2018-12-08 00:49:01]
initSignal:0.0
[INFO -- 2018-12-08 00:49:01]
endSignal:6.0
[INFO -- 2018-12-08 00:49:02]
sending 5 signals using command: 'killall -2 smith_waterman' after 1.17201651234s
[INFO -- 2018-12-08 00:49:06]
sending 5 signals using command: 'killall -2 smith_waterman' after 4.89809943843s
[INFO -- 2018-12-08 00:49:06]
sending 5 signals using command: 'killall -2 smith_waterman' after 5.6022648931s
[INFO -- 2018-12-08 00:49:08]
Execution finished before waitTime
