[INFO -- 2018-12-05 13:17:30]
sending 5 signals using command: 'killall -2 smith_waterman' after 5.96557046423s
[INFO -- 2018-12-05 13:17:30]
Starting GDB script
[INFO -- 2018-12-05 13:17:30]
initSignal:0.0
[INFO -- 2018-12-05 13:17:30]
endSignal:6.0
[INFO -- 2018-12-05 13:17:30]
sending 5 signals using command: 'killall -2 smith_waterman' after 0.548672433342s
[INFO -- 2018-12-05 13:17:31]
Execution finished before waitTime
