[INFO -- 2018-09-28 06:46:08]
Starting GDB script
[INFO -- 2018-09-28 06:46:08]
initSignal:0.0
[INFO -- 2018-09-28 06:46:08]
endSignal:2.0
[INFO -- 2018-09-28 06:46:09]
sending 5 signals using command: 'killall -2 smith_waterman' after 0.67049615217s
[INFO -- 2018-09-28 06:46:10]
sending 5 signals using command: 'killall -2 smith_waterman' after 1.79194214968s
[INFO -- 2018-09-28 06:46:10]
sending 5 signals using command: 'killall -2 smith_waterman' after 1.99897361914s
[INFO -- 2018-09-28 06:46:15]
Execution finished before waitTime
