[INFO -- 2018-12-04 00:09:55]
Starting GDB script
[INFO -- 2018-12-04 00:09:55]
initSignal:0.0
[INFO -- 2018-12-04 00:09:55]
endSignal:6.0
[INFO -- 2018-12-04 00:09:56]
sending 5 signals using command: 'killall -2 smith_waterman' after 0.942619108084s
[INFO -- 2018-12-04 00:09:57]
sending 5 signals using command: 'killall -2 smith_waterman' after 2.34026779827s
[INFO -- 2018-12-04 00:09:59]
sending 5 signals using command: 'killall -2 smith_waterman' after 3.7628897461s
[INFO -- 2018-12-04 00:10:02]
Execution finished before waitTime
