[INFO -- 2018-12-08 06:23:02]
Starting GDB script
[INFO -- 2018-12-08 06:23:02]
initSignal:0.0
[INFO -- 2018-12-08 06:23:02]
endSignal:6.0
[INFO -- 2018-12-08 06:23:03]
sending 5 signals using command: 'killall -2 smith_waterman' after 1.05103459846s
[INFO -- 2018-12-08 06:23:04]
Execution finished before waitTime
