[INFO -- 2018-12-04 06:52:49]
Starting GDB script
[INFO -- 2018-12-04 06:52:49]
initSignal:0.0
[INFO -- 2018-12-04 06:52:49]
endSignal:6.0
[INFO -- 2018-12-04 06:52:49]
sending 5 signals using command: 'killall -2 smith_waterman' after 0.351292239694s
[INFO -- 2018-12-04 06:52:53]
sending 5 signals using command: 'killall -2 smith_waterman' after 3.66970328268s
[INFO -- 2018-12-04 06:52:54]
sending 5 signals using command: 'killall -2 smith_waterman' after 4.82442834768s
[INFO -- 2018-12-04 06:53:09]
Execution did not finish before waitTime
