[INFO -- 2018-09-26 00:55:05]
Starting GDB script
[INFO -- 2018-09-26 00:55:05]
initSignal:0.0
[INFO -- 2018-09-26 00:55:05]
endSignal:2.0
[INFO -- 2018-09-26 00:55:06]
sending 5 signals using command: 'killall -2 smith_waterman' after 0.56786311986s
[INFO -- 2018-09-26 00:55:06]
sending 5 signals using command: 'killall -2 smith_waterman' after 1.1480875814s
[INFO -- 2018-09-26 00:55:07]
sending 5 signals using command: 'killall -2 smith_waterman' after 1.88652086541s
[INFO -- 2018-09-26 00:55:25]
Execution did not finish before waitTime
