[INFO -- 2018-12-03 10:23:04]
sending 5 signals using command: 'killall -2 smith_waterman' after 5.38613411734s
[INFO -- 2018-12-03 10:23:04]
Starting GDB script
[INFO -- 2018-12-03 10:23:04]
initSignal:0.0
[INFO -- 2018-12-03 10:23:04]
endSignal:6.0
[INFO -- 2018-12-03 10:23:06]
sending 5 signals using command: 'killall -2 smith_waterman' after 2.24232290446s
[INFO -- 2018-12-03 10:23:07]
sending 5 signals using command: 'killall -2 smith_waterman' after 3.49225607027s
[INFO -- 2018-12-03 10:23:09]
Execution finished before waitTime
