[INFO -- 2018-09-26 10:52:42]
Starting flip_value script
version: 1.1
[INFO -- 2018-09-26 10:52:42]
Initialization strings:
[INFO -- 2018-09-26 10:52:42]
(1) file /tmp/smith_waterman/smith_waterman
[INFO -- 2018-09-26 10:52:42]
(2) set args -x /tmp/smith_waterman/randInputX -y /tmp/smith_waterman/randInputY -o /tmp/smith_waterman/output
[INFO -- 2018-09-26 10:52:42]
initSignal:0
[INFO -- 2018-09-26 10:52:42]
endSignal:2
[INFO -- 2018-09-26 10:52:42]
faultModel:0
[EXCEPTION -- 2018-09-26 10:52:43]
pythonException: invalid literal for int() with base 16: '0x55555575c170 ...'
[INFO -- 2018-09-26 10:52:43]
Backtrace BEGIN:
#0  0x0000555555555028 in smith_waterman (x_num=15000, y_num=15000, str_x=0x5555557586c0 "AJXAZCCVDGGUHHUCCUFADTGLLIZZETGGSSJBBLUOAAAAJVVNYOOEXWLEELIIYDQVVZUKKOOQQYBACYCCCDIZBMMFXXPYGGAAQAQQOQQOOBSPPVVRWDTSFFTTEVHHBRJIKJRAARQOIUAALCRJHKHCQXXKKQFNIOSSAWLAPDOXXXXKZRUDDDLQQSCAAXPKMNELLOOAVZZU"..., str_y=0x55555575c170 "AJXAZJCVKDGUMHUUCUFADTGALIFZEMTGXSJXBLUNOAKAJEVNYCOEXWELELKIYDQVVZUYKOOYQYBACYPCCDIZBPMFAXPYCGWAFQAQHOQZORBSPRVRWDTYSFFTEVTHBRJIKJARARQOIUHALCRJHKHCQNXWKQFNIOVSAWLAPDOXXXXKZRUJDDLVQISCAXPKMNEMLROAVCZU"..., fo=0x555555758260) at smith_waterman.c:98
#1  0x0000555555555e38 in main (argc=7, argv=0x7fffffffdcb8) at smith_waterman.c:298

93	    double max_score=0.0;
94	    for(i=1; i<x_num+1; i++){
95	        for(j=1; j<y_num+1; j++){
96	            if(str_x[i-1]==str_y[j-1]){diff=match_score;}
97	            else{diff=mismatch_score;}
98	            matrix[i][j]=my_maxof(matrix[i-1][j-1]+diff, matrix[i-1][j]+gap_score, matrix[i][j-1]+gap_score,0);
99	            if(matrix[i][j]>max_score)
100	                max_score=matrix[i][j];
101	        }
102	    }

Backtrace END
Fliping a bit of the value pointed by a pointer
Fliping value of field: _unused2
Fliping array at pos: 3
Memory content before bitflip:0x00
Fault Model: Single bit-flip
base address to flip value: 0x555555758327 
address max offset: 1
Memory content after  bitflip:0x40
frame name: main
symbol name: fo
symbol filename: smith_waterman.c
symbol line: 278
value: 0x555555758260
value address: 0x7fffffffdbb8
Type: The type is a pointer.
Type sizeof: 8

[INFO -- 2018-09-26 10:52:43]
Fault Injection Successful after 1.117175817489624s
[INFO -- 2018-09-26 10:52:48]
event type: exit
[INFO -- 2018-09-26 10:52:48]
exit code: 0
