[INFO -- 2018-09-26 08:03:57]
Starting GDB script
[INFO -- 2018-09-26 08:03:57]
initSignal:0.0
[INFO -- 2018-09-26 08:03:57]
endSignal:2.0
[INFO -- 2018-09-26 08:03:58]
sending 5 signals using command: 'killall -2 smith_waterman' after 1.29534679123s
[INFO -- 2018-09-26 08:03:59]
sending 5 signals using command: 'killall -2 smith_waterman' after 1.80420744214s
[INFO -- 2018-09-26 08:03:59]
sending 5 signals using command: 'killall -2 smith_waterman' after 1.91084294518s
[INFO -- 2018-09-26 08:04:04]
Execution finished before waitTime
