[INFO -- 2018-12-08 04:07:04]
Starting GDB script
[INFO -- 2018-12-08 04:07:04]
initSignal:0.0
[INFO -- 2018-12-08 04:07:04]
endSignal:6.0
[INFO -- 2018-12-08 04:07:06]
sending 5 signals using command: 'killall -2 smith_waterman' after 1.73041745853s
[INFO -- 2018-12-08 04:07:09]
sending 5 signals using command: 'killall -2 smith_waterman' after 5.01854506069s
[INFO -- 2018-12-08 04:07:09]
sending 5 signals using command: 'killall -2 smith_waterman' after 5.1772960861s
[INFO -- 2018-12-08 04:07:11]
Execution finished before waitTime
