[INFO -- 2018-12-03 13:31:56]
Starting GDB script
[INFO -- 2018-12-03 13:31:56]
initSignal:0.0
[INFO -- 2018-12-03 13:31:56]
endSignal:6.0
[INFO -- 2018-12-03 13:31:58]
sending 5 signals using command: 'killall -2 smith_waterman' after 2.10531960704s
[INFO -- 2018-12-03 13:31:58]
sending 5 signals using command: 'killall -2 smith_waterman' after 2.38891066444s
[INFO -- 2018-12-03 13:31:58]
sending 5 signals using command: 'killall -2 smith_waterman' after 2.66853067077s
[INFO -- 2018-12-03 13:32:16]
Execution did not finish before waitTime
