[INFO -- 2018-09-27 11:09:39]
Starting GDB script
[INFO -- 2018-09-27 11:09:39]
initSignal:0.0
[INFO -- 2018-09-27 11:09:39]
endSignal:2.0
[INFO -- 2018-09-27 11:09:39]
sending 5 signals using command: 'killall -2 smith_waterman' after 0.60232046239s
[INFO -- 2018-09-27 11:09:40]
sending 5 signals using command: 'killall -2 smith_waterman' after 1.19997951276s
[INFO -- 2018-09-27 11:09:40]
sending 5 signals using command: 'killall -2 smith_waterman' after 1.52602864077s
[INFO -- 2018-09-27 11:09:59]
Execution did not finish before waitTime
