[INFO -- 2018-12-03 12:08:53]
Starting GDB script
[INFO -- 2018-12-03 12:08:53]
initSignal:0.0
[INFO -- 2018-12-03 12:08:53]
endSignal:6.0
[INFO -- 2018-12-03 12:08:54]
sending 5 signals using command: 'killall -2 smith_waterman' after 1.51311355675s
[INFO -- 2018-12-03 12:08:57]
sending 5 signals using command: 'killall -2 smith_waterman' after 3.55919125738s
[INFO -- 2018-12-03 12:08:58]
sending 5 signals using command: 'killall -2 smith_waterman' after 5.37132096455s
[INFO -- 2018-12-03 12:08:59]
Execution finished before waitTime
