[INFO -- 2018-09-26 08:02:39]
Starting GDB script
[INFO -- 2018-09-26 08:02:39]
initSignal:0.0
[INFO -- 2018-09-26 08:02:39]
endSignal:2.0
[INFO -- 2018-09-26 08:02:39]
sending 5 signals using command: 'killall -2 smith_waterman' after 0.468726267234s
[INFO -- 2018-09-26 08:02:40]
sending 5 signals using command: 'killall -2 smith_waterman' after 1.13133738889s
[INFO -- 2018-09-26 08:02:40]
sending 5 signals using command: 'killall -2 smith_waterman' after 1.19425754403s
[INFO -- 2018-09-26 08:02:46]
Execution finished before waitTime
