[INFO -- 2018-09-26 08:12:27]
Starting GDB script
[INFO -- 2018-09-26 08:12:27]
initSignal:0.0
[INFO -- 2018-09-26 08:12:27]
endSignal:2.0
[INFO -- 2018-09-26 08:12:29]
sending 5 signals using command: 'killall -2 smith_waterman' after 1.09787509418s
[INFO -- 2018-09-26 08:12:29]
sending 5 signals using command: 'killall -2 smith_waterman' after 1.27240277047s
[INFO -- 2018-09-26 08:12:29]
sending 5 signals using command: 'killall -2 smith_waterman' after 1.5256064569s
[INFO -- 2018-09-26 08:12:35]
Execution finished before waitTime
