[INFO -- 2018-09-27 12:56:16]
Starting flip_value script
version: 1.1
[INFO -- 2018-09-27 12:56:16]
Initialization strings:
[INFO -- 2018-09-27 12:56:16]
(1) file /tmp/smith_waterman/smith_waterman
[INFO -- 2018-09-27 12:56:16]
(2) set args -x /tmp/smith_waterman/randInputX -y /tmp/smith_waterman/randInputY -o /tmp/smith_waterman/output
[INFO -- 2018-09-27 12:56:16]
initSignal:0
[INFO -- 2018-09-27 12:56:16]
endSignal:2
[INFO -- 2018-09-27 12:56:16]
faultModel:0
[INFO -- 2018-09-27 12:56:16]
Backtrace BEGIN:
#0  0x0000555555554d71 in my_maxof (a=-1, b=-2, c=-2, d=0) at smith_waterman.c:65
#1  0x00005555555550d7 in smith_waterman (x_num=13950, y_num=15000, str_x=0x5555557586c0 "HIISTTJXWVVITTIDMHHGHHGGJBBBOLWTTGJNTTHHRJZZXCRRKUUSUZZRASSSQJIIUUXNNKIEZZGZZKSJOOSSHDJJFEDUODDJJAUYMCFGLLGXXMMPPQQTTZIADLVAAVLCCQJPSOUUBFZZKKWVARRWMZWNNTTTPPYFHHPXYMUZRRADDXUELAAZYTTAMMPNBPIIXAIOOCYV"..., str_y=0x55555575bd50 "BHIQSTJXFWVIITIDMLHDGHWGUJBBOLWRTGJNATMHRJPZDXCRKLUSURZRCASSNQJIXUXZNKIETZGYZKSJYOCSHDJJFEDUUODTJAUYMCFGCLGBXYMVPQQWTZIADLVAAAVLCQJPSOXUBFXZGKWVAMRWMZWRNTTNTPYYFHPXYMUZTRAZDXUELMAZNYTASMPNBPLIXAIXOCYI"..., fo=0x555555758260) at smith_waterman.c:98
#2  0x0000555555555e38 in main (argc=7, argv=0x7fffffffdcb8) at smith_waterman.c:298

60	}
61	
62	double my_maxof(double a, double b, double c, double d)
63	{
64	    double ans=a;
65	    if(ans<b) ans=b;
66	    if(ans<c) ans=c;
67	    if(ans<d) ans=d;
68	    return ans;
69	}

Backtrace END
Fliping a bit of the value pointed by a pointer
Memory content before bitflip:0x48
Fault Model: Single bit-flip
base address to flip value: 0x7ffff7a71510  
address max offset: 1
Memory content after  bitflip:0x49
frame name: smith_waterman
symbol name: alignmentB
symbol filename: smith_waterman.c
symbol line: 133
value: 0x7ffff7a71510 <flush_cleanup> "I\213\005y\003\066"
value address: 0x7fffffffdad0
Type: The type is a pointer.
Type sizeof: 8

[INFO -- 2018-09-27 12:56:16]
Fault Injection Successful after 0.6780498027801514s
[INFO -- 2018-09-27 12:56:21]
event type: exit
[INFO -- 2018-09-27 12:56:21]
exit code: 0
