[INFO -- 2018-12-05 11:12:54]
Starting GDB script
[INFO -- 2018-12-05 11:12:54]
initSignal:0.0
[INFO -- 2018-12-05 11:12:54]
endSignal:6.0
[INFO -- 2018-12-05 11:12:55]
sending 5 signals using command: 'killall -2 smith_waterman' after 0.728865882875s
[INFO -- 2018-12-05 11:12:59]
sending 5 signals using command: 'killall -2 smith_waterman' after 5.22706181659s
[INFO -- 2018-12-05 11:13:00]
sending 5 signals using command: 'killall -2 smith_waterman' after 5.34250343604s
[INFO -- 2018-12-05 11:13:01]
Execution finished before waitTime
