[INFO -- 2018-12-08 19:51:24]
Starting GDB script
[INFO -- 2018-12-08 19:51:24]
initSignal:0.0
[INFO -- 2018-12-08 19:51:24]
endSignal:6.0
[INFO -- 2018-12-08 19:51:25]
sending 5 signals using command: 'killall -2 smith_waterman' after 0.629359977639s
[INFO -- 2018-12-08 19:51:25]
sending 5 signals using command: 'killall -2 smith_waterman' after 0.866576198265s
[INFO -- 2018-12-08 19:51:30]
sending 5 signals using command: 'killall -2 smith_waterman' after 5.91954351538s
[INFO -- 2018-12-08 19:51:30]
Execution finished before waitTime
