[INFO -- 2018-12-04 15:22:40]
Starting GDB script
[INFO -- 2018-12-04 15:22:40]
initSignal:0.0
[INFO -- 2018-12-04 15:22:40]
endSignal:6.0
[INFO -- 2018-12-04 15:22:41]
sending 5 signals using command: 'killall -2 smith_waterman' after 1.25204894481s
[INFO -- 2018-12-04 15:22:41]
sending 5 signals using command: 'killall -2 smith_waterman' after 1.62133387206s
[INFO -- 2018-12-04 15:22:43]
sending 5 signals using command: 'killall -2 smith_waterman' after 2.92955645162s
[INFO -- 2018-12-04 15:22:46]
Execution finished before waitTime
