[INFO -- 2018-09-25 17:06:12]
sending 5 signals using command: 'killall -2 smith_waterman' after 1.70174370166s
[INFO -- 2018-09-25 17:06:12]
Starting GDB script
[INFO -- 2018-09-25 17:06:12]
initSignal:0.0
[INFO -- 2018-09-25 17:06:12]
endSignal:2.0
[INFO -- 2018-09-25 17:06:12]
sending 5 signals using command: 'killall -2 smith_waterman' after 0.29941835794s
[INFO -- 2018-09-25 17:06:13]
sending 5 signals using command: 'killall -2 smith_waterman' after 1.21230560952s
[INFO -- 2018-09-25 17:06:13]
sending 5 signals using command: 'killall -2 smith_waterman' after 1.37874098311s
[INFO -- 2018-09-25 17:06:17]
Execution finished before waitTime
