[INFO -- 2018-09-23 22:19:23]
Starting GDB script
[INFO -- 2018-09-23 22:19:23]
initSignal:0.0
[INFO -- 2018-09-23 22:19:23]
endSignal:2.0
[INFO -- 2018-09-23 22:19:23]
sending 5 signals using command: 'killall -2 smith_waterman' after 0.185806152657s
[INFO -- 2018-09-23 22:19:25]
sending 5 signals using command: 'killall -2 smith_waterman' after 1.55182728226s
[INFO -- 2018-09-23 22:19:25]
sending 5 signals using command: 'killall -2 smith_waterman' after 1.87175436969s
[INFO -- 2018-09-23 22:19:30]
Execution finished before waitTime
