[INFO -- 2018-11-08 21:45:16]
Starting GDB script
[INFO -- 2018-11-08 21:45:16]
initSignal:0.0
[INFO -- 2018-11-08 21:45:16]
endSignal:6.0
[INFO -- 2018-11-08 21:45:17]
sending 5 signals using command: 'killall -2 smith_waterman' after 1.20455767573s
[INFO -- 2018-11-08 21:45:18]
sending 5 signals using command: 'killall -2 smith_waterman' after 2.10261875879s
[INFO -- 2018-11-08 21:45:21]
sending 5 signals using command: 'killall -2 smith_waterman' after 4.57284045864s
[INFO -- 2018-11-08 21:45:36]
Execution did not finish before waitTime
