[INFO -- 2018-12-09 07:51:13]
sending 5 signals using command: 'killall -2 smith_waterman' after 2.15254535328s
[INFO -- 2018-12-09 07:51:14]
sending 5 signals using command: 'killall -2 smith_waterman' after 3.12629908656s
[INFO -- 2018-12-09 07:51:14]
Starting GDB script
[INFO -- 2018-12-09 07:51:14]
initSignal:0.0
[INFO -- 2018-12-09 07:51:14]
endSignal:6.0
[INFO -- 2018-12-09 07:51:15]
sending 5 signals using command: 'killall -2 smith_waterman' after 1.07850244302s
[INFO -- 2018-12-09 07:51:16]
Execution finished before waitTime
