[INFO -- 2018-09-24 01:14:14]
Starting GDB script
[INFO -- 2018-09-24 01:14:14]
initSignal:0.0
[INFO -- 2018-09-24 01:14:14]
endSignal:2.0
[INFO -- 2018-09-24 01:14:15]
sending 5 signals using command: 'killall -2 smith_waterman' after 1.09885144844s
[INFO -- 2018-09-24 01:14:15]
sending 5 signals using command: 'killall -2 smith_waterman' after 1.10609628613s
[INFO -- 2018-09-24 01:14:15]
sending 5 signals using command: 'killall -2 smith_waterman' after 1.52878786871s
[INFO -- 2018-09-24 01:14:34]
Execution did not finish before waitTime
