[INFO -- 2018-12-04 10:16:08]
Starting GDB script
[INFO -- 2018-12-04 10:16:08]
initSignal:0.0
[INFO -- 2018-12-04 10:16:08]
endSignal:6.0
[INFO -- 2018-12-04 10:16:09]
sending 5 signals using command: 'killall -2 smith_waterman' after 0.437471621133s
[INFO -- 2018-12-04 10:16:10]
sending 5 signals using command: 'killall -2 smith_waterman' after 1.06188312949s
[INFO -- 2018-12-04 10:16:13]
sending 5 signals using command: 'killall -2 smith_waterman' after 4.88642731355s
[INFO -- 2018-12-04 10:16:14]
Execution finished before waitTime
