[INFO -- 2018-12-05 03:43:38]
Starting GDB script
[INFO -- 2018-12-05 03:43:38]
initSignal:0.0
[INFO -- 2018-12-05 03:43:38]
endSignal:6.0
[INFO -- 2018-12-05 03:43:39]
sending 5 signals using command: 'killall -2 smith_waterman' after 0.606699997231s
[INFO -- 2018-12-05 03:43:41]
sending 5 signals using command: 'killall -2 smith_waterman' after 2.9308649309s
[INFO -- 2018-12-05 03:43:42]
sending 5 signals using command: 'killall -2 smith_waterman' after 3.95231483098s
[INFO -- 2018-12-05 03:43:45]
Execution finished before waitTime
