[INFO -- 2018-11-09 01:47:37]
Starting flip_value script
version: 1.1
[INFO -- 2018-11-09 01:47:37]
Initialization strings:
[INFO -- 2018-11-09 01:47:37]
(1) file /tmp/smith_waterman/smith_waterman
[INFO -- 2018-11-09 01:47:37]
(2) set args -x /tmp/smith_waterman/randInputX -y /tmp/smith_waterman/randInputY -o /tmp/smith_waterman/output
[INFO -- 2018-11-09 01:47:37]
initSignal:0
[INFO -- 2018-11-09 01:47:37]
endSignal:6
[INFO -- 2018-11-09 01:47:37]
faultModel:1
[INFO -- 2018-11-09 01:47:39]
Backtrace BEGIN:
#0  my_maxof (a=0, b=-2, c=-2, d=0) at smith_waterman.c:68
#1  0x00005555555550d7 in smith_waterman (x_num=15000, y_num=12750, str_x=0x5555557586c0 "WVTXFRRWGXRZNVVXIQQUGRNTPUUJPRNLNJKUABQIYIJLDELLXDHDUUYJQSSFMHQBSAVTDMDDWNRBREOOHVSBRSKHLEMZNEAGGVBLJEOHRFILJWBSTVTMOFVBLJCBPCHXZKILOZSIEDVQBYKXWEJKLHNZQPAGTJDSTODJNYTTDQLEPWBLCNXNUMOMBOSUXYOQMUCBUVUX"..., str_y=0x55555575c170 "VVTXRRRGGXZNVVXXQQQURNTTUUJPRRLNNJUAABIYIJLLDLLLXHHDUYJQSSSMMHQSAVTDDDDDWRBREEOOVVBRSKKLEMMZNEAGVVBLEEOHRIILJBSTTTMOFFVLLCBPCHXXZIIOOSSEDVVBBKKWWEKLHHZZQAGTJJDTTOJNNYTTDLEPWWBCNNXUUOMBOOUXYOQQMUBUVUXM"..., fo=0x555555758260) at smith_waterman.c:98
#2  0x0000555555555e38 in main (argc=7, argv=0x7fffffffde98) at smith_waterman.c:298

63	{
64	    double ans=a;
65	    if(ans<b) ans=b;
66	    if(ans<c) ans=c;
67	    if(ans<d) ans=d;
68	    return ans;
69	}
70	
71	double matchMisScore(long i, long j, char* str_y, char* str_x)
72	{

Backtrace END
Memory content before bitflip:0x000x000x000x000x000x000xf00x3f
Fault Model: Double bit-flip
base address to flip value: 0x555555757010 
address max offset: 8
Memory content after  bitflip:0x000x000x880x000x000x000xf00x3f
frame name: my_maxof
symbol name: match_score
symbol filename: smith_waterman.c
symbol line: 7
value: 1.0000000019790605
value address: 0x555555757010 <match_score>
Type: A floating point type.
Type sizeof: 8

[INFO -- 2018-11-09 01:47:39]
Fault Injection Successful after 2.7634198665618896s
