[INFO -- 2018-12-03 18:15:24]
Starting GDB script
[INFO -- 2018-12-03 18:15:24]
initSignal:0.0
[INFO -- 2018-12-03 18:15:24]
endSignal:6.0
[INFO -- 2018-12-03 18:15:26]
sending 5 signals using command: 'killall -2 smith_waterman' after 2.14226848395s
[INFO -- 2018-12-03 18:15:28]
sending 5 signals using command: 'killall -2 smith_waterman' after 3.62912129568s
[INFO -- 2018-12-03 18:15:28]
sending 5 signals using command: 'killall -2 smith_waterman' after 3.80117865552s
[INFO -- 2018-12-03 18:15:29]
Execution finished before waitTime
