[INFO -- 2018-12-08 22:21:28]
Starting GDB script
[INFO -- 2018-12-08 22:21:28]
initSignal:0.0
[INFO -- 2018-12-08 22:21:28]
endSignal:6.0
[INFO -- 2018-12-08 22:21:30]
sending 5 signals using command: 'killall -2 smith_waterman' after 1.20586851083s
[INFO -- 2018-12-08 22:21:30]
Execution finished before waitTime
