[INFO -- 2018-09-27 16:28:32]
Starting GDB script
[INFO -- 2018-09-27 16:28:32]
initSignal:0.0
[INFO -- 2018-09-27 16:28:32]
endSignal:2.0
[INFO -- 2018-09-27 16:28:33]
sending 5 signals using command: 'killall -2 smith_waterman' after 0.956420257105s
[INFO -- 2018-09-27 16:28:33]
sending 5 signals using command: 'killall -2 smith_waterman' after 1.01836092587s
[INFO -- 2018-09-27 16:28:34]
sending 5 signals using command: 'killall -2 smith_waterman' after 1.74700076286s
[INFO -- 2018-09-27 16:28:38]
Execution finished before waitTime
