[INFO -- 2018-09-28 05:38:24]
Starting GDB script
[INFO -- 2018-09-28 05:38:24]
initSignal:0.0
[INFO -- 2018-09-28 05:38:24]
endSignal:2.0
[INFO -- 2018-09-28 05:38:24]
sending 5 signals using command: 'killall -2 smith_waterman' after 0.21472245148s
[INFO -- 2018-09-28 05:38:24]
sending 5 signals using command: 'killall -2 smith_waterman' after 0.88272686801s
[INFO -- 2018-09-28 05:38:25]
sending 5 signals using command: 'killall -2 smith_waterman' after 1.49024426559s
[INFO -- 2018-09-28 05:38:31]
Execution finished before waitTime
