[INFO -- 2018-09-25 17:50:35]
Starting GDB script
[INFO -- 2018-09-25 17:50:35]
initSignal:0.0
[INFO -- 2018-09-25 17:50:35]
endSignal:2.0
[INFO -- 2018-09-25 17:50:35]
sending 5 signals using command: 'killall -2 smith_waterman' after 0.171109285731s
[INFO -- 2018-09-25 17:50:36]
sending 5 signals using command: 'killall -2 smith_waterman' after 0.860198892399s
[INFO -- 2018-09-25 17:50:37]
sending 5 signals using command: 'killall -2 smith_waterman' after 1.92837534299s
[INFO -- 2018-09-25 17:50:40]
Execution finished before waitTime
