[INFO -- 2018-12-04 09:22:13]
Starting GDB script
[INFO -- 2018-12-04 09:22:13]
initSignal:0.0
[INFO -- 2018-12-04 09:22:13]
endSignal:6.0
[INFO -- 2018-12-04 09:22:14]
sending 5 signals using command: 'killall -2 smith_waterman' after 0.983979919831s
[INFO -- 2018-12-04 09:22:15]
sending 5 signals using command: 'killall -2 smith_waterman' after 1.75130714109s
[INFO -- 2018-12-04 09:22:17]
sending 5 signals using command: 'killall -2 smith_waterman' after 3.58958287005s
[INFO -- 2018-12-04 09:22:19]
Execution finished before waitTime
