[INFO -- 2018-09-27 13:44:21]
Starting GDB script
[INFO -- 2018-09-27 13:44:21]
initSignal:0.0
[INFO -- 2018-09-27 13:44:21]
endSignal:2.0
[INFO -- 2018-09-27 13:44:21]
sending 5 signals using command: 'killall -2 smith_waterman' after 0.489216791982s
[INFO -- 2018-09-27 13:44:22]
sending 5 signals using command: 'killall -2 smith_waterman' after 1.26509143387s
[INFO -- 2018-09-27 13:44:22]
sending 5 signals using command: 'killall -2 smith_waterman' after 1.64911162129s
[INFO -- 2018-09-27 13:44:28]
Execution finished before waitTime
