[INFO -- 2018-12-09 12:07:38]
Starting GDB script
[INFO -- 2018-12-09 12:07:38]
initSignal:0.0
[INFO -- 2018-12-09 12:07:38]
endSignal:6.0
[INFO -- 2018-12-09 12:07:40]
sending 5 signals using command: 'killall -2 smith_waterman' after 2.20093670323s
[INFO -- 2018-12-09 12:07:41]
sending 5 signals using command: 'killall -2 smith_waterman' after 3.24187080258s
[INFO -- 2018-12-09 12:07:41]
sending 5 signals using command: 'killall -2 smith_waterman' after 3.28132005084s
[INFO -- 2018-12-09 12:07:46]
Execution finished before waitTime
