[INFO -- 2018-11-07 19:36:18]
Starting flip_value script
version: 1.1
[INFO -- 2018-11-07 19:36:18]
Initialization strings:
[INFO -- 2018-11-07 19:36:18]
(1) file /tmp/smith_waterman/smith_waterman
[INFO -- 2018-11-07 19:36:18]
(2) set args -x /tmp/smith_waterman/randInputX -y /tmp/smith_waterman/randInputY -o /tmp/smith_waterman/output
[INFO -- 2018-11-07 19:36:18]
initSignal:0
[INFO -- 2018-11-07 19:36:18]
endSignal:6
[INFO -- 2018-11-07 19:36:18]
faultModel:1
[INFO -- 2018-11-07 19:36:19]
Backtrace BEGIN:
#0  0x000055555555514f in smith_waterman (x_num=15000, y_num=11850, str_x=0x5555557586c0 "PKLJBHSVULYYMKNUVDPIFYEJJLONUNCLZNUCWPXTCXTOHHIFMAPRYTCHHQWDFARGPNJOCIHEGAUPHFUUFJNFFQOOIMTOMKUDYFRCOYJWZDLIIGEPRUWYKMMUYGKMSFQSMJVAKEWLJKTUQAJJUIIGUUATCLHXSXPEJKHTQFEAPZUHZFRVNZBIVEDARKXLKMPVZYORGUTX"..., str_y=0x55555575c170 "PLJBHHSULYYMKKUUDPIFYYEJJOONUNCLNUCWWPXTCTTHHIIMAPRYTTHHQQDFFARPNNJCIHHGGAPHFFUFJNFFQOOOIMOMMUUYFRRCYYJZDLLIGEPRRWWYMMUYGKKSFQQMJJVKEELJJTUUQJJUIIIGUUACLHXXXPEJKKHTFEAPPUHZFRVNZZIIVDARKXXKMMPZYOOGUUTT"..., fo=0x555555758260) at smith_waterman.c:95
#1  0x0000555555555e38 in main (argc=7, argv=0x7fffffffde48) at smith_waterman.c:298

90	    for(i=0; i<y_num+1; i++){matrix[0][i]=0.0;}
91	
92	    double diff=0.0;
93	    double max_score=0.0;
94	    for(i=1; i<x_num+1; i++){
95	        for(j=1; j<y_num+1; j++){
96	            if(str_x[i-1]==str_y[j-1]){diff=match_score;}
97	            else{diff=mismatch_score;}
98	            matrix[i][j]=my_maxof(matrix[i-1][j-1]+diff, matrix[i-1][j]+gap_score, matrix[i][j-1]+gap_score,0);
99	            if(matrix[i][j]>max_score)

Backtrace END
Memory content before bitflip:0x980x3a0x000x000x000x000x000x00
Fault Model: Double bit-flip
base address to flip value: 0x7fffffffdd08
address max offset: 8
Memory content after  bitflip:0x980x3a0x000x000xa00x000x000x00
frame name: main
symbol name: x_num
symbol filename: smith_waterman.c
symbol line: 281
value: 687194782360
value address: 0x7fffffffdd08
Type: The type is an integer type.
Type sizeof: 8

[INFO -- 2018-11-07 19:36:19]
Fault Injection Successful after 1.0796563625335693s
[INFO -- 2018-11-07 19:36:21]
event type: exit
[INFO -- 2018-11-07 19:36:21]
exit code: 0
