[INFO -- 2018-12-08 01:02:54]
Starting GDB script
[INFO -- 2018-12-08 01:02:54]
initSignal:0.0
[INFO -- 2018-12-08 01:02:54]
endSignal:6.0
[INFO -- 2018-12-08 01:02:57]
sending 5 signals using command: 'killall -2 smith_waterman' after 2.46469162742s
[INFO -- 2018-12-08 01:02:57]
sending 5 signals using command: 'killall -2 smith_waterman' after 2.90781926421s
[INFO -- 2018-12-08 01:02:59]
sending 5 signals using command: 'killall -2 smith_waterman' after 4.27101873658s
[INFO -- 2018-12-08 01:03:01]
Execution finished before waitTime
