[INFO -- 2018-12-04 14:30:25]
Starting GDB script
[INFO -- 2018-12-04 14:30:25]
initSignal:0.0
[INFO -- 2018-12-04 14:30:25]
endSignal:6.0
[INFO -- 2018-12-04 14:30:25]
sending 5 signals using command: 'killall -2 smith_waterman' after 0.194010745271s
[INFO -- 2018-12-04 14:30:28]
Execution finished before waitTime
