[INFO -- 2018-09-23 15:34:53]
Starting GDB script
[INFO -- 2018-09-23 15:34:53]
initSignal:0.0
[INFO -- 2018-09-23 15:34:53]
endSignal:2.0
[INFO -- 2018-09-23 15:34:54]
sending 5 signals using command: 'killall -2 smith_waterman' after 0.455101226384s
[INFO -- 2018-09-23 15:34:54]
sending 5 signals using command: 'killall -2 smith_waterman' after 0.953764579279s
[INFO -- 2018-09-23 15:34:55]
sending 5 signals using command: 'killall -2 smith_waterman' after 1.95945833573s
[INFO -- 2018-09-23 15:34:58]
Execution finished before waitTime
