[INFO -- 2018-12-08 15:11:16]
sending 5 signals using command: 'killall -2 smith_waterman' after 1.15192207799s
[INFO -- 2018-12-08 15:11:17]
sending 5 signals using command: 'killall -2 smith_waterman' after 1.47833463169s
[INFO -- 2018-12-08 15:11:17]
Starting GDB script
[INFO -- 2018-12-08 15:11:17]
initSignal:0.0
[INFO -- 2018-12-08 15:11:17]
endSignal:6.0
[INFO -- 2018-12-08 15:11:18]
sending 5 signals using command: 'killall -2 smith_waterman' after 0.791964287881s
[INFO -- 2018-12-08 15:11:18]
Execution finished before waitTime
