[INFO -- 2018-12-04 08:05:01]
Starting GDB script
[INFO -- 2018-12-04 08:05:01]
initSignal:0.0
[INFO -- 2018-12-04 08:05:01]
endSignal:6.0
[INFO -- 2018-12-04 08:05:03]
sending 5 signals using command: 'killall -2 smith_waterman' after 1.15924572396s
[INFO -- 2018-12-04 08:05:04]
sending 5 signals using command: 'killall -2 smith_waterman' after 2.4103115136s
[INFO -- 2018-12-04 08:05:06]
sending 5 signals using command: 'killall -2 smith_waterman' after 4.98088259371s
[INFO -- 2018-12-04 08:05:08]
Execution finished before waitTime
