[INFO -- 2018-12-04 16:41:19]
Starting GDB script
[INFO -- 2018-12-04 16:41:19]
initSignal:0.0
[INFO -- 2018-12-04 16:41:19]
endSignal:6.0
[INFO -- 2018-12-04 16:41:19]
sending 5 signals using command: 'killall -2 smith_waterman' after 0.425038422518s
[INFO -- 2018-12-04 16:41:22]
sending 5 signals using command: 'killall -2 smith_waterman' after 3.08909292617s
[INFO -- 2018-12-04 16:41:22]
sending 5 signals using command: 'killall -2 smith_waterman' after 3.67186329458s
[INFO -- 2018-12-04 16:41:25]
Execution finished before waitTime
