[INFO -- 2018-09-25 01:50:20]
Starting GDB script
[INFO -- 2018-09-25 01:50:20]
initSignal:0.0
[INFO -- 2018-09-25 01:50:20]
endSignal:2.0
[INFO -- 2018-09-25 01:50:20]
sending 5 signals using command: 'killall -2 smith_waterman' after 0.177497206059s
[INFO -- 2018-09-25 01:50:20]
sending 5 signals using command: 'killall -2 smith_waterman' after 0.31925096194s
[INFO -- 2018-09-25 01:50:20]
sending 5 signals using command: 'killall -2 smith_waterman' after 0.381167765037s
[INFO -- 2018-09-25 01:50:26]
Execution finished before waitTime
