[INFO -- 2018-12-05 15:00:59]
sending 5 signals using command: 'killall -2 smith_waterman' after 5.56752470358s
[INFO -- 2018-12-05 15:00:59]
Starting GDB script
[INFO -- 2018-12-05 15:00:59]
initSignal:0.0
[INFO -- 2018-12-05 15:00:59]
endSignal:6.0
[INFO -- 2018-12-05 15:01:04]
sending 5 signals using command: 'killall -2 smith_waterman' after 4.80302047137s
[INFO -- 2018-12-05 15:01:04]
sending 5 signals using command: 'killall -2 smith_waterman' after 5.06974865717s
[INFO -- 2018-12-05 15:01:04]
Execution finished before waitTime
