[INFO -- 2018-12-03 16:12:28]
sending 5 signals using command: 'killall -2 smith_waterman' after 4.76989469318s
[INFO -- 2018-12-03 16:12:28]
Starting GDB script
[INFO -- 2018-12-03 16:12:28]
initSignal:0.0
[INFO -- 2018-12-03 16:12:28]
endSignal:6.0
[INFO -- 2018-12-03 16:12:30]
sending 5 signals using command: 'killall -2 smith_waterman' after 2.17316724124s
[INFO -- 2018-12-03 16:12:30]
sending 5 signals using command: 'killall -2 smith_waterman' after 2.24100733596s
[INFO -- 2018-12-03 16:12:33]
sending 5 signals using command: 'killall -2 smith_waterman' after 4.96684393559s
[INFO -- 2018-12-03 16:12:36]
Execution finished before waitTime
