[INFO -- 2018-12-08 04:12:58]
Starting GDB script
[INFO -- 2018-12-08 04:12:58]
initSignal:0.0
[INFO -- 2018-12-08 04:12:58]
endSignal:6.0
[INFO -- 2018-12-08 04:13:00]
sending 5 signals using command: 'killall -2 smith_waterman' after 1.45052884634s
[INFO -- 2018-12-08 04:13:00]
Execution finished before waitTime
