[INFO -- 2018-09-23 15:07:35]
Starting GDB script
[INFO -- 2018-09-23 15:07:35]
initSignal:0.0
[INFO -- 2018-09-23 15:07:35]
endSignal:2.0
[INFO -- 2018-09-23 15:07:35]
sending 5 signals using command: 'killall -2 smith_waterman' after 0.0667665489195s
[INFO -- 2018-09-23 15:07:37]
sending 5 signals using command: 'killall -2 smith_waterman' after 1.44780045012s
[INFO -- 2018-09-23 15:07:37]
sending 5 signals using command: 'killall -2 smith_waterman' after 1.93802868962s
[INFO -- 2018-09-23 15:07:40]
Execution finished before waitTime
