[INFO -- 2018-12-04 14:41:07]
Starting flip_value script
version: 1.1
[INFO -- 2018-12-04 14:41:07]
Initialization strings:
[INFO -- 2018-12-04 14:41:07]
(1) file /tmp/smith_waterman/smith_waterman
[INFO -- 2018-12-04 14:41:07]
(2) set args -x /tmp/smith_waterman/randInputX -y /tmp/smith_waterman/randInputY -o /tmp/smith_waterman/output -z /tmp/smith_waterman/detected.log
[INFO -- 2018-12-04 14:41:07]
initSignal:0
[INFO -- 2018-12-04 14:41:07]
endSignal:6
[INFO -- 2018-12-04 14:41:07]
faultModel:1
[INFO -- 2018-12-04 14:41:08]
Backtrace BEGIN:
#0  dl_main (phdr=<optimized out>, phnum=<optimized out>, user_entry=<optimized out>, auxv=<optimized out>) at rtld.c:2289
#1  0x00007ffff7defdd0 in _dl_sysdep_start (start_argptr=start_argptr@entry=0x7fffffffde70, dl_main=dl_main@entry=0x7ffff7dd7660 <dl_main>) at ../elf/dl-sysdep.c:253
#2  0x00007ffff7dd7128 in _dl_start_final (arg=0x7fffffffde70) at rtld.c:414
#3  _dl_start (arg=0x7fffffffde70) at rtld.c:521
#4  0x00007ffff7dd6098 in _start () from /lib64/ld-linux-x86-64.so.2
#5  0x0000000000000009 in ?? ()
#6  0x00007fffffffe206 in ?? ()
#7  0x00007fffffffe229 in ?? ()
#8  0x00007fffffffe22c in ?? ()
#9  0x00007fffffffe24b in ?? ()
#10 0x00007fffffffe24e in ?? ()
#11 0x00007fffffffe26d in ?? ()
#12 0x00007fffffffe270 in ?? ()
#13 0x00007fffffffe28b in ?? ()
#14 0x00007fffffffe28e in ?? ()
#15 0x0000000000000000 in ?? ()

2284	rtld.c: No such file or directory.

Backtrace END
Memory content before bitflip:0xd00x490x550x550x550x550x000x00
Fault Model: Double bit-flip
base address to flip value: 0x7fffffffdda0
address max offset: 8
Memory content after  bitflip:0xc10x490x550x550x550x550x000x00
frame name: _dl_sysdep_start
symbol name: user_entry
symbol filename: ../elf/dl-sysdep.c
symbol line: 91
value: 93824992233921
value address: 0x7fffffffdda0
Type: The type is an integer type.
Type sizeof: 8

[INFO -- 2018-12-04 14:41:08]
Fault Injection Successful after 1.0072355270385742s
[INFO -- 2018-12-04 14:41:08]
event type: exit
[EXCEPTION -- 2018-12-04 14:41:08]
exit code: no exit code available
