[INFO -- 2018-09-26 07:47:40]
Starting flip_value script
version: 1.1
[INFO -- 2018-09-26 07:47:40]
Initialization strings:
[INFO -- 2018-09-26 07:47:40]
(1) file /tmp/smith_waterman/smith_waterman
[INFO -- 2018-09-26 07:47:40]
(2) set args -x /tmp/smith_waterman/randInputX -y /tmp/smith_waterman/randInputY -o /tmp/smith_waterman/output
[INFO -- 2018-09-26 07:47:40]
initSignal:0
[INFO -- 2018-09-26 07:47:40]
endSignal:2
[INFO -- 2018-09-26 07:47:40]
faultModel:0
[INFO -- 2018-09-26 07:47:41]
Backtrace BEGIN:
#0  my_maxof (a=-1, b=-2, c=-2, d=0) at smith_waterman.c:67
#1  0x00005555555550d7 in smith_waterman (x_num=15000, y_num=14100, str_x=0x5555557586c0 "WPPDOWKMKBKMEBENYIDSFHLFKERIDWDBLVECRPQEQAQWCWJAEPULWITIMKQPJWTWRXYKOOOHRGDTCPVJGRWEZPMNCEFLAYHTVIEMYUTPDYKHNHQVZPBAENOGUVTWTDQQNWCLSVDVUNDJVVFWKGWRWMXQJTOCYEVLCXYVVBQRPTAMRHIBQGSOVSEENSJLZEYBDWWYYPPP"..., str_y=0x55555575c170 "PPPOWKKKBKMEEENYIDDFHLFFERRDWDBLVECRPQEEAAQCWJAAEULLITTIKKPJJTWWXYKOOOORGGTTPVVJRWWEPPNNEFLLYHTVIEMYUUPDYKKNHQQZZPBENNOUVTTTTDQNWWLLSDVVNNJVVVFKGWWWMXXJTOCCEELLCYYVBQQPTAMRHIBBQSOVSEEENSJZEYBBWWYYYPPP"..., fo=0x555555758260) at smith_waterman.c:98
#2  0x0000555555555e38 in main (argc=7, argv=0x7fffffffdcb8) at smith_waterman.c:298

62	double my_maxof(double a, double b, double c, double d)
63	{
64	    double ans=a;
65	    if(ans<b) ans=b;
66	    if(ans<c) ans=c;
67	    if(ans<d) ans=d;
68	    return ans;
69	}
70	
71	double matchMisScore(long i, long j, char* str_y, char* str_x)

Backtrace END
Memory content before bitflip:0x000x000x000x000x000x000x000xc0
Fault Model: Single bit-flip
base address to flip value: 0x7fffffffda28
address max offset: 8
Memory content after  bitflip:0x000x000x000x000x000x400x000xc0
frame name: my_maxof
symbol name: c
symbol filename: smith_waterman.c
symbol line: 62
value: -2.03125
value address: 0x7fffffffda28
Type: A floating point type.
Type sizeof: 8

[INFO -- 2018-09-26 07:47:41]
Fault Injection Successful after 1.2826869487762451s
[INFO -- 2018-09-26 07:47:46]
event type: exit
[INFO -- 2018-09-26 07:47:46]
exit code: 0
