[INFO -- 2018-12-04 14:35:43]
Starting GDB script
[INFO -- 2018-12-04 14:35:43]
initSignal:0.0
[INFO -- 2018-12-04 14:35:43]
endSignal:6.0
[INFO -- 2018-12-04 14:35:44]
sending 5 signals using command: 'killall -2 smith_waterman' after 1.01535376327s
[INFO -- 2018-12-04 14:35:45]
sending 5 signals using command: 'killall -2 smith_waterman' after 1.93398748658s
[INFO -- 2018-12-04 14:35:46]
Execution finished before waitTime
