[INFO -- 2018-09-23 15:05:47]
Starting flip_value script
version: 1.1
[INFO -- 2018-09-23 15:05:47]
Initialization strings:
[INFO -- 2018-09-23 15:05:47]
(1) file /tmp/smith_waterman/smith_waterman
[INFO -- 2018-09-23 15:05:47]
(2) set args -x /tmp/smith_waterman/randInputX -y /tmp/smith_waterman/randInputY -o /tmp/smith_waterman/output
[INFO -- 2018-09-23 15:05:47]
initSignal:0
[INFO -- 2018-09-23 15:05:47]
endSignal:2
[INFO -- 2018-09-23 15:05:47]
faultModel:2
[INFO -- 2018-09-23 15:05:47]
Backtrace BEGIN:
#0  0x0000555555554f05 in smith_waterman (x_num=15000, y_num=10500, str_x=0x5555557586c0 "WMKKDIDYJKGIAXTGCYLWDOCAQJVJDGUCTGMYRRYABEKDDDJFDWCINGIFQFOVMLXFTLFKCDKGHUJKZVRCTTMGAXOSCCNQPNVJYATDFELMAWYATQENLRVLQJFSOTJDGGMGJILOOWDOVBOOTVDFMBSCKYWARHEZOSFXCRNQNQFKUVZNQCSEDNGQLFSEMYDCRIBVBPMRHRBB"..., str_y=0x55555575c170 "MMKKIDYYKGIAATTGCYLDDCAQJVJJDGCCTMMRRRYBBEKDDJJFDWCNGGFQQOOVLXXTTLKKCDKGUUKZZVRTTTGAXOSSCCNPNVVJYADFELLMAWYTQENLRVLQJJSOTJJGGGMGJIOOWDDOBBOTTVFFMBSCYWWRHEEOSFXCCNNNQFFUUZZQCSSDDNQLFFSEMDDCRIBBBMMRHBBO"..., fo=0x555555758260) at smith_waterman.c:89
#1  0x0000555555555e38 in main (argc=7, argv=0x7fffffffdcb8) at smith_waterman.c:298

84	    for(i=1; i<x_num+1; i++){
85	        matrix[i]=matrix[0]+(y_num+1)*i;
86	    }
87	
88	    long j;
89	    for(i=0; i<x_num+1; i++){matrix[i][0]=0.0;}
90	    for(i=0; i<y_num+1; i++){matrix[0][i]=0.0;}
91	
92	    double diff=0.0;
93	    double max_score=0.0;

Backtrace END
Memory content before bitflip:0xff0xff0xff0xff
Fault Model: Random bit-flip
base address to flip value: 0x7fffffffdb64
address max offset: 4
Memory content after  bitflip:0xf80x550xa40xba
frame name: main
symbol name: opt
symbol filename: smith_waterman.c
symbol line: 246
value: -1163635208
value address: 0x7fffffffdb64
Type: The type is an integer type.
Type sizeof: 4

[INFO -- 2018-09-23 15:05:47]
Fault Injection Successful after 0.4173903465270996s
[INFO -- 2018-09-23 15:05:51]
event type: exit
[INFO -- 2018-09-23 15:05:51]
exit code: 0
