[INFO -- 2018-09-26 12:22:34]
Starting GDB script
[INFO -- 2018-09-26 12:22:34]
initSignal:0.0
[INFO -- 2018-09-26 12:22:34]
endSignal:2.0
[INFO -- 2018-09-26 12:22:34]
sending 5 signals using command: 'killall -2 smith_waterman' after 0.106514483639s
[INFO -- 2018-09-26 12:22:35]
Execution finished before waitTime
