[INFO -- 2018-09-27 13:07:14]
Starting GDB script
[INFO -- 2018-09-27 13:07:14]
initSignal:0.0
[INFO -- 2018-09-27 13:07:14]
endSignal:2.0
[INFO -- 2018-09-27 13:07:14]
sending 5 signals using command: 'killall -2 smith_waterman' after 0.311838008551s
[INFO -- 2018-09-27 13:07:16]
sending 5 signals using command: 'killall -2 smith_waterman' after 1.93416857078s
[INFO -- 2018-09-27 13:07:16]
sending 5 signals using command: 'killall -2 smith_waterman' after 1.97271443151s
[INFO -- 2018-09-27 13:07:21]
Execution finished before waitTime
