[INFO -- 2018-09-26 13:02:31]
sending 5 signals using command: 'killall -2 smith_waterman' after 1.54053872307s
[INFO -- 2018-09-26 13:02:31]
Starting GDB script
[INFO -- 2018-09-26 13:02:31]
initSignal:0.0
[INFO -- 2018-09-26 13:02:31]
endSignal:2.0
[INFO -- 2018-09-26 13:02:32]
sending 5 signals using command: 'killall -2 smith_waterman' after 0.857934132278s
[INFO -- 2018-09-26 13:02:32]
sending 5 signals using command: 'killall -2 smith_waterman' after 0.878006678355s
[INFO -- 2018-09-26 13:02:33]
sending 5 signals using command: 'killall -2 smith_waterman' after 1.07337769457s
[INFO -- 2018-09-26 13:02:38]
Execution finished before waitTime
