[INFO -- 2018-12-08 17:52:19]
Starting GDB script
[INFO -- 2018-12-08 17:52:19]
initSignal:0.0
[INFO -- 2018-12-08 17:52:19]
endSignal:6.0
[INFO -- 2018-12-08 17:52:20]
sending 5 signals using command: 'killall -2 smith_waterman' after 0.931471172109s
[INFO -- 2018-12-08 17:52:21]
Execution finished before waitTime
