[INFO -- 2018-12-08 23:33:38]
Starting GDB script
[INFO -- 2018-12-08 23:33:38]
initSignal:0.0
[INFO -- 2018-12-08 23:33:38]
endSignal:6.0
[INFO -- 2018-12-08 23:33:41]
sending 5 signals using command: 'killall -2 smith_waterman' after 2.6074595705s
[INFO -- 2018-12-08 23:33:41]
Execution finished before waitTime
