[INFO -- 2018-12-03 10:01:26]
sending 5 signals using command: 'killall -2 smith_waterman' after 3.86540818798s
[INFO -- 2018-12-03 10:01:27]
sending 5 signals using command: 'killall -2 smith_waterman' after 4.69401686509s
[INFO -- 2018-12-03 10:01:27]
Starting GDB script
[INFO -- 2018-12-03 10:01:27]
initSignal:0.0
[INFO -- 2018-12-03 10:01:27]
endSignal:6.0
[INFO -- 2018-12-03 10:01:32]
sending 5 signals using command: 'killall -2 smith_waterman' after 4.45540348603s
[INFO -- 2018-12-03 10:01:32]
sending 5 signals using command: 'killall -2 smith_waterman' after 4.69522650236s
[INFO -- 2018-12-03 10:01:32]
sending 5 signals using command: 'killall -2 smith_waterman' after 4.8752594955s
[INFO -- 2018-12-03 10:01:32]
Execution finished before waitTime
