[INFO -- 2018-09-23 13:20:19]
Starting GDB script
[INFO -- 2018-09-23 13:20:19]
initSignal:0.0
[INFO -- 2018-09-23 13:20:19]
endSignal:2.0
[INFO -- 2018-09-23 13:20:19]
sending 5 signals using command: 'killall -2 smith_waterman' after 0.141117501626s
[INFO -- 2018-09-23 13:20:20]
sending 5 signals using command: 'killall -2 smith_waterman' after 0.926611433852s
[INFO -- 2018-09-23 13:20:20]
sending 5 signals using command: 'killall -2 smith_waterman' after 1.17955708621s
[INFO -- 2018-09-23 13:20:25]
Execution finished before waitTime
