[INFO -- 2018-12-09 07:55:05]
Starting GDB script
[INFO -- 2018-12-09 07:55:05]
initSignal:0.0
[INFO -- 2018-12-09 07:55:05]
endSignal:6.0
[INFO -- 2018-12-09 07:55:05]
sending 5 signals using command: 'killall -2 smith_waterman' after 0.448118589734s
[INFO -- 2018-12-09 07:55:09]
sending 5 signals using command: 'killall -2 smith_waterman' after 3.88171066267s
[INFO -- 2018-12-09 07:55:10]
sending 5 signals using command: 'killall -2 smith_waterman' after 5.2552826657s
[INFO -- 2018-12-09 07:55:13]
Execution finished before waitTime
