[INFO -- 2018-09-23 14:46:45]
Starting GDB script
[INFO -- 2018-09-23 14:46:45]
initSignal:0.0
[INFO -- 2018-09-23 14:46:45]
endSignal:2.0
[INFO -- 2018-09-23 14:46:45]
sending 5 signals using command: 'killall -2 smith_waterman' after 0.316472434706s
[INFO -- 2018-09-23 14:46:46]
Execution finished before waitTime
