[INFO -- 2018-12-04 00:57:39]
Starting GDB script
[INFO -- 2018-12-04 00:57:39]
initSignal:0.0
[INFO -- 2018-12-04 00:57:39]
endSignal:6.0
[INFO -- 2018-12-04 00:57:42]
sending 5 signals using command: 'killall -2 smith_waterman' after 2.75639634673s
[INFO -- 2018-12-04 00:57:42]
sending 5 signals using command: 'killall -2 smith_waterman' after 2.8884881572s
[INFO -- 2018-12-04 00:57:44]
sending 5 signals using command: 'killall -2 smith_waterman' after 4.14623384587s
[INFO -- 2018-12-04 00:57:47]
Execution finished before waitTime
