[INFO -- 2018-09-28 05:02:56]
Starting GDB script
[INFO -- 2018-09-28 05:02:56]
initSignal:0.0
[INFO -- 2018-09-28 05:02:56]
endSignal:2.0
[INFO -- 2018-09-28 05:02:57]
sending 5 signals using command: 'killall -2 smith_waterman' after 0.792831909074s
[INFO -- 2018-09-28 05:02:57]
sending 5 signals using command: 'killall -2 smith_waterman' after 0.844484294454s
[INFO -- 2018-09-28 05:02:58]
sending 5 signals using command: 'killall -2 smith_waterman' after 1.03439774597s
[INFO -- 2018-09-28 05:03:04]
Execution finished before waitTime
