[INFO -- 2018-09-26 15:19:46]
Starting GDB script
[INFO -- 2018-09-26 15:19:46]
initSignal:0.0
[INFO -- 2018-09-26 15:19:46]
endSignal:2.0
[INFO -- 2018-09-26 15:19:46]
sending 5 signals using command: 'killall -2 smith_waterman' after 0.0113192433456s
[INFO -- 2018-09-26 15:19:47]
sending 5 signals using command: 'killall -2 smith_waterman' after 1.08503481763s
[INFO -- 2018-09-26 15:19:47]
sending 5 signals using command: 'killall -2 smith_waterman' after 1.2168537094s
[INFO -- 2018-09-26 15:19:52]
Execution finished before waitTime
