[INFO -- 2018-09-25 05:11:00]
Starting GDB script
[INFO -- 2018-09-25 05:11:00]
initSignal:0.0
[INFO -- 2018-09-25 05:11:00]
endSignal:2.0
[INFO -- 2018-09-25 05:11:00]
sending 5 signals using command: 'killall -2 smith_waterman' after 0.228969862268s
[INFO -- 2018-09-25 05:11:01]
sending 5 signals using command: 'killall -2 smith_waterman' after 0.906702334507s
[INFO -- 2018-09-25 05:11:02]
sending 5 signals using command: 'killall -2 smith_waterman' after 1.9873821424s
[INFO -- 2018-09-25 05:11:06]
Execution finished before waitTime
