[INFO -- 2018-12-04 01:56:45]
Starting GDB script
[INFO -- 2018-12-04 01:56:45]
initSignal:0.0
[INFO -- 2018-12-04 01:56:45]
endSignal:6.0
[INFO -- 2018-12-04 01:56:47]
sending 5 signals using command: 'killall -2 smith_waterman' after 2.53521292287s
[INFO -- 2018-12-04 01:56:47]
sending 5 signals using command: 'killall -2 smith_waterman' after 2.7868849726s
[INFO -- 2018-12-04 01:56:49]
sending 5 signals using command: 'killall -2 smith_waterman' after 4.61275206874s
[INFO -- 2018-12-04 01:56:51]
Execution finished before waitTime
