[INFO -- 2018-12-05 04:06:56]
Starting GDB script
[INFO -- 2018-12-05 04:06:56]
initSignal:0.0
[INFO -- 2018-12-05 04:06:56]
endSignal:6.0
[INFO -- 2018-12-05 04:06:57]
sending 5 signals using command: 'killall -2 smith_waterman' after 0.170007990552s
[INFO -- 2018-12-05 04:06:57]
Execution finished before waitTime
