[INFO -- 2018-12-05 13:07:16]
Starting GDB script
[INFO -- 2018-12-05 13:07:16]
initSignal:0.0
[INFO -- 2018-12-05 13:07:16]
endSignal:6.0
[INFO -- 2018-12-05 13:07:18]
sending 5 signals using command: 'killall -2 smith_waterman' after 1.90859770692s
[INFO -- 2018-12-05 13:07:21]
sending 5 signals using command: 'killall -2 smith_waterman' after 5.18344169635s
[INFO -- 2018-12-05 13:07:21]
sending 5 signals using command: 'killall -2 smith_waterman' after 5.21825566202s
[INFO -- 2018-12-05 13:07:36]
Execution did not finish before waitTime
