[INFO -- 2018-12-03 09:21:37]
Starting flip_value script
version: 1.1
[INFO -- 2018-12-03 09:21:37]
Initialization strings:
[INFO -- 2018-12-03 09:21:37]
(1) file /tmp/smith_waterman/smith_waterman
[INFO -- 2018-12-03 09:21:37]
(2) set args -x /tmp/smith_waterman/randInputX -y /tmp/smith_waterman/randInputY -o /tmp/smith_waterman/output -z /tmp/smith_waterman/detected.log
[INFO -- 2018-12-03 09:21:37]
initSignal:0
[INFO -- 2018-12-03 09:21:37]
endSignal:6
[INFO -- 2018-12-03 09:21:37]
faultModel:0
[INFO -- 2018-12-03 09:21:39]
Backtrace BEGIN:
#0  smith_waterman (x_num=15000, y_num=12000, str_x=0x5555557586c0 "EWCQVZGWKMDWYHODFCKQIEQROWLVWYGAULQRMYNWNSULCKQHMAXUFPLVLWSJWYJQLBJXBYVORRZVBPCNSBJZSUUDSMOOMXGYARXBQTQJMRGOJIDBLNADHWICKWSWVZWVSUWKPOVBGBPRLVSWIUZRQJTAFMYANVXFRUSGKNJQPBJAWBXEXYXPKRPPFQSULRBENTMYHVQY"..., str_y=0x55555575c170 "ECQQZZWWMDDYHODFCKQIEQROOLVVYYGULQRMYNNNSULCKQHMAAXFFLLLLWJWYJQLBBXBYVORRRZBBCNSBBZSSUUSMOOMMGYARXBQTQJMRGOJIDDLNAAHHIIKWSWVZWVSUWKPOVBGBPRLLVWIUZRQJTAFFMAAVXXRRSGKNNQPBJAABXEEXXXKRRPPFSUURBENTMYHHQYW"...) at smith_waterman.c:130
#1  0x0000555555555cbf in execute (file_x_name=0x7fffffffe1f3 "/tmp/smith_waterman/randInputX", file_y_name=0x7fffffffe215 "/tmp/smith_waterman/randInputY") at smith_waterman.c:263
#2  0x0000555555555f08 in main (argc=9, argv=0x7fffffffde38) at smith_waterman.c:314

125	            if(i==0 && j==0){
126	                maxValue = matrix[i][j];
127	                y = i;
128	                x = j;
129	            }
130	            if(maxValue < matrix[i][j]){
131	                maxValue = matrix[i][j];
132	                y = i;
133	                x = j;
134	            }

Backtrace END
Memory content before bitflip:0x000x000x000x000x000x000xf00x3f
Fault Model: Single bit-flip
base address to flip value: 0x555555757010 
address max offset: 8
Memory content after  bitflip:0x000x000x000x000x100x000xf00x3f
frame name: main
symbol name: match_score
symbol filename: smith_waterman.c
symbol line: 7
value: 1.0000152587890625
value address: 0x555555757010 <match_score>
Type: A floating point type.
Type sizeof: 8

[INFO -- 2018-12-03 09:21:39]
Fault Injection Successful after 2.999436616897583s
