[INFO -- 2018-12-04 10:54:22]
Starting GDB script
[INFO -- 2018-12-04 10:54:22]
initSignal:0.0
[INFO -- 2018-12-04 10:54:22]
endSignal:6.0
[INFO -- 2018-12-04 10:54:23]
sending 5 signals using command: 'killall -2 smith_waterman' after 1.15638242103s
[INFO -- 2018-12-04 10:54:24]
sending 5 signals using command: 'killall -2 smith_waterman' after 1.27630137478s
[INFO -- 2018-12-04 10:54:24]
sending 5 signals using command: 'killall -2 smith_waterman' after 2.00248572768s
[INFO -- 2018-12-04 10:54:43]
Execution did not finish before waitTime
