[INFO -- 2018-09-23 12:00:20]
Starting GDB script
[INFO -- 2018-09-23 12:00:20]
initSignal:0.0
[INFO -- 2018-09-23 12:00:20]
endSignal:2.0
[INFO -- 2018-09-23 12:00:21]
sending 5 signals using command: 'killall -2 smith_waterman' after 0.948403589678s
[INFO -- 2018-09-23 12:00:21]
sending 5 signals using command: 'killall -2 smith_waterman' after 1.05319843708s
[INFO -- 2018-09-23 12:00:21]
sending 5 signals using command: 'killall -2 smith_waterman' after 1.15839141304s
[INFO -- 2018-09-23 12:00:26]
Execution finished before waitTime
