[INFO -- 2018-09-27 12:10:56]
Starting GDB script
[INFO -- 2018-09-27 12:10:56]
initSignal:0.0
[INFO -- 2018-09-27 12:10:56]
endSignal:2.0
[INFO -- 2018-09-27 12:10:56]
sending 5 signals using command: 'killall -2 smith_waterman' after 0.240149232737s
[INFO -- 2018-09-27 12:10:57]
sending 5 signals using command: 'killall -2 smith_waterman' after 0.421749568805s
[INFO -- 2018-09-27 12:10:57]
sending 5 signals using command: 'killall -2 smith_waterman' after 0.746915590893s
[INFO -- 2018-09-27 12:11:03]
Execution finished before waitTime
