[INFO -- 2018-12-03 22:29:26]
sending 5 signals using command: 'killall -2 smith_waterman' after 1.94407720338s
[INFO -- 2018-12-03 22:29:26]
Starting GDB script
[INFO -- 2018-12-03 22:29:26]
initSignal:0.0
[INFO -- 2018-12-03 22:29:26]
endSignal:6.0
[INFO -- 2018-12-03 22:29:29]
sending 5 signals using command: 'killall -2 smith_waterman' after 3.21973727795s
[INFO -- 2018-12-03 22:29:31]
Execution finished before waitTime
