[INFO -- 2018-09-26 02:16:15]
Starting GDB script
[INFO -- 2018-09-26 02:16:15]
initSignal:0.0
[INFO -- 2018-09-26 02:16:15]
endSignal:2.0
[INFO -- 2018-09-26 02:16:15]
sending 5 signals using command: 'killall -2 smith_waterman' after 0.289860893509s
[INFO -- 2018-09-26 02:16:16]
sending 5 signals using command: 'killall -2 smith_waterman' after 1.2764572234s
[INFO -- 2018-09-26 02:16:17]
sending 5 signals using command: 'killall -2 smith_waterman' after 1.79812656665s
[INFO -- 2018-09-26 02:16:21]
Execution finished before waitTime
