[INFO -- 2018-12-04 09:42:05]
Starting GDB script
[INFO -- 2018-12-04 09:42:05]
initSignal:0.0
[INFO -- 2018-12-04 09:42:05]
endSignal:6.0
[INFO -- 2018-12-04 09:42:05]
sending 5 signals using command: 'killall -2 smith_waterman' after 0.39857516781s
[INFO -- 2018-12-04 09:42:07]
sending 5 signals using command: 'killall -2 smith_waterman' after 2.59721428998s
[INFO -- 2018-12-04 09:42:09]
sending 5 signals using command: 'killall -2 smith_waterman' after 4.57391114729s
[INFO -- 2018-12-04 09:42:11]
Execution finished before waitTime
