[INFO -- 2018-09-24 01:36:49]
Starting GDB script
[INFO -- 2018-09-24 01:36:49]
initSignal:0.0
[INFO -- 2018-09-24 01:36:49]
endSignal:2.0
[INFO -- 2018-09-24 01:36:50]
sending 5 signals using command: 'killall -2 smith_waterman' after 0.539907220616s
[INFO -- 2018-09-24 01:36:51]
sending 5 signals using command: 'killall -2 smith_waterman' after 1.35554902823s
[INFO -- 2018-09-24 01:36:51]
sending 5 signals using command: 'killall -2 smith_waterman' after 1.64033598014s
[INFO -- 2018-09-24 01:36:55]
Execution finished before waitTime
