[INFO -- 2018-09-25 19:11:09]
sending 5 signals using command: 'killall -2 smith_waterman' after 1.25938429243s
[INFO -- 2018-09-25 19:11:09]
Starting GDB script
[INFO -- 2018-09-25 19:11:09]
initSignal:0.0
[INFO -- 2018-09-25 19:11:09]
endSignal:2.0
[INFO -- 2018-09-25 19:11:10]
sending 5 signals using command: 'killall -2 smith_waterman' after 0.164127554874s
[INFO -- 2018-09-25 19:11:11]
sending 5 signals using command: 'killall -2 smith_waterman' after 1.77508483144s
[INFO -- 2018-09-25 19:11:11]
sending 5 signals using command: 'killall -2 smith_waterman' after 1.78208244074s
[INFO -- 2018-09-25 19:11:16]
Execution finished before waitTime
