[INFO -- 2018-09-27 11:08:56]
Starting GDB script
[INFO -- 2018-09-27 11:08:56]
initSignal:0.0
[INFO -- 2018-09-27 11:08:56]
endSignal:2.0
[INFO -- 2018-09-27 11:08:57]
sending 5 signals using command: 'killall -2 smith_waterman' after 0.934773955438s
[INFO -- 2018-09-27 11:08:57]
sending 5 signals using command: 'killall -2 smith_waterman' after 1.42511889956s
[INFO -- 2018-09-27 11:08:58]
sending 5 signals using command: 'killall -2 smith_waterman' after 1.74178320599s
[INFO -- 2018-09-27 11:09:03]
Execution finished before waitTime
