[INFO -- 2018-11-09 00:27:01]
Starting GDB script
[INFO -- 2018-11-09 00:27:01]
initSignal:0.0
[INFO -- 2018-11-09 00:27:01]
endSignal:6.0
[INFO -- 2018-11-09 00:27:03]
sending 5 signals using command: 'killall -2 smith_waterman' after 1.96406599693s
[INFO -- 2018-11-09 00:27:04]
sending 5 signals using command: 'killall -2 smith_waterman' after 2.70921967433s
[INFO -- 2018-11-09 00:27:04]
Execution finished before waitTime
