[INFO -- 2018-12-04 18:41:56]
Starting GDB script
[INFO -- 2018-12-04 18:41:56]
initSignal:0.0
[INFO -- 2018-12-04 18:41:56]
endSignal:6.0
[INFO -- 2018-12-04 18:41:57]
sending 5 signals using command: 'killall -2 smith_waterman' after 1.1655740402s
[INFO -- 2018-12-04 18:42:00]
sending 5 signals using command: 'killall -2 smith_waterman' after 3.74383284595s
[INFO -- 2018-12-04 18:42:00]
sending 5 signals using command: 'killall -2 smith_waterman' after 4.50356171774s
[INFO -- 2018-12-04 18:42:02]
Execution finished before waitTime
