[INFO -- 2018-12-03 23:54:54]
Starting GDB script
[INFO -- 2018-12-03 23:54:54]
initSignal:0.0
[INFO -- 2018-12-03 23:54:54]
endSignal:6.0
[INFO -- 2018-12-03 23:54:56]
sending 5 signals using command: 'killall -2 smith_waterman' after 1.10442010309s
[INFO -- 2018-12-03 23:55:00]
sending 5 signals using command: 'killall -2 smith_waterman' after 5.63902465504s
[INFO -- 2018-12-03 23:55:00]
sending 5 signals using command: 'killall -2 smith_waterman' after 5.68094417918s
[INFO -- 2018-12-03 23:55:01]
Execution finished before waitTime
