[INFO -- 2018-09-24 12:56:37]
Starting GDB script
[INFO -- 2018-09-24 12:56:37]
initSignal:0.0
[INFO -- 2018-09-24 12:56:37]
endSignal:2.0
[INFO -- 2018-09-24 12:56:38]
sending 5 signals using command: 'killall -2 smith_waterman' after 0.581857910668s
[INFO -- 2018-09-24 12:56:38]
sending 5 signals using command: 'killall -2 smith_waterman' after 0.96109361116s
[INFO -- 2018-09-24 12:56:39]
sending 5 signals using command: 'killall -2 smith_waterman' after 1.37373277887s
[INFO -- 2018-09-24 12:56:43]
Execution finished before waitTime
