[INFO -- 2018-09-23 10:35:11]
Starting GDB script
[INFO -- 2018-09-23 10:35:11]
initSignal:0.0
[INFO -- 2018-09-23 10:35:11]
endSignal:2.0
[INFO -- 2018-09-23 10:35:11]
sending 5 signals using command: 'killall -2 smith_waterman' after 0.0657263720998s
[INFO -- 2018-09-23 10:35:12]
sending 5 signals using command: 'killall -2 smith_waterman' after 0.907556914557s
[INFO -- 2018-09-23 10:35:13]
sending 5 signals using command: 'killall -2 smith_waterman' after 1.8926354351s
[INFO -- 2018-09-23 10:35:17]
Execution finished before waitTime
