[INFO -- 2018-09-27 01:09:36]
Starting flip_value script
version: 1.1
[INFO -- 2018-09-27 01:09:36]
Initialization strings:
[INFO -- 2018-09-27 01:09:36]
(1) file /tmp/smith_waterman/smith_waterman
[INFO -- 2018-09-27 01:09:36]
(2) set args -x /tmp/smith_waterman/randInputX -y /tmp/smith_waterman/randInputY -o /tmp/smith_waterman/output
[INFO -- 2018-09-27 01:09:36]
initSignal:0
[INFO -- 2018-09-27 01:09:36]
endSignal:2
[INFO -- 2018-09-27 01:09:36]
faultModel:0
[INFO -- 2018-09-27 01:09:36]
Backtrace BEGIN:
#0  dl_main (phdr=<optimized out>, phnum=<optimized out>, user_entry=<optimized out>, auxv=<optimized out>) at rtld.c:2289
#1  0x00007ffff7defdd0 in _dl_sysdep_start (start_argptr=start_argptr@entry=0x7fffffffdcb0, dl_main=dl_main@entry=0x7ffff7dd7660 <dl_main>) at ../elf/dl-sysdep.c:253
#2  0x00007ffff7dd7128 in _dl_start_final (arg=0x7fffffffdcb0) at rtld.c:414
#3  _dl_start (arg=0x7fffffffdcb0) at rtld.c:521
#4  0x00007ffff7dd6098 in _start () from /lib64/ld-linux-x86-64.so.2
#5  0x0000000000000007 in ?? ()
#6  0x00007fffffffe0a8 in ?? ()
#7  0x00007fffffffe0cb in ?? ()
#8  0x00007fffffffe0ce in ?? ()
#9  0x00007fffffffe0ed in ?? ()
#10 0x00007fffffffe0f0 in ?? ()
#11 0x00007fffffffe10f in ?? ()
#12 0x00007fffffffe112 in ?? ()
#13 0x0000000000000000 in ?? ()

2284	rtld.c: No such file or directory.

Backtrace END
Fliping value of field: _dl_profile
Fliping a bit of the pointer
Memory content before bitflip:0x000x000x000x000x000x000x000x00
Fault Model: Single bit-flip
base address to flip value: 0x7ffff7ffc888 
address max offset: 8
Memory content after  bitflip:0x040x000x000x000x000x000x000x00
frame name: _dl_start
symbol name: _rtld_global_ro
symbol filename: rtld.c
symbol line: 259
value: {_dl_debug_mask = 0, _dl_osversion = 266002, _dl_platform = 0x7fffffffe099 "x86_64", _dl_platformlen = 6, _dl_pagesize = 4096, _dl_inhibit_cache = 0, _dl_initial_searchlist = {r_list = 0x7ffff7fe0510, r_nlist = 3}, _dl_clktck = 100, _dl_verbose = 0, _dl_debug_fd = 2, _dl_lazy = 1, _dl_bind_not = 0, _dl_dynamic_weak = 0, _dl_fpu_control = 895, _dl_correct_cache_id = 771, _dl_hwcap = 2, _dl_auxv = 0x7fffffffdf40, _dl_x86_cpu_features = {kind = arch_kind_intel, max_cpuid = 11, cpuid = {{eax = 67301, ebx = 101713920, ecx = 10019837, edx = 3219913727}, {eax = 0, ebx = 0, ecx = 0, edx = 2617245696}, {eax = 0, ebx = 0, ecx = 0, edx = 0}}, family = 6, model = 30, xsave_state_size = 0, xsave_state_full_size = 0, feature = {1359921}, data_cache_size = 0, shared_cache_size = 0, non_temporal_threshold = 0}, _dl_x86_hwcap_flags = {"sse2\000\000\000\000", "x86_64\000\000", "avx512_1"}, _dl_x86_platforms = {"i586\000\000\000\000", "i686\000\000\000\000", "haswell\000", "xeon_phi"}, _dl_inhibit_rpath = 0x0, _dl_origin_path = 0x0, _dl_use_load_bias = 0, _dl_profile = 0x4 <error: Cannot access memory at address 0x4>, _dl_profile_output = 0x7ffff7df4b9c "/var/tmp", _dl_trace_prelink = 0x0, _dl_trace_prelink_map = 0x0, _dl_init_all_dirs = 0x7ffff7ffec90, _dl_sysinfo_dso = 0x7ffff7ffa000, _dl_sysinfo_map = 0x7ffff7ffe710, _dl_hwcap2 = 0, _dl_debug_printf = 0x7ffff7de6500 <_dl_debug_printf>, _dl_mcount = 0x7ffff7de78d0 <__GI__dl_mcount>, _dl_lookup_symbol_x = 0x7ffff7de00b0 <_dl_lookup_symbol_x>, _dl_check_caller = 0x7ffff7de8d90 <_dl_check_caller>, _dl_open = 0x7ffff7de9710 <_dl_open>, _dl_close = 0x7ffff7deba20 <_dl_close>, _dl_tls_get_addr_soft = 0x7ffff7de88f0 <_dl_tls_get_addr_soft>, _dl_discover_osversion = 0x7ffff7df0210 <_dl_discover_osversion>, _dl_audit = 0x0, _dl_naudit = 0}
value address: 0x7ffff7ffc760 <_rtld_global_ro>
Type: The type is a structure.
Type sizeof: 440
Field name: _dl_debug_mask
Field Type: The type is an integer type.
Field Type sizeof: 4
Field name: _dl_osversion
Field Type: The type is an integer type.
Field Type sizeof: 4
Field name: _dl_platform
Field Type: The type is a pointer.
Field Type sizeof: 8
Field name: _dl_platformlen
Field Type: The type is an integer type.
Field Type sizeof: 8
Field name: _dl_pagesize
Field Type: The type is an integer type.
Field Type sizeof: 8
Field name: _dl_inhibit_cache
Field Type: The type is an integer type.
Field Type sizeof: 4
Field name: _dl_initial_searchlist
Field Type: The type is a structure.
Field Type sizeof: 16
Field name: _dl_clktck
Field Type: The type is an integer type.
Field Type sizeof: 4
Field name: _dl_verbose
Field Type: The type is an integer type.
Field Type sizeof: 4
Field name: _dl_debug_fd
Field Type: The type is an integer type.
Field Type sizeof: 4
Field name: _dl_lazy
Field Type: The type is an integer type.
Field Type sizeof: 4
Field name: _dl_bind_not
Field Type: The type is an integer type.
Field Type sizeof: 4
Field name: _dl_dynamic_weak
Field Type: The type is an integer type.
Field Type sizeof: 4
Field name: _dl_fpu_control
Field Type: The type is an integer type.
Field Type sizeof: 2
Field name: _dl_correct_cache_id
Field Type: The type is an integer type.
Field Type sizeof: 4
Field name: _dl_hwcap
Field Type: The type is an integer type.
Field Type sizeof: 8
Field name: _dl_auxv
Field Type: The type is a pointer.
Field Type sizeof: 8
Field name: _dl_x86_cpu_features
Field Type: The type is a structure.
Field Type sizeof: 104
Field name: _dl_x86_hwcap_flags
Field Type: The type is an array.
Field Type sizeof: 27
Field name: _dl_x86_platforms
Field Type: The type is an array.
Field Type sizeof: 36
Field name: _dl_inhibit_rpath
Field Type: The type is a pointer.
Field Type sizeof: 8
Field name: _dl_origin_path
Field Type: The type is a pointer.
Field Type sizeof: 8
Field name: _dl_use_load_bias
Field Type: The type is an integer type.
Field Type sizeof: 8
Field name: _dl_profile
Field Type: The type is a pointer.
Field Type sizeof: 8
Field name: _dl_profile_output
Field Type: The type is a pointer.
Field Type sizeof: 8
Field name: _dl_trace_prelink
Field Type: The type is a pointer.
Field Type sizeof: 8
Field name: _dl_trace_prelink_map
Field Type: The type is a pointer.
Field Type sizeof: 8
Field name: _dl_init_all_dirs
Field Type: The type is a pointer.
Field Type sizeof: 8
Field name: _dl_sysinfo_dso
Field Type: The type is a pointer.
Field Type sizeof: 8
Field name: _dl_sysinfo_map
Field Type: The type is a pointer.
Field Type sizeof: 8
Field name: _dl_hwcap2
Field Type: The type is an integer type.
Field Type sizeof: 8
Field name: _dl_debug_printf
Field Type: The type is a pointer.
Field Type sizeof: 8
Field name: _dl_mcount
Field Type: The type is a pointer.
Field Type sizeof: 8
Field name: _dl_lookup_symbol_x
Field Type: The type is a pointer.
Field Type sizeof: 8
Field name: _dl_check_caller
Field Type: The type is a pointer.
Field Type sizeof: 8
Field name: _dl_open
Field Type: The type is a pointer.
Field Type sizeof: 8
Field name: _dl_close
Field Type: The type is a pointer.
Field Type sizeof: 8
Field name: _dl_tls_get_addr_soft
Field Type: The type is a pointer.
Field Type sizeof: 8
Field name: _dl_discover_osversion
Field Type: The type is a pointer.
Field Type sizeof: 8
Field name: _dl_audit
Field Type: The type is a pointer.
Field Type sizeof: 8
Field name: _dl_naudit
Field Type: The type is an integer type.
Field Type sizeof: 4

[INFO -- 2018-09-27 01:09:36]
Fault Injection Successful after 0.32914113998413086s
[INFO -- 2018-09-27 01:09:41]
event type: exit
[INFO -- 2018-09-27 01:09:41]
exit code: 0
