[INFO -- 2018-09-26 07:39:38]
Starting flip_value script
version: 1.1
[INFO -- 2018-09-26 07:39:38]
Initialization strings:
[INFO -- 2018-09-26 07:39:38]
(1) file /tmp/smith_waterman/smith_waterman
[INFO -- 2018-09-26 07:39:38]
(2) set args -x /tmp/smith_waterman/randInputX -y /tmp/smith_waterman/randInputY -o /tmp/smith_waterman/output
[INFO -- 2018-09-26 07:39:38]
initSignal:0
[INFO -- 2018-09-26 07:39:38]
endSignal:2
[INFO -- 2018-09-26 07:39:38]
faultModel:2
[EXCEPTION -- 2018-09-26 07:39:38]
gdbException: Attempt to dereference a generic pointer.
[INFO -- 2018-09-26 07:39:39]
Backtrace BEGIN:
#0  my_maxof (a=-1, b=-2, c=-2, d=0) at smith_waterman.c:67
#1  0x00005555555550d7 in smith_waterman (x_num=15000, y_num=14100, str_x=0x5555557586c0 "WPPDOWKMKBKMEBENYIDSFHLFKERIDWDBLVECRPQEQAQWCWJAEPULWITIMKQPJWTWRXYKOOOHRGDTCPVJGRWEZPMNCEFLAYHTVIEMYUTPDYKHNHQVZPBAENOGUVTWTDQQNWCLSVDVUNDJVVFWKGWRWMXQJTOCYEVLCXYVVBQRPTAMRHIBQGSOVSEENSJLZEYBDWWYYPPP"..., str_y=0x55555575c170 "PPPOWKKKBKMEEENYIDDFHLFFERRDWDBLVECRPQEEAAQCWJAAEULLITTIKKPJJTWWXYKOOOORGGTTPVVJRWWEPPNNEFLLYHTVIEMYUUPDYKKNHQQZZPBENNOUVTTTTDQNWWLLSDVVNNJVVVFKGWWWMXXJTOCCEELLCYYVBQQPTAMRHIBBQSOVSEEENSJZEYBBWWYYYPPP"..., fo=0x555555758260) at smith_waterman.c:98
#2  0x0000555555555e38 in main (argc=7, argv=0x7fffffffdcb8) at smith_waterman.c:298

62	double my_maxof(double a, double b, double c, double d)
63	{
64	    double ans=a;
65	    if(ans<b) ans=b;
66	    if(ans<c) ans=c;
67	    if(ans<d) ans=d;
68	    return ans;
69	}
70	
71	double matchMisScore(long i, long j, char* str_y, char* str_x)

Backtrace END
Fliping a bit of the value pointed by a pointer
Memory content before bitflip:0x48
Fault Model: Random bit-flip
base address to flip value: 0x7ffff7a71510  
address max offset: 1
Memory content after  bitflip:0x1d
frame name: smith_waterman
symbol name: alignmentB
symbol filename: smith_waterman.c
symbol line: 133
value: 0x7ffff7a71510 <flush_cleanup> "\035\213\005y\003\066"
value address: 0x7fffffffdad0
Type: The type is a pointer.
Type sizeof: 8

[INFO -- 2018-09-26 07:39:39]
Fault Injection Successful after 1.6690971851348877s
[INFO -- 2018-09-26 07:39:44]
event type: exit
[INFO -- 2018-09-26 07:39:44]
exit code: 0
