[INFO -- 2018-12-04 17:21:22]
Starting GDB script
[INFO -- 2018-12-04 17:21:22]
initSignal:0.0
[INFO -- 2018-12-04 17:21:22]
endSignal:6.0
[INFO -- 2018-12-04 17:21:24]
sending 5 signals using command: 'killall -2 smith_waterman' after 1.80099050377s
[INFO -- 2018-12-04 17:21:24]
sending 5 signals using command: 'killall -2 smith_waterman' after 2.04721219334s
[INFO -- 2018-12-04 17:21:26]
sending 5 signals using command: 'killall -2 smith_waterman' after 3.74960270711s
[INFO -- 2018-12-04 17:21:28]
Execution finished before waitTime
