[INFO -- 2018-12-04 01:02:34]
Starting GDB script
[INFO -- 2018-12-04 01:02:34]
initSignal:0.0
[INFO -- 2018-12-04 01:02:34]
endSignal:6.0
[INFO -- 2018-12-04 01:02:34]
sending 5 signals using command: 'killall -2 smith_waterman' after 0.611781015485s
[INFO -- 2018-12-04 01:02:37]
sending 5 signals using command: 'killall -2 smith_waterman' after 3.5016979246s
[INFO -- 2018-12-04 01:02:40]
sending 5 signals using command: 'killall -2 smith_waterman' after 5.81537169558s
[INFO -- 2018-12-04 01:02:40]
Execution finished before waitTime
