[INFO -- 2018-12-05 21:05:46]
Starting GDB script
[INFO -- 2018-12-05 21:05:46]
initSignal:0.0
[INFO -- 2018-12-05 21:05:46]
endSignal:6.0
[INFO -- 2018-12-05 21:05:48]
sending 5 signals using command: 'killall -2 smith_waterman' after 2.04315837505s
[INFO -- 2018-12-05 21:05:50]
sending 5 signals using command: 'killall -2 smith_waterman' after 4.39239384589s
[INFO -- 2018-12-05 21:05:51]
Execution finished before waitTime
