[INFO -- 2018-12-08 03:24:57]
sending 5 signals using command: 'killall -2 smith_waterman' after 5.18377710065s
[INFO -- 2018-12-08 03:24:58]
sending 5 signals using command: 'killall -2 smith_waterman' after 5.68499858016s
[INFO -- 2018-12-08 03:24:58]
Starting GDB script
[INFO -- 2018-12-08 03:24:58]
initSignal:0.0
[INFO -- 2018-12-08 03:24:58]
endSignal:6.0
[INFO -- 2018-12-08 03:24:59]
sending 5 signals using command: 'killall -2 smith_waterman' after 1.44450107657s
[INFO -- 2018-12-08 03:25:00]
sending 5 signals using command: 'killall -2 smith_waterman' after 2.06315953832s
[INFO -- 2018-12-08 03:25:02]
sending 5 signals using command: 'killall -2 smith_waterman' after 3.73503994019s
[INFO -- 2018-12-08 03:25:05]
Execution finished before waitTime
