[INFO -- 2018-12-09 06:51:34]
Starting GDB script
[INFO -- 2018-12-09 06:51:34]
initSignal:0.0
[INFO -- 2018-12-09 06:51:34]
endSignal:6.0
[INFO -- 2018-12-09 06:51:37]
sending 5 signals using command: 'killall -2 smith_waterman' after 2.27055857673s
[INFO -- 2018-12-09 06:51:38]
sending 5 signals using command: 'killall -2 smith_waterman' after 3.56447446012s
[INFO -- 2018-12-09 06:51:39]
sending 5 signals using command: 'killall -2 smith_waterman' after 4.9137330429s
[INFO -- 2018-12-09 06:51:42]
Execution finished before waitTime
