[INFO -- 2018-12-04 15:41:07]
Starting GDB script
[INFO -- 2018-12-04 15:41:07]
initSignal:0.0
[INFO -- 2018-12-04 15:41:07]
endSignal:6.0
[INFO -- 2018-12-04 15:41:08]
sending 5 signals using command: 'killall -2 smith_waterman' after 0.15996398018s
[INFO -- 2018-12-04 15:41:12]
sending 5 signals using command: 'killall -2 smith_waterman' after 4.80078766575s
[INFO -- 2018-12-04 15:41:12]
sending 5 signals using command: 'killall -2 smith_waterman' after 4.82626045742s
[INFO -- 2018-12-04 15:41:14]
Execution finished before waitTime
