[INFO -- 2018-11-07 18:11:44]
Starting GDB script
[INFO -- 2018-11-07 18:11:44]
initSignal:0.0
[INFO -- 2018-11-07 18:11:44]
endSignal:6.0
[INFO -- 2018-11-07 18:11:44]
sending 5 signals using command: 'killall -2 smith_waterman' after 0.114097814273s
[INFO -- 2018-11-07 18:11:47]
sending 5 signals using command: 'killall -2 smith_waterman' after 2.8100307303s
[INFO -- 2018-11-07 18:11:47]
Execution finished before waitTime
