[INFO -- 2018-12-08 09:19:56]
Starting GDB script
[INFO -- 2018-12-08 09:19:56]
initSignal:0.0
[INFO -- 2018-12-08 09:19:56]
endSignal:6.0
[INFO -- 2018-12-08 09:19:59]
sending 5 signals using command: 'killall -2 smith_waterman' after 2.99213359892s
[INFO -- 2018-12-08 09:20:01]
sending 5 signals using command: 'killall -2 smith_waterman' after 4.06025339747s
[INFO -- 2018-12-08 09:20:02]
sending 5 signals using command: 'killall -2 smith_waterman' after 5.60520858724s
[INFO -- 2018-12-08 09:20:05]
Execution finished before waitTime
