[INFO -- 2018-09-23 13:53:07]
Starting GDB script
[INFO -- 2018-09-23 13:53:07]
initSignal:0.0
[INFO -- 2018-09-23 13:53:07]
endSignal:2.0
[INFO -- 2018-09-23 13:53:07]
sending 5 signals using command: 'killall -2 smith_waterman' after 0.661378523733s
[INFO -- 2018-09-23 13:53:08]
sending 5 signals using command: 'killall -2 smith_waterman' after 1.63911268227s
[INFO -- 2018-09-23 13:53:08]
sending 5 signals using command: 'killall -2 smith_waterman' after 1.72009806486s
[INFO -- 2018-09-23 13:53:12]
Execution finished before waitTime
