[INFO -- 2018-12-04 12:18:35]
sending 5 signals using command: 'killall -2 smith_waterman' after 5.26964383616s
[INFO -- 2018-12-04 12:18:35]
Starting GDB script
[INFO -- 2018-12-04 12:18:35]
initSignal:0.0
[INFO -- 2018-12-04 12:18:35]
endSignal:6.0
[INFO -- 2018-12-04 12:18:37]
sending 5 signals using command: 'killall -2 smith_waterman' after 2.15261237987s
[INFO -- 2018-12-04 12:18:38]
sending 5 signals using command: 'killall -2 smith_waterman' after 2.24767761843s
[INFO -- 2018-12-04 12:18:40]
Execution finished before waitTime
