[INFO -- 2018-09-24 22:45:41]
Starting GDB script
[INFO -- 2018-09-24 22:45:41]
initSignal:0.0
[INFO -- 2018-09-24 22:45:41]
endSignal:2.0
[INFO -- 2018-09-24 22:45:42]
sending 5 signals using command: 'killall -2 smith_waterman' after 0.959064562663s
[INFO -- 2018-09-24 22:45:43]
sending 5 signals using command: 'killall -2 smith_waterman' after 1.36337678112s
[INFO -- 2018-09-24 22:45:43]
sending 5 signals using command: 'killall -2 smith_waterman' after 1.86907096038s
[INFO -- 2018-09-24 22:45:46]
Execution finished before waitTime
