[INFO -- 2018-12-04 08:45:50]
Starting GDB script
[INFO -- 2018-12-04 08:45:50]
initSignal:0.0
[INFO -- 2018-12-04 08:45:50]
endSignal:6.0
[INFO -- 2018-12-04 08:45:52]
sending 5 signals using command: 'killall -2 smith_waterman' after 2.1632035518s
[INFO -- 2018-12-04 08:45:53]
sending 5 signals using command: 'killall -2 smith_waterman' after 3.04777289112s
[INFO -- 2018-12-04 08:45:55]
sending 5 signals using command: 'killall -2 smith_waterman' after 5.84205978452s
[INFO -- 2018-12-04 08:46:10]
Execution did not finish before waitTime
