[INFO -- 2018-12-03 16:27:45]
Starting GDB script
[INFO -- 2018-12-03 16:27:45]
initSignal:0.0
[INFO -- 2018-12-03 16:27:45]
endSignal:6.0
[INFO -- 2018-12-03 16:27:46]
sending 5 signals using command: 'killall -2 smith_waterman' after 1.38826759959s
[INFO -- 2018-12-03 16:27:46]
sending 5 signals using command: 'killall -2 smith_waterman' after 1.45362929788s
[INFO -- 2018-12-03 16:27:50]
Execution finished before waitTime
