[INFO -- 2018-09-23 15:12:04]
Starting GDB script
[INFO -- 2018-09-23 15:12:04]
initSignal:0.0
[INFO -- 2018-09-23 15:12:04]
endSignal:2.0
[INFO -- 2018-09-23 15:12:04]
sending 5 signals using command: 'killall -2 smith_waterman' after 0.169611314707s
[INFO -- 2018-09-23 15:12:04]
sending 5 signals using command: 'killall -2 smith_waterman' after 0.540726685099s
[INFO -- 2018-09-23 15:12:04]
sending 5 signals using command: 'killall -2 smith_waterman' after 0.670102559119s
[INFO -- 2018-09-23 15:12:09]
Execution finished before waitTime
