[INFO -- 2018-12-09 10:02:40]
Starting GDB script
[INFO -- 2018-12-09 10:02:40]
initSignal:0.0
[INFO -- 2018-12-09 10:02:40]
endSignal:6.0
[INFO -- 2018-12-09 10:02:41]
sending 5 signals using command: 'killall -2 smith_waterman' after 0.53886811304s
[INFO -- 2018-12-09 10:02:41]
Execution finished before waitTime
