[INFO -- 2018-12-04 07:21:15]
Starting GDB script
[INFO -- 2018-12-04 07:21:15]
initSignal:0.0
[INFO -- 2018-12-04 07:21:15]
endSignal:6.0
[INFO -- 2018-12-04 07:21:16]
sending 5 signals using command: 'killall -2 smith_waterman' after 0.989355018207s
[INFO -- 2018-12-04 07:21:16]
sending 5 signals using command: 'killall -2 smith_waterman' after 1.29631498069s
[INFO -- 2018-12-04 07:21:19]
sending 5 signals using command: 'killall -2 smith_waterman' after 4.86643773744s
[INFO -- 2018-12-04 07:21:21]
Execution finished before waitTime
