[INFO -- 2018-09-26 00:03:53]
Starting flip_value script
version: 1.1
[INFO -- 2018-09-26 00:03:53]
Initialization strings:
[INFO -- 2018-09-26 00:03:53]
(1) file /tmp/smith_waterman/smith_waterman
[INFO -- 2018-09-26 00:03:53]
(2) set args -x /tmp/smith_waterman/randInputX -y /tmp/smith_waterman/randInputY -o /tmp/smith_waterman/output
[INFO -- 2018-09-26 00:03:53]
initSignal:0
[INFO -- 2018-09-26 00:03:53]
endSignal:2
[INFO -- 2018-09-26 00:03:53]
faultModel:2
[INFO -- 2018-09-26 00:03:54]
Backtrace BEGIN:
#0  0x0000555555554d71 in my_maxof (a=-1, b=-2, c=-2, d=0) at smith_waterman.c:65
#1  0x00005555555550d7 in smith_waterman (x_num=15000, y_num=10650, str_x=0x5555557586c0 "BSOFAFKGCYCJNURCMSFCOSNYYZLTVAIZSXEVEOBIOFTCZKGNFNQVFFTFFEYCHJBBIHWOXZXMEQQFDYTINLDSQZXXFYAMHDORNMFKOCYSVQAAOVIDGNVWMVWSTWGABWTOJYBXBZRYQTYGOIKUVHTICPCVNKXQHQFSRIPUHISZCSGSASPVBIFEZJBMUBCBRJVIRKEBUWAY"..., str_y=0x55555575c170 "SSFFFFGCYCJJNRRMSFFCOSNYZLTTAIZZSXEVEOBOOTTZZKNNFQVVFFTFFYYCJBBIHHWXZZXMEQFFYTTNLLDQZXXXYAMMHDRRMFKKCYSSVAAAVIDGGVWMMWWTTGGBWWTOJBXBZRRQTYGOIKUVVHTCCPVVKXXQQFSSIPPHHSZZSGGASPVVIIFZJJBUBCBRRVVRKEBBWAAO"..., fo=0x555555758260) at smith_waterman.c:98
#2  0x0000555555555e38 in main (argc=7, argv=0x7fffffffdcb8) at smith_waterman.c:298

60	}
61	
62	double my_maxof(double a, double b, double c, double d)
63	{
64	    double ans=a;
65	    if(ans<b) ans=b;
66	    if(ans<c) ans=c;
67	    if(ans<d) ans=d;
68	    return ans;
69	}

Backtrace END
Fliping a bit of the value pointed by a pointer
Fliping value of field: _old_offset
Memory content before bitflip:0x000x000x000x000x000x000x000x00
Fault Model: Random bit-flip
base address to flip value: 0x5555557582d8
address max offset: 8
Memory content after  bitflip:0xc70x4e0xa40xac0xf10x0c0x940xbe
frame name: main
symbol name: fo
symbol filename: smith_waterman.c
symbol line: 278
value: 0x555555758260
value address: 0x7fffffffdbb8
Type: The type is a pointer.
Type sizeof: 8

[INFO -- 2018-09-26 00:03:54]
Fault Injection Successful after 1.0535836219787598s
[INFO -- 2018-09-26 00:03:57]
event type: exit
[INFO -- 2018-09-26 00:03:57]
exit code: 0
