[INFO -- 2018-09-24 03:32:58]
Starting GDB script
[INFO -- 2018-09-24 03:32:58]
initSignal:0.0
[INFO -- 2018-09-24 03:32:58]
endSignal:2.0
[INFO -- 2018-09-24 03:32:58]
sending 5 signals using command: 'killall -2 smith_waterman' after 0.269413857913s
[INFO -- 2018-09-24 03:32:58]
sending 5 signals using command: 'killall -2 smith_waterman' after 0.506234204784s
[INFO -- 2018-09-24 03:32:59]
sending 5 signals using command: 'killall -2 smith_waterman' after 1.69649254585s
[INFO -- 2018-09-24 03:33:04]
Execution finished before waitTime
