[INFO -- 2018-09-26 16:40:44]
Starting GDB script
[INFO -- 2018-09-26 16:40:44]
initSignal:0.0
[INFO -- 2018-09-26 16:40:44]
endSignal:2.0
[INFO -- 2018-09-26 16:40:45]
sending 5 signals using command: 'killall -2 smith_waterman' after 0.401433784374s
[INFO -- 2018-09-26 16:40:45]
sending 5 signals using command: 'killall -2 smith_waterman' after 0.938713649165s
[INFO -- 2018-09-26 16:40:46]
sending 5 signals using command: 'killall -2 smith_waterman' after 1.73063006252s
[INFO -- 2018-09-26 16:40:49]
Execution finished before waitTime
