[INFO -- 2018-12-03 13:19:28]
Starting GDB script
[INFO -- 2018-12-03 13:19:28]
initSignal:0.0
[INFO -- 2018-12-03 13:19:28]
endSignal:6.0
[INFO -- 2018-12-03 13:19:31]
sending 5 signals using command: 'killall -2 smith_waterman' after 2.98814912775s
[INFO -- 2018-12-03 13:19:31]
sending 5 signals using command: 'killall -2 smith_waterman' after 3.20578317804s
[INFO -- 2018-12-03 13:19:33]
sending 5 signals using command: 'killall -2 smith_waterman' after 4.80054997009s
[INFO -- 2018-12-03 13:19:34]
Execution finished before waitTime
