[INFO -- 2018-09-24 19:01:34]
Starting GDB script
[INFO -- 2018-09-24 19:01:34]
initSignal:0.0
[INFO -- 2018-09-24 19:01:34]
endSignal:2.0
[INFO -- 2018-09-24 19:01:34]
sending 5 signals using command: 'killall -2 smith_waterman' after 0.127480140881s
[INFO -- 2018-09-24 19:01:34]
sending 5 signals using command: 'killall -2 smith_waterman' after 0.307835234984s
[INFO -- 2018-09-24 19:01:35]
sending 5 signals using command: 'killall -2 smith_waterman' after 0.75661238541s
[INFO -- 2018-09-24 19:01:35]
Execution finished before waitTime
