[INFO -- 2018-12-08 23:21:07]
Starting GDB script
[INFO -- 2018-12-08 23:21:07]
initSignal:0.0
[INFO -- 2018-12-08 23:21:07]
endSignal:6.0
[INFO -- 2018-12-08 23:21:09]
sending 5 signals using command: 'killall -2 smith_waterman' after 2.08223437522s
[INFO -- 2018-12-08 23:21:09]
sending 5 signals using command: 'killall -2 smith_waterman' after 2.24541606523s
[INFO -- 2018-12-08 23:21:10]
Execution finished before waitTime
