[INFO -- 2018-12-09 09:12:57]
Starting GDB script
[INFO -- 2018-12-09 09:12:57]
initSignal:0.0
[INFO -- 2018-12-09 09:12:57]
endSignal:6.0
[INFO -- 2018-12-09 09:12:59]
sending 5 signals using command: 'killall -2 smith_waterman' after 1.39776306898s
[INFO -- 2018-12-09 09:12:59]
Execution finished before waitTime
