[INFO -- 2018-09-28 05:27:33]
Starting GDB script
[INFO -- 2018-09-28 05:27:33]
initSignal:0.0
[INFO -- 2018-09-28 05:27:33]
endSignal:2.0
[INFO -- 2018-09-28 05:27:33]
sending 5 signals using command: 'killall -2 smith_waterman' after 0.628299227411s
[INFO -- 2018-09-28 05:27:33]
sending 5 signals using command: 'killall -2 smith_waterman' after 0.73111771091s
[INFO -- 2018-09-28 05:27:34]
sending 5 signals using command: 'killall -2 smith_waterman' after 1.66624258781s
[INFO -- 2018-09-28 05:27:40]
Execution finished before waitTime
