[INFO -- 2018-11-08 21:50:15]
Starting flip_value script
version: 1.1
[INFO -- 2018-11-08 21:50:15]
Initialization strings:
[INFO -- 2018-11-08 21:50:15]
(1) file /tmp/smith_waterman/smith_waterman
[INFO -- 2018-11-08 21:50:15]
(2) set args -x /tmp/smith_waterman/randInputX -y /tmp/smith_waterman/randInputY -o /tmp/smith_waterman/output
[INFO -- 2018-11-08 21:50:15]
initSignal:0
[INFO -- 2018-11-08 21:50:15]
endSignal:6
[INFO -- 2018-11-08 21:50:15]
faultModel:2
[INFO -- 2018-11-08 21:50:16]
Backtrace BEGIN:
#0  0x0000555555554d9d in my_maxof (a=-1, b=-2, c=-2, d=0) at smith_waterman.c:67
#1  0x00005555555550d7 in smith_waterman (x_num=15000, y_num=13650, str_x=0x5555557586c0 "NZPJOUKFYJFFHEGCNGKERGLVCNVICJIPKXAATKGSULXDPDFFLRJEYWZCJUMLGUCQUETNPZFLMCOEHVJSMSWMQVOZSBMAXOQRULFJKMWXRKDYHMTUGRGWPXVJAJJXXBRTNYDZKZYDMBCVNXPTOYRFXOOXXXWWBNQOLTPYUOBIPDEDCVYTVQYSEPRCOOYPBQFPJVNGJOOY"..., str_y=0x55555575c170 "ZZPOOKKYJJFFHGGCGGKERGVVCNIICIPPKXAAKGGUUXXDDDFFLRJEYZZJUUMLGUCQUTNPZZLLMCOEVVSSSSWMQVZZBBMXOOQUULJKKWWXRKYYMTTGGRGPPVVAAJJXXRRTYYDKKZYMMCVVNXPOORFFOOOXXXWWNNQOLPPYUBIIDEDDCVTVVQYSPRRCOOYPQFFJVNGGJOYY"..., fo=0x555555758260) at smith_waterman.c:98
#2  0x0000555555555e38 in main (argc=7, argv=0x7fffffffde98) at smith_waterman.c:298

62	double my_maxof(double a, double b, double c, double d)
63	{
64	    double ans=a;
65	    if(ans<b) ans=b;
66	    if(ans<c) ans=c;
67	    if(ans<d) ans=d;
68	    return ans;
69	}
70	
71	double matchMisScore(long i, long j, char* str_y, char* str_x)

Backtrace END
Memory content before bitflip:0x000x000x000x000x000x000x000x00
Fault Model: Random bit-flip
base address to flip value: 0x7fffffffdc90
address max offset: 8
Memory content after  bitflip:0xa10x530xb70xb40xf00x5b0x680x46
frame name: smith_waterman
symbol name: maxValue
symbol filename: smith_waterman.c
symbol line: 114
value: 1.543944025472433e+31
value address: 0x7fffffffdc90
Type: A floating point type.
Type sizeof: 8

[INFO -- 2018-11-08 21:50:16]
Fault Injection Successful after 1.6115174293518066s
[INFO -- 2018-11-08 21:50:18]
event type: exit
[INFO -- 2018-11-08 21:50:18]
exit code: 0
