[INFO -- 2018-12-04 02:14:10]
Starting GDB script
[INFO -- 2018-12-04 02:14:10]
initSignal:0.0
[INFO -- 2018-12-04 02:14:10]
endSignal:6.0
[INFO -- 2018-12-04 02:14:12]
sending 5 signals using command: 'killall -2 smith_waterman' after 2.11677225826s
[INFO -- 2018-12-04 02:14:13]
sending 5 signals using command: 'killall -2 smith_waterman' after 3.78736209936s
[INFO -- 2018-12-04 02:14:14]
sending 5 signals using command: 'killall -2 smith_waterman' after 4.3263712356s
[INFO -- 2018-12-04 02:14:17]
Execution finished before waitTime
