[INFO -- 2018-12-05 07:25:41]
Starting GDB script
[INFO -- 2018-12-05 07:25:41]
initSignal:0.0
[INFO -- 2018-12-05 07:25:41]
endSignal:6.0
[INFO -- 2018-12-05 07:25:42]
sending 5 signals using command: 'killall -2 smith_waterman' after 1.80563577242s
[INFO -- 2018-12-05 07:25:45]
sending 5 signals using command: 'killall -2 smith_waterman' after 3.88220656476s
[INFO -- 2018-12-05 07:25:46]
sending 5 signals using command: 'killall -2 smith_waterman' after 5.71844052286s
[INFO -- 2018-12-05 07:25:47]
Execution finished before waitTime
