[INFO -- 2018-09-26 04:35:24]
Starting GDB script
[INFO -- 2018-09-26 04:35:24]
initSignal:0.0
[INFO -- 2018-09-26 04:35:24]
endSignal:2.0
[INFO -- 2018-09-26 04:35:24]
sending 5 signals using command: 'killall -2 smith_waterman' after 0.0498526586931s
[INFO -- 2018-09-26 04:35:24]
sending 5 signals using command: 'killall -2 smith_waterman' after 0.675845020909s
[INFO -- 2018-09-26 04:35:25]
sending 5 signals using command: 'killall -2 smith_waterman' after 1.43449541109s
[INFO -- 2018-09-26 04:35:30]
Execution finished before waitTime
