[INFO -- 2018-12-05 02:45:18]
Starting GDB script
[INFO -- 2018-12-05 02:45:18]
initSignal:0.0
[INFO -- 2018-12-05 02:45:18]
endSignal:6.0
[INFO -- 2018-12-05 02:45:19]
sending 5 signals using command: 'killall -2 smith_waterman' after 0.548640589686s
[INFO -- 2018-12-05 02:45:21]
sending 5 signals using command: 'killall -2 smith_waterman' after 2.32957879499s
[INFO -- 2018-12-05 02:45:24]
sending 5 signals using command: 'killall -2 smith_waterman' after 5.28939684617s
[INFO -- 2018-12-05 02:45:26]
Execution finished before waitTime
