[INFO -- 2018-12-05 20:59:36]
Starting GDB script
[INFO -- 2018-12-05 20:59:36]
initSignal:0.0
[INFO -- 2018-12-05 20:59:36]
endSignal:6.0
[INFO -- 2018-12-05 20:59:36]
sending 5 signals using command: 'killall -2 smith_waterman' after 0.464401550074s
[INFO -- 2018-12-05 20:59:41]
Execution finished before waitTime
