[INFO -- 2018-09-25 18:43:38]
Starting GDB script
[INFO -- 2018-09-25 18:43:38]
initSignal:0.0
[INFO -- 2018-09-25 18:43:38]
endSignal:2.0
[INFO -- 2018-09-25 18:43:38]
sending 5 signals using command: 'killall -2 smith_waterman' after 0.877456913834s
[INFO -- 2018-09-25 18:43:39]
sending 5 signals using command: 'killall -2 smith_waterman' after 1.33825256252s
[INFO -- 2018-09-25 18:43:39]
sending 5 signals using command: 'killall -2 smith_waterman' after 1.65892347208s
[INFO -- 2018-09-25 18:43:45]
Execution finished before waitTime
