[INFO -- 2018-09-28 05:16:13]
Starting GDB script
[INFO -- 2018-09-28 05:16:13]
initSignal:0.0
[INFO -- 2018-09-28 05:16:13]
endSignal:2.0
[INFO -- 2018-09-28 05:16:13]
sending 5 signals using command: 'killall -2 smith_waterman' after 0.550144554996s
[INFO -- 2018-09-28 05:16:14]
sending 5 signals using command: 'killall -2 smith_waterman' after 1.74693774802s
[INFO -- 2018-09-28 05:16:14]
sending 5 signals using command: 'killall -2 smith_waterman' after 1.76616151757s
[INFO -- 2018-09-28 05:16:20]
Execution finished before waitTime
