[INFO -- 2018-09-25 04:47:21]
Starting flip_value script
version: 1.1
[INFO -- 2018-09-25 04:47:21]
Initialization strings:
[INFO -- 2018-09-25 04:47:21]
(1) file /tmp/smith_waterman/smith_waterman
[INFO -- 2018-09-25 04:47:21]
(2) set args -x /tmp/smith_waterman/randInputX -y /tmp/smith_waterman/randInputY -o /tmp/smith_waterman/output
[INFO -- 2018-09-25 04:47:21]
initSignal:0
[INFO -- 2018-09-25 04:47:21]
endSignal:2
[INFO -- 2018-09-25 04:47:21]
faultModel:0
[INFO -- 2018-09-25 04:47:22]
Backtrace BEGIN:
#0  my_maxof (a=-1, b=-2, c=-2, d=0) at smith_waterman.c:63
#1  0x00005555555550d7 in smith_waterman (x_num=11700, y_num=15000, str_x=0x5555557586c0 "GBAIDDQQKMVAAYPPEEDTBSSDWWMNFCTIITQQYLJZEEIJJGPMMTLNCDHHZZXGGZPUUCHSNBBOZJOKSGEEMUUEGGLFFIMKKODEQMXFFATLLJDDPKSSGGWMJJUUTTIEJIIZZHEECKKLLYAQQKUUTTNFCCXXXLBHYLKVRREETOZGPAFMFZZFOOKQQNZQYCZNNJIIBPPVSOEO"..., str_y=0x55555575b480 "GBQAIDQQKMVAACYPEEDTBGSVDWMNMFCTITTQYLJIZEIZJGQPMTLNCDKHZZXOGZHPUCHSNSBOZJOKSGZECMUEPGLRFIHMKODEQMXFFATELJODQPKSCGWTMJMUSTIEJNIBZHGEJCKVLYABQKVUSTNFDCBXXLBHYLKXVREETOZGPAKFMFZFZOKCQNZQYCZYNJXIABPVSOEH"..., fo=0x555555758260) at smith_waterman.c:98
#2  0x0000555555555e38 in main (argc=7, argv=0x7fffffffdcb8) at smith_waterman.c:298

58	        exit(0);
59	    }
60	}
61	
62	double my_maxof(double a, double b, double c, double d)
63	{
64	    double ans=a;
65	    if(ans<b) ans=b;
66	    if(ans<c) ans=c;
67	    if(ans<d) ans=d;

Backtrace END
Fliping a bit of the pointer
Memory content before bitflip:0x600x820x750x550x550x550x000x00
Fault Model: Single bit-flip
base address to flip value: 0x7fffffffdb70
address max offset: 8
Memory content after  bitflip:0x600x820x750x550x550xd50x000x00
frame name: main
symbol name: fpy
symbol filename: smith_waterman.c
symbol line: 278
value: 0x555555758260
value address: 0x7fffffffdb70
Type: The type is a pointer.
Type sizeof: 8

[INFO -- 2018-09-25 04:47:22]
Fault Injection Successful after 1.539663314819336s
[INFO -- 2018-09-25 04:47:26]
event type: exit
[INFO -- 2018-09-25 04:47:26]
exit code: 0
