[INFO -- 2018-12-03 19:35:24]
Starting GDB script
[INFO -- 2018-12-03 19:35:24]
initSignal:0.0
[INFO -- 2018-12-03 19:35:24]
endSignal:6.0
[INFO -- 2018-12-03 19:35:26]
sending 5 signals using command: 'killall -2 smith_waterman' after 1.71658625694s
[INFO -- 2018-12-03 19:35:26]
sending 5 signals using command: 'killall -2 smith_waterman' after 1.8704271843s
[INFO -- 2018-12-03 19:35:29]
sending 5 signals using command: 'killall -2 smith_waterman' after 5.42718183621s
[INFO -- 2018-12-03 19:35:44]
Execution did not finish before waitTime
