[INFO -- 2018-11-08 23:28:49]
sending 5 signals using command: 'killall -2 smith_waterman' after 3.93053642035s
[INFO -- 2018-11-08 23:28:49]
Starting GDB script
[INFO -- 2018-11-08 23:28:49]
initSignal:0.0
[INFO -- 2018-11-08 23:28:49]
endSignal:6.0
[INFO -- 2018-11-08 23:28:50]
sending 5 signals using command: 'killall -2 smith_waterman' after 1.05576953271s
[INFO -- 2018-11-08 23:28:52]
Execution finished before waitTime
