[INFO -- 2018-12-05 18:33:29]
sending 5 signals using command: 'killall -2 smith_waterman' after 2.98412689855s
[INFO -- 2018-12-05 18:33:29]
sending 5 signals using command: 'killall -2 smith_waterman' after 3.27985764902s
[INFO -- 2018-12-05 18:33:29]
Starting GDB script
[INFO -- 2018-12-05 18:33:29]
initSignal:0.0
[INFO -- 2018-12-05 18:33:29]
endSignal:6.0
[INFO -- 2018-12-05 18:33:30]
sending 5 signals using command: 'killall -2 smith_waterman' after 0.0828174246001s
[INFO -- 2018-12-05 18:33:31]
sending 5 signals using command: 'killall -2 smith_waterman' after 1.59940424497s
[INFO -- 2018-12-05 18:33:35]
sending 5 signals using command: 'killall -2 smith_waterman' after 5.17489424129s
[INFO -- 2018-12-05 18:33:36]
Execution finished before waitTime
