[INFO -- 2018-09-25 18:33:18]
Starting GDB script
[INFO -- 2018-09-25 18:33:18]
initSignal:0.0
[INFO -- 2018-09-25 18:33:18]
endSignal:2.0
[INFO -- 2018-09-25 18:33:19]
sending 5 signals using command: 'killall -2 smith_waterman' after 1.26907230238s
[INFO -- 2018-09-25 18:33:20]
sending 5 signals using command: 'killall -2 smith_waterman' after 1.81297694215s
[INFO -- 2018-09-25 18:33:20]
sending 5 signals using command: 'killall -2 smith_waterman' after 1.8785777173s
[INFO -- 2018-09-25 18:33:25]
Execution finished before waitTime
