[INFO -- 2018-09-23 14:33:11]
Starting GDB script
[INFO -- 2018-09-23 14:33:11]
initSignal:0.0
[INFO -- 2018-09-23 14:33:11]
endSignal:2.0
[INFO -- 2018-09-23 14:33:12]
sending 5 signals using command: 'killall -2 smith_waterman' after 0.0639194910959s
[INFO -- 2018-09-23 14:33:12]
sending 5 signals using command: 'killall -2 smith_waterman' after 0.9932608669s
[INFO -- 2018-09-23 14:33:13]
sending 5 signals using command: 'killall -2 smith_waterman' after 1.27915752188s
[INFO -- 2018-09-23 14:33:17]
Execution finished before waitTime
