[INFO -- 2018-12-08 02:55:19]
sending 5 signals using command: 'killall -2 smith_waterman' after 4.81280457563s
[INFO -- 2018-12-08 02:55:19]
Starting GDB script
[INFO -- 2018-12-08 02:55:19]
initSignal:0.0
[INFO -- 2018-12-08 02:55:19]
endSignal:6.0
[INFO -- 2018-12-08 02:55:21]
sending 5 signals using command: 'killall -2 smith_waterman' after 1.91333158956s
[INFO -- 2018-12-08 02:55:23]
sending 5 signals using command: 'killall -2 smith_waterman' after 3.70686394118s
[INFO -- 2018-12-08 02:55:23]
sending 5 signals using command: 'killall -2 smith_waterman' after 3.7942249704s
[INFO -- 2018-12-08 02:55:26]
Execution finished before waitTime
