[INFO -- 2018-11-09 00:58:29]
sending 5 signals using command: 'killall -2 smith_waterman' after 3.96865791304s
[INFO -- 2018-11-09 00:58:29]
sending 5 signals using command: 'killall -2 smith_waterman' after 4.03294431706s
[INFO -- 2018-11-09 00:58:31]
sending 5 signals using command: 'killall -2 smith_waterman' after 5.67819990943s
[INFO -- 2018-11-09 00:58:31]
Starting GDB script
[INFO -- 2018-11-09 00:58:31]
initSignal:0.0
[INFO -- 2018-11-09 00:58:31]
endSignal:6.0
[INFO -- 2018-11-09 00:58:31]
sending 5 signals using command: 'killall -2 smith_waterman' after 0.0269788795564s
[INFO -- 2018-11-09 00:58:31]
sending 5 signals using command: 'killall -2 smith_waterman' after 0.5502240136s
[INFO -- 2018-11-09 00:58:34]
Execution finished before waitTime
