[INFO -- 2018-09-23 18:29:32]
Starting GDB script
[INFO -- 2018-09-23 18:29:32]
initSignal:0.0
[INFO -- 2018-09-23 18:29:32]
endSignal:2.0
[INFO -- 2018-09-23 18:29:32]
sending 5 signals using command: 'killall -2 smith_waterman' after 0.139227440291s
[INFO -- 2018-09-23 18:29:33]
sending 5 signals using command: 'killall -2 smith_waterman' after 0.934328073117s
[INFO -- 2018-09-23 18:29:33]
sending 5 signals using command: 'killall -2 smith_waterman' after 1.7915211451s
[INFO -- 2018-09-23 18:29:37]
Execution finished before waitTime
