[INFO -- 2018-12-04 12:42:35]
Starting GDB script
[INFO -- 2018-12-04 12:42:35]
initSignal:0.0
[INFO -- 2018-12-04 12:42:35]
endSignal:6.0
[INFO -- 2018-12-04 12:42:36]
sending 5 signals using command: 'killall -2 smith_waterman' after 1.07507031134s
[INFO -- 2018-12-04 12:42:38]
sending 5 signals using command: 'killall -2 smith_waterman' after 3.0600009005s
[INFO -- 2018-12-04 12:42:39]
sending 5 signals using command: 'killall -2 smith_waterman' after 4.01175956952s
[INFO -- 2018-12-04 12:42:41]
Execution finished before waitTime
