[INFO -- 2018-09-27 00:38:12]
Starting GDB script
[INFO -- 2018-09-27 00:38:12]
initSignal:0.0
[INFO -- 2018-09-27 00:38:12]
endSignal:2.0
[INFO -- 2018-09-27 00:38:13]
sending 5 signals using command: 'killall -2 smith_waterman' after 0.938783641911s
[INFO -- 2018-09-27 00:38:13]
sending 5 signals using command: 'killall -2 smith_waterman' after 1.04938523842s
[INFO -- 2018-09-27 00:38:14]
sending 5 signals using command: 'killall -2 smith_waterman' after 1.96675033333s
[INFO -- 2018-09-27 00:38:32]
Execution did not finish before waitTime
