[INFO -- 2018-12-05 14:47:22]
Starting GDB script
[INFO -- 2018-12-05 14:47:22]
initSignal:0.0
[INFO -- 2018-12-05 14:47:22]
endSignal:6.0
[INFO -- 2018-12-05 14:47:23]
sending 5 signals using command: 'killall -2 smith_waterman' after 0.685389443083s
[INFO -- 2018-12-05 14:47:23]
sending 5 signals using command: 'killall -2 smith_waterman' after 1.08119412252s
[INFO -- 2018-12-05 14:47:24]
sending 5 signals using command: 'killall -2 smith_waterman' after 2.18233352637s
[INFO -- 2018-12-05 14:47:27]
Execution finished before waitTime
