[INFO -- 2018-12-05 08:26:47]
Starting GDB script
[INFO -- 2018-12-05 08:26:47]
initSignal:0.0
[INFO -- 2018-12-05 08:26:47]
endSignal:6.0
[INFO -- 2018-12-05 08:26:51]
sending 5 signals using command: 'killall -2 smith_waterman' after 4.53298205105s
[INFO -- 2018-12-05 08:26:52]
sending 5 signals using command: 'killall -2 smith_waterman' after 5.36273130596s
[INFO -- 2018-12-05 08:26:53]
sending 5 signals using command: 'killall -2 smith_waterman' after 5.7942453127s
[INFO -- 2018-12-05 08:26:53]
Execution finished before waitTime
