[INFO -- 2018-09-27 07:47:15]
Starting GDB script
[INFO -- 2018-09-27 07:47:15]
initSignal:0.0
[INFO -- 2018-09-27 07:47:15]
endSignal:2.0
[INFO -- 2018-09-27 07:47:16]
sending 5 signals using command: 'killall -2 smith_waterman' after 0.432147143137s
[INFO -- 2018-09-27 07:47:16]
sending 5 signals using command: 'killall -2 smith_waterman' after 0.834607178881s
[INFO -- 2018-09-27 07:47:17]
sending 5 signals using command: 'killall -2 smith_waterman' after 1.12055161924s
[INFO -- 2018-09-27 07:47:22]
Execution finished before waitTime
