[INFO -- 2018-12-09 06:55:02]
Starting GDB script
[INFO -- 2018-12-09 06:55:02]
initSignal:0.0
[INFO -- 2018-12-09 06:55:02]
endSignal:6.0
[INFO -- 2018-12-09 06:55:04]
sending 5 signals using command: 'killall -2 smith_waterman' after 1.41358889918s
[INFO -- 2018-12-09 06:55:06]
sending 5 signals using command: 'killall -2 smith_waterman' after 3.28664067388s
[INFO -- 2018-12-09 06:55:08]
sending 5 signals using command: 'killall -2 smith_waterman' after 5.7816745103s
[INFO -- 2018-12-09 06:55:10]
Execution finished before waitTime
