[INFO -- 2018-12-08 05:08:49]
Starting GDB script
[INFO -- 2018-12-08 05:08:49]
initSignal:0.0
[INFO -- 2018-12-08 05:08:49]
endSignal:6.0
[INFO -- 2018-12-08 05:08:50]
sending 5 signals using command: 'killall -2 smith_waterman' after 1.04763246251s
[INFO -- 2018-12-08 05:08:51]
Execution finished before waitTime
