[INFO -- 2018-12-04 19:26:41]
Starting GDB script
[INFO -- 2018-12-04 19:26:41]
initSignal:0.0
[INFO -- 2018-12-04 19:26:41]
endSignal:6.0
[INFO -- 2018-12-04 19:26:43]
sending 5 signals using command: 'killall -2 smith_waterman' after 1.58574659983s
[INFO -- 2018-12-04 19:26:45]
sending 5 signals using command: 'killall -2 smith_waterman' after 3.73540781276s
[INFO -- 2018-12-04 19:26:47]
sending 5 signals using command: 'killall -2 smith_waterman' after 5.65146376869s
[INFO -- 2018-12-04 19:27:01]
Execution did not finish before waitTime
