[INFO -- 2018-09-27 07:35:35]
Starting GDB script
[INFO -- 2018-09-27 07:35:35]
initSignal:0.0
[INFO -- 2018-09-27 07:35:35]
endSignal:2.0
[INFO -- 2018-09-27 07:35:36]
sending 5 signals using command: 'killall -2 smith_waterman' after 0.177452525391s
[INFO -- 2018-09-27 07:35:36]
sending 5 signals using command: 'killall -2 smith_waterman' after 0.600012425924s
[INFO -- 2018-09-27 07:35:37]
sending 5 signals using command: 'killall -2 smith_waterman' after 1.37503257469s
[INFO -- 2018-09-27 07:35:41]
Execution finished before waitTime
