[INFO -- 2018-12-04 09:32:31]
Starting GDB script
[INFO -- 2018-12-04 09:32:31]
initSignal:0.0
[INFO -- 2018-12-04 09:32:31]
endSignal:6.0
[INFO -- 2018-12-04 09:32:34]
sending 5 signals using command: 'killall -2 smith_waterman' after 3.38541137415s
[INFO -- 2018-12-04 09:32:35]
sending 5 signals using command: 'killall -2 smith_waterman' after 4.02416391022s
[INFO -- 2018-12-04 09:32:35]
sending 5 signals using command: 'killall -2 smith_waterman' after 4.28188690385s
[INFO -- 2018-12-04 09:32:37]
Execution finished before waitTime
