[INFO -- 2018-12-08 18:44:54]
Starting GDB script
[INFO -- 2018-12-08 18:44:54]
initSignal:0.0
[INFO -- 2018-12-08 18:44:54]
endSignal:6.0
[INFO -- 2018-12-08 18:44:56]
sending 5 signals using command: 'killall -2 smith_waterman' after 2.03690136485s
[INFO -- 2018-12-08 18:44:56]
sending 5 signals using command: 'killall -2 smith_waterman' after 2.57031728054s
[INFO -- 2018-12-08 18:44:59]
sending 5 signals using command: 'killall -2 smith_waterman' after 4.88314485743s
[INFO -- 2018-12-08 18:45:01]
Execution finished before waitTime
