[INFO -- 2018-09-26 07:36:35]
Starting GDB script
[INFO -- 2018-09-26 07:36:35]
initSignal:0.0
[INFO -- 2018-09-26 07:36:35]
endSignal:2.0
[INFO -- 2018-09-26 07:36:36]
sending 5 signals using command: 'killall -2 smith_waterman' after 0.475503393162s
[INFO -- 2018-09-26 07:36:36]
sending 5 signals using command: 'killall -2 smith_waterman' after 1.19245397672s
[INFO -- 2018-09-26 07:36:37]
sending 5 signals using command: 'killall -2 smith_waterman' after 1.4091567328s
[INFO -- 2018-09-26 07:36:42]
Execution finished before waitTime
