[INFO -- 2018-12-03 23:31:52]
Starting GDB script
[INFO -- 2018-12-03 23:31:52]
initSignal:0.0
[INFO -- 2018-12-03 23:31:52]
endSignal:6.0
[INFO -- 2018-12-03 23:31:53]
sending 5 signals using command: 'killall -2 smith_waterman' after 0.751553207866s
[INFO -- 2018-12-03 23:31:56]
sending 5 signals using command: 'killall -2 smith_waterman' after 3.27158375577s
[INFO -- 2018-12-03 23:31:57]
sending 5 signals using command: 'killall -2 smith_waterman' after 5.05991593779s
[INFO -- 2018-12-03 23:31:57]
Execution finished before waitTime
