[INFO -- 2018-11-09 02:18:04]
Starting GDB script
[INFO -- 2018-11-09 02:18:04]
initSignal:0.0
[INFO -- 2018-11-09 02:18:04]
endSignal:6.0
[INFO -- 2018-11-09 02:18:06]
sending 5 signals using command: 'killall -2 smith_waterman' after 1.85849793574s
[INFO -- 2018-11-09 02:18:07]
sending 5 signals using command: 'killall -2 smith_waterman' after 3.03608143174s
[INFO -- 2018-11-09 02:18:07]
Execution finished before waitTime
