[INFO -- 2018-09-25 05:16:05]
Starting GDB script
[INFO -- 2018-09-25 05:16:05]
initSignal:0.0
[INFO -- 2018-09-25 05:16:05]
endSignal:2.0
[INFO -- 2018-09-25 05:16:06]
sending 5 signals using command: 'killall -2 smith_waterman' after 0.17671746593s
[INFO -- 2018-09-25 05:16:06]
sending 5 signals using command: 'killall -2 smith_waterman' after 0.36437776618s
[INFO -- 2018-09-25 05:16:07]
Execution finished before waitTime
