[INFO -- 2018-12-03 12:08:59]
Starting GDB script
[INFO -- 2018-12-03 12:08:59]
initSignal:0.0
[INFO -- 2018-12-03 12:08:59]
endSignal:6.0
[INFO -- 2018-12-03 12:09:00]
sending 5 signals using command: 'killall -2 smith_waterman' after 1.00150431425s
[INFO -- 2018-12-03 12:09:01]
Execution finished before waitTime
