[INFO -- 2018-09-23 23:12:12]
Starting GDB script
[INFO -- 2018-09-23 23:12:12]
initSignal:0.0
[INFO -- 2018-09-23 23:12:12]
endSignal:2.0
[INFO -- 2018-09-23 23:12:12]
sending 5 signals using command: 'killall -2 smith_waterman' after 0.55595687107s
[INFO -- 2018-09-23 23:12:12]
sending 5 signals using command: 'killall -2 smith_waterman' after 0.566968679389s
[INFO -- 2018-09-23 23:12:13]
Execution finished before waitTime
