[INFO -- 2018-11-09 00:09:33]
sending 5 signals using command: 'killall -2 smith_waterman' after 4.49110823656s
[INFO -- 2018-11-09 00:09:33]
Starting GDB script
[INFO -- 2018-11-09 00:09:33]
initSignal:0.0
[INFO -- 2018-11-09 00:09:33]
endSignal:6.0
[INFO -- 2018-11-09 00:09:36]
Execution finished before waitTime
