[INFO -- 2018-12-08 11:26:05]
Starting GDB script
[INFO -- 2018-12-08 11:26:05]
initSignal:0.0
[INFO -- 2018-12-08 11:26:05]
endSignal:6.0
[INFO -- 2018-12-08 11:26:09]
sending 5 signals using command: 'killall -2 smith_waterman' after 3.46425281157s
[INFO -- 2018-12-08 11:26:11]
sending 5 signals using command: 'killall -2 smith_waterman' after 5.84208795856s
[INFO -- 2018-12-08 11:26:11]
sending 5 signals using command: 'killall -2 smith_waterman' after 5.95787060897s
[INFO -- 2018-12-08 11:26:13]
Execution finished before waitTime
