[INFO -- 2018-11-09 02:17:34]
sending 5 signals using command: 'killall -2 smith_waterman' after 3.93687914328s
[INFO -- 2018-11-09 02:17:34]
Starting GDB script
[INFO -- 2018-11-09 02:17:34]
initSignal:0.0
[INFO -- 2018-11-09 02:17:34]
endSignal:6.0
[INFO -- 2018-11-09 02:17:37]
Execution finished before waitTime
