[INFO -- 2018-09-26 01:00:29]
Starting GDB script
[INFO -- 2018-09-26 01:00:29]
initSignal:0.0
[INFO -- 2018-09-26 01:00:29]
endSignal:2.0
[INFO -- 2018-09-26 01:00:29]
sending 5 signals using command: 'killall -2 smith_waterman' after 0.793416113123s
[INFO -- 2018-09-26 01:00:30]
sending 5 signals using command: 'killall -2 smith_waterman' after 1.33656559846s
[INFO -- 2018-09-26 01:00:30]
sending 5 signals using command: 'killall -2 smith_waterman' after 1.34730481247s
[INFO -- 2018-09-26 01:00:34]
Execution finished before waitTime
