[INFO -- 2018-12-04 11:27:57]
Starting GDB script
[INFO -- 2018-12-04 11:27:57]
initSignal:0.0
[INFO -- 2018-12-04 11:27:57]
endSignal:6.0
[INFO -- 2018-12-04 11:28:01]
sending 5 signals using command: 'killall -2 smith_waterman' after 4.87509501279s
[INFO -- 2018-12-04 11:28:02]
sending 5 signals using command: 'killall -2 smith_waterman' after 5.07645679071s
[INFO -- 2018-12-04 11:28:02]
sending 5 signals using command: 'killall -2 smith_waterman' after 5.84844251144s
[INFO -- 2018-12-04 11:28:17]
Execution did not finish before waitTime
