[INFO -- 2018-11-08 21:02:56]
Starting flip_value script
version: 1.1
[INFO -- 2018-11-08 21:02:56]
Initialization strings:
[INFO -- 2018-11-08 21:02:56]
(1) file /tmp/smith_waterman/smith_waterman
[INFO -- 2018-11-08 21:02:56]
(2) set args -x /tmp/smith_waterman/randInputX -y /tmp/smith_waterman/randInputY -o /tmp/smith_waterman/output
[INFO -- 2018-11-08 21:02:56]
initSignal:0
[INFO -- 2018-11-08 21:02:56]
endSignal:6
[INFO -- 2018-11-08 21:02:56]
faultModel:0
[INFO -- 2018-11-08 21:02:58]
event type: exit
[INFO -- 2018-11-08 21:02:58]
exit code: 0
