[INFO -- 2018-11-09 00:57:02]
sending 5 signals using command: 'killall -2 smith_waterman' after 4.05192142271s
[INFO -- 2018-11-09 00:57:03]
sending 5 signals using command: 'killall -2 smith_waterman' after 4.41897579715s
[INFO -- 2018-11-09 00:57:03]
Starting GDB script
[INFO -- 2018-11-09 00:57:03]
initSignal:0.0
[INFO -- 2018-11-09 00:57:03]
endSignal:6.0
[INFO -- 2018-11-09 00:57:06]
sending 5 signals using command: 'killall -2 smith_waterman' after 3.02072453334s
[INFO -- 2018-11-09 00:57:06]
Execution finished before waitTime
