[INFO -- 2018-09-25 17:55:35]
Starting GDB script
[INFO -- 2018-09-25 17:55:35]
initSignal:0.0
[INFO -- 2018-09-25 17:55:35]
endSignal:2.0
[INFO -- 2018-09-25 17:55:35]
sending 5 signals using command: 'killall -2 smith_waterman' after 0.254786772811s
[INFO -- 2018-09-25 17:55:36]
sending 5 signals using command: 'killall -2 smith_waterman' after 1.17306318505s
[INFO -- 2018-09-25 17:55:36]
sending 5 signals using command: 'killall -2 smith_waterman' after 1.44814383098s
[INFO -- 2018-09-25 17:55:40]
Execution finished before waitTime
