[INFO -- 2018-12-08 19:00:06]
Starting GDB script
[INFO -- 2018-12-08 19:00:06]
initSignal:0.0
[INFO -- 2018-12-08 19:00:06]
endSignal:6.0
[INFO -- 2018-12-08 19:00:08]
sending 5 signals using command: 'killall -2 smith_waterman' after 2.05083369783s
[INFO -- 2018-12-08 19:00:09]
sending 5 signals using command: 'killall -2 smith_waterman' after 2.47690848922s
[INFO -- 2018-12-08 19:00:12]
sending 5 signals using command: 'killall -2 smith_waterman' after 5.70147003788s
[INFO -- 2018-12-08 19:00:13]
Execution finished before waitTime
