[INFO -- 2018-12-04 02:13:34]
Starting GDB script
[INFO -- 2018-12-04 02:13:34]
initSignal:0.0
[INFO -- 2018-12-04 02:13:34]
endSignal:6.0
[INFO -- 2018-12-04 02:13:34]
sending 5 signals using command: 'killall -2 smith_waterman' after 0.463445238671s
[INFO -- 2018-12-04 02:13:35]
sending 5 signals using command: 'killall -2 smith_waterman' after 0.891755644374s
[INFO -- 2018-12-04 02:13:39]
sending 5 signals using command: 'killall -2 smith_waterman' after 5.02712467125s
[INFO -- 2018-12-04 02:13:41]
Execution finished before waitTime
