[INFO -- 2018-09-25 04:35:35]
Starting GDB script
[INFO -- 2018-09-25 04:35:35]
initSignal:0.0
[INFO -- 2018-09-25 04:35:35]
endSignal:2.0
[INFO -- 2018-09-25 04:35:36]
sending 5 signals using command: 'killall -2 smith_waterman' after 1.796041964s
[INFO -- 2018-09-25 04:35:36]
sending 5 signals using command: 'killall -2 smith_waterman' after 1.8851025281s
[INFO -- 2018-09-25 04:35:36]
sending 5 signals using command: 'killall -2 smith_waterman' after 1.89756534322s
[INFO -- 2018-09-25 04:35:38]
Execution finished before waitTime
