[INFO -- 2018-12-04 12:10:49]
sending 5 signals using command: 'killall -2 smith_waterman' after 5.55749622592s
[INFO -- 2018-12-04 12:10:49]
Starting GDB script
[INFO -- 2018-12-04 12:10:49]
initSignal:0.0
[INFO -- 2018-12-04 12:10:49]
endSignal:6.0
[INFO -- 2018-12-04 12:10:51]
sending 5 signals using command: 'killall -2 smith_waterman' after 1.77453131944s
[INFO -- 2018-12-04 12:10:53]
sending 5 signals using command: 'killall -2 smith_waterman' after 3.54280808614s
[INFO -- 2018-12-04 12:10:55]
sending 5 signals using command: 'killall -2 smith_waterman' after 5.4351144582s
[INFO -- 2018-12-04 12:11:09]
Execution did not finish before waitTime
