[INFO -- 2018-09-24 18:29:29]
Starting GDB script
[INFO -- 2018-09-24 18:29:29]
initSignal:0.0
[INFO -- 2018-09-24 18:29:29]
endSignal:2.0
[INFO -- 2018-09-24 18:29:29]
sending 5 signals using command: 'killall -2 smith_waterman' after 0.153056418428s
[INFO -- 2018-09-24 18:29:30]
sending 5 signals using command: 'killall -2 smith_waterman' after 1.0833936979s
[INFO -- 2018-09-24 18:29:30]
sending 5 signals using command: 'killall -2 smith_waterman' after 1.32839722903s
[INFO -- 2018-09-24 18:29:36]
Execution finished before waitTime
