[INFO -- 2018-09-23 13:22:03]
Starting flip_value script
version: 1.1
[INFO -- 2018-09-23 13:22:03]
Initialization strings:
[INFO -- 2018-09-23 13:22:03]
(1) file /tmp/smith_waterman/smith_waterman
[INFO -- 2018-09-23 13:22:03]
(2) set args -x /tmp/smith_waterman/randInputX -y /tmp/smith_waterman/randInputY -o /tmp/smith_waterman/output
[INFO -- 2018-09-23 13:22:03]
initSignal:0
[INFO -- 2018-09-23 13:22:03]
endSignal:2
[INFO -- 2018-09-23 13:22:03]
faultModel:1
[INFO -- 2018-09-23 13:22:03]
Backtrace BEGIN:
#0  0x00005555555550dc in smith_waterman (x_num=15000, y_num=13650, str_x=0x5555557586c0 "HWSGMTGFLZNMTWDCKEIUOQOZUWZGZJGJFYPURVZCUORNLURXBBSPRGRLCQTBBZMJXBDQWCVSSMHFIADLBXBUDUHHKBKMCXVAAYSXCNRUBZAKZFVDCYXHSFODIARKZOMAMFXQUQMWPOGRTDWXCVEUAUZKXSVWGJWUQVKLOZHDPPWLSSIUOPRQJSDILAFRJDMABYLPXUUN"..., str_y=0x55555575c170 "WSSMMTGLLZMMTWDKKEIUOOOUWWZZZGGJFPPURZZCUORNUURBBSSPGGLLCQTBBMJJBDDQCVVSMHHFIDLLXBBDDUHKKBKCCXVAASXCNRRBBAKKZFVCYYHHSFODARRKOOMAMFQUUMMWOORRTDWXVEUUAZKKXVWWGWWQQKKOZZDPPWWLSSUUPRQQJDIIAFFRDDMABYLPUUUJ"..., fo=0x555555758260) at smith_waterman.c:98
#1  0x0000555555555e38 in main (argc=7, argv=0x7fffffffdcb8) at smith_waterman.c:298

93	    double max_score=0.0;
94	    for(i=1; i<x_num+1; i++){
95	        for(j=1; j<y_num+1; j++){
96	            if(str_x[i-1]==str_y[j-1]){diff=match_score;}
97	            else{diff=mismatch_score;}
98	            matrix[i][j]=my_maxof(matrix[i-1][j-1]+diff, matrix[i-1][j]+gap_score, matrix[i][j-1]+gap_score,0);
99	            if(matrix[i][j]>max_score)
100	                max_score=matrix[i][j];
101	        }
102	    }

Backtrace END
Memory content before bitflip:0xde0x0a0x000x000x000x000x000x00
Fault Model: Double bit-flip
base address to flip value: 0x7fffffffdba0
address max offset: 8
Memory content after  bitflip:0xde0x0a0x000x000x000x820x000x00
frame name: main
symbol name: t
symbol filename: smith_waterman.c
symbol line: 244
value: 142936511613662
value address: 0x7fffffffdba0
Type: The type is an integer type.
Type sizeof: 8

[INFO -- 2018-09-23 13:22:03]
Fault Injection Successful after 0.9599077701568604s
[INFO -- 2018-09-23 13:22:09]
event type: exit
[INFO -- 2018-09-23 13:22:09]
exit code: 0
