[INFO -- 2018-11-07 20:43:44]
Starting GDB script
[INFO -- 2018-11-07 20:43:44]
initSignal:0.0
[INFO -- 2018-11-07 20:43:44]
endSignal:6.0
[INFO -- 2018-11-07 20:43:44]
sending 5 signals using command: 'killall -2 smith_waterman' after 0.2444490041s
[INFO -- 2018-11-07 20:43:45]
sending 5 signals using command: 'killall -2 smith_waterman' after 1.08496994104s
[INFO -- 2018-11-07 20:43:46]
sending 5 signals using command: 'killall -2 smith_waterman' after 1.96400329757s
[INFO -- 2018-11-07 20:43:48]
Execution finished before waitTime
