[INFO -- 2018-09-26 10:06:04]
Starting GDB script
[INFO -- 2018-09-26 10:06:04]
initSignal:0.0
[INFO -- 2018-09-26 10:06:04]
endSignal:2.0
[INFO -- 2018-09-26 10:06:04]
sending 5 signals using command: 'killall -2 smith_waterman' after 0.333826083012s
[INFO -- 2018-09-26 10:06:05]
sending 5 signals using command: 'killall -2 smith_waterman' after 1.44759088615s
[INFO -- 2018-09-26 10:06:05]
sending 5 signals using command: 'killall -2 smith_waterman' after 1.49601055871s
[INFO -- 2018-09-26 10:06:11]
Execution finished before waitTime
