[INFO -- 2018-09-27 11:12:28]
Starting GDB script
[INFO -- 2018-09-27 11:12:28]
initSignal:0.0
[INFO -- 2018-09-27 11:12:28]
endSignal:2.0
[INFO -- 2018-09-27 11:12:28]
sending 5 signals using command: 'killall -2 smith_waterman' after 0.111017096773s
[INFO -- 2018-09-27 11:12:29]
sending 5 signals using command: 'killall -2 smith_waterman' after 0.582687120582s
[INFO -- 2018-09-27 11:12:30]
sending 5 signals using command: 'killall -2 smith_waterman' after 1.8786409751s
[INFO -- 2018-09-27 11:12:35]
Execution finished before waitTime
