[INFO -- 2018-11-09 02:40:13]
sending 5 signals using command: 'killall -2 smith_waterman' after 3.67903032861s
[INFO -- 2018-11-09 02:40:13]
Starting GDB script
[INFO -- 2018-11-09 02:40:13]
initSignal:0.0
[INFO -- 2018-11-09 02:40:13]
endSignal:6.0
[INFO -- 2018-11-09 02:40:13]
sending 5 signals using command: 'killall -2 smith_waterman' after 0.250380274716s
[INFO -- 2018-11-09 02:40:16]
Execution finished before waitTime
