[INFO -- 2018-12-05 14:17:04]
Starting GDB script
[INFO -- 2018-12-05 14:17:04]
initSignal:0.0
[INFO -- 2018-12-05 14:17:04]
endSignal:6.0
[INFO -- 2018-12-05 14:17:06]
sending 5 signals using command: 'killall -2 smith_waterman' after 2.33222886136s
[INFO -- 2018-12-05 14:17:07]
sending 5 signals using command: 'killall -2 smith_waterman' after 3.10511866749s
[INFO -- 2018-12-05 14:17:07]
sending 5 signals using command: 'killall -2 smith_waterman' after 3.44003924154s
[INFO -- 2018-12-05 14:17:24]
Execution did not finish before waitTime
