[INFO -- 2018-11-08 22:29:17]
Starting flip_value script
version: 1.1
[INFO -- 2018-11-08 22:29:17]
Initialization strings:
[INFO -- 2018-11-08 22:29:17]
(1) file /tmp/smith_waterman/smith_waterman
[INFO -- 2018-11-08 22:29:17]
(2) set args -x /tmp/smith_waterman/randInputX -y /tmp/smith_waterman/randInputY -o /tmp/smith_waterman/output
[INFO -- 2018-11-08 22:29:17]
initSignal:0
[INFO -- 2018-11-08 22:29:17]
endSignal:6
[INFO -- 2018-11-08 22:29:17]
faultModel:2
[INFO -- 2018-11-08 22:29:20]
Backtrace BEGIN:
#0  0x0000555555555260 in smith_waterman (x_num=15000, y_num=13650, str_x=0x5555557586c0 "NZPJOUKFYJFFHEGCNGKERGLVCNVICJIPKXAATKGSULXDPDFFLRJEYWZCJUMLGUCQUETNPZFLMCOEHVJSMSWMQVOZSBMAXOQRULFJKMWXRKDYHMTUGRGWPXVJAJJXXBRTNYDZKZYDMBCVNXPTOYRFXOOXXXWWBNQOLTPYUOBIPDEDCVYTVQYSEPRCOOYPBQFPJVNGJOOY"..., str_y=0x55555575c170 "ZZPOOKKYJJFFHGGCGGKERGVVCNIICIPPKXAAKGGUUXXDDDFFLRJEYZZJUUMLGUCQUTNPZZLLMCOEVVSSSSWMQVZZBBMXOOQUULJKKWWXRKYYMTTGGRGPPVVAAJJXXRRTYYDKKZYMMCVVNXPOORFFOOOXXXWWNNQOLPPYUBIIDEDDCVTVVQYSPRRCOOYPQFFJVNGGJOYY"..., fo=0x555555758260) at smith_waterman.c:126
#1  0x0000555555555e38 in main (argc=7, argv=0x7fffffffde98) at smith_waterman.c:298

121	            if(i==0 && j==0){
122	                maxValue = matrix[i][j];
123	                y = i;
124	                x = j;
125	            }
126	            if(maxValue < matrix[i][j]){
127	                maxValue = matrix[i][j];
128	                y = i;
129	                x = j;
130	            }

Backtrace END
Memory content before bitflip:0x980x3a0x000x000x000x000x000x00
Fault Model: Random bit-flip
base address to flip value: 0x7fffffffdd58
address max offset: 8
Memory content after  bitflip:0x7d0x620x380xa50x830x190x280x4f
frame name: main
symbol name: x_num
symbol filename: smith_waterman.c
symbol line: 281
value: 5703836981268079229
value address: 0x7fffffffdd58
Type: The type is an integer type.
Type sizeof: 8

[INFO -- 2018-11-08 22:29:20]
Fault Injection Successful after 3.0599887371063232s
[INFO -- 2018-11-08 22:29:20]
event type: exit
[INFO -- 2018-11-08 22:29:20]
exit code: 0
