[INFO -- 2018-12-09 01:16:09]
Starting GDB script
[INFO -- 2018-12-09 01:16:09]
initSignal:0.0
[INFO -- 2018-12-09 01:16:09]
endSignal:6.0
[INFO -- 2018-12-09 01:16:10]
sending 5 signals using command: 'killall -2 smith_waterman' after 0.482432343766s
[INFO -- 2018-12-09 01:16:14]
sending 5 signals using command: 'killall -2 smith_waterman' after 4.76685815418s
[INFO -- 2018-12-09 01:16:14]
sending 5 signals using command: 'killall -2 smith_waterman' after 4.88598399386s
[INFO -- 2018-12-09 01:16:15]
Execution finished before waitTime
