[INFO -- 2018-12-08 21:53:46]
Starting GDB script
[INFO -- 2018-12-08 21:53:46]
initSignal:0.0
[INFO -- 2018-12-08 21:53:46]
endSignal:6.0
[INFO -- 2018-12-08 21:53:46]
sending 5 signals using command: 'killall -2 smith_waterman' after 0.147117806648s
[INFO -- 2018-12-08 21:53:47]
sending 5 signals using command: 'killall -2 smith_waterman' after 1.77175324121s
[INFO -- 2018-12-08 21:53:48]
Execution finished before waitTime
