[INFO -- 2018-09-26 15:26:52]
Starting GDB script
[INFO -- 2018-09-26 15:26:52]
initSignal:0.0
[INFO -- 2018-09-26 15:26:52]
endSignal:2.0
[INFO -- 2018-09-26 15:26:52]
sending 5 signals using command: 'killall -2 smith_waterman' after 0.193080065636s
[INFO -- 2018-09-26 15:26:52]
sending 5 signals using command: 'killall -2 smith_waterman' after 0.323549414875s
[INFO -- 2018-09-26 15:26:53]
Execution finished before waitTime
