[INFO -- 2018-09-23 12:03:59]
Starting flip_value script
version: 1.1
[INFO -- 2018-09-23 12:03:59]
Initialization strings:
[INFO -- 2018-09-23 12:03:59]
(1) file /tmp/smith_waterman/smith_waterman
[INFO -- 2018-09-23 12:03:59]
(2) set args -x /tmp/smith_waterman/randInputX -y /tmp/smith_waterman/randInputY -o /tmp/smith_waterman/output
[INFO -- 2018-09-23 12:03:59]
initSignal:0
[INFO -- 2018-09-23 12:03:59]
endSignal:2
[INFO -- 2018-09-23 12:03:59]
faultModel:1
[INFO -- 2018-09-23 12:04:00]
Backtrace BEGIN:
#0  smith_waterman (x_num=15000, y_num=13650, str_x=0x5555557586c0 "HWSGMTGFLZNMTWDCKEIUOQOZUWZGZJGJFYPURVZCUORNLURXBBSPRGRLCQTBBZMJXBDQWCVSSMHFIADLBXBUDUHHKBKMCXVAAYSXCNRUBZAKZFVDCYXHSFODIARKZOMAMFXQUQMWPOGRTDWXCVEUAUZKXSVWGJWUQVKLOZHDPPWLSSIUOPRQJSDILAFRJDMABYLPXUUN"..., str_y=0x55555575c170 "WSSMMTGLLZMMTWDKKEIUOOOUWWZZZGGJFPPURZZCUORNUURBBSSPGGLLCQTBBMJJBDDQCVVSMHHFIDLLXBBDDUHKKBKCCXVAASXCNRRBBAKKZFVCYYHHSFODARRKOOMAMFQUUMMWOORRTDWXVEUUAZKKXVWWGWWQQKKOZZDPPWWLSSUUPRQQJDIIAFFRDDMABYLPUUUJ"..., fo=0x555555758260) at smith_waterman.c:96
#1  0x0000555555555e38 in main (argc=7, argv=0x7fffffffdcb8) at smith_waterman.c:298

91	
92	    double diff=0.0;
93	    double max_score=0.0;
94	    for(i=1; i<x_num+1; i++){
95	        for(j=1; j<y_num+1; j++){
96	            if(str_x[i-1]==str_y[j-1]){diff=match_score;}
97	            else{diff=mismatch_score;}
98	            matrix[i][j]=my_maxof(matrix[i-1][j-1]+diff, matrix[i-1][j]+gap_score, matrix[i][j-1]+gap_score,0);
99	            if(matrix[i][j]>max_score)
100	                max_score=matrix[i][j];

Backtrace END
Memory content before bitflip:0x000x000x000x000x000x000xf00xbf
Fault Model: Double bit-flip
base address to flip value: 0x555555757018 
address max offset: 8
Memory content after  bitflip:0x000x000x000x000x000x000xf00xbc
frame name: smith_waterman
symbol name: mismatch_score
symbol filename: smith_waterman.c
symbol line: 8
value: -3.5527136788005009e-15
value address: 0x555555757018 <mismatch_score>
Type: A floating point type.
Type sizeof: 8

[INFO -- 2018-09-23 12:04:00]
Fault Injection Successful after 1.351923942565918s
