[INFO -- 2018-09-24 03:38:21]
Starting GDB script
[INFO -- 2018-09-24 03:38:21]
initSignal:0.0
[INFO -- 2018-09-24 03:38:21]
endSignal:2.0
[INFO -- 2018-09-24 03:38:22]
sending 5 signals using command: 'killall -2 smith_waterman' after 0.324700316834s
[INFO -- 2018-09-24 03:38:22]
sending 5 signals using command: 'killall -2 smith_waterman' after 1.12424406503s
[INFO -- 2018-09-24 03:38:23]
sending 5 signals using command: 'killall -2 smith_waterman' after 1.23382273221s
[INFO -- 2018-09-24 03:38:27]
Execution finished before waitTime
