[INFO -- 2018-12-05 09:20:44]
Starting GDB script
[INFO -- 2018-12-05 09:20:44]
initSignal:0.0
[INFO -- 2018-12-05 09:20:44]
endSignal:6.0
[INFO -- 2018-12-05 09:20:44]
sending 5 signals using command: 'killall -2 smith_waterman' after 0.238990934331s
[INFO -- 2018-12-05 09:20:48]
sending 5 signals using command: 'killall -2 smith_waterman' after 4.20182948046s
[INFO -- 2018-12-05 09:20:49]
sending 5 signals using command: 'killall -2 smith_waterman' after 4.64904612571s
[INFO -- 2018-12-05 09:20:50]
Execution finished before waitTime
