[INFO -- 2018-09-28 00:41:04]
Starting GDB script
[INFO -- 2018-09-28 00:41:04]
initSignal:0.0
[INFO -- 2018-09-28 00:41:04]
endSignal:2.0
[INFO -- 2018-09-28 00:41:04]
sending 5 signals using command: 'killall -2 smith_waterman' after 0.0726244889171s
[INFO -- 2018-09-28 00:41:05]
sending 5 signals using command: 'killall -2 smith_waterman' after 1.07143272961s
[INFO -- 2018-09-28 00:41:05]
sending 5 signals using command: 'killall -2 smith_waterman' after 1.89411265413s
[INFO -- 2018-09-28 00:41:24]
Execution did not finish before waitTime
