[INFO -- 2018-12-08 07:03:57]
Starting GDB script
[INFO -- 2018-12-08 07:03:57]
initSignal:0.0
[INFO -- 2018-12-08 07:03:57]
endSignal:6.0
[INFO -- 2018-12-08 07:04:01]
sending 5 signals using command: 'killall -2 smith_waterman' after 4.11952802183s
[INFO -- 2018-12-08 07:04:01]
sending 5 signals using command: 'killall -2 smith_waterman' after 4.18309682437s
[INFO -- 2018-12-08 07:04:02]
sending 5 signals using command: 'killall -2 smith_waterman' after 4.53201683075s
[INFO -- 2018-12-08 07:04:05]
Execution finished before waitTime
