[INFO -- 2018-12-09 00:47:58]
sending 5 signals using command: 'killall -2 smith_waterman' after 4.662482295s
[INFO -- 2018-12-09 00:47:59]
sending 5 signals using command: 'killall -2 smith_waterman' after 5.35678939822s
[INFO -- 2018-12-09 00:47:59]
Starting GDB script
[INFO -- 2018-12-09 00:47:59]
initSignal:0.0
[INFO -- 2018-12-09 00:47:59]
endSignal:6.0
[INFO -- 2018-12-09 00:48:01]
sending 5 signals using command: 'killall -2 smith_waterman' after 2.46104898375s
[INFO -- 2018-12-09 00:48:02]
sending 5 signals using command: 'killall -2 smith_waterman' after 2.62893250029s
[INFO -- 2018-12-09 00:48:02]
Execution finished before waitTime
