[INFO -- 2018-09-27 10:00:27]
Starting GDB script
[INFO -- 2018-09-27 10:00:27]
initSignal:0.0
[INFO -- 2018-09-27 10:00:27]
endSignal:2.0
[INFO -- 2018-09-27 10:00:27]
sending 5 signals using command: 'killall -2 smith_waterman' after 0.260486328417s
[INFO -- 2018-09-27 10:00:28]
sending 5 signals using command: 'killall -2 smith_waterman' after 0.586194548481s
[INFO -- 2018-09-27 10:00:28]
sending 5 signals using command: 'killall -2 smith_waterman' after 0.634249762738s
[INFO -- 2018-09-27 10:00:28]
Execution finished before waitTime
