[INFO -- 2018-12-09 08:04:26]
sending 5 signals using command: 'killall -2 smith_waterman' after 4.45207628263s
[INFO -- 2018-12-09 08:04:26]
Starting GDB script
[INFO -- 2018-12-09 08:04:26]
initSignal:0.0
[INFO -- 2018-12-09 08:04:26]
endSignal:6.0
[INFO -- 2018-12-09 08:04:26]
sending 5 signals using command: 'killall -2 smith_waterman' after 0.240132712733s
[INFO -- 2018-12-09 08:04:27]
sending 5 signals using command: 'killall -2 smith_waterman' after 0.980556777203s
[INFO -- 2018-12-09 08:04:30]
sending 5 signals using command: 'killall -2 smith_waterman' after 4.26847261866s
[INFO -- 2018-12-09 08:04:34]
Execution finished before waitTime
