[INFO -- 2018-09-24 20:41:52]
Starting flip_value script
version: 1.1
[INFO -- 2018-09-24 20:41:52]
Initialization strings:
[INFO -- 2018-09-24 20:41:52]
(1) file /tmp/smith_waterman/smith_waterman
[INFO -- 2018-09-24 20:41:52]
(2) set args -x /tmp/smith_waterman/randInputX -y /tmp/smith_waterman/randInputY -o /tmp/smith_waterman/output
[INFO -- 2018-09-24 20:41:52]
initSignal:0
[INFO -- 2018-09-24 20:41:52]
endSignal:2
[INFO -- 2018-09-24 20:41:52]
faultModel:0
[INFO -- 2018-09-24 20:41:52]
Backtrace BEGIN:
#0  0x00007ffff7af3c8e in __libc_open64 (file=0x7fffffffe114 "/tmp/smith_waterman/output", file@entry=0x4 <error: Cannot access memory at address 0x4>, oflag=577) at ../sysdeps/unix/sysv/linux/open64.c:47
#1  0x00007ffff7a7058a in __GI__IO_file_open (is32not64=1, read_write=4, prot=438, posix_mode=<optimized out>, filename=0x4 <error: Cannot access memory at address 0x4>, fp=0x555555758260) at fileops.c:189
#2  _IO_new_file_fopen (fp=fp@entry=0x555555758260, filename=filename@entry=0x7fffffffe114 "/tmp/smith_waterman/output", mode=<optimized out>, mode@entry=0x55555555600f "w", is32not64=is32not64@entry=1) at fileops.c:281
#3  0x00007ffff7a62eaa in __fopen_internal (is32=1, mode=0x55555555600f "w", filename=0x7fffffffe114 "/tmp/smith_waterman/output") at iofopen.c:78
#4  _IO_new_fopen (filename=0x7fffffffe114 "/tmp/smith_waterman/output", mode=0x55555555600f "w") at iofopen.c:89
#5  0x0000555555555df8 in main (argc=7, argv=0x7fffffffdcb8) at smith_waterman.c:291

42	../sysdeps/unix/sysv/linux/open64.c: No such file or directory.

Backtrace END
Fliping array at pos: 10
Memory content before bitflip:0x6c
Fault Model: Single bit-flip
base address to flip value: 0x7ffff7b9f34a  
address max offset: 1
Memory content after  bitflip:0x7c
frame name: _IO_new_file_fopen
symbol name: __PRETTY_FUNCTION__
symbol filename: fileops.c
symbol line: 0
value: "_IO_new_fi|e_fopen"
value address: 0x7ffff7b9f340 <__PRETTY_FUNCTION__.12302>
Type: The type is an array.
Type sizeof: 19
Field name: None
Field Type: A range type, that is, an integer type with bounds.
Field Type sizeof: 8
Field Type range: (0, 18)

[INFO -- 2018-09-24 20:41:52]
Fault Injection Successful after 0.2719733715057373s
[INFO -- 2018-09-24 20:41:58]
event type: exit
[INFO -- 2018-09-24 20:41:58]
exit code: 0
