[INFO -- 2018-11-08 20:10:21]
sending 5 signals using command: 'killall -2 smith_waterman' after 3.88156115606s
[INFO -- 2018-11-08 20:10:21]
sending 5 signals using command: 'killall -2 smith_waterman' after 3.91829314332s
[INFO -- 2018-11-08 20:10:21]
Starting GDB script
[INFO -- 2018-11-08 20:10:21]
initSignal:0.0
[INFO -- 2018-11-08 20:10:21]
endSignal:6.0
[INFO -- 2018-11-08 20:10:24]
sending 5 signals using command: 'killall -2 smith_waterman' after 2.97455240937s
[INFO -- 2018-11-08 20:10:24]
Execution finished before waitTime
