[INFO -- 2018-09-24 00:11:58]
Starting GDB script
[INFO -- 2018-09-24 00:11:58]
initSignal:0.0
[INFO -- 2018-09-24 00:11:58]
endSignal:2.0
[INFO -- 2018-09-24 00:11:59]
sending 5 signals using command: 'killall -2 smith_waterman' after 0.584576403001s
[INFO -- 2018-09-24 00:11:59]
sending 5 signals using command: 'killall -2 smith_waterman' after 0.724622611417s
[INFO -- 2018-09-24 00:11:59]
sending 5 signals using command: 'killall -2 smith_waterman' after 1.09039332833s
[INFO -- 2018-09-24 00:12:04]
Execution finished before waitTime
