[INFO -- 2018-12-04 14:55:00]
Starting GDB script
[INFO -- 2018-12-04 14:55:00]
initSignal:0.0
[INFO -- 2018-12-04 14:55:00]
endSignal:6.0
[INFO -- 2018-12-04 14:55:00]
sending 5 signals using command: 'killall -2 smith_waterman' after 0.0899929175607s
[INFO -- 2018-12-04 14:55:05]
sending 5 signals using command: 'killall -2 smith_waterman' after 4.76684814634s
[INFO -- 2018-12-04 14:55:06]
sending 5 signals using command: 'killall -2 smith_waterman' after 5.86192799146s
[INFO -- 2018-12-04 14:55:06]
Execution finished before waitTime
