[INFO -- 2018-09-24 15:49:37]
Starting GDB script
[INFO -- 2018-09-24 15:49:37]
initSignal:0.0
[INFO -- 2018-09-24 15:49:37]
endSignal:2.0
[INFO -- 2018-09-24 15:49:37]
sending 5 signals using command: 'killall -2 smith_waterman' after 0.230977413673s
[INFO -- 2018-09-24 15:49:37]
sending 5 signals using command: 'killall -2 smith_waterman' after 0.289584585049s
[INFO -- 2018-09-24 15:49:38]
sending 5 signals using command: 'killall -2 smith_waterman' after 1.31056235125s
[INFO -- 2018-09-24 15:49:43]
Execution finished before waitTime
