[INFO -- 2018-09-27 03:26:47]
Starting GDB script
[INFO -- 2018-09-27 03:26:47]
initSignal:0.0
[INFO -- 2018-09-27 03:26:47]
endSignal:2.0
[INFO -- 2018-09-27 03:26:47]
sending 5 signals using command: 'killall -2 smith_waterman' after 0.561314213395s
[INFO -- 2018-09-27 03:26:47]
sending 5 signals using command: 'killall -2 smith_waterman' after 0.624799164008s
[INFO -- 2018-09-27 03:26:48]
sending 5 signals using command: 'killall -2 smith_waterman' after 1.20063377327s
[INFO -- 2018-09-27 03:26:53]
Execution finished before waitTime
