[INFO -- 2018-12-04 16:14:57]
Starting GDB script
[INFO -- 2018-12-04 16:14:57]
initSignal:0.0
[INFO -- 2018-12-04 16:14:57]
endSignal:6.0
[INFO -- 2018-12-04 16:14:58]
sending 5 signals using command: 'killall -2 smith_waterman' after 1.28379461618s
[INFO -- 2018-12-04 16:15:01]
sending 5 signals using command: 'killall -2 smith_waterman' after 4.25050116248s
[INFO -- 2018-12-04 16:15:02]
sending 5 signals using command: 'killall -2 smith_waterman' after 4.73106897786s
[INFO -- 2018-12-04 16:15:03]
Execution finished before waitTime
