[INFO -- 2018-12-05 22:55:19]
sending 5 signals using command: 'killall -2 smith_waterman' after 5.22992219432s
[INFO -- 2018-12-05 22:55:19]
Starting GDB script
[INFO -- 2018-12-05 22:55:19]
initSignal:0.0
[INFO -- 2018-12-05 22:55:19]
endSignal:6.0
[INFO -- 2018-12-05 22:55:20]
sending 5 signals using command: 'killall -2 smith_waterman' after 1.02454580719s
[INFO -- 2018-12-05 22:55:21]
sending 5 signals using command: 'killall -2 smith_waterman' after 2.41987698163s
[INFO -- 2018-12-05 22:55:22]
sending 5 signals using command: 'killall -2 smith_waterman' after 2.61451790515s
[INFO -- 2018-12-05 22:55:24]
Execution finished before waitTime
