[INFO -- 2018-09-27 18:26:47]
Starting GDB script
[INFO -- 2018-09-27 18:26:47]
initSignal:0.0
[INFO -- 2018-09-27 18:26:47]
endSignal:2.0
[INFO -- 2018-09-27 18:26:49]
sending 5 signals using command: 'killall -2 smith_waterman' after 1.13947874858s
[INFO -- 2018-09-27 18:26:49]
sending 5 signals using command: 'killall -2 smith_waterman' after 1.25196764809s
[INFO -- 2018-09-27 18:26:49]
sending 5 signals using command: 'killall -2 smith_waterman' after 1.82048676628s
[INFO -- 2018-09-27 18:27:07]
Execution did not finish before waitTime
