[INFO -- 2018-12-09 08:05:50]
sending 5 signals using command: 'killall -2 smith_waterman' after 3.83814412186s
[INFO -- 2018-12-09 08:05:50]
Starting GDB script
[INFO -- 2018-12-09 08:05:50]
initSignal:0.0
[INFO -- 2018-12-09 08:05:50]
endSignal:6.0
[INFO -- 2018-12-09 08:05:52]
sending 5 signals using command: 'killall -2 smith_waterman' after 2.48510821829s
[INFO -- 2018-12-09 08:05:53]
Execution finished before waitTime
