[INFO -- 2018-12-03 23:16:30]
Starting GDB script
[INFO -- 2018-12-03 23:16:30]
initSignal:0.0
[INFO -- 2018-12-03 23:16:30]
endSignal:6.0
[INFO -- 2018-12-03 23:16:33]
sending 5 signals using command: 'killall -2 smith_waterman' after 2.23463222103s
[INFO -- 2018-12-03 23:16:34]
sending 5 signals using command: 'killall -2 smith_waterman' after 3.4795021859s
[INFO -- 2018-12-03 23:16:34]
sending 5 signals using command: 'killall -2 smith_waterman' after 3.87893000249s
[INFO -- 2018-12-03 23:16:50]
Execution did not finish before waitTime
