[INFO -- 2018-11-08 19:53:27]
sending 5 signals using command: 'killall -2 smith_waterman' after 4.00394274271s
[INFO -- 2018-11-08 19:53:28]
sending 5 signals using command: 'killall -2 smith_waterman' after 4.99174654278s
[INFO -- 2018-11-08 19:53:28]
Starting GDB script
[INFO -- 2018-11-08 19:53:28]
initSignal:0.0
[INFO -- 2018-11-08 19:53:28]
endSignal:6.0
[INFO -- 2018-11-08 19:53:29]
sending 5 signals using command: 'killall -2 smith_waterman' after 0.207923724359s
[INFO -- 2018-11-08 19:53:31]
sending 5 signals using command: 'killall -2 smith_waterman' after 2.50287572866s
[INFO -- 2018-11-08 19:53:32]
Execution finished before waitTime
