[INFO -- 2018-09-27 19:04:07]
Starting flip_value script
version: 1.1
[INFO -- 2018-09-27 19:04:07]
Initialization strings:
[INFO -- 2018-09-27 19:04:07]
(1) file /tmp/smith_waterman/smith_waterman
[INFO -- 2018-09-27 19:04:07]
(2) set args -x /tmp/smith_waterman/randInputX -y /tmp/smith_waterman/randInputY -o /tmp/smith_waterman/output
[INFO -- 2018-09-27 19:04:07]
initSignal:0
[INFO -- 2018-09-27 19:04:07]
endSignal:2
[INFO -- 2018-09-27 19:04:07]
faultModel:2
[INFO -- 2018-09-27 19:04:08]
Backtrace BEGIN:
#0  0x000055555555510a in smith_waterman (x_num=15000, y_num=12000, str_x=0x5555557586c0 "XIOKZUCKGHUGBHLNPNAIKYQXNOKTETJCEZODTQNCZIIARVNJLNTVOMSBACWFYFJCHZFAPVCRDMRWIFFTUBOINHMNLISJQDLXCRZUMCLROCPYJXRGYIOLRCYCLTMDYZCBQBVEFIXWMNUWKOEIWUVNXTRKOFNNFROVULCAVZWHOSFYGJIEEDTDZLNNQCCVTSTPDXRAWPIN"..., str_y=0x55555575c170 "XOKKUCCGGUGGHHLNNNIIKQXNNKKETTCEZZOTQNCCIIARRNNLLNVOMSSBCCFYFFCHZFAPPVCRMMRIIFTUBOONHMMLLIJJDLXCRZZMMLLROPYYXXRGYOORCYCCLMMYYCCQBVVEFIXWNNUKKOIIUVVXTTKOFFNNFOOVULCVVZWOOFYYGJIEETDDZNNQQCCVTTTDDRAWPINI"..., fo=0x555555758260) at smith_waterman.c:99
#1  0x0000555555555e38 in main (argc=7, argv=0x7fffffffdcb8) at smith_waterman.c:298

94	    for(i=1; i<x_num+1; i++){
95	        for(j=1; j<y_num+1; j++){
96	            if(str_x[i-1]==str_y[j-1]){diff=match_score;}
97	            else{diff=mismatch_score;}
98	            matrix[i][j]=my_maxof(matrix[i-1][j-1]+diff, matrix[i-1][j]+gap_score, matrix[i][j-1]+gap_score,0);
99	            if(matrix[i][j]>max_score)
100	                max_score=matrix[i][j];
101	        }
102	    }
103	

Backtrace END
Fliping a bit of the pointer
Memory content before bitflip:0xb80xdc0xff0xff0xff0x7f0x000x00
Fault Model: Random bit-flip
base address to flip value: 0x7fffffffdb50
address max offset: 8
Memory content after  bitflip:0x5a0x6d0xab0x2b0x6b0x840x770xb1
frame name: main
symbol name: argv
symbol filename: smith_waterman.c
symbol line: 242
value: 0x7fffffffdcb8
value address: 0x7fffffffdb50
Type: The type is a pointer.
Type sizeof: 8

[INFO -- 2018-09-27 19:04:08]
Fault Injection Successful after 1.2358882427215576s
[INFO -- 2018-09-27 19:04:12]
event type: exit
[INFO -- 2018-09-27 19:04:12]
exit code: 0
