[INFO -- 2018-09-26 22:20:22]
Starting flip_value script
version: 1.1
[INFO -- 2018-09-26 22:20:22]
Initialization strings:
[INFO -- 2018-09-26 22:20:22]
(1) file /tmp/smith_waterman/smith_waterman
[INFO -- 2018-09-26 22:20:22]
(2) set args -x /tmp/smith_waterman/randInputX -y /tmp/smith_waterman/randInputY -o /tmp/smith_waterman/output
[INFO -- 2018-09-26 22:20:22]
initSignal:0
[INFO -- 2018-09-26 22:20:22]
endSignal:2
[INFO -- 2018-09-26 22:20:22]
faultModel:1
[INFO -- 2018-09-26 22:20:22]
Backtrace BEGIN:
#0  dl_main (phdr=<optimized out>, phnum=<optimized out>, user_entry=<optimized out>, auxv=<optimized out>) at rtld.c:2289
#1  0x00007ffff7defdd0 in _dl_sysdep_start (start_argptr=start_argptr@entry=0x7fffffffdcb0, dl_main=dl_main@entry=0x7ffff7dd7660 <dl_main>) at ../elf/dl-sysdep.c:253
#2  0x00007ffff7dd7128 in _dl_start_final (arg=0x7fffffffdcb0) at rtld.c:414
#3  _dl_start (arg=0x7fffffffdcb0) at rtld.c:521
#4  0x00007ffff7dd6098 in _start () from /lib64/ld-linux-x86-64.so.2
#5  0x0000000000000007 in ?? ()
#6  0x00007fffffffe0a8 in ?? ()
#7  0x00007fffffffe0cb in ?? ()
#8  0x00007fffffffe0ce in ?? ()
#9  0x00007fffffffe0ed in ?? ()
#10 0x00007fffffffe0f0 in ?? ()
#11 0x00007fffffffe10f in ?? ()
#12 0x00007fffffffe112 in ?? ()
#13 0x0000000000000000 in ?? ()

2284	rtld.c: No such file or directory.

Backtrace END
Memory content before bitflip:0x200x500x050x000x000x000x000x00
Fault Model: Double bit-flip
base address to flip value: 0x7ffff7ffe000 
address max offset: 8
Memory content after  bitflip:0x200x500x050x0a0x000x000x000x00
frame name: dl_main
symbol name: relocate_time
symbol filename: rtld.c
symbol line: 306
value: 168120352
value address: 0x7ffff7ffe000 <relocate_time>
Type: The type is an integer type.
Type sizeof: 8

[INFO -- 2018-09-26 22:20:22]
Fault Injection Successful after 0.7347695827484131s
[INFO -- 2018-09-26 22:20:27]
event type: exit
[INFO -- 2018-09-26 22:20:27]
exit code: 0
