[INFO -- 2018-09-26 22:20:22]
Starting GDB script
[INFO -- 2018-09-26 22:20:22]
initSignal:0.0
[INFO -- 2018-09-26 22:20:22]
endSignal:2.0
[INFO -- 2018-09-26 22:20:22]
sending 5 signals using command: 'killall -2 smith_waterman' after 0.238610752181s
[INFO -- 2018-09-26 22:20:22]
sending 5 signals using command: 'killall -2 smith_waterman' after 0.268304505953s
[INFO -- 2018-09-26 22:20:24]
sending 5 signals using command: 'killall -2 smith_waterman' after 1.81029138819s
[INFO -- 2018-09-26 22:20:27]
Execution finished before waitTime
