[INFO -- 2018-12-03 08:58:07]
Starting GDB script
[INFO -- 2018-12-03 08:58:07]
initSignal:0.0
[INFO -- 2018-12-03 08:58:07]
endSignal:6.0
[INFO -- 2018-12-03 08:58:10]
sending 5 signals using command: 'killall -2 smith_waterman' after 3.37064361728s
[INFO -- 2018-12-03 08:58:11]
Execution finished before waitTime
