[INFO -- 2018-12-05 15:27:42]
Starting GDB script
[INFO -- 2018-12-05 15:27:42]
initSignal:0.0
[INFO -- 2018-12-05 15:27:42]
endSignal:6.0
[INFO -- 2018-12-05 15:27:43]
sending 5 signals using command: 'killall -2 smith_waterman' after 0.771413713394s
[INFO -- 2018-12-05 15:27:45]
sending 5 signals using command: 'killall -2 smith_waterman' after 3.25991085892s
[INFO -- 2018-12-05 15:27:46]
sending 5 signals using command: 'killall -2 smith_waterman' after 3.61492764147s
[INFO -- 2018-12-05 15:27:47]
Execution finished before waitTime
