[INFO -- 2018-12-08 09:52:53]
sending 5 signals using command: 'killall -2 smith_waterman' after 1.16485342258s
[INFO -- 2018-12-08 09:52:58]
sending 5 signals using command: 'killall -2 smith_waterman' after 5.3866661814s
[INFO -- 2018-12-08 09:52:58]
Starting GDB script
[INFO -- 2018-12-08 09:52:58]
initSignal:0.0
[INFO -- 2018-12-08 09:52:58]
endSignal:6.0
[INFO -- 2018-12-08 09:53:00]
sending 5 signals using command: 'killall -2 smith_waterman' after 1.93361274978s
[INFO -- 2018-12-08 09:53:01]
Execution finished before waitTime
