[INFO -- 2018-12-04 09:06:36]
Starting GDB script
[INFO -- 2018-12-04 09:06:36]
initSignal:0.0
[INFO -- 2018-12-04 09:06:36]
endSignal:6.0
[INFO -- 2018-12-04 09:06:38]
sending 5 signals using command: 'killall -2 smith_waterman' after 2.06628012494s
[INFO -- 2018-12-04 09:06:39]
sending 5 signals using command: 'killall -2 smith_waterman' after 2.23118569163s
[INFO -- 2018-12-04 09:06:39]
sending 5 signals using command: 'killall -2 smith_waterman' after 2.83054078173s
[INFO -- 2018-12-04 09:06:40]
Execution finished before waitTime
