[INFO -- 2018-09-26 22:46:18]
Starting GDB script
[INFO -- 2018-09-26 22:46:18]
initSignal:0.0
[INFO -- 2018-09-26 22:46:18]
endSignal:2.0
[INFO -- 2018-09-26 22:46:19]
sending 5 signals using command: 'killall -2 smith_waterman' after 0.449533515729s
[INFO -- 2018-09-26 22:46:19]
sending 5 signals using command: 'killall -2 smith_waterman' after 0.506575731353s
[INFO -- 2018-09-26 22:46:20]
sending 5 signals using command: 'killall -2 smith_waterman' after 1.82252196228s
[INFO -- 2018-09-26 22:46:24]
Execution finished before waitTime
