[INFO -- 2018-09-25 02:23:08]
Starting GDB script
[INFO -- 2018-09-25 02:23:08]
initSignal:0.0
[INFO -- 2018-09-25 02:23:08]
endSignal:2.0
[INFO -- 2018-09-25 02:23:08]
sending 5 signals using command: 'killall -2 smith_waterman' after 0.45668337088s
[INFO -- 2018-09-25 02:23:09]
sending 5 signals using command: 'killall -2 smith_waterman' after 0.904163075836s
[INFO -- 2018-09-25 02:23:09]
Execution finished before waitTime
