[INFO -- 2018-12-04 14:03:31]
Starting GDB script
[INFO -- 2018-12-04 14:03:31]
initSignal:0.0
[INFO -- 2018-12-04 14:03:31]
endSignal:6.0
[INFO -- 2018-12-04 14:03:32]
sending 5 signals using command: 'killall -2 smith_waterman' after 1.09223186059s
[INFO -- 2018-12-04 14:03:33]
sending 5 signals using command: 'killall -2 smith_waterman' after 1.89425006945s
[INFO -- 2018-12-04 14:03:34]
sending 5 signals using command: 'killall -2 smith_waterman' after 2.91567965899s
[INFO -- 2018-12-04 14:03:37]
Execution finished before waitTime
