[INFO -- 2018-12-08 03:12:12]
Starting GDB script
[INFO -- 2018-12-08 03:12:12]
initSignal:0.0
[INFO -- 2018-12-08 03:12:12]
endSignal:6.0
[INFO -- 2018-12-08 03:12:12]
sending 5 signals using command: 'killall -2 smith_waterman' after 0.159603774082s
[INFO -- 2018-12-08 03:12:12]
sending 5 signals using command: 'killall -2 smith_waterman' after 0.412869940488s
[INFO -- 2018-12-08 03:12:13]
Execution finished before waitTime
