[INFO -- 2018-12-08 19:38:52]
sending 5 signals using command: 'killall -2 smith_waterman' after 4.41825428139s
[INFO -- 2018-12-08 19:38:53]
sending 5 signals using command: 'killall -2 smith_waterman' after 5.30560721938s
[INFO -- 2018-12-08 19:38:53]
Starting GDB script
[INFO -- 2018-12-08 19:38:53]
initSignal:0.0
[INFO -- 2018-12-08 19:38:53]
endSignal:6.0
[INFO -- 2018-12-08 19:38:53]
sending 5 signals using command: 'killall -2 smith_waterman' after 0.109975118388s
[INFO -- 2018-12-08 19:38:58]
sending 5 signals using command: 'killall -2 smith_waterman' after 4.67540965781s
[INFO -- 2018-12-08 19:38:58]
sending 5 signals using command: 'killall -2 smith_waterman' after 5.18288234037s
[INFO -- 2018-12-08 19:38:59]
Execution finished before waitTime
