[INFO -- 2018-09-25 05:22:33]
Starting GDB script
[INFO -- 2018-09-25 05:22:33]
initSignal:0.0
[INFO -- 2018-09-25 05:22:33]
endSignal:2.0
[INFO -- 2018-09-25 05:22:35]
sending 5 signals using command: 'killall -2 smith_waterman' after 1.61113867151s
[INFO -- 2018-09-25 05:22:35]
sending 5 signals using command: 'killall -2 smith_waterman' after 1.85145958727s
[INFO -- 2018-09-25 05:22:35]
sending 5 signals using command: 'killall -2 smith_waterman' after 1.85926988927s
[INFO -- 2018-09-25 05:22:39]
Execution finished before waitTime
