[INFO -- 2018-09-27 02:02:19]
Starting GDB script
[INFO -- 2018-09-27 02:02:19]
initSignal:0.0
[INFO -- 2018-09-27 02:02:19]
endSignal:2.0
[INFO -- 2018-09-27 02:02:20]
sending 5 signals using command: 'killall -2 smith_waterman' after 0.0891623323633s
[INFO -- 2018-09-27 02:02:20]
sending 5 signals using command: 'killall -2 smith_waterman' after 0.683042819355s
[INFO -- 2018-09-27 02:02:20]
sending 5 signals using command: 'killall -2 smith_waterman' after 0.856055637488s
[INFO -- 2018-09-27 02:02:26]
Execution finished before waitTime
