[INFO -- 2018-12-04 09:19:33]
Starting GDB script
[INFO -- 2018-12-04 09:19:33]
initSignal:0.0
[INFO -- 2018-12-04 09:19:33]
endSignal:6.0
[INFO -- 2018-12-04 09:19:34]
sending 5 signals using command: 'killall -2 smith_waterman' after 0.923649424544s
[INFO -- 2018-12-04 09:19:34]
sending 5 signals using command: 'killall -2 smith_waterman' after 1.32686936521s
[INFO -- 2018-12-04 09:19:34]
sending 5 signals using command: 'killall -2 smith_waterman' after 1.40332802025s
[INFO -- 2018-12-04 09:19:39]
Execution finished before waitTime
