[INFO -- 2018-09-25 06:17:55]
Starting GDB script
[INFO -- 2018-09-25 06:17:55]
initSignal:0.0
[INFO -- 2018-09-25 06:17:55]
endSignal:2.0
[INFO -- 2018-09-25 06:17:55]
sending 5 signals using command: 'killall -2 smith_waterman' after 0.831924778137s
[INFO -- 2018-09-25 06:17:56]
sending 5 signals using command: 'killall -2 smith_waterman' after 1.26330214538s
[INFO -- 2018-09-25 06:17:57]
sending 5 signals using command: 'killall -2 smith_waterman' after 1.99555741434s
[INFO -- 2018-09-25 06:18:01]
Execution finished before waitTime
