[INFO -- 2018-09-26 22:46:24]
Starting flip_value script
version: 1.1
[INFO -- 2018-09-26 22:46:24]
Initialization strings:
[INFO -- 2018-09-26 22:46:24]
(1) file /tmp/smith_waterman/smith_waterman
[INFO -- 2018-09-26 22:46:24]
(2) set args -x /tmp/smith_waterman/randInputX -y /tmp/smith_waterman/randInputY -o /tmp/smith_waterman/output
[INFO -- 2018-09-26 22:46:24]
initSignal:0
[INFO -- 2018-09-26 22:46:24]
endSignal:2
[INFO -- 2018-09-26 22:46:24]
faultModel:2
[INFO -- 2018-09-26 22:46:25]
Backtrace BEGIN:
#0  0x000055555555510a in smith_waterman (x_num=11250, y_num=15000, str_x=0x5555557586c0 "OXXECOEJZANNRNNBHHEKKGFPMQQUUEFFXJVVPPGMIZWZOOKVVGGLNZZQPKVVMANNLKWAAQJLXKYZIIWOOQZEEFFUCBBODDFAPPYRHEFUNFTYYROOGXMMCSSJJVRYXBBMMJUUPZZFFFDVVRRDPQUPPKAAMMAFJBXYDGSXUOCCNHHWABWWRQYBLLZAZZOLCJGGEETYJJZY"..., str_y=0x55555575b2c0 "JOXECOEJZTANNRNBIHEUKGFPCMQUUEAFTXJVLPGMIGZWZOZKVDGHLNZQZPKVUMANJLKWAQJLXKJYZIKWOQGZEFRFUCBQODFARPYRGHEFUNFTYQROGXPMCHSZJVRZYXBPMAJUHPZBFFWDVQRDPGQUPKVAFMAFJBXYDGSLXUOCZNHWFABWHRQYBLZIAZOLCLJGTETQYJVZ"..., fo=0x555555758260) at smith_waterman.c:99
#1  0x0000555555555e38 in main (argc=7, argv=0x7fffffffdcb8) at smith_waterman.c:298

94	    for(i=1; i<x_num+1; i++){
95	        for(j=1; j<y_num+1; j++){
96	            if(str_x[i-1]==str_y[j-1]){diff=match_score;}
97	            else{diff=mismatch_score;}
98	            matrix[i][j]=my_maxof(matrix[i-1][j-1]+diff, matrix[i-1][j]+gap_score, matrix[i][j-1]+gap_score,0);
99	            if(matrix[i][j]>max_score)
100	                max_score=matrix[i][j];
101	        }
102	    }
103	

Backtrace END
Memory content before bitflip:0x980x3a0x000x000x000x000x000x00
Fault Model: Random bit-flip
base address to flip value: 0x7fffffffda80
address max offset: 8
Memory content after  bitflip:0x2d0x390x8d0xc90x3b0x710x6c0xb6
frame name: smith_waterman
symbol name: y_num
symbol filename: smith_waterman.c
symbol line: 79
value: -5301738159723431635
value address: 0x7fffffffda80
Type: The type is an integer type.
Type sizeof: 8

[INFO -- 2018-09-26 22:46:25]
Fault Injection Successful after 1.265819787979126s
[INFO -- 2018-09-26 22:46:25]
event type: exit
[EXCEPTION -- 2018-09-26 22:46:25]
exit code: no exit code available
