[INFO -- 2018-09-24 00:53:26]
Starting GDB script
[INFO -- 2018-09-24 00:53:26]
initSignal:0.0
[INFO -- 2018-09-24 00:53:26]
endSignal:2.0
[INFO -- 2018-09-24 00:53:26]
sending 5 signals using command: 'killall -2 smith_waterman' after 0.26136072157s
[INFO -- 2018-09-24 00:53:27]
sending 5 signals using command: 'killall -2 smith_waterman' after 0.85396373299s
[INFO -- 2018-09-24 00:53:27]
Execution finished before waitTime
