[INFO -- 2018-09-23 17:24:50]
Starting GDB script
[INFO -- 2018-09-23 17:24:50]
initSignal:0.0
[INFO -- 2018-09-23 17:24:50]
endSignal:2.0
[INFO -- 2018-09-23 17:24:51]
sending 5 signals using command: 'killall -2 smith_waterman' after 0.316169035752s
[INFO -- 2018-09-23 17:24:51]
sending 5 signals using command: 'killall -2 smith_waterman' after 1.22238728743s
[INFO -- 2018-09-23 17:24:52]
sending 5 signals using command: 'killall -2 smith_waterman' after 1.82764540492s
[INFO -- 2018-09-23 17:24:55]
Execution finished before waitTime
