[INFO -- 2018-12-08 20:53:48]
Starting GDB script
[INFO -- 2018-12-08 20:53:48]
initSignal:0.0
[INFO -- 2018-12-08 20:53:48]
endSignal:6.0
[INFO -- 2018-12-08 20:53:50]
sending 5 signals using command: 'killall -2 smith_waterman' after 2.2993302638s
[INFO -- 2018-12-08 20:53:53]
sending 5 signals using command: 'killall -2 smith_waterman' after 4.86904607081s
[INFO -- 2018-12-08 20:53:53]
sending 5 signals using command: 'killall -2 smith_waterman' after 5.52109053329s
[INFO -- 2018-12-08 20:53:54]
Execution finished before waitTime
