[INFO -- 2018-09-25 21:11:45]
Starting GDB script
[INFO -- 2018-09-25 21:11:45]
initSignal:0.0
[INFO -- 2018-09-25 21:11:45]
endSignal:2.0
[INFO -- 2018-09-25 21:11:45]
sending 5 signals using command: 'killall -2 smith_waterman' after 0.125863891532s
[INFO -- 2018-09-25 21:11:45]
sending 5 signals using command: 'killall -2 smith_waterman' after 0.384453999907s
[INFO -- 2018-09-25 21:11:47]
sending 5 signals using command: 'killall -2 smith_waterman' after 1.85360651172s
[INFO -- 2018-09-25 21:11:52]
Execution finished before waitTime
