[INFO -- 2018-12-04 18:20:41]
Starting GDB script
[INFO -- 2018-12-04 18:20:41]
initSignal:0.0
[INFO -- 2018-12-04 18:20:41]
endSignal:6.0
[INFO -- 2018-12-04 18:20:43]
sending 5 signals using command: 'killall -2 smith_waterman' after 1.60639869736s
[INFO -- 2018-12-04 18:20:43]
sending 5 signals using command: 'killall -2 smith_waterman' after 1.80096243419s
[INFO -- 2018-12-04 18:20:47]
sending 5 signals using command: 'killall -2 smith_waterman' after 5.23258405249s
[INFO -- 2018-12-04 18:20:47]
Execution finished before waitTime
