[INFO -- 2018-09-26 16:48:41]
Starting GDB script
[INFO -- 2018-09-26 16:48:41]
initSignal:0.0
[INFO -- 2018-09-26 16:48:41]
endSignal:2.0
[INFO -- 2018-09-26 16:48:42]
sending 5 signals using command: 'killall -2 smith_waterman' after 0.998230401401s
[INFO -- 2018-09-26 16:48:42]
sending 5 signals using command: 'killall -2 smith_waterman' after 1.5019936534s
[INFO -- 2018-09-26 16:48:43]
sending 5 signals using command: 'killall -2 smith_waterman' after 1.99413123764s
[INFO -- 2018-09-26 16:48:46]
Execution finished before waitTime
