[INFO -- 2018-12-08 17:56:03]
Starting GDB script
[INFO -- 2018-12-08 17:56:03]
initSignal:0.0
[INFO -- 2018-12-08 17:56:03]
endSignal:6.0
[INFO -- 2018-12-08 17:56:03]
sending 5 signals using command: 'killall -2 smith_waterman' after 0.542190899694s
[INFO -- 2018-12-08 17:56:04]
Execution finished before waitTime
