[INFO -- 2018-09-26 05:21:42]
sending 5 signals using command: 'killall -2 smith_waterman' after 1.13363584718s
[INFO -- 2018-09-26 05:21:42]
sending 5 signals using command: 'killall -2 smith_waterman' after 1.25735933355s
[INFO -- 2018-09-26 05:21:42]
Starting GDB script
[INFO -- 2018-09-26 05:21:42]
initSignal:0.0
[INFO -- 2018-09-26 05:21:42]
endSignal:2.0
[INFO -- 2018-09-26 05:21:42]
sending 5 signals using command: 'killall -2 smith_waterman' after 0.0816064798403s
[INFO -- 2018-09-26 05:21:43]
sending 5 signals using command: 'killall -2 smith_waterman' after 1.00468015793s
[INFO -- 2018-09-26 05:21:44]
sending 5 signals using command: 'killall -2 smith_waterman' after 1.58069846946s
[INFO -- 2018-09-26 05:21:49]
Execution finished before waitTime
