[INFO -- 2018-12-08 14:58:20]
Starting GDB script
[INFO -- 2018-12-08 14:58:20]
initSignal:0.0
[INFO -- 2018-12-08 14:58:20]
endSignal:6.0
[INFO -- 2018-12-08 14:58:21]
sending 5 signals using command: 'killall -2 smith_waterman' after 1.43519097937s
[INFO -- 2018-12-08 14:58:22]
Execution finished before waitTime
