[INFO -- 2018-12-04 11:15:47]
Starting GDB script
[INFO -- 2018-12-04 11:15:47]
initSignal:0.0
[INFO -- 2018-12-04 11:15:47]
endSignal:6.0
[INFO -- 2018-12-04 11:15:48]
sending 5 signals using command: 'killall -2 smith_waterman' after 1.06114631871s
[INFO -- 2018-12-04 11:15:50]
sending 5 signals using command: 'killall -2 smith_waterman' after 2.25959189632s
[INFO -- 2018-12-04 11:15:50]
sending 5 signals using command: 'killall -2 smith_waterman' after 2.57298165493s
[INFO -- 2018-12-04 11:15:53]
Execution finished before waitTime
