[INFO -- 2018-12-09 06:42:15]
Starting GDB script
[INFO -- 2018-12-09 06:42:15]
initSignal:0.0
[INFO -- 2018-12-09 06:42:15]
endSignal:6.0
[INFO -- 2018-12-09 06:42:17]
sending 5 signals using command: 'killall -2 smith_waterman' after 1.8005893228s
[INFO -- 2018-12-09 06:42:18]
Execution finished before waitTime
