[INFO -- 2018-09-28 06:27:29]
sending 5 signals using command: 'killall -2 smith_waterman' after 1.13211253809s
[INFO -- 2018-09-28 06:27:30]
Starting GDB script
[INFO -- 2018-09-28 06:27:30]
initSignal:0.0
[INFO -- 2018-09-28 06:27:30]
endSignal:2.0
[INFO -- 2018-09-28 06:27:30]
sending 5 signals using command: 'killall -2 smith_waterman' after 0.120898589732s
[INFO -- 2018-09-28 06:27:30]
sending 5 signals using command: 'killall -2 smith_waterman' after 0.616645664936s
[INFO -- 2018-09-28 06:27:31]
sending 5 signals using command: 'killall -2 smith_waterman' after 1.85119208597s
[INFO -- 2018-09-28 06:27:37]
Execution finished before waitTime
