[INFO -- 2018-09-25 20:53:02]
Starting GDB script
[INFO -- 2018-09-25 20:53:02]
initSignal:0.0
[INFO -- 2018-09-25 20:53:02]
endSignal:2.0
[INFO -- 2018-09-25 20:53:02]
sending 5 signals using command: 'killall -2 smith_waterman' after 0.302377709268s
[INFO -- 2018-09-25 20:53:03]
sending 5 signals using command: 'killall -2 smith_waterman' after 1.47188485299s
[INFO -- 2018-09-25 20:53:03]
sending 5 signals using command: 'killall -2 smith_waterman' after 1.66132235889s
[INFO -- 2018-09-25 20:53:09]
Execution finished before waitTime
