[INFO -- 2018-12-04 00:53:09]
Starting GDB script
[INFO -- 2018-12-04 00:53:09]
initSignal:0.0
[INFO -- 2018-12-04 00:53:09]
endSignal:6.0
[INFO -- 2018-12-04 00:53:11]
sending 5 signals using command: 'killall -2 smith_waterman' after 2.616055245s
[INFO -- 2018-12-04 00:53:13]
sending 5 signals using command: 'killall -2 smith_waterman' after 3.91686212522s
[INFO -- 2018-12-04 00:53:15]
sending 5 signals using command: 'killall -2 smith_waterman' after 5.72392369254s
[INFO -- 2018-12-04 00:53:16]
Execution finished before waitTime
