[INFO -- 2018-09-27 02:30:55]
Starting flip_value script
version: 1.1
[INFO -- 2018-09-27 02:30:55]
Initialization strings:
[INFO -- 2018-09-27 02:30:55]
(1) file /tmp/smith_waterman/smith_waterman
[INFO -- 2018-09-27 02:30:55]
(2) set args -x /tmp/smith_waterman/randInputX -y /tmp/smith_waterman/randInputY -o /tmp/smith_waterman/output
[INFO -- 2018-09-27 02:30:55]
initSignal:0
[INFO -- 2018-09-27 02:30:55]
endSignal:2
[INFO -- 2018-09-27 02:30:55]
faultModel:1
[INFO -- 2018-09-27 02:30:55]
Backtrace BEGIN:
#0  0x0000555555554fbb in smith_waterman (x_num=15000, y_num=11700, str_x=0x5555557586c0 "OFSOXVSZZOASVQMJMZRZTDNMABLPWBXMJRDIMXHNLHFGZTSOTJNOMCAPDLEBODQXUTFIQOWDXBMZVENQNCECEETJRXNFDFFXYMGQBEVAFJZCNOSDQWHWCAITZXBCCGCCSKUVOPWTZXYOOQTGPADRCNNCMOGOUISOSMKGDICCHATVSMCHPHZRWMVICEYWMQKHCWPFERKM"..., str_y=0x55555575c170 "FSOXXVSZOOSVVQMMMRZZDNMMBBLPBBMMJDIMMXHNHHGGZTSTJJNMMAAPDEEBODQXTFFIQODDBMZZEENQCCCCEETJRNFDDFFXYGQBBVAAJZCCNOSDWWHWCATZXBCCGCCCKKUVOPTTZYYOOTTGPADCCNCCOOGOISSSSKKDDICHAAVVSMCPPHRWWVVCCYWWMQHHCWFFRKKT"..., fo=0x555555758260) at smith_waterman.c:96
#1  0x0000555555555e38 in main (argc=7, argv=0x7fffffffdcb8) at smith_waterman.c:298

91	
92	    double diff=0.0;
93	    double max_score=0.0;
94	    for(i=1; i<x_num+1; i++){
95	        for(j=1; j<y_num+1; j++){
96	            if(str_x[i-1]==str_y[j-1]){diff=match_score;}
97	            else{diff=mismatch_score;}
98	            matrix[i][j]=my_maxof(matrix[i-1][j-1]+diff, matrix[i-1][j]+gap_score, matrix[i][j-1]+gap_score,0);
99	            if(matrix[i][j]>max_score)
100	                max_score=matrix[i][j];

Backtrace END
Memory content before bitflip:0xaa0x2e0xa60xf70xff0x7f0x000x00
Fault Model: Double bit-flip
base address to flip value: 0x7fffffffdb08
address max offset: 8
Memory content after  bitflip:0xaa0x2e0xbe0xf70xff0x7f0x000x00
frame name: smith_waterman
symbol name: scoreDiag
symbol filename: smith_waterman.c
symbol line: 135
value: 6.9533489634863997e-310
value address: 0x7fffffffdb08
Type: A floating point type.
Type sizeof: 8

[INFO -- 2018-09-27 02:30:55]
Fault Injection Successful after 0.8673081398010254s
[INFO -- 2018-09-27 02:31:00]
event type: exit
[INFO -- 2018-09-27 02:31:00]
exit code: 0
