[INFO -- 2018-12-04 04:19:45]
Starting flip_value script
version: 1.1
[INFO -- 2018-12-04 04:19:45]
Initialization strings:
[INFO -- 2018-12-04 04:19:45]
(1) file /tmp/smith_waterman/smith_waterman
[INFO -- 2018-12-04 04:19:45]
(2) set args -x /tmp/smith_waterman/randInputX -y /tmp/smith_waterman/randInputY -o /tmp/smith_waterman/output -z /tmp/smith_waterman/detected.log
[INFO -- 2018-12-04 04:19:45]
initSignal:0
[INFO -- 2018-12-04 04:19:45]
endSignal:6
[INFO -- 2018-12-04 04:19:45]
faultModel:2
[EXCEPTION -- 2018-12-04 04:19:48]
pythonException: invalid literal for int() with base 16: '0x55555579fa10 ...'
[INFO -- 2018-12-04 04:19:48]
Backtrace BEGIN:
#0  0x00005555555550d5 in smith_waterman (x_num=15000, y_num=13350, str_x=0x555555795810 "MZTTEQTQYANMTYGDLPMGAKGCFKKCEUVQVOLZEEREHHQAFWEQNSYOEEQLQCNVZINWWBWCFPGOWZRDXXVLPTZVARHQWUNVFBRDCPGJHOYFNRJLOEYFAXAAQHSMEGHLHBOJSWUZNUHCLQPBWNGWMHYDQRPWXZJEAAPUYLULGBQRTFTPTBOFKMIBDAZCZJIBJZVHLRVRSLKN"..., str_y=0x5555557992c0 "ZTTEQTQYYAMMTYGLLPMAAKCFKKKCEUQVVLZEERREHHAFWEEQNYOEEQLQCNNVZNNWWBWFFPOWZZRXXVLPTZZARHQQUUNVBBDDCGJHHOFNRRLLOYFAXAAAHHMMEHLHBOJJSUZNUHCLQPPWWNWMHYDQRPWWXJEEAAPUYUULGBQTTFTPBOOKKMBDAZCCJIIBZVHLRRRRLKNQ"...) at smith_waterman.c:102
#1  0x0000555555555cbf in execute (file_x_name=0x7fffffffe22c "/tmp/smith_waterman/randInputX", file_y_name=0x7fffffffe24e "/tmp/smith_waterman/randInputY") at smith_waterman.c:263
#2  0x0000555555555f1f in main (argc=9, argv=0x7fffffffde78) at smith_waterman.c:315

97	    double max_score=0.0;
98	    for(i=1; i<x_num+1; i++){
99	        for(j=1; j<y_num+1; j++){
100	            if(str_x[i-1]==str_y[j-1]){diff=match_score;}
101	            else{diff=mismatch_score;}
102	            matrix[i][j]=my_maxof(matrix[i-1][j-1]+diff, matrix[i-1][j]+gap_score, matrix[i][j-1]+gap_score,0);
103	            if(matrix[i][j]>max_score)
104	                max_score=matrix[i][j];
105	        }
106	    }

Backtrace END
Fliping a bit of the value pointed by a pointer
Memory content before bitflip:0x90
Fault Model: Random bit-flip
base address to flip value: 0x5555557839d0 
address max offset: 1
Memory content after  bitflip:0x63
frame name: smith_waterman
symbol name: alignmentAcopy
symbol filename: smith_waterman.c
symbol line: 137
value: 0x5555557839d0 "c\204uUUU"
value address: 0x7fffffffdc68
Type: The type is a pointer.
Type sizeof: 8

[INFO -- 2018-12-04 04:19:48]
Fault Injection Successful after 3.319422721862793s
[INFO -- 2018-12-04 04:19:50]
event type: exit
[EXCEPTION -- 2018-12-04 04:19:50]
exit code: no exit code available
