[INFO -- 2018-12-04 18:46:35]
Starting GDB script
[INFO -- 2018-12-04 18:46:35]
initSignal:0.0
[INFO -- 2018-12-04 18:46:35]
endSignal:6.0
[INFO -- 2018-12-04 18:46:36]
sending 5 signals using command: 'killall -2 smith_waterman' after 1.03747405883s
[INFO -- 2018-12-04 18:46:36]
sending 5 signals using command: 'killall -2 smith_waterman' after 1.39980555965s
[INFO -- 2018-12-04 18:46:40]
sending 5 signals using command: 'killall -2 smith_waterman' after 5.15809023982s
[INFO -- 2018-12-04 18:46:41]
Execution finished before waitTime
