[INFO -- 2018-12-08 04:09:20]
sending 5 signals using command: 'killall -2 smith_waterman' after 5.82834179288s
[INFO -- 2018-12-08 04:09:20]
Starting GDB script
[INFO -- 2018-12-08 04:09:20]
initSignal:0.0
[INFO -- 2018-12-08 04:09:20]
endSignal:6.0
[INFO -- 2018-12-08 04:09:22]
sending 5 signals using command: 'killall -2 smith_waterman' after 1.71652320615s
[INFO -- 2018-12-08 04:09:22]
sending 5 signals using command: 'killall -2 smith_waterman' after 2.02281382484s
[INFO -- 2018-12-08 04:09:25]
sending 5 signals using command: 'killall -2 smith_waterman' after 4.74773804683s
[INFO -- 2018-12-08 04:09:27]
Execution finished before waitTime
