[INFO -- 2018-12-09 09:33:19]
Starting GDB script
[INFO -- 2018-12-09 09:33:19]
initSignal:0.0
[INFO -- 2018-12-09 09:33:19]
endSignal:6.0
[INFO -- 2018-12-09 09:33:21]
sending 5 signals using command: 'killall -2 smith_waterman' after 1.25862226621s
[INFO -- 2018-12-09 09:33:22]
sending 5 signals using command: 'killall -2 smith_waterman' after 2.47139284971s
[INFO -- 2018-12-09 09:33:25]
sending 5 signals using command: 'killall -2 smith_waterman' after 5.8123156578s
[INFO -- 2018-12-09 09:33:27]
Execution finished before waitTime
