[INFO -- 2018-09-24 17:43:40]
sending 5 signals using command: 'killall -2 smith_waterman' after 1.23557976062s
[INFO -- 2018-09-24 17:43:40]
Starting GDB script
[INFO -- 2018-09-24 17:43:40]
initSignal:0.0
[INFO -- 2018-09-24 17:43:40]
endSignal:2.0
[INFO -- 2018-09-24 17:43:40]
sending 5 signals using command: 'killall -2 smith_waterman' after 0.758676436867s
[INFO -- 2018-09-24 17:43:41]
sending 5 signals using command: 'killall -2 smith_waterman' after 1.59529436667s
[INFO -- 2018-09-24 17:43:41]
sending 5 signals using command: 'killall -2 smith_waterman' after 1.75637426985s
[INFO -- 2018-09-24 17:43:47]
Execution finished before waitTime
