[INFO -- 2018-12-03 09:46:51]
sending 5 signals using command: 'killall -2 smith_waterman' after 5.71149697047s
[INFO -- 2018-12-03 09:46:51]
Starting GDB script
[INFO -- 2018-12-03 09:46:51]
initSignal:0.0
[INFO -- 2018-12-03 09:46:51]
endSignal:6.0
[INFO -- 2018-12-03 09:46:52]
sending 5 signals using command: 'killall -2 smith_waterman' after 1.24299066935s
[INFO -- 2018-12-03 09:46:52]
sending 5 signals using command: 'killall -2 smith_waterman' after 1.2898880852s
[INFO -- 2018-12-03 09:46:54]
Execution finished before waitTime
