[INFO -- 2018-12-03 18:58:21]
Starting GDB script
[INFO -- 2018-12-03 18:58:21]
initSignal:0.0
[INFO -- 2018-12-03 18:58:21]
endSignal:6.0
[INFO -- 2018-12-03 18:58:23]
sending 5 signals using command: 'killall -2 smith_waterman' after 1.99061358011s
[INFO -- 2018-12-03 18:58:23]
sending 5 signals using command: 'killall -2 smith_waterman' after 2.13321045388s
[INFO -- 2018-12-03 18:58:26]
sending 5 signals using command: 'killall -2 smith_waterman' after 4.90710436389s
[INFO -- 2018-12-03 18:58:26]
Execution finished before waitTime
