[INFO -- 2018-12-03 14:52:53]
Starting flip_value script
version: 1.1
[INFO -- 2018-12-03 14:52:53]
Initialization strings:
[INFO -- 2018-12-03 14:52:53]
(1) file /tmp/smith_waterman/smith_waterman
[INFO -- 2018-12-03 14:52:53]
(2) set args -x /tmp/smith_waterman/randInputX -y /tmp/smith_waterman/randInputY -o /tmp/smith_waterman/output -z /tmp/smith_waterman/detected.log
[INFO -- 2018-12-03 14:52:53]
initSignal:0
[INFO -- 2018-12-03 14:52:53]
endSignal:6
[INFO -- 2018-12-03 14:52:53]
faultModel:1
[INFO -- 2018-12-03 14:52:55]
Backtrace BEGIN:
#0  smith_waterman (x_num=15000, y_num=10050, str_x=0x5555557586c0 "SWOXKQPXFGHOQQBFWWKYSPPOZZDUEFMZDBYNROKYUROMJQRHOEIGTXVSWYODFBEIECXXSIWOBMDNEUUSYCZTCWNAWCFBDJLJOIGGSEXWRAJVUFQVKRQMNEOLGUMLDXURHAAAFXWYXHVTMLQWCHKRNZCTTQEYNASVASXHRTHQADLOOCNTLZKYAPRTFXUVZMSBGPJZIQPK"..., str_y=0x55555575c170 "SOXKKPXXGHHQQBBWWWKYSPOOZZDEFMZZBBYNOKYUURMJQRHOEEGGTVSWWODFFEEICXXXSIWOMDNNUUUYCCZCCNAACFBBDLJJOIGGSEWRRJJVUQVVRRQMNEOLUULLDURHAAAAXWWYHVVMLLWWHHRRZZTTTQEYNAVAAXXHTHQQDDLOCCTLZZYYAPRFFUVVZSSBPJZIIPPK"...) at smith_waterman.c:130
#1  0x0000555555555cbf in execute (file_x_name=0x7fffffffe1f3 "/tmp/smith_waterman/randInputX", file_y_name=0x7fffffffe215 "/tmp/smith_waterman/randInputY") at smith_waterman.c:263
#2  0x0000555555555f08 in main (argc=9, argv=0x7fffffffde38) at smith_waterman.c:314

125	            if(i==0 && j==0){
126	                maxValue = matrix[i][j];
127	                y = i;
128	                x = j;
129	            }
130	            if(maxValue < matrix[i][j]){
131	                maxValue = matrix[i][j];
132	                y = i;
133	                x = j;
134	            }

Backtrace END
Fliping a bit of the pointer
Memory content before bitflip:0xd00x490x550x550x550x550x000x00
Fault Model: Double bit-flip
base address to flip value: 0x7fffffffdd38
address max offset: 8
Memory content after  bitflip:0xd00x490x550x550x550x550x110x00
frame name: main
symbol name: answer2
symbol filename: smith_waterman.c
symbol line: 315
value: 0x5555555549d0 <_start> "1\355I\211\321^H\211\342H\203\344\360PTL\215\005\332\026"
value address: 0x7fffffffdd38
Type: The type is a pointer.
Type sizeof: 8

[INFO -- 2018-12-03 14:52:55]
Fault Injection Successful after 2.2681665420532227s
[INFO -- 2018-12-03 14:52:57]
event type: exit
[INFO -- 2018-12-03 14:52:57]
exit code: 0
