[INFO -- 2018-09-25 01:25:40]
Starting flip_value script
version: 1.1
[INFO -- 2018-09-25 01:25:40]
Initialization strings:
[INFO -- 2018-09-25 01:25:40]
(1) file /tmp/smith_waterman/smith_waterman
[INFO -- 2018-09-25 01:25:40]
(2) set args -x /tmp/smith_waterman/randInputX -y /tmp/smith_waterman/randInputY -o /tmp/smith_waterman/output
[INFO -- 2018-09-25 01:25:40]
initSignal:0
[INFO -- 2018-09-25 01:25:40]
endSignal:2
[INFO -- 2018-09-25 01:25:40]
faultModel:2
[INFO -- 2018-09-25 01:25:42]
Backtrace BEGIN:
#0  my_maxof (a=2358, b=2358, c=2355, d=0) at smith_waterman.c:66
#1  0x00005555555550d7 in smith_waterman (x_num=15000, y_num=11850, str_x=0x5555557586c0 "BPPWDXJRVCANBMUBFGBROBWMRJXDGBIJQYHVVQOTURGVDCXIIYBXCZLVIJYQMGCEGJCEAQXWJFSOHPWSPZRTBCOJNOCBXEGDNIHPAGMMLGATXZLMYCIZGWLULPXIVDNINVAQBMCNUCIRBVFCZNDFKQBXFZHAEULSRLKVZMITOSMSNRUOFXTRQXQVWXYCRLUJWGEXSOSJ"..., str_y=0x55555575c170 "PPWWDJJRVCNNBMUBFGBRBBWRRJXDGBIQQHHVVQOUURVDDCXIIBBXCZLVIYYQMGEEGJCAAXXWJFSOHWWSPRRTBCONNOCBXEGNNIPAAGMMLAATXZLYYCIZWLLUPPIIVNNINVABBCCNUCIBBVFCNNDKKQBXFZHEELLSRLKVMMITOSSSNUOFFXTRQXQWXXCCRLJWWGEXOOSJ"..., fo=0x555555758260) at smith_waterman.c:98
#2  0x0000555555555e38 in main (argc=7, argv=0x7fffffffdcb8) at smith_waterman.c:298

61	
62	double my_maxof(double a, double b, double c, double d)
63	{
64	    double ans=a;
65	    if(ans<b) ans=b;
66	    if(ans<c) ans=c;
67	    if(ans<d) ans=d;
68	    return ans;
69	}
70	

Backtrace END
Memory content before bitflip:0x070x000x000x00
Fault Model: Random bit-flip
base address to flip value: 0x7fffffffdb5c
address max offset: 4
Memory content after  bitflip:0xa20x960xa20xfb
frame name: main
symbol name: argc
symbol filename: smith_waterman.c
symbol line: 242
value: -73230686
value address: 0x7fffffffdb5c
Type: The type is an integer type.
Type sizeof: 4

[INFO -- 2018-09-25 01:25:42]
Fault Injection Successful after 2.3199384212493896s
[INFO -- 2018-09-25 01:25:45]
event type: exit
[INFO -- 2018-09-25 01:25:45]
exit code: 0
