[INFO -- 2018-11-08 18:35:07]
sending 5 signals using command: 'killall -2 smith_waterman' after 4.87287497746s
[INFO -- 2018-11-08 18:35:07]
sending 5 signals using command: 'killall -2 smith_waterman' after 5.02051657788s
[INFO -- 2018-11-08 18:35:08]
sending 5 signals using command: 'killall -2 smith_waterman' after 5.66083566059s
[INFO -- 2018-11-08 18:35:08]
Starting GDB script
[INFO -- 2018-11-08 18:35:08]
initSignal:0.0
[INFO -- 2018-11-08 18:35:08]
endSignal:2.0
[INFO -- 2018-11-08 18:35:08]
sending 5 signals using command: 'killall -2 smith_waterman' after 0.218800980415s
[INFO -- 2018-11-08 18:35:08]
sending 5 signals using command: 'killall -2 smith_waterman' after 0.313269974615s
[INFO -- 2018-11-08 18:35:08]
sending 5 signals using command: 'killall -2 smith_waterman' after 0.380856236025s
[INFO -- 2018-11-08 18:35:12]
Execution finished before waitTime
