[INFO -- 2018-09-27 12:06:22]
Starting GDB script
[INFO -- 2018-09-27 12:06:22]
initSignal:0.0
[INFO -- 2018-09-27 12:06:22]
endSignal:2.0
[INFO -- 2018-09-27 12:06:23]
sending 5 signals using command: 'killall -2 smith_waterman' after 0.387679223558s
[INFO -- 2018-09-27 12:06:23]
sending 5 signals using command: 'killall -2 smith_waterman' after 0.931512675009s
[INFO -- 2018-09-27 12:06:23]
sending 5 signals using command: 'killall -2 smith_waterman' after 0.953991061403s
[INFO -- 2018-09-27 12:06:42]
Execution did not finish before waitTime
