[INFO -- 2018-11-07 20:22:25]
Starting GDB script
[INFO -- 2018-11-07 20:22:25]
initSignal:0.0
[INFO -- 2018-11-07 20:22:25]
endSignal:2.0
[INFO -- 2018-11-07 20:22:25]
sending 5 signals using command: 'killall -2 smith_waterman' after 0.497438213066s
[INFO -- 2018-11-07 20:22:27]
sending 5 signals using command: 'killall -2 smith_waterman' after 1.77251261544s
[INFO -- 2018-11-07 20:22:27]
sending 5 signals using command: 'killall -2 smith_waterman' after 1.99367952473s
[INFO -- 2018-11-07 20:22:28]
Execution finished before waitTime
