[INFO -- 2018-09-25 16:11:55]
Starting GDB script
[INFO -- 2018-09-25 16:11:55]
initSignal:0.0
[INFO -- 2018-09-25 16:11:55]
endSignal:2.0
[INFO -- 2018-09-25 16:11:56]
sending 5 signals using command: 'killall -2 smith_waterman' after 0.284951059115s
[INFO -- 2018-09-25 16:11:56]
sending 5 signals using command: 'killall -2 smith_waterman' after 0.808020232256s
[INFO -- 2018-09-25 16:11:56]
Execution finished before waitTime
