[INFO -- 2018-09-23 20:32:41]
Starting GDB script
[INFO -- 2018-09-23 20:32:41]
initSignal:0.0
[INFO -- 2018-09-23 20:32:41]
endSignal:2.0
[INFO -- 2018-09-23 20:32:41]
sending 5 signals using command: 'killall -2 smith_waterman' after 0.485712755887s
[INFO -- 2018-09-23 20:32:41]
sending 5 signals using command: 'killall -2 smith_waterman' after 0.565950114515s
[INFO -- 2018-09-23 20:32:42]
sending 5 signals using command: 'killall -2 smith_waterman' after 1.13548147663s
[INFO -- 2018-09-23 20:33:01]
Execution did not finish before waitTime
