[INFO -- 2018-09-27 04:47:52]
Starting GDB script
[INFO -- 2018-09-27 04:47:52]
initSignal:0.0
[INFO -- 2018-09-27 04:47:52]
endSignal:2.0
[INFO -- 2018-09-27 04:47:53]
sending 5 signals using command: 'killall -2 smith_waterman' after 0.880039841962s
[INFO -- 2018-09-27 04:47:54]
sending 5 signals using command: 'killall -2 smith_waterman' after 1.48684783352s
[INFO -- 2018-09-27 04:47:54]
sending 5 signals using command: 'killall -2 smith_waterman' after 1.96956634695s
[INFO -- 2018-09-27 04:47:58]
Execution finished before waitTime
