[INFO -- 2018-09-24 23:47:54]
Starting GDB script
[INFO -- 2018-09-24 23:47:54]
initSignal:0.0
[INFO -- 2018-09-24 23:47:54]
endSignal:2.0
[INFO -- 2018-09-24 23:47:54]
sending 5 signals using command: 'killall -2 smith_waterman' after 0.755530507764s
[INFO -- 2018-09-24 23:47:56]
sending 5 signals using command: 'killall -2 smith_waterman' after 1.87515717628s
[INFO -- 2018-09-24 23:47:56]
sending 5 signals using command: 'killall -2 smith_waterman' after 1.87990485046s
[INFO -- 2018-09-24 23:47:56]
Execution finished before waitTime
