[INFO -- 2018-09-27 09:15:16]
Starting GDB script
[INFO -- 2018-09-27 09:15:16]
initSignal:0.0
[INFO -- 2018-09-27 09:15:16]
endSignal:2.0
[INFO -- 2018-09-27 09:15:17]
sending 5 signals using command: 'killall -2 smith_waterman' after 0.36151554508s
[INFO -- 2018-09-27 09:15:17]
sending 5 signals using command: 'killall -2 smith_waterman' after 1.11306139613s
[INFO -- 2018-09-27 09:15:18]
sending 5 signals using command: 'killall -2 smith_waterman' after 1.59190024276s
[INFO -- 2018-09-27 09:15:22]
Execution finished before waitTime
