[INFO -- 2018-12-08 10:35:03]
sending 5 signals using command: 'killall -2 smith_waterman' after 4.23243143656s
[INFO -- 2018-12-08 10:35:05]
sending 5 signals using command: 'killall -2 smith_waterman' after 5.648144031s
[INFO -- 2018-12-08 10:35:05]
Starting GDB script
[INFO -- 2018-12-08 10:35:05]
initSignal:0.0
[INFO -- 2018-12-08 10:35:05]
endSignal:6.0
[INFO -- 2018-12-08 10:35:05]
sending 5 signals using command: 'killall -2 smith_waterman' after 0.652827911325s
[INFO -- 2018-12-08 10:35:06]
sending 5 signals using command: 'killall -2 smith_waterman' after 1.68367508442s
[INFO -- 2018-12-08 10:35:06]
sending 5 signals using command: 'killall -2 smith_waterman' after 1.84106894175s
[INFO -- 2018-12-08 10:35:13]
Execution finished before waitTime
