[INFO -- 2018-12-04 01:11:27]
Starting GDB script
[INFO -- 2018-12-04 01:11:27]
initSignal:0.0
[INFO -- 2018-12-04 01:11:27]
endSignal:6.0
[INFO -- 2018-12-04 01:11:28]
sending 5 signals using command: 'killall -2 smith_waterman' after 1.44011573861s
[INFO -- 2018-12-04 01:11:31]
sending 5 signals using command: 'killall -2 smith_waterman' after 4.28923659222s
[INFO -- 2018-12-04 01:11:31]
sending 5 signals using command: 'killall -2 smith_waterman' after 4.62784014416s
[INFO -- 2018-12-04 01:11:33]
Execution finished before waitTime
