[INFO -- 2018-09-27 07:09:03]
Starting GDB script
[INFO -- 2018-09-27 07:09:03]
initSignal:0.0
[INFO -- 2018-09-27 07:09:03]
endSignal:2.0
[INFO -- 2018-09-27 07:09:04]
sending 5 signals using command: 'killall -2 smith_waterman' after 0.625661622382s
[INFO -- 2018-09-27 07:09:04]
sending 5 signals using command: 'killall -2 smith_waterman' after 0.672253727603s
[INFO -- 2018-09-27 07:09:05]
sending 5 signals using command: 'killall -2 smith_waterman' after 1.67678298508s
[INFO -- 2018-09-27 07:09:23]
Execution did not finish before waitTime
