[INFO -- 2018-12-08 14:10:35]
Starting GDB script
[INFO -- 2018-12-08 14:10:35]
initSignal:0.0
[INFO -- 2018-12-08 14:10:35]
endSignal:6.0
[INFO -- 2018-12-08 14:10:39]
sending 5 signals using command: 'killall -2 smith_waterman' after 3.59224968344s
[INFO -- 2018-12-08 14:10:40]
sending 5 signals using command: 'killall -2 smith_waterman' after 4.58233068212s
[INFO -- 2018-12-08 14:10:41]
sending 5 signals using command: 'killall -2 smith_waterman' after 5.77141952454s
[INFO -- 2018-12-08 14:10:42]
Execution finished before waitTime
