[INFO -- 2018-12-03 18:31:24]
Starting GDB script
[INFO -- 2018-12-03 18:31:24]
initSignal:0.0
[INFO -- 2018-12-03 18:31:24]
endSignal:6.0
[INFO -- 2018-12-03 18:31:25]
sending 5 signals using command: 'killall -2 smith_waterman' after 1.22761299905s
[INFO -- 2018-12-03 18:31:26]
sending 5 signals using command: 'killall -2 smith_waterman' after 2.29666331372s
[INFO -- 2018-12-03 18:31:26]
sending 5 signals using command: 'killall -2 smith_waterman' after 2.90872035084s
[INFO -- 2018-12-03 18:31:31]
Execution finished before waitTime
