[INFO -- 2018-09-23 18:41:13]
Starting GDB script
[INFO -- 2018-09-23 18:41:13]
initSignal:0.0
[INFO -- 2018-09-23 18:41:13]
endSignal:2.0
[INFO -- 2018-09-23 18:41:13]
sending 5 signals using command: 'killall -2 smith_waterman' after 0.754675436436s
[INFO -- 2018-09-23 18:41:14]
sending 5 signals using command: 'killall -2 smith_waterman' after 0.923640433484s
[INFO -- 2018-09-23 18:41:14]
sending 5 signals using command: 'killall -2 smith_waterman' after 1.68671821354s
[INFO -- 2018-09-23 18:41:18]
Execution finished before waitTime
