[INFO -- 2018-12-05 16:31:29]
Starting GDB script
[INFO -- 2018-12-05 16:31:29]
initSignal:0.0
[INFO -- 2018-12-05 16:31:29]
endSignal:6.0
[INFO -- 2018-12-05 16:31:30]
sending 5 signals using command: 'killall -2 smith_waterman' after 0.616139765882s
[INFO -- 2018-12-05 16:31:32]
sending 5 signals using command: 'killall -2 smith_waterman' after 2.91644422135s
[INFO -- 2018-12-05 16:31:33]
sending 5 signals using command: 'killall -2 smith_waterman' after 4.08552618674s
[INFO -- 2018-12-05 16:31:35]
Execution finished before waitTime
