[INFO -- 2018-09-28 03:44:18]
Starting GDB script
[INFO -- 2018-09-28 03:44:18]
initSignal:0.0
[INFO -- 2018-09-28 03:44:18]
endSignal:2.0
[INFO -- 2018-09-28 03:44:18]
sending 5 signals using command: 'killall -2 smith_waterman' after 0.555342143939s
[INFO -- 2018-09-28 03:44:18]
sending 5 signals using command: 'killall -2 smith_waterman' after 0.737587071819s
[INFO -- 2018-09-28 03:44:19]
sending 5 signals using command: 'killall -2 smith_waterman' after 1.33028902529s
[INFO -- 2018-09-28 03:44:25]
Execution finished before waitTime
