[INFO -- 2018-09-26 16:12:47]
Starting GDB script
[INFO -- 2018-09-26 16:12:47]
initSignal:0.0
[INFO -- 2018-09-26 16:12:47]
endSignal:2.0
[INFO -- 2018-09-26 16:12:48]
sending 5 signals using command: 'killall -2 smith_waterman' after 1.06646369343s
[INFO -- 2018-09-26 16:12:49]
sending 5 signals using command: 'killall -2 smith_waterman' after 1.25592878496s
[INFO -- 2018-09-26 16:12:49]
sending 5 signals using command: 'killall -2 smith_waterman' after 1.73066490116s
[INFO -- 2018-09-26 16:12:52]
Execution finished before waitTime
