[INFO -- 2018-09-23 15:17:32]
Starting GDB script
[INFO -- 2018-09-23 15:17:32]
initSignal:0.0
[INFO -- 2018-09-23 15:17:32]
endSignal:2.0
[INFO -- 2018-09-23 15:17:33]
sending 5 signals using command: 'killall -2 smith_waterman' after 0.4717868515s
[INFO -- 2018-09-23 15:17:33]
sending 5 signals using command: 'killall -2 smith_waterman' after 1.18279224834s
[INFO -- 2018-09-23 15:17:34]
sending 5 signals using command: 'killall -2 smith_waterman' after 1.6617312542s
[INFO -- 2018-09-23 15:17:37]
Execution finished before waitTime
