[INFO -- 2018-09-23 16:27:00]
Starting GDB script
[INFO -- 2018-09-23 16:27:00]
initSignal:0.0
[INFO -- 2018-09-23 16:27:00]
endSignal:2.0
[INFO -- 2018-09-23 16:27:00]
sending 5 signals using command: 'killall -2 smith_waterman' after 0.277905437271s
[INFO -- 2018-09-23 16:27:00]
sending 5 signals using command: 'killall -2 smith_waterman' after 0.445756264668s
[INFO -- 2018-09-23 16:27:01]
sending 5 signals using command: 'killall -2 smith_waterman' after 1.34010483633s
[INFO -- 2018-09-23 16:27:05]
Execution finished before waitTime
