[INFO -- 2018-12-05 15:48:57]
Starting GDB script
[INFO -- 2018-12-05 15:48:57]
initSignal:0.0
[INFO -- 2018-12-05 15:48:57]
endSignal:6.0
[INFO -- 2018-12-05 15:48:58]
sending 5 signals using command: 'killall -2 smith_waterman' after 0.745747236815s
[INFO -- 2018-12-05 15:48:59]
sending 5 signals using command: 'killall -2 smith_waterman' after 1.55442327174s
[INFO -- 2018-12-05 15:49:01]
sending 5 signals using command: 'killall -2 smith_waterman' after 3.72750034511s
[INFO -- 2018-12-05 15:49:02]
Execution finished before waitTime
