[INFO -- 2018-12-04 18:43:40]
Starting GDB script
[INFO -- 2018-12-04 18:43:40]
initSignal:0.0
[INFO -- 2018-12-04 18:43:40]
endSignal:6.0
[INFO -- 2018-12-04 18:43:42]
sending 5 signals using command: 'killall -2 smith_waterman' after 2.23250746426s
[INFO -- 2018-12-04 18:43:43]
sending 5 signals using command: 'killall -2 smith_waterman' after 2.60747960633s
[INFO -- 2018-12-04 18:43:45]
sending 5 signals using command: 'killall -2 smith_waterman' after 5.22755533461s
[INFO -- 2018-12-04 18:43:46]
Execution finished before waitTime
