[INFO -- 2018-12-04 18:02:18]
Starting GDB script
[INFO -- 2018-12-04 18:02:18]
initSignal:0.0
[INFO -- 2018-12-04 18:02:18]
endSignal:6.0
[INFO -- 2018-12-04 18:02:20]
sending 5 signals using command: 'killall -2 smith_waterman' after 1.76220568255s
[INFO -- 2018-12-04 18:02:21]
sending 5 signals using command: 'killall -2 smith_waterman' after 3.12685853585s
[INFO -- 2018-12-04 18:02:23]
sending 5 signals using command: 'killall -2 smith_waterman' after 5.00954384329s
[INFO -- 2018-12-04 18:02:24]
Execution finished before waitTime
