[INFO -- 2018-09-24 15:22:00]
Starting GDB script
[INFO -- 2018-09-24 15:22:00]
initSignal:0.0
[INFO -- 2018-09-24 15:22:00]
endSignal:2.0
[INFO -- 2018-09-24 15:22:01]
sending 5 signals using command: 'killall -2 smith_waterman' after 0.856251677912s
[INFO -- 2018-09-24 15:22:02]
sending 5 signals using command: 'killall -2 smith_waterman' after 1.50799062534s
[INFO -- 2018-09-24 15:22:02]
sending 5 signals using command: 'killall -2 smith_waterman' after 1.91584544108s
[INFO -- 2018-09-24 15:22:06]
Execution finished before waitTime
