[INFO -- 2018-12-04 05:44:43]
Starting GDB script
[INFO -- 2018-12-04 05:44:43]
initSignal:0.0
[INFO -- 2018-12-04 05:44:43]
endSignal:6.0
[INFO -- 2018-12-04 05:44:45]
sending 5 signals using command: 'killall -2 smith_waterman' after 2.38924132381s
[INFO -- 2018-12-04 05:44:46]
Execution finished before waitTime
