[INFO -- 2018-09-26 00:36:54]
Starting GDB script
[INFO -- 2018-09-26 00:36:54]
initSignal:0.0
[INFO -- 2018-09-26 00:36:54]
endSignal:2.0
[INFO -- 2018-09-26 00:36:54]
sending 5 signals using command: 'killall -2 smith_waterman' after 0.0707155913114s
[INFO -- 2018-09-26 00:36:55]
sending 5 signals using command: 'killall -2 smith_waterman' after 1.171154433s
[INFO -- 2018-09-26 00:36:56]
sending 5 signals using command: 'killall -2 smith_waterman' after 1.95501180071s
[INFO -- 2018-09-26 00:36:59]
Execution finished before waitTime
