[INFO -- 2018-09-23 18:09:05]
Starting GDB script
[INFO -- 2018-09-23 18:09:05]
initSignal:0.0
[INFO -- 2018-09-23 18:09:05]
endSignal:2.0
[INFO -- 2018-09-23 18:09:06]
sending 5 signals using command: 'killall -2 smith_waterman' after 1.00638494377s
[INFO -- 2018-09-23 18:09:07]
sending 5 signals using command: 'killall -2 smith_waterman' after 1.36930652565s
[INFO -- 2018-09-23 18:09:07]
sending 5 signals using command: 'killall -2 smith_waterman' after 1.94212684101s
[INFO -- 2018-09-23 18:09:10]
Execution finished before waitTime
