[INFO -- 2018-11-08 19:50:04]
Starting flip_value script
version: 1.1
[INFO -- 2018-11-08 19:50:04]
Initialization strings:
[INFO -- 2018-11-08 19:50:04]
(1) file /tmp/smith_waterman/smith_waterman
[INFO -- 2018-11-08 19:50:04]
(2) set args -x /tmp/smith_waterman/randInputX -y /tmp/smith_waterman/randInputY -o /tmp/smith_waterman/output
[INFO -- 2018-11-08 19:50:04]
initSignal:0
[INFO -- 2018-11-08 19:50:04]
endSignal:6
[INFO -- 2018-11-08 19:50:04]
faultModel:0
[INFO -- 2018-11-08 19:50:06]
Backtrace BEGIN:
#0  0x00007ffff7b03d17 in munmap () at ../sysdeps/unix/syscall-template.S:84
#1  0x00007ffff7a8450a in munmap_chunk (p=<optimized out>) at malloc.c:2888
#2  __GI___libc_free (mem=<optimized out>) at malloc.c:3138
#3  0x0000555555555b54 in smith_waterman (x_num=9900, y_num=15000, str_x=0x5555557586c0 "DWODJDCCKKOEERGGLXXRRHHFNNMAJHHMWPPAACHWMPSSGYYTYYQQQGGYNTWWHHJPFWWHCFDUPPCCMXXKOODCOLBGGYZZMJOTJMBMRFFNQQKKERXOHARXMTSWWYUJKKCRFFFQMGGEEWWQQWXYYQMMVVHVVRRFWWKKDDDRRJBVIAGWWGWWVJJSSTTTTKEEIQRVUUBODFNN"..., str_y=0x55555575ad80 "DWODJDMCTKGOERLGLZXVRSHOFNMAJYHMWXPFACHWMPKSGXYTWYQQQYGYNTAWTHJPFYWHCFDRUPLCMMXLKODCOLABGDYZMJOTJMBMRGFNWQRKERXOHARXMTYSWYUJHKCRXFFQMMGKEZWJQWXXYQUMKVHIVBRFLWYKBDDPRJBVIAGBWGYWYVJISQTNTKSEIQRKVUBODFMN"..., fo=0x555555758260) at smith_waterman.c:236
#4  0x0000555555555e38 in main (argc=7, argv=0x7fffffffde98) at smith_waterman.c:298

79	../sysdeps/unix/syscall-template.S: No such file or directory.

Backtrace END
Memory content before bitflip:0x980x3a0x000x000x000x000x000x00
Fault Model: Single bit-flip
base address to flip value: 0x7fffffffdc60
address max offset: 8
Memory content after  bitflip:0x980x3a0x000x000x000x000x080x00
frame name: smith_waterman
symbol name: y_num
symbol filename: smith_waterman.c
symbol line: 79
value: 2251799813700248
value address: 0x7fffffffdc60
Type: The type is an integer type.
Type sizeof: 8

[INFO -- 2018-11-08 19:50:06]
Fault Injection Successful after 2.569239377975464s
[INFO -- 2018-11-08 19:50:06]
event type: exit
[INFO -- 2018-11-08 19:50:06]
exit code: 0
