[INFO -- 2018-09-27 18:44:46]
Starting GDB script
[INFO -- 2018-09-27 18:44:46]
initSignal:0.0
[INFO -- 2018-09-27 18:44:46]
endSignal:2.0
[INFO -- 2018-09-27 18:44:46]
sending 5 signals using command: 'killall -2 smith_waterman' after 0.378463751623s
[INFO -- 2018-09-27 18:44:46]
sending 5 signals using command: 'killall -2 smith_waterman' after 0.48247199817s
[INFO -- 2018-09-27 18:44:48]
sending 5 signals using command: 'killall -2 smith_waterman' after 1.56519266624s
[INFO -- 2018-09-27 18:44:52]
Execution finished before waitTime
