[INFO -- 2018-09-26 11:43:17]
Starting GDB script
[INFO -- 2018-09-26 11:43:17]
initSignal:0.0
[INFO -- 2018-09-26 11:43:17]
endSignal:2.0
[INFO -- 2018-09-26 11:43:18]
sending 5 signals using command: 'killall -2 smith_waterman' after 0.837540032122s
[INFO -- 2018-09-26 11:43:18]
sending 5 signals using command: 'killall -2 smith_waterman' after 1.20883153626s
[INFO -- 2018-09-26 11:43:18]
sending 5 signals using command: 'killall -2 smith_waterman' after 1.31343988652s
[INFO -- 2018-09-26 11:43:24]
Execution finished before waitTime
