[INFO -- 2018-12-03 08:35:11]
Starting GDB script
[INFO -- 2018-12-03 08:35:11]
initSignal:0.0
[INFO -- 2018-12-03 08:35:11]
endSignal:6.0
[INFO -- 2018-12-03 08:35:12]
sending 5 signals using command: 'killall -2 smith_waterman' after 0.692060283317s
[INFO -- 2018-12-03 08:35:12]
sending 5 signals using command: 'killall -2 smith_waterman' after 0.767690974025s
[INFO -- 2018-12-03 08:35:13]
sending 5 signals using command: 'killall -2 smith_waterman' after 1.81070796496s
[INFO -- 2018-12-03 08:35:14]
Execution finished before waitTime
