[INFO -- 2018-12-03 21:12:47]
sending 5 signals using command: 'killall -2 smith_waterman' after 5.55720283243s
[INFO -- 2018-12-03 21:12:47]
Starting GDB script
[INFO -- 2018-12-03 21:12:47]
initSignal:0.0
[INFO -- 2018-12-03 21:12:47]
endSignal:6.0
[INFO -- 2018-12-03 21:12:49]
sending 5 signals using command: 'killall -2 smith_waterman' after 2.10665436277s
[INFO -- 2018-12-03 21:12:49]
sending 5 signals using command: 'killall -2 smith_waterman' after 2.49062897786s
[INFO -- 2018-12-03 21:12:51]
sending 5 signals using command: 'killall -2 smith_waterman' after 3.95211157154s
[INFO -- 2018-12-03 21:12:52]
Execution finished before waitTime
