[INFO -- 2018-11-08 22:54:35]
sending 5 signals using command: 'killall -2 smith_waterman' after 3.12854754664s
[INFO -- 2018-11-08 22:54:35]
Starting GDB script
[INFO -- 2018-11-08 22:54:35]
initSignal:0.0
[INFO -- 2018-11-08 22:54:35]
endSignal:6.0
[INFO -- 2018-11-08 22:54:38]
sending 5 signals using command: 'killall -2 smith_waterman' after 2.29115376746s
[INFO -- 2018-11-08 22:54:39]
Execution finished before waitTime
