[INFO -- 2018-09-26 17:30:53]
Starting GDB script
[INFO -- 2018-09-26 17:30:53]
initSignal:0.0
[INFO -- 2018-09-26 17:30:53]
endSignal:2.0
[INFO -- 2018-09-26 17:30:54]
sending 5 signals using command: 'killall -2 smith_waterman' after 1.21445507s
[INFO -- 2018-09-26 17:30:54]
sending 5 signals using command: 'killall -2 smith_waterman' after 1.38292914438s
[INFO -- 2018-09-26 17:30:54]
sending 5 signals using command: 'killall -2 smith_waterman' after 1.75371023158s
[INFO -- 2018-09-26 17:30:58]
Execution finished before waitTime
