[INFO -- 2018-12-08 17:04:09]
Starting GDB script
[INFO -- 2018-12-08 17:04:09]
initSignal:0.0
[INFO -- 2018-12-08 17:04:09]
endSignal:6.0
[INFO -- 2018-12-08 17:04:10]
sending 5 signals using command: 'killall -2 smith_waterman' after 1.1123794944s
[INFO -- 2018-12-08 17:04:13]
sending 5 signals using command: 'killall -2 smith_waterman' after 3.63752169049s
[INFO -- 2018-12-08 17:04:15]
sending 5 signals using command: 'killall -2 smith_waterman' after 5.16113458393s
[INFO -- 2018-12-08 17:04:16]
Execution finished before waitTime
