[INFO -- 2018-09-25 04:32:11]
Starting GDB script
[INFO -- 2018-09-25 04:32:11]
initSignal:0.0
[INFO -- 2018-09-25 04:32:11]
endSignal:2.0
[INFO -- 2018-09-25 04:32:11]
sending 5 signals using command: 'killall -2 smith_waterman' after 0.260089366096s
[INFO -- 2018-09-25 04:32:11]
sending 5 signals using command: 'killall -2 smith_waterman' after 0.374244484407s
[INFO -- 2018-09-25 04:32:11]
sending 5 signals using command: 'killall -2 smith_waterman' after 0.591009821837s
[INFO -- 2018-09-25 04:32:17]
Execution finished before waitTime
