[INFO -- 2018-12-03 09:30:13]
Starting flip_value script
version: 1.1
[INFO -- 2018-12-03 09:30:13]
Initialization strings:
[INFO -- 2018-12-03 09:30:13]
(1) file /tmp/smith_waterman/smith_waterman
[INFO -- 2018-12-03 09:30:13]
(2) set args -x /tmp/smith_waterman/randInputX -y /tmp/smith_waterman/randInputY -o /tmp/smith_waterman/output -z /tmp/smith_waterman/detected.log
[INFO -- 2018-12-03 09:30:13]
initSignal:0
[INFO -- 2018-12-03 09:30:13]
endSignal:6
[INFO -- 2018-12-03 09:30:13]
faultModel:1
[INFO -- 2018-12-03 09:30:14]
Backtrace BEGIN:
#0  0x00005555555550d5 in smith_waterman (x_num=15000, y_num=12000, str_x=0x5555557586c0 "EWCQVZGWKMDWYHODFCKQIEQROWLVWYGAULQRMYNWNSULCKQHMAXUFPLVLWSJWYJQLBJXBYVORRZVBPCNSBJZSUUDSMOOMXGYARXBQTQJMRGOJIDBLNADHWICKWSWVZWVSUWKPOVBGBPRLVSWIUZRQJTAFMYANVXFRUSGKNJQPBJAWBXEXYXPKRPPFQSULRBENTMYHVQY"..., str_y=0x55555575c170 "ECQQZZWWMDDYHODFCKQIEQROOLVVYYGULQRMYNNNSULCKQHMAAXFFLLLLWJWYJQLBBXBYVORRRZBBCNSBBZSSUUSMOOMMGYARXBQTQJMRGOJIDDLNAAHHIIKWSWVZWVSUWKPOVBGBPRLLVWIUZRQJTAFFMAAVXXRRSGKNNQPBJAABXEEXXXKRRPPFSUURBENTMYHHQYW"...) at smith_waterman.c:102
#1  0x0000555555555cbf in execute (file_x_name=0x7fffffffe1f3 "/tmp/smith_waterman/randInputX", file_y_name=0x7fffffffe215 "/tmp/smith_waterman/randInputY") at smith_waterman.c:263
#2  0x0000555555555f08 in main (argc=9, argv=0x7fffffffde38) at smith_waterman.c:314

97	    double max_score=0.0;
98	    for(i=1; i<x_num+1; i++){
99	        for(j=1; j<y_num+1; j++){
100	            if(str_x[i-1]==str_y[j-1]){diff=match_score;}
101	            else{diff=mismatch_score;}
102	            matrix[i][j]=my_maxof(matrix[i-1][j-1]+diff, matrix[i-1][j]+gap_score, matrix[i][j-1]+gap_score,0);
103	            if(matrix[i][j]>max_score)
104	                max_score=matrix[i][j];
105	        }
106	    }

Backtrace END
Fliping a bit of the pointer
Memory content before bitflip:0xf30xe10xff0xff0xff0x7f0x000x00
Fault Model: Double bit-flip
base address to flip value: 0x7fffffffdc88
address max offset: 8
Memory content after  bitflip:0xf30xe10xff0xff0xff0x7f0x210x00
frame name: execute
symbol name: file_x_name
symbol filename: smith_waterman.c
symbol line: 249
value: 0x7fffffffe1f3 "/tmp/smith_waterman/randInputX"
value address: 0x7fffffffdc88
Type: The type is a pointer.
Type sizeof: 8

[INFO -- 2018-12-03 09:30:14]
Fault Injection Successful after 1.4780690670013428s
[INFO -- 2018-12-03 09:30:18]
event type: exit
[INFO -- 2018-12-03 09:30:18]
exit code: 0
