[INFO -- 2018-09-24 23:09:47]
Starting GDB script
[INFO -- 2018-09-24 23:09:47]
initSignal:0.0
[INFO -- 2018-09-24 23:09:47]
endSignal:2.0
[INFO -- 2018-09-24 23:09:47]
sending 5 signals using command: 'killall -2 smith_waterman' after 0.322607725303s
[INFO -- 2018-09-24 23:09:47]
sending 5 signals using command: 'killall -2 smith_waterman' after 0.646824564089s
[INFO -- 2018-09-24 23:09:47]
sending 5 signals using command: 'killall -2 smith_waterman' after 0.762149717868s
[INFO -- 2018-09-24 23:09:52]
Execution finished before waitTime
