[INFO -- 2018-12-08 18:52:57]
sending 5 signals using command: 'killall -2 smith_waterman' after 3.73317776268s
[INFO -- 2018-12-08 18:52:58]
sending 5 signals using command: 'killall -2 smith_waterman' after 4.40638057936s
[INFO -- 2018-12-08 18:52:58]
Starting GDB script
[INFO -- 2018-12-08 18:52:58]
initSignal:0.0
[INFO -- 2018-12-08 18:52:58]
endSignal:6.0
[INFO -- 2018-12-08 18:53:00]
sending 5 signals using command: 'killall -2 smith_waterman' after 2.21915920311s
[INFO -- 2018-12-08 18:53:01]
sending 5 signals using command: 'killall -2 smith_waterman' after 3.00632442547s
[INFO -- 2018-12-08 18:53:03]
sending 5 signals using command: 'killall -2 smith_waterman' after 4.96833709686s
[INFO -- 2018-12-08 18:53:05]
Execution finished before waitTime
