[INFO -- 2018-09-23 18:34:01]
Starting GDB script
[INFO -- 2018-09-23 18:34:01]
initSignal:0.0
[INFO -- 2018-09-23 18:34:01]
endSignal:2.0
[INFO -- 2018-09-23 18:34:01]
sending 5 signals using command: 'killall -2 smith_waterman' after 0.00729008647005s
[INFO -- 2018-09-23 18:34:01]
sending 5 signals using command: 'killall -2 smith_waterman' after 0.0106295570626s
[INFO -- 2018-09-23 18:34:03]
sending 5 signals using command: 'killall -2 smith_waterman' after 1.68007120145s
[INFO -- 2018-09-23 18:34:06]
Execution finished before waitTime
