[INFO -- 2018-09-25 16:52:26]
Starting GDB script
[INFO -- 2018-09-25 16:52:26]
initSignal:0.0
[INFO -- 2018-09-25 16:52:26]
endSignal:2.0
[INFO -- 2018-09-25 16:52:26]
sending 5 signals using command: 'killall -2 smith_waterman' after 0.416931755131s
[INFO -- 2018-09-25 16:52:26]
sending 5 signals using command: 'killall -2 smith_waterman' after 0.643289583469s
[INFO -- 2018-09-25 16:52:26]
sending 5 signals using command: 'killall -2 smith_waterman' after 0.684622787558s
[INFO -- 2018-09-25 16:52:31]
Execution finished before waitTime
