[INFO -- 2018-12-04 10:05:56]
Starting flip_value script
version: 1.1
[INFO -- 2018-12-04 10:05:56]
Initialization strings:
[INFO -- 2018-12-04 10:05:56]
(1) file /tmp/smith_waterman/smith_waterman
[INFO -- 2018-12-04 10:05:56]
(2) set args -x /tmp/smith_waterman/randInputX -y /tmp/smith_waterman/randInputY -o /tmp/smith_waterman/output -z /tmp/smith_waterman/detected.log
[INFO -- 2018-12-04 10:05:56]
initSignal:0
[INFO -- 2018-12-04 10:05:56]
endSignal:6
[INFO -- 2018-12-04 10:05:56]
faultModel:1
[INFO -- 2018-12-04 10:05:58]
Backtrace BEGIN:
#0  smith_waterman (x_num=15000, y_num=12150, str_x=0x5555557586c0 "GWXBPXKSSXHKVTIXOOIFFJVXDMKIIDHQCEURBELTDSGYNOYBEGGJRDIVSTFCYOTASPSWTDRXYZXLNXNUFVFXZOURHZTFPOGHDAFZDZYDYXPOVEIABPZCDTVMUPUJFATLCAKHZILAFCOCIYFJNEMTAHFUYZGGBZRFBDNBNADSCRXMREVGIJZKTFHTGNZKOSPPVCSICVDG"..., str_y=0x55555575c170 "GWBBPKKSXXHVVTXXOIIFJJXXMMKIDHQQCURREELTDGYYNOBBGGGRDDISSFFCOOAASPSWTRRYZZXLNXNUFFFZZOUHHZTFPGGDAAFDZYDYYPOVVEIAPPZCDTVMUUUJFALCCAHHZILAFCOCIYJJNETAHHUUYGGGBRFBBDNBNADCRXXMRVGIIZZKTFHTGNZOSSPVVSSIVDDG"...) at smith_waterman.c:124
#1  0x0000555555555cbf in execute (file_x_name=0x7fffffffe22c "/tmp/smith_waterman/randInputX", file_y_name=0x7fffffffe24e "/tmp/smith_waterman/randInputY") at smith_waterman.c:263
#2  0x0000555555555f08 in main (argc=9, argv=0x7fffffffde78) at smith_waterman.c:314

119	    long y=-1, x=-1;
120	    long height = x_num;
121	    long width = y_num;
122	
123	    for(i=0; i<height+1; i++){
124	        for(j=0; j<width+1; j++){
125	            if(i==0 && j==0){
126	                maxValue = matrix[i][j];
127	                y = i;
128	                x = j;

Backtrace END
Fliping a bit of the pointer
Memory content before bitflip:0x8e0xe20xff0xff0xff0x7f0x000x00
Fault Model: Double bit-flip
base address to flip value: 0x7fffffffdd68
address max offset: 8
Memory content after  bitflip:0x8e0xaa0xff0xff0xff0x7f0x000x00
frame name: main
symbol name: log
symbol filename: smith_waterman.c
symbol line: 278
value: 0x7fffffffe28e "/tmp/smith_waterman/detected.log"
value address: 0x7fffffffdd68
Type: The type is a pointer.
Type sizeof: 8

[INFO -- 2018-12-04 10:05:58]
Fault Injection Successful after 2.9743387699127197s
[INFO -- 2018-12-04 10:06:01]
event type: exit
[INFO -- 2018-12-04 10:06:01]
exit code: 0
