[INFO -- 2018-12-04 11:01:59]
Starting flip_value script
version: 1.1
[INFO -- 2018-12-04 11:01:59]
Initialization strings:
[INFO -- 2018-12-04 11:01:59]
(1) file /tmp/smith_waterman/smith_waterman
[INFO -- 2018-12-04 11:01:59]
(2) set args -x /tmp/smith_waterman/randInputX -y /tmp/smith_waterman/randInputY -o /tmp/smith_waterman/output -z /tmp/smith_waterman/detected.log
[INFO -- 2018-12-04 11:01:59]
initSignal:0
[INFO -- 2018-12-04 11:01:59]
endSignal:6
[INFO -- 2018-12-04 11:01:59]
faultModel:0
[INFO -- 2018-12-04 11:01:59]
Backtrace BEGIN:
#0  0x00005555555550d5 in smith_waterman (x_num=15000, y_num=12150, str_x=0x5555557586c0 "GWXBPXKSSXHKVTIXOOIFFJVXDMKIIDHQCEURBELTDSGYNOYBEGGJRDIVSTFCYOTASPSWTDRXYZXLNXNUFVFXZOURHZTFPOGHDAFZDZYDYXPOVEIABPZCDTVMUPUJFATLCAKHZILAFCOCIYFJNEMTAHFUYZGGBZRFBDNBNADSCRXMREVGIJZKTFHTGNZKOSPPVCSICVDG"..., str_y=0x55555575c170 "GWBBPKKSXXHVVTXXOIIFJJXXMMKIDHQQCURREELTDGYYNOBBGGGRDDISSFFCOOAASPSWTRRYZZXLNXNUFFFZZOUHHZTFPGGDAAFDZYDYYPOVVEIAPPZCDTVMUUUJFALCCAHHZILAFCOCIYJJNETAHHUUYGGGBRFBBDNBNADCRXXMRVGIIZZKTFHTGNZOSSPVVSSIVDDG"...) at smith_waterman.c:102
#1  0x0000555555555cbf in execute (file_x_name=0x7fffffffe22c "/tmp/smith_waterman/randInputX", file_y_name=0x7fffffffe24e "/tmp/smith_waterman/randInputY") at smith_waterman.c:263
#2  0x0000555555555f08 in main (argc=9, argv=0x7fffffffde78) at smith_waterman.c:314

97	    double max_score=0.0;
98	    for(i=1; i<x_num+1; i++){
99	        for(j=1; j<y_num+1; j++){
100	            if(str_x[i-1]==str_y[j-1]){diff=match_score;}
101	            else{diff=mismatch_score;}
102	            matrix[i][j]=my_maxof(matrix[i-1][j-1]+diff, matrix[i-1][j]+gap_score, matrix[i][j-1]+gap_score,0);
103	            if(matrix[i][j]>max_score)
104	                max_score=matrix[i][j];
105	        }
106	    }

Backtrace END
Fliping a bit of the value pointed by a pointer
Memory content before bitflip:0x2f
Fault Model: Single bit-flip
base address to flip value: 0x7fffffffe24e 
address max offset: 1
Memory content after  bitflip:0x2b
frame name: main
symbol name: file_y_name
symbol filename: smith_waterman.c
symbol line: 274
value: 0x7fffffffe24e "+tmp/smith_waterman/randInputY"
value address: 0x7fffffffdd48
Type: The type is a pointer.
Type sizeof: 8

[INFO -- 2018-12-04 11:01:59]
Fault Injection Successful after 0.3528909683227539s
[INFO -- 2018-12-04 11:02:01]
event type: exit
[INFO -- 2018-12-04 11:02:01]
exit code: 0
