[INFO -- 2018-11-08 19:17:17]
Starting flip_value script
version: 1.1
[INFO -- 2018-11-08 19:17:17]
Initialization strings:
[INFO -- 2018-11-08 19:17:17]
(1) file /tmp/smith_waterman/smith_waterman
[INFO -- 2018-11-08 19:17:17]
(2) set args -x /tmp/smith_waterman/randInputX -y /tmp/smith_waterman/randInputY -o /tmp/smith_waterman/output
[INFO -- 2018-11-08 19:17:17]
initSignal:0
[INFO -- 2018-11-08 19:17:17]
endSignal:6
[INFO -- 2018-11-08 19:17:17]
faultModel:1
[INFO -- 2018-11-08 19:17:17]
Backtrace BEGIN:
#0  dl_main (phdr=<optimized out>, phnum=<optimized out>, user_entry=<optimized out>, auxv=<optimized out>) at rtld.c:2286
#1  0x00007ffff7df015a in _dl_sysdep_start (start_argptr=start_argptr@entry=0x7fffffffde90, dl_main=dl_main@entry=0x7ffff7dd73d0 <dl_main>) at ../elf/dl-sysdep.c:253
#2  0x00007ffff7dd6e88 in _dl_start_final (arg=0x7fffffffde90) at rtld.c:414
#3  _dl_start (arg=0x7fffffffde90) at rtld.c:520
#4  0x00007ffff7dd5ea8 in _start () from /lib64/ld-linux-x86-64.so.2
#5  0x0000000000000007 in ?? ()
#6  0x00007fffffffe214 in ?? ()
#7  0x00007fffffffe237 in ?? ()
#8  0x00007fffffffe23a in ?? ()
#9  0x00007fffffffe259 in ?? ()
#10 0x00007fffffffe25c in ?? ()
#11 0x00007fffffffe27b in ?? ()
#12 0x00007fffffffe27e in ?? ()
#13 0x0000000000000000 in ?? ()

2281	rtld.c: No such file or directory.

Backtrace END
Fliping value of field: next
Fliping a bit of the pointer
Memory content before bitflip:0x000x000x000x000x000x000x000x00
Fault Model: Double bit-flip
base address to flip value: 0x7ffff7ffdff8 
address max offset: 8
Memory content after  bitflip:0x000x000x000x030x000x000x000x00
frame name: dl_main
symbol name: _dl_rtld_libname2
symbol filename: rtld.c
symbol line: 302
value: {name = 0x0, next = 0x3000000, dont_free = 0}
value address: 0x7ffff7ffdff0 <_dl_rtld_libname2>
Type: The type is a structure.
Type sizeof: 24
Field name: name
Field Type: The type is a pointer.
Field Type sizeof: 8
Field name: next
Field Type: The type is a pointer.
Field Type sizeof: 8
Field name: dont_free
Field Type: The type is an integer type.
Field Type sizeof: 4

[INFO -- 2018-11-08 19:17:17]
Fault Injection Successful after 0.7824771404266357s
[INFO -- 2018-11-08 19:17:19]
event type: exit
[INFO -- 2018-11-08 19:17:19]
exit code: 0
