[INFO -- 2018-09-24 19:36:00]
Starting GDB script
[INFO -- 2018-09-24 19:36:00]
initSignal:0.0
[INFO -- 2018-09-24 19:36:00]
endSignal:2.0
[INFO -- 2018-09-24 19:36:00]
sending 5 signals using command: 'killall -2 smith_waterman' after 0.243165355565s
[INFO -- 2018-09-24 19:36:01]
sending 5 signals using command: 'killall -2 smith_waterman' after 0.663041424805s
[INFO -- 2018-09-24 19:36:01]
sending 5 signals using command: 'killall -2 smith_waterman' after 1.02472505225s
[INFO -- 2018-09-24 19:36:07]
Execution finished before waitTime
