[INFO -- 2018-12-09 02:54:38]
sending 5 signals using command: 'killall -2 smith_waterman' after 2.39565733214s
[INFO -- 2018-12-09 02:54:41]
sending 5 signals using command: 'killall -2 smith_waterman' after 5.24564768128s
[INFO -- 2018-12-09 02:54:41]
Starting GDB script
[INFO -- 2018-12-09 02:54:41]
initSignal:0.0
[INFO -- 2018-12-09 02:54:41]
endSignal:6.0
[INFO -- 2018-12-09 02:54:47]
sending 5 signals using command: 'killall -2 smith_waterman' after 5.53976036202s
[INFO -- 2018-12-09 02:54:47]
sending 5 signals using command: 'killall -2 smith_waterman' after 5.73900672764s
[INFO -- 2018-12-09 02:54:47]
sending 5 signals using command: 'killall -2 smith_waterman' after 5.83278286339s
[INFO -- 2018-12-09 02:54:50]
Execution finished before waitTime
