[INFO -- 2018-09-26 22:49:17]
Starting GDB script
[INFO -- 2018-09-26 22:49:17]
initSignal:0.0
[INFO -- 2018-09-26 22:49:17]
endSignal:2.0
[INFO -- 2018-09-26 22:49:18]
sending 5 signals using command: 'killall -2 smith_waterman' after 0.309992323303s
[INFO -- 2018-09-26 22:49:19]
sending 5 signals using command: 'killall -2 smith_waterman' after 1.82713968597s
[INFO -- 2018-09-26 22:49:19]
sending 5 signals using command: 'killall -2 smith_waterman' after 1.96860171459s
[INFO -- 2018-09-26 22:49:22]
Execution finished before waitTime
