[INFO -- 2018-11-07 20:11:48]
Starting flip_value script
version: 1.1
[INFO -- 2018-11-07 20:11:48]
Initialization strings:
[INFO -- 2018-11-07 20:11:48]
(1) file /tmp/smith_waterman/smith_waterman
[INFO -- 2018-11-07 20:11:48]
(2) set args -x /tmp/smith_waterman/randInputX -y /tmp/smith_waterman/randInputY -o /tmp/smith_waterman/output
[INFO -- 2018-11-07 20:11:48]
initSignal:0
[INFO -- 2018-11-07 20:11:48]
endSignal:6
[INFO -- 2018-11-07 20:11:48]
faultModel:2
[INFO -- 2018-11-07 20:11:50]
Backtrace BEGIN:
#0  my_maxof (a=0, b=-2, c=-2, d=0) at smith_waterman.c:66
#1  0x00005555555550d7 in smith_waterman (x_num=15000, y_num=11850, str_x=0x5555557586c0 "PKLJBHSVULYYMKNUVDPIFYEJJLONUNCLZNUCWPXTCXTOHHIFMAPRYTCHHQWDFARGPNJOCIHEGAUPHFUUFJNFFQOOIMTOMKUDYFRCOYJWZDLIIGEPRUWYKMMUYGKMSFQSMJVAKEWLJKTUQAJJUIIGUUATCLHXSXPEJKHTQFEAPZUHZFRVNZBIVEDARKXLKMPVZYORGUTX"..., str_y=0x55555575c170 "PLJBHHSULYYMKKUUDPIFYYEJJOONUNCLNUCWWPXTCTTHHIIMAPRYTTHHQQDFFARPNNJCIHHGGAPHFFUFJNFFQOOOIMOMMUUYFRRCYYJZDLLIGEPRRWWYMMUYGKKSFQQMJJVKEELJJTUUQJJUIIIGUUACLHXXXPEJKKHTFEAPPUHZFRVNZZIIVDARKXXKMMPZYOOGUUTT"..., fo=0x555555758260) at smith_waterman.c:98
#2  0x0000555555555e38 in main (argc=7, argv=0x7fffffffde48) at smith_waterman.c:298

61	
62	double my_maxof(double a, double b, double c, double d)
63	{
64	    double ans=a;
65	    if(ans<b) ans=b;
66	    if(ans<c) ans=c;
67	    if(ans<d) ans=d;
68	    return ans;
69	}
70	

Backtrace END
Memory content before bitflip:0x070x000x000x00
Fault Model: Random bit-flip
base address to flip value: 0x7fffffffdcec
address max offset: 4
Memory content after  bitflip:0x080x570xcf0x20
frame name: main
symbol name: argc
symbol filename: smith_waterman.c
symbol line: 242
value: 550459144
value address: 0x7fffffffdcec
Type: The type is an integer type.
Type sizeof: 4

[INFO -- 2018-11-07 20:11:50]
Fault Injection Successful after 2.052074670791626s
[INFO -- 2018-11-07 20:11:51]
event type: exit
[INFO -- 2018-11-07 20:11:51]
exit code: 0
