[INFO -- 2018-09-25 04:46:33]
Starting GDB script
[INFO -- 2018-09-25 04:46:33]
initSignal:0.0
[INFO -- 2018-09-25 04:46:33]
endSignal:2.0
[INFO -- 2018-09-25 04:46:34]
sending 5 signals using command: 'killall -2 smith_waterman' after 0.612927895348s
[INFO -- 2018-09-25 04:46:34]
sending 5 signals using command: 'killall -2 smith_waterman' after 0.897729296214s
[INFO -- 2018-09-25 04:46:34]
Execution finished before waitTime
