[INFO -- 2018-12-09 02:53:50]
Starting GDB script
[INFO -- 2018-12-09 02:53:50]
initSignal:0.0
[INFO -- 2018-12-09 02:53:50]
endSignal:6.0
[INFO -- 2018-12-09 02:53:52]
sending 5 signals using command: 'killall -2 smith_waterman' after 1.36206362984s
[INFO -- 2018-12-09 02:53:52]
Execution finished before waitTime
