[INFO -- 2018-09-25 01:37:09]
Starting GDB script
[INFO -- 2018-09-25 01:37:09]
initSignal:0.0
[INFO -- 2018-09-25 01:37:09]
endSignal:2.0
[INFO -- 2018-09-25 01:37:09]
sending 5 signals using command: 'killall -2 smith_waterman' after 0.523056653503s
[INFO -- 2018-09-25 01:37:10]
sending 5 signals using command: 'killall -2 smith_waterman' after 1.61468379051s
[INFO -- 2018-09-25 01:37:11]
sending 5 signals using command: 'killall -2 smith_waterman' after 1.91444982904s
[INFO -- 2018-09-25 01:37:15]
Execution finished before waitTime
