[INFO -- 2018-09-27 03:06:42]
Starting GDB script
[INFO -- 2018-09-27 03:06:42]
initSignal:0.0
[INFO -- 2018-09-27 03:06:42]
endSignal:2.0
[INFO -- 2018-09-27 03:06:42]
sending 5 signals using command: 'killall -2 smith_waterman' after 0.133043928806s
[INFO -- 2018-09-27 03:06:42]
sending 5 signals using command: 'killall -2 smith_waterman' after 0.807033367614s
[INFO -- 2018-09-27 03:06:43]
sending 5 signals using command: 'killall -2 smith_waterman' after 1.67644109148s
[INFO -- 2018-09-27 03:06:48]
Execution finished before waitTime
