[INFO -- 2018-12-05 22:18:27]
sending 5 signals using command: 'killall -2 smith_waterman' after 4.54076180972s
[INFO -- 2018-12-05 22:18:27]
Starting GDB script
[INFO -- 2018-12-05 22:18:27]
initSignal:0.0
[INFO -- 2018-12-05 22:18:27]
endSignal:6.0
[INFO -- 2018-12-05 22:18:28]
sending 5 signals using command: 'killall -2 smith_waterman' after 1.02745583192s
[INFO -- 2018-12-05 22:18:30]
sending 5 signals using command: 'killall -2 smith_waterman' after 3.03389507016s
[INFO -- 2018-12-05 22:18:32]
sending 5 signals using command: 'killall -2 smith_waterman' after 4.28521645723s
[INFO -- 2018-12-05 22:18:32]
Execution finished before waitTime
