[INFO -- 2018-09-25 04:52:04]
Starting GDB script
[INFO -- 2018-09-25 04:52:04]
initSignal:0.0
[INFO -- 2018-09-25 04:52:04]
endSignal:2.0
[INFO -- 2018-09-25 04:52:04]
sending 5 signals using command: 'killall -2 smith_waterman' after 0.0730067520375s
[INFO -- 2018-09-25 04:52:04]
sending 5 signals using command: 'killall -2 smith_waterman' after 0.743222221198s
[INFO -- 2018-09-25 04:52:05]
sending 5 signals using command: 'killall -2 smith_waterman' after 1.15322489126s
[INFO -- 2018-09-25 04:52:10]
Execution finished before waitTime
