[INFO -- 2018-12-04 01:03:12]
Starting GDB script
[INFO -- 2018-12-04 01:03:12]
initSignal:0.0
[INFO -- 2018-12-04 01:03:12]
endSignal:6.0
[INFO -- 2018-12-04 01:03:13]
sending 5 signals using command: 'killall -2 smith_waterman' after 0.853330562499s
[INFO -- 2018-12-04 01:03:13]
sending 5 signals using command: 'killall -2 smith_waterman' after 1.41333992705s
[INFO -- 2018-12-04 01:03:18]
sending 5 signals using command: 'killall -2 smith_waterman' after 5.69257609093s
[INFO -- 2018-12-04 01:03:18]
Execution finished before waitTime
