[INFO -- 2018-11-08 20:46:00]
Starting flip_value script
version: 1.1
[INFO -- 2018-11-08 20:46:00]
Initialization strings:
[INFO -- 2018-11-08 20:46:00]
(1) file /tmp/smith_waterman/smith_waterman
[INFO -- 2018-11-08 20:46:00]
(2) set args -x /tmp/smith_waterman/randInputX -y /tmp/smith_waterman/randInputY -o /tmp/smith_waterman/output
[INFO -- 2018-11-08 20:46:00]
initSignal:0
[INFO -- 2018-11-08 20:46:00]
endSignal:6
[INFO -- 2018-11-08 20:46:00]
faultModel:0
[INFO -- 2018-11-08 20:46:02]
Backtrace BEGIN:
#0  0x0000555555554daf in my_maxof (a=-1, b=-2, c=-2, d=0) at smith_waterman.c:69
#1  0x00005555555550d7 in smith_waterman (x_num=9900, y_num=15000, str_x=0x5555557586c0 "DWODJDCCKKOEERGGLXXRRHHFNNMAJHHMWPPAACHWMPSSGYYTYYQQQGGYNTWWHHJPFWWHCFDUPPCCMXXKOODCOLBGGYZZMJOTJMBMRFFNQQKKERXOHARXMTSWWYUJKKCRFFFQMGGEEWWQQWXYYQMMVVHVVRRFWWKKDDDRRJBVIAGWWGWWVJJSSTTTTKEEIQRVUUBODFNN"..., str_y=0x55555575ad80 "DWODJDMCTKGOERLGLZXVRSHOFNMAJYHMWXPFACHWMPKSGXYTWYQQQYGYNTAWTHJPFYWHCFDRUPLCMMXLKODCOLABGDYZMJOTJMBMRGFNWQRKERXOHARXMTYSWYUJHKCRXFFQMMGKEZWJQWXXYQUMKVHIVBRFLWYKBDDPRJBVIAGBWGYWYVJISQTNTKSEIQRKVUBODFMN"..., fo=0x555555758260) at smith_waterman.c:98
#2  0x0000555555555e38 in main (argc=7, argv=0x7fffffffde98) at smith_waterman.c:298

64	    double ans=a;
65	    if(ans<b) ans=b;
66	    if(ans<c) ans=c;
67	    if(ans<d) ans=d;
68	    return ans;
69	}
70	
71	double matchMisScore(long i, long j, char* str_y, char* str_x)
72	{
73	    if (str_y[j] == str_x[i])

Backtrace END
Memory content before bitflip:0x000x000x000x000x000x000xf00x3f
Fault Model: Single bit-flip
base address to flip value: 0x555555757010 
address max offset: 8
Memory content after  bitflip:0x000x000x000x000x000x100xf00x3f
frame name: my_maxof
symbol name: match_score
symbol filename: smith_waterman.c
symbol line: 7
value: 1.00390625
value address: 0x555555757010 <match_score>
Type: A floating point type.
Type sizeof: 8

[INFO -- 2018-11-08 20:46:02]
Fault Injection Successful after 2.407864570617676s
