[INFO -- 2018-12-08 00:52:07]
Starting GDB script
[INFO -- 2018-12-08 00:52:07]
initSignal:0.0
[INFO -- 2018-12-08 00:52:07]
endSignal:6.0
[INFO -- 2018-12-08 00:52:08]
sending 5 signals using command: 'killall -2 smith_waterman' after 0.904199031228s
[INFO -- 2018-12-08 00:52:09]
sending 5 signals using command: 'killall -2 smith_waterman' after 1.977528655s
[INFO -- 2018-12-08 00:52:12]
sending 5 signals using command: 'killall -2 smith_waterman' after 4.50555352901s
[INFO -- 2018-12-08 00:52:14]
Execution finished before waitTime
