[INFO -- 2018-12-04 04:06:04]
sending 5 signals using command: 'killall -2 smith_waterman' after 3.14728180974s
[INFO -- 2018-12-04 04:06:06]
sending 5 signals using command: 'killall -2 smith_waterman' after 4.52228786215s
[INFO -- 2018-12-04 04:06:06]
Starting GDB script
[INFO -- 2018-12-04 04:06:06]
initSignal:0.0
[INFO -- 2018-12-04 04:06:06]
endSignal:6.0
[INFO -- 2018-12-04 04:06:08]
sending 5 signals using command: 'killall -2 smith_waterman' after 2.23378856335s
[INFO -- 2018-12-04 04:06:09]
sending 5 signals using command: 'killall -2 smith_waterman' after 3.3116416913s
[INFO -- 2018-12-04 04:06:12]
sending 5 signals using command: 'killall -2 smith_waterman' after 5.97978801025s
[INFO -- 2018-12-04 04:06:26]
Execution did not finish before waitTime
