[INFO -- 2018-12-05 10:45:35]
Starting GDB script
[INFO -- 2018-12-05 10:45:35]
initSignal:0.0
[INFO -- 2018-12-05 10:45:35]
endSignal:6.0
[INFO -- 2018-12-05 10:45:36]
sending 5 signals using command: 'killall -2 smith_waterman' after 1.2951561604s
[INFO -- 2018-12-05 10:45:38]
sending 5 signals using command: 'killall -2 smith_waterman' after 2.77875285979s
[INFO -- 2018-12-05 10:45:39]
sending 5 signals using command: 'killall -2 smith_waterman' after 3.96663508683s
[INFO -- 2018-12-05 10:45:42]
Execution finished before waitTime
