[INFO -- 2018-12-05 03:11:19]
Starting GDB script
[INFO -- 2018-12-05 03:11:19]
initSignal:0.0
[INFO -- 2018-12-05 03:11:19]
endSignal:6.0
[INFO -- 2018-12-05 03:11:20]
sending 5 signals using command: 'killall -2 smith_waterman' after 0.787848920716s
[INFO -- 2018-12-05 03:11:23]
sending 5 signals using command: 'killall -2 smith_waterman' after 4.53512822587s
[INFO -- 2018-12-05 03:11:25]
sending 5 signals using command: 'killall -2 smith_waterman' after 5.9994493398s
[INFO -- 2018-12-05 03:11:25]
Execution finished before waitTime
