[INFO -- 2018-12-04 02:51:16]
sending 5 signals using command: 'killall -2 smith_waterman' after 4.26830843121s
[INFO -- 2018-12-04 02:51:16]
Starting GDB script
[INFO -- 2018-12-04 02:51:16]
initSignal:0.0
[INFO -- 2018-12-04 02:51:16]
endSignal:6.0
[INFO -- 2018-12-04 02:51:17]
sending 5 signals using command: 'killall -2 smith_waterman' after 1.08000619272s
[INFO -- 2018-12-04 02:51:19]
sending 5 signals using command: 'killall -2 smith_waterman' after 3.05139603171s
[INFO -- 2018-12-04 02:51:19]
sending 5 signals using command: 'killall -2 smith_waterman' after 3.22240808588s
[INFO -- 2018-12-04 02:51:22]
Execution finished before waitTime
