[INFO -- 2018-09-24 15:07:58]
Starting GDB script
[INFO -- 2018-09-24 15:07:58]
initSignal:0.0
[INFO -- 2018-09-24 15:07:58]
endSignal:2.0
[INFO -- 2018-09-24 15:07:59]
sending 5 signals using command: 'killall -2 smith_waterman' after 0.685813002463s
[INFO -- 2018-09-24 15:07:59]
sending 5 signals using command: 'killall -2 smith_waterman' after 0.854705084458s
[INFO -- 2018-09-24 15:07:59]
sending 5 signals using command: 'killall -2 smith_waterman' after 0.977486488906s
[INFO -- 2018-09-24 15:08:04]
Execution finished before waitTime
