[INFO -- 2018-09-25 20:23:39]
Starting GDB script
[INFO -- 2018-09-25 20:23:39]
initSignal:0.0
[INFO -- 2018-09-25 20:23:39]
endSignal:2.0
[INFO -- 2018-09-25 20:23:39]
sending 5 signals using command: 'killall -2 smith_waterman' after 0.0418907058279s
[INFO -- 2018-09-25 20:23:40]
sending 5 signals using command: 'killall -2 smith_waterman' after 0.984915948325s
[INFO -- 2018-09-25 20:23:41]
sending 5 signals using command: 'killall -2 smith_waterman' after 1.94935066477s
[INFO -- 2018-09-25 20:23:46]
Execution finished before waitTime
