[INFO -- 2018-12-04 06:51:17]
Starting GDB script
[INFO -- 2018-12-04 06:51:17]
initSignal:0.0
[INFO -- 2018-12-04 06:51:17]
endSignal:6.0
[INFO -- 2018-12-04 06:51:17]
sending 5 signals using command: 'killall -2 smith_waterman' after 0.566799702899s
[INFO -- 2018-12-04 06:51:17]
sending 5 signals using command: 'killall -2 smith_waterman' after 0.579664011442s
[INFO -- 2018-12-04 06:51:19]
sending 5 signals using command: 'killall -2 smith_waterman' after 2.1026055983s
[INFO -- 2018-12-04 06:51:21]
Execution finished before waitTime
