[INFO -- 2018-11-08 21:58:04]
Starting GDB script
[INFO -- 2018-11-08 21:58:04]
initSignal:0.0
[INFO -- 2018-11-08 21:58:04]
endSignal:6.0
[INFO -- 2018-11-08 21:58:05]
sending 5 signals using command: 'killall -2 smith_waterman' after 0.994365304396s
[INFO -- 2018-11-08 21:58:06]
sending 5 signals using command: 'killall -2 smith_waterman' after 2.71338797084s
[INFO -- 2018-11-08 21:58:08]
sending 5 signals using command: 'killall -2 smith_waterman' after 4.68101734581s
[INFO -- 2018-11-08 21:58:24]
Execution did not finish before waitTime
