[INFO -- 2018-12-05 08:31:17]
Starting GDB script
[INFO -- 2018-12-05 08:31:17]
initSignal:0.0
[INFO -- 2018-12-05 08:31:17]
endSignal:6.0
[INFO -- 2018-12-05 08:31:18]
sending 5 signals using command: 'killall -2 smith_waterman' after 1.09504472895s
[INFO -- 2018-12-05 08:31:19]
sending 5 signals using command: 'killall -2 smith_waterman' after 2.55950743168s
[INFO -- 2018-12-05 08:31:20]
sending 5 signals using command: 'killall -2 smith_waterman' after 3.47170809739s
[INFO -- 2018-12-05 08:31:37]
Execution did not finish before waitTime
