[INFO -- 2018-09-24 12:09:11]
Starting GDB script
[INFO -- 2018-09-24 12:09:11]
initSignal:0.0
[INFO -- 2018-09-24 12:09:11]
endSignal:2.0
[INFO -- 2018-09-24 12:09:12]
sending 5 signals using command: 'killall -2 smith_waterman' after 0.311544615097s
[INFO -- 2018-09-24 12:09:13]
sending 5 signals using command: 'killall -2 smith_waterman' after 1.24089724369s
[INFO -- 2018-09-24 12:09:13]
sending 5 signals using command: 'killall -2 smith_waterman' after 1.98960060539s
[INFO -- 2018-09-24 12:09:17]
Execution finished before waitTime
