[INFO -- 2018-12-08 20:28:08]
sending 5 signals using command: 'killall -2 smith_waterman' after 2.2318741622s
[INFO -- 2018-12-08 20:28:08]
Starting GDB script
[INFO -- 2018-12-08 20:28:08]
initSignal:0.0
[INFO -- 2018-12-08 20:28:08]
endSignal:6.0
[INFO -- 2018-12-08 20:28:09]
sending 5 signals using command: 'killall -2 smith_waterman' after 0.721212735138s
[INFO -- 2018-12-08 20:28:09]
Execution finished before waitTime
