[INFO -- 2018-09-26 22:34:53]
Starting GDB script
[INFO -- 2018-09-26 22:34:53]
initSignal:0.0
[INFO -- 2018-09-26 22:34:53]
endSignal:2.0
[INFO -- 2018-09-26 22:34:53]
sending 5 signals using command: 'killall -2 smith_waterman' after 0.305532602355s
[INFO -- 2018-09-26 22:34:54]
sending 5 signals using command: 'killall -2 smith_waterman' after 1.37028092907s
[INFO -- 2018-09-26 22:34:54]
sending 5 signals using command: 'killall -2 smith_waterman' after 1.76662677497s
[INFO -- 2018-09-26 22:34:59]
Execution finished before waitTime
