[INFO -- 2018-09-28 05:37:04]
Starting GDB script
[INFO -- 2018-09-28 05:37:04]
initSignal:0.0
[INFO -- 2018-09-28 05:37:04]
endSignal:2.0
[INFO -- 2018-09-28 05:37:05]
sending 5 signals using command: 'killall -2 smith_waterman' after 0.531773380838s
[INFO -- 2018-09-28 05:37:05]
sending 5 signals using command: 'killall -2 smith_waterman' after 0.597957633089s
[INFO -- 2018-09-28 05:37:05]
sending 5 signals using command: 'killall -2 smith_waterman' after 0.872222857852s
[INFO -- 2018-09-28 05:37:11]
Execution finished before waitTime
