[INFO -- 2018-09-23 10:36:20]
Starting GDB script
[INFO -- 2018-09-23 10:36:20]
initSignal:0.0
[INFO -- 2018-09-23 10:36:20]
endSignal:2.0
[INFO -- 2018-09-23 10:36:20]
sending 5 signals using command: 'killall -2 smith_waterman' after 0.434264615364s
[INFO -- 2018-09-23 10:36:21]
sending 5 signals using command: 'killall -2 smith_waterman' after 1.4102276926s
[INFO -- 2018-09-23 10:36:21]
sending 5 signals using command: 'killall -2 smith_waterman' after 1.49824493451s
[INFO -- 2018-09-23 10:36:26]
Execution finished before waitTime
