[INFO -- 2018-09-24 19:39:08]
Starting GDB script
[INFO -- 2018-09-24 19:39:08]
initSignal:0.0
[INFO -- 2018-09-24 19:39:08]
endSignal:2.0
[INFO -- 2018-09-24 19:39:08]
sending 5 signals using command: 'killall -2 smith_waterman' after 0.0333801806191s
[INFO -- 2018-09-24 19:39:10]
sending 5 signals using command: 'killall -2 smith_waterman' after 1.66052641683s
[INFO -- 2018-09-24 19:39:10]
sending 5 signals using command: 'killall -2 smith_waterman' after 1.95598082355s
[INFO -- 2018-09-24 19:39:28]
Execution did not finish before waitTime
