[INFO -- 2018-09-27 07:40:27]
Starting flip_value script
version: 1.1
[INFO -- 2018-09-27 07:40:27]
Initialization strings:
[INFO -- 2018-09-27 07:40:27]
(1) file /tmp/smith_waterman/smith_waterman
[INFO -- 2018-09-27 07:40:27]
(2) set args -x /tmp/smith_waterman/randInputX -y /tmp/smith_waterman/randInputY -o /tmp/smith_waterman/output
[INFO -- 2018-09-27 07:40:27]
initSignal:0
[INFO -- 2018-09-27 07:40:27]
endSignal:2
[INFO -- 2018-09-27 07:40:27]
faultModel:0
[INFO -- 2018-09-27 07:40:28]
Backtrace BEGIN:
#0  0x0000555555554daf in my_maxof (a=-1, b=-2, c=-2, d=0) at smith_waterman.c:69
#1  0x00005555555550d7 in smith_waterman (x_num=11850, y_num=15000, str_x=0x5555557586c0 "DWCDDJGCCLXGDVVBUJOFHRBBXWUPXWNBRLLYNNGEYEBBNIFHTTNAMKEGYYAGQJJRHURMXXQIDKKNNRYGNNHYLLJFLNIIZBBTUUVDTNLXSNNFONAAAVZZJJTTVDUURFFKACNWQVIYYIMYYEPYZPHHHAAWGGSMMAEPCTSSGDDSQVGZXPYYPPFYHHOZNISAYYLSSFFMKKGC"..., str_y=0x55555575b520 "DWCIDJAGCLXGDHVBUJOFHRVBXWUPXWNBURLYCNGEYEMBNIFHTTNAMKEJGYAGWQJRHURMIXQIDDKQNRYGMNHYXLJFLJNIZWBJTUVDTNLXSXNFONMAAVAZGJFTVUDURGFKACNWQAVIYIQMYEPYZPAHBHAWBGSSMAEPCTLSUGDSQVGQZXPYPPFQYHOZNISAIYRLSCFMKKGC"..., fo=0x555555758260) at smith_waterman.c:98
#2  0x0000555555555e38 in main (argc=7, argv=0x7fffffffdcb8) at smith_waterman.c:298

64	    double ans=a;
65	    if(ans<b) ans=b;
66	    if(ans<c) ans=c;
67	    if(ans<d) ans=d;
68	    return ans;
69	}
70	
71	double matchMisScore(long i, long j, char* str_y, char* str_x)
72	{
73	    if (str_y[j] == str_x[i])

Backtrace END
Fliping a bit of the value pointed by a pointer
Fliping value of field: _IO_backup_base
Fliping a bit of the pointer
Memory content before bitflip:0x000x000x000x000x000x000x000x00
Fault Model: Single bit-flip
base address to flip value: 0x5555557584e0
address max offset: 8
Memory content after  bitflip:0x000x000x000x000x100x000x000x00
frame name: main
symbol name: fpx
symbol filename: smith_waterman.c
symbol line: 278
value: 0x555555758490
value address: 0x7fffffffdb68
Type: The type is a pointer.
Type sizeof: 8

[INFO -- 2018-09-27 07:40:28]
Fault Injection Successful after 1.1496992111206055s
[INFO -- 2018-09-27 07:40:32]
event type: exit
[INFO -- 2018-09-27 07:40:32]
exit code: 0
