[INFO -- 2018-09-26 01:30:16]
Starting GDB script
[INFO -- 2018-09-26 01:30:16]
initSignal:0.0
[INFO -- 2018-09-26 01:30:16]
endSignal:2.0
[INFO -- 2018-09-26 01:30:16]
sending 5 signals using command: 'killall -2 smith_waterman' after 0.0951529091493s
[INFO -- 2018-09-26 01:30:17]
sending 5 signals using command: 'killall -2 smith_waterman' after 0.494651240667s
[INFO -- 2018-09-26 01:30:17]
sending 5 signals using command: 'killall -2 smith_waterman' after 0.931481640298s
[INFO -- 2018-09-26 01:30:21]
Execution finished before waitTime
