[INFO -- 2018-12-05 21:31:14]
Starting GDB script
[INFO -- 2018-12-05 21:31:14]
initSignal:0.0
[INFO -- 2018-12-05 21:31:14]
endSignal:6.0
[INFO -- 2018-12-05 21:31:15]
sending 5 signals using command: 'killall -2 smith_waterman' after 0.455047074501s
[INFO -- 2018-12-05 21:31:15]
sending 5 signals using command: 'killall -2 smith_waterman' after 0.744767070026s
[INFO -- 2018-12-05 21:31:20]
Execution finished before waitTime
