[INFO -- 2018-12-03 16:33:32]
Starting flip_value script
version: 1.1
[INFO -- 2018-12-03 16:33:32]
Initialization strings:
[INFO -- 2018-12-03 16:33:32]
(1) file /tmp/smith_waterman/smith_waterman
[INFO -- 2018-12-03 16:33:32]
(2) set args -x /tmp/smith_waterman/randInputX -y /tmp/smith_waterman/randInputY -o /tmp/smith_waterman/output -z /tmp/smith_waterman/detected.log
[INFO -- 2018-12-03 16:33:32]
initSignal:0
[INFO -- 2018-12-03 16:33:32]
endSignal:6
[INFO -- 2018-12-03 16:33:32]
faultModel:2
[INFO -- 2018-12-03 16:33:33]
Backtrace BEGIN:
#0  0x00005555555550d5 in smith_waterman (x_num=15000, y_num=10050, str_x=0x5555557586c0 "SWOXKQPXFGHOQQBFWWKYSPPOZZDUEFMZDBYNROKYUROMJQRHOEIGTXVSWYODFBEIECXXSIWOBMDNEUUSYCZTCWNAWCFBDJLJOIGGSEXWRAJVUFQVKRQMNEOLGUMLDXURHAAAFXWYXHVTMLQWCHKRNZCTTQEYNASVASXHRTHQADLOOCNTLZKYAPRTFXUVZMSBGPJZIQPK"..., str_y=0x55555575c170 "SOXKKPXXGHHQQBBWWWKYSPOOZZDEFMZZBBYNOKYUURMJQRHOEEGGTVSWWODFFEEICXXXSIWOMDNNUUUYCCZCCNAACFBBDLJJOIGGSEWRRJJVUQVVRRQMNEOLUULLDURHAAAAXWWYHVVMLLWWHHRRZZTTTQEYNAVAAXXHTHQQDDLOCCTLZZYYAPRFFUVVZSSBPJZIIPPK"...) at smith_waterman.c:102
#1  0x0000555555555cbf in execute (file_x_name=0x7fffffffe1f3 "/tmp/smith_waterman/randInputX", file_y_name=0x7fffffffe215 "/tmp/smith_waterman/randInputY") at smith_waterman.c:263
#2  0x0000555555555f08 in main (argc=9, argv=0x7fffffffde38) at smith_waterman.c:314

97	    double max_score=0.0;
98	    for(i=1; i<x_num+1; i++){
99	        for(j=1; j<y_num+1; j++){
100	            if(str_x[i-1]==str_y[j-1]){diff=match_score;}
101	            else{diff=mismatch_score;}
102	            matrix[i][j]=my_maxof(matrix[i-1][j-1]+diff, matrix[i-1][j]+gap_score, matrix[i][j-1]+gap_score,0);
103	            if(matrix[i][j]>max_score)
104	                max_score=matrix[i][j];
105	        }
106	    }

Backtrace END
Memory content before bitflip:0x000x000x000x000x000x000xf00xbf
Fault Model: Random bit-flip
base address to flip value: 0x555555757028 
address max offset: 8
Memory content after  bitflip:0x710x130x850x790xdc0xbb0xa80x07
frame name: execute
symbol name: mismatch_score2
symbol filename: smith_waterman.c
symbol line: 10
value: 9.1441922238323201e-272
value address: 0x555555757028 <mismatch_score2>
Type: A floating point type.
Type sizeof: 8

[INFO -- 2018-12-03 16:33:33]
Fault Injection Successful after 1.7757678031921387s
[INFO -- 2018-12-03 16:33:36]
event type: exit
[INFO -- 2018-12-03 16:33:36]
exit code: 0
