[INFO -- 2018-12-09 12:18:30]
Starting GDB script
[INFO -- 2018-12-09 12:18:30]
initSignal:0.0
[INFO -- 2018-12-09 12:18:30]
endSignal:6.0
[INFO -- 2018-12-09 12:18:32]
sending 5 signals using command: 'killall -2 smith_waterman' after 2.17302354691s
[INFO -- 2018-12-09 12:18:35]
sending 5 signals using command: 'killall -2 smith_waterman' after 4.81718626049s
[INFO -- 2018-12-09 12:18:35]
sending 5 signals using command: 'killall -2 smith_waterman' after 5.32474618298s
[INFO -- 2018-12-09 12:18:38]
Execution finished before waitTime
