[INFO -- 2018-12-05 17:55:02]
Starting GDB script
[INFO -- 2018-12-05 17:55:02]
initSignal:0.0
[INFO -- 2018-12-05 17:55:02]
endSignal:6.0
[INFO -- 2018-12-05 17:55:05]
sending 5 signals using command: 'killall -2 smith_waterman' after 2.74216893054s
[INFO -- 2018-12-05 17:55:07]
sending 5 signals using command: 'killall -2 smith_waterman' after 4.26017181565s
[INFO -- 2018-12-05 17:55:07]
sending 5 signals using command: 'killall -2 smith_waterman' after 4.60465245596s
[INFO -- 2018-12-05 17:55:08]
Execution finished before waitTime
