[INFO -- 2018-09-26 23:00:17]
Starting flip_value script
version: 1.1
[INFO -- 2018-09-26 23:00:17]
Initialization strings:
[INFO -- 2018-09-26 23:00:17]
(1) file /tmp/smith_waterman/smith_waterman
[INFO -- 2018-09-26 23:00:17]
(2) set args -x /tmp/smith_waterman/randInputX -y /tmp/smith_waterman/randInputY -o /tmp/smith_waterman/output
[INFO -- 2018-09-26 23:00:17]
initSignal:0
[INFO -- 2018-09-26 23:00:17]
endSignal:2
[INFO -- 2018-09-26 23:00:17]
faultModel:2
[INFO -- 2018-09-26 23:00:17]
Backtrace BEGIN:
#0  0x0000555555555112 in smith_waterman (x_num=13650, y_num=15000, str_x=0x5555557586c0 "CRYJJAEEPLLARRRRVCCVAHRFOOCMQQQEHPPQRRCJGNJZZCCEGGBBQVLLJPPVGMHPDXNVSSEAAPBBTJJPZSFLNNTTKQZQCCJIGVDALHHPYEEANNQQMXVZSQYDDZZLIDTRRWTMMFDDAEEWXMZZJMLLNJLLKHHVMMBMNXBFDDIFLLVIITWHTTFGGQZAIIVXXJKMMORWTTCE"..., str_y=0x55555575bc20 "CMRYJOAEEPLLARTRGVCBVAHRFOOCMQQPEHPQWRUCJGNJZGCIEGJBGQVLGJPVBGMHPDXNVSPEACPBLTJPZSSFLNTTYKQZQCJIGGVDALHCPYEARNRQIMXVZSQYDHZVLIDTRBWTMFWDDAEWPXMZJMWLGNJLWKHHVMBMNXHBFDFIFLFVITWUHTFOGQZCAILVXMJKMRORWTBC"..., fo=0x555555758260) at smith_waterman.c:99
#1  0x0000555555555e38 in main (argc=7, argv=0x7fffffffdcb8) at smith_waterman.c:298

94	    for(i=1; i<x_num+1; i++){
95	        for(j=1; j<y_num+1; j++){
96	            if(str_x[i-1]==str_y[j-1]){diff=match_score;}
97	            else{diff=mismatch_score;}
98	            matrix[i][j]=my_maxof(matrix[i-1][j-1]+diff, matrix[i-1][j]+gap_score, matrix[i][j-1]+gap_score,0);
99	            if(matrix[i][j]>max_score)
100	                max_score=matrix[i][j];
101	        }
102	    }
103	

Backtrace END
Memory content before bitflip:0x000x000x000x000x000x000xf00xbf
Fault Model: Random bit-flip
base address to flip value: 0x7fffffffdaa0
address max offset: 8
Memory content after  bitflip:0xdb0x480x5b0x7e0x180xdf0x830xcc
frame name: smith_waterman
symbol name: diff
symbol filename: smith_waterman.c
symbol line: 92
value: -3.9915271385944678e+60
value address: 0x7fffffffdaa0
Type: A floating point type.
Type sizeof: 8

[INFO -- 2018-09-26 23:00:17]
Fault Injection Successful after 0.8830060958862305s
[INFO -- 2018-09-26 23:00:23]
event type: exit
[INFO -- 2018-09-26 23:00:23]
exit code: 0
