[INFO -- 2018-09-23 17:08:09]
Starting GDB script
[INFO -- 2018-09-23 17:08:09]
initSignal:0.0
[INFO -- 2018-09-23 17:08:09]
endSignal:2.0
[INFO -- 2018-09-23 17:08:10]
sending 5 signals using command: 'killall -2 smith_waterman' after 1.21235989192s
[INFO -- 2018-09-23 17:08:10]
sending 5 signals using command: 'killall -2 smith_waterman' after 1.38109643775s
[INFO -- 2018-09-23 17:08:10]
sending 5 signals using command: 'killall -2 smith_waterman' after 1.76567418333s
[INFO -- 2018-09-23 17:08:14]
Execution finished before waitTime
