[INFO -- 2018-09-25 02:39:37]
Starting GDB script
[INFO -- 2018-09-25 02:39:37]
initSignal:0.0
[INFO -- 2018-09-25 02:39:37]
endSignal:2.0
[INFO -- 2018-09-25 02:39:38]
sending 5 signals using command: 'killall -2 smith_waterman' after 0.819288822311s
[INFO -- 2018-09-25 02:39:38]
sending 5 signals using command: 'killall -2 smith_waterman' after 0.935983675515s
[INFO -- 2018-09-25 02:39:39]
sending 5 signals using command: 'killall -2 smith_waterman' after 1.98073344288s
[INFO -- 2018-09-25 02:39:43]
Execution finished before waitTime
