[INFO -- 2018-09-24 22:48:31]
Starting GDB script
[INFO -- 2018-09-24 22:48:31]
initSignal:0.0
[INFO -- 2018-09-24 22:48:31]
endSignal:2.0
[INFO -- 2018-09-24 22:48:31]
sending 5 signals using command: 'killall -2 smith_waterman' after 0.221896280877s
[INFO -- 2018-09-24 22:48:32]
sending 5 signals using command: 'killall -2 smith_waterman' after 0.823600692362s
[INFO -- 2018-09-24 22:48:33]
sending 5 signals using command: 'killall -2 smith_waterman' after 1.71553521925s
[INFO -- 2018-09-24 22:48:36]
Execution finished before waitTime
