[INFO -- 2018-09-26 07:14:09]
Starting GDB script
[INFO -- 2018-09-26 07:14:09]
initSignal:0.0
[INFO -- 2018-09-26 07:14:09]
endSignal:2.0
[INFO -- 2018-09-26 07:14:09]
sending 5 signals using command: 'killall -2 smith_waterman' after 0.490084599305s
[INFO -- 2018-09-26 07:14:10]
sending 5 signals using command: 'killall -2 smith_waterman' after 0.832483759995s
[INFO -- 2018-09-26 07:14:11]
sending 5 signals using command: 'killall -2 smith_waterman' after 1.88969748376s
[INFO -- 2018-09-26 07:14:16]
Execution finished before waitTime
