[INFO -- 2018-12-08 15:11:30]
Starting GDB script
[INFO -- 2018-12-08 15:11:30]
initSignal:0.0
[INFO -- 2018-12-08 15:11:30]
endSignal:6.0
[INFO -- 2018-12-08 15:11:31]
sending 5 signals using command: 'killall -2 smith_waterman' after 1.46124820684s
[INFO -- 2018-12-08 15:11:32]
Execution finished before waitTime
