[INFO -- 2018-12-04 01:51:55]
Starting GDB script
[INFO -- 2018-12-04 01:51:55]
initSignal:0.0
[INFO -- 2018-12-04 01:51:55]
endSignal:6.0
[INFO -- 2018-12-04 01:51:56]
sending 5 signals using command: 'killall -2 smith_waterman' after 0.646719080319s
[INFO -- 2018-12-04 01:51:59]
sending 5 signals using command: 'killall -2 smith_waterman' after 3.50836811101s
[INFO -- 2018-12-04 01:52:01]
sending 5 signals using command: 'killall -2 smith_waterman' after 5.39207261981s
[INFO -- 2018-12-04 01:52:02]
Execution finished before waitTime
