[INFO -- 2018-12-04 03:02:09]
Starting GDB script
[INFO -- 2018-12-04 03:02:09]
initSignal:0.0
[INFO -- 2018-12-04 03:02:09]
endSignal:6.0
[INFO -- 2018-12-04 03:02:14]
sending 5 signals using command: 'killall -2 smith_waterman' after 4.89538997876s
[INFO -- 2018-12-04 03:02:14]
sending 5 signals using command: 'killall -2 smith_waterman' after 5.40894665497s
[INFO -- 2018-12-04 03:02:15]
sending 5 signals using command: 'killall -2 smith_waterman' after 5.59325224716s
[INFO -- 2018-12-04 03:02:15]
Execution finished before waitTime
