[INFO -- 2018-09-25 20:06:13]
Starting flip_value script
version: 1.1
[INFO -- 2018-09-25 20:06:13]
Initialization strings:
[INFO -- 2018-09-25 20:06:13]
(1) file /tmp/smith_waterman/smith_waterman
[INFO -- 2018-09-25 20:06:13]
(2) set args -x /tmp/smith_waterman/randInputX -y /tmp/smith_waterman/randInputY -o /tmp/smith_waterman/output
[INFO -- 2018-09-25 20:06:13]
initSignal:0
[INFO -- 2018-09-25 20:06:13]
endSignal:2
[INFO -- 2018-09-25 20:06:13]
faultModel:0
[INFO -- 2018-09-25 20:06:13]
Backtrace BEGIN:
#0  dl_main (phdr=<optimized out>, phnum=<optimized out>, user_entry=<optimized out>, auxv=<optimized out>) at rtld.c:2289
#1  0x00007ffff7defdd0 in _dl_sysdep_start (start_argptr=start_argptr@entry=0x7fffffffdcb0, dl_main=dl_main@entry=0x7ffff7dd7660 <dl_main>) at ../elf/dl-sysdep.c:253
#2  0x00007ffff7dd7128 in _dl_start_final (arg=0x7fffffffdcb0) at rtld.c:414
#3  _dl_start (arg=0x7fffffffdcb0) at rtld.c:521
#4  0x00007ffff7dd6098 in _start () from /lib64/ld-linux-x86-64.so.2
#5  0x0000000000000007 in ?? ()
#6  0x00007fffffffe0aa in ?? ()
#7  0x00007fffffffe0cd in ?? ()
#8  0x00007fffffffe0d0 in ?? ()
#9  0x00007fffffffe0ef in ?? ()
#10 0x00007fffffffe0f2 in ?? ()
#11 0x00007fffffffe111 in ?? ()
#12 0x00007fffffffe114 in ?? ()
#13 0x0000000000000000 in ?? ()

2284	rtld.c: No such file or directory.

Backtrace END
Fliping value of field: _dl_all_dirs
Fliping a bit of the value pointed by a pointer
Fliping value of field: where
Fliping a bit of the pointer
Memory content before bitflip:0x000x000x000x000x000x000x000x00
Fault Model: Single bit-flip
base address to flip value: 0x7ffff7ffeca0
address max offset: 8
Memory content after  bitflip:0x080x000x000x000x000x000x000x00
frame name: dl_main
symbol name: _rtld_global
symbol filename: rtld.c
symbol line: 231
value: {_dl_ns = {{_ns_loaded = 0x7ffff7ffe170, _ns_nloaded = 4, _ns_main_searchlist = 0x7ffff7ffe428, _ns_global_scope_alloc = 0, _ns_unique_sym_table = {lock = {mutex = {__data = {__lock = 0, __count = 0, __owner = 0, __nusers = 0, __kind = 1, __spins = 0, __elision = 0, __list = {__prev = 0x0, __next = 0x0}}, __size = '\000' <repeats 16 times>, "\001", '\000' <repeats 22 times>, __align = 0}}, entries = 0x0, size = 0, n_elements = 0, free = 0x0}, _ns_debug = {r_version = 0, r_map = 0x0, r_brk = 0, r_state = RT_CONSISTENT, r_ldbase = 0}}, {_ns_loaded = 0x0, _ns_nloaded = 0, _ns_main_searchlist = 0x0, _ns_global_scope_alloc = 0, _ns_unique_sym_table = {lock = {mutex = {__data = {__lock = 0, __count = 0, __owner = 0, __nusers = 0, __kind = 0, __spins = 0, __elision = 0, __list = {__prev = 0x0, __next = 0x0}}, __size = '\000' <repeats 39 times>, __align = 0}}, entries = 0x0, size = 0, n_elements = 0, free = 0x0}, _ns_debug = {r_version = 0, r_map = 0x0, r_brk = 0, r_state = RT_CONSISTENT, r_ldbase = 0}} <repeats 15 times>}, _dl_nns = 1, _dl_load_lock = {mutex = {__data = {__lock = 0, __count = 0, __owner = 0, __nusers = 0, __kind = 1, __spins = 0, __elision = 0, __list = {__prev = 0x0, __next = 0x0}}, __size = '\000' <repeats 16 times>, "\001", '\000' <repeats 22 times>, __align = 0}}, _dl_load_write_lock = {mutex = {__data = {__lock = 0, __count = 0, __owner = 0, __nusers = 0, __kind = 1, __spins = 0, __elision = 0, __list = {__prev = 0x0, __next = 0x0}}, __size = '\000' <repeats 16 times>, "\001", '\000' <repeats 22 times>, __align = 0}}, _dl_load_adds = 4, _dl_initfirst = 0x0, _dl_cpuclock_offset = 43631522336744, _dl_profile_map = 0x0, _dl_num_relocations = 102, _dl_num_cache_relocations = 3, _dl_all_dirs = 0x7ffff7ffec90, _dl_rtld_map = {l_addr = 140737351864320, l_name = 0x555555554238 "/lib64/ld-linux-x86-64.so.2", l_ld = 0x7ffff7ffce68, l_next = 0x0, l_prev = 0x7ffff7fe0000, l_real = 0x7ffff7ffd9f0 <_rtld_global+2448>, l_ns = 0, l_libname = 0x7ffff7ffe030 <_dl_rtld_libname>, l_info = {0x0, 0x0, 0x7ffff7ffcee8, 0x7ffff7ffced8, 0x7ffff7ffce78, 0x7ffff7ffce98, 0x7ffff7ffcea8, 0x7ffff7ffcf18, 0x7ffff7ffcf28, 0x7ffff7ffcf38, 0x7ffff7ffceb8, 0x7ffff7ffcec8, 0x0, 0x0, 0x7ffff7ffce68, 0x0, 0x0, 0x0, 0x0, 0x0, 0x7ffff7ffcef8, 0x0, 0x0, 0x7ffff7ffcf08, 0x0 <repeats 12 times>, 0x7ffff7ffcf58, 0x7ffff7ffcf48, 0x0, 0x0, 0x7ffff7ffcf78, 0x0, 0x0, 0x0, 0x0, 0x0, 0x0, 0x0, 0x0, 0x7ffff7ffcf68, 0x0 <repeats 25 times>, 0x7ffff7ffce88}, l_phdr = 0x7ffff7dd5040, l_entry = 0, l_phnum = 7, l_ldnum = 0, l_searchlist = {r_list = 0x0, r_nlist = 0}, l_symbolic_searchlist = {r_list = 0x0, r_nlist = 0}, l_loader = 0x0, l_versions = 0x7ffff7fe08e0, l_nversions = 6, l_nbuckets = 17, l_gnu_bitmask_idxbits = 3, l_gnu_shift = 8, l_gnu_bitmask = 0x7ffff7dd52d8, {l_gnu_buckets = 0x7ffff7dd52f8, l_chain = 0x7ffff7dd52f8}, {l_gnu_chain_zero = 0x7ffff7dd5338, l_buckets = 0x7ffff7dd5338}, l_direct_opencount = 0, l_type = lt_library, l_relocated = 1, l_init_called = 0, l_global = 1, l_reserved = 0, l_phdr_allocated = 0, l_soname_added = 0, l_faked = 0, l_need_tls_init = 0, l_auditing = 0, l_audit_any_plt = 0, l_removed = 0, l_contiguous = 0, l_symbolic_in_local_scope = 0, l_free_initfini = 0, l_rpath_dirs = {dirs = 0x0, malloced = 0}, l_reloc_result = 0x0, l_versyms = 0x7ffff7dd5914, l_origin = 0x0, l_map_start = 140737351864320, l_map_end = 140737354129776, l_text_end = 140737351994144, l_scope_mem = {0x0, 0x0, 0x0, 0x0}, l_scope_max = 0, l_scope = 0x0, l_local_scope = {0x0, 0x0}, l_file_id = {dev = 0, ino = 0}, l_runpath_dirs = {dirs = 0x0, malloced = 0}, l_initfini = 0x0, l_reldeps = 0x0, l_reldepsmax = 0, l_used = 1, l_feature_1 = 0, l_flags_1 = 0, l_flags = 0, l_idx = 0, l_mach = {plt = 0, gotplt = 0, tlsdesc_table = 0x0}, l_lookup_cache = {sym = 0x7ffff7dd5480, type_class = 1, value = 0x7ffff7fe0000, ret = 0x7ffff79e90e8}, l_tls_initimage = 0x0, l_tls_initimage_size = 0, l_tls_blocksize = 0, l_tls_align = 0, l_tls_firstbyte_offset = 0, l_tls_offset = 0, l_tls_modid = 0, l_tls_dtor_count = 0, l_relro_addr = 2258560, l_relro_size = 2432, l_serial = 0, l_audit = 0x7ffff7ffde60 <_rtld_global+3584>}, audit_data = {{cookie = 0, bindflags = 0} <repeats 16 times>}, _dl_rtld_lock_recursive = 0x7ffff7dd60e0 <rtld_lock_default_lock_recursive>, _dl_rtld_unlock_recursive = 0x7ffff7dd60f0 <rtld_lock_default_unlock_recursive>, _dl_make_stack_executable_hook = 0x7ffff7de8d00 <__GI__dl_make_stack_executable>, _dl_stack_flags = 6, _dl_tls_dtv_gaps = false, _dl_tls_max_dtv_idx = 1, _dl_tls_dtv_slotinfo_list = 0x7ffff7fe0970, _dl_tls_static_nelem = 1, _dl_tls_static_size = 4160, _dl_tls_static_used = 144, _dl_tls_static_align = 64, _dl_initial_dtv = 0x7ffff7fe1e20, _dl_tls_generation = 1, _dl_init_static_tls = 0x7ffff7de15d0 <_dl_nothread_init_static_tls>, _dl_wait_lookup_done = 0x0, _dl_scope_free_list = 0x0}
value address: 0x7ffff7ffd060 <_rtld_global>
Type: The type is a structure.
Type sizeof: 3960
Field name: _dl_ns
Field Type: The type is an array.
Field Type sizeof: 2304
Field name: _dl_nns
Field Type: The type is an integer type.
Field Type sizeof: 8
Field name: _dl_load_lock
Field Type: The type is a structure.
Field Type sizeof: 40
Field name: _dl_load_write_lock
Field Type: The type is a structure.
Field Type sizeof: 40
Field name: _dl_load_adds
Field Type: The type is an integer type.
Field Type sizeof: 8
Field name: _dl_initfirst
Field Type: The type is a pointer.
Field Type sizeof: 8
Field name: _dl_cpuclock_offset
Field Type: The type is an integer type.
Field Type sizeof: 8
Field name: _dl_profile_map
Field Type: The type is a pointer.
Field Type sizeof: 8
Field name: _dl_num_relocations
Field Type: The type is an integer type.
Field Type sizeof: 8
Field name: _dl_num_cache_relocations
Field Type: The type is an integer type.
Field Type sizeof: 8
Field name: _dl_all_dirs
Field Type: The type is a pointer.
Field Type sizeof: 8
Field name: _dl_rtld_map
Field Type: The type is a structure.
Field Type sizeof: 1136
Field name: audit_data
Field Type: The type is an array.
Field Type sizeof: 256
Field name: _dl_rtld_lock_recursive
Field Type: The type is a pointer.
Field Type sizeof: 8
Field name: _dl_rtld_unlock_recursive
Field Type: The type is a pointer.
Field Type sizeof: 8
Field name: _dl_make_stack_executable_hook
Field Type: The type is a pointer.
Field Type sizeof: 8
Field name: _dl_stack_flags
Field Type: The type is an integer type.
Field Type sizeof: 4
Field name: _dl_tls_dtv_gaps
Field Type: A boolean type.
Field Type sizeof: 1
Field name: _dl_tls_max_dtv_idx
Field Type: The type is an integer type.
Field Type sizeof: 8
Field name: _dl_tls_dtv_slotinfo_list
Field Type: The type is a pointer.
Field Type sizeof: 8
Field name: _dl_tls_static_nelem
Field Type: The type is an integer type.
Field Type sizeof: 8
Field name: _dl_tls_static_size
Field Type: The type is an integer type.
Field Type sizeof: 8
Field name: _dl_tls_static_used
Field Type: The type is an integer type.
Field Type sizeof: 8
Field name: _dl_tls_static_align
Field Type: The type is an integer type.
Field Type sizeof: 8
Field name: _dl_initial_dtv
Field Type: The type is a pointer.
Field Type sizeof: 8
Field name: _dl_tls_generation
Field Type: The type is an integer type.
Field Type sizeof: 8
Field name: _dl_init_static_tls
Field Type: The type is a pointer.
Field Type sizeof: 8
Field name: _dl_wait_lookup_done
Field Type: The type is a pointer.
Field Type sizeof: 8
Field name: _dl_scope_free_list
Field Type: The type is a pointer.
Field Type sizeof: 8

[INFO -- 2018-09-25 20:06:13]
Fault Injection Successful after 0.930811882019043s
[INFO -- 2018-09-25 20:06:19]
event type: exit
[INFO -- 2018-09-25 20:06:19]
exit code: 0
