[INFO -- 2018-12-03 16:41:51]
sending 5 signals using command: 'killall -2 smith_waterman' after 5.35739751245s
[INFO -- 2018-12-03 16:41:51]
Starting GDB script
[INFO -- 2018-12-03 16:41:51]
initSignal:0.0
[INFO -- 2018-12-03 16:41:51]
endSignal:6.0
[INFO -- 2018-12-03 16:41:52]
sending 5 signals using command: 'killall -2 smith_waterman' after 0.523749566658s
[INFO -- 2018-12-03 16:41:53]
sending 5 signals using command: 'killall -2 smith_waterman' after 2.17456818325s
[INFO -- 2018-12-03 16:41:54]
Execution finished before waitTime
