[INFO -- 2018-12-03 10:07:28]
sending 5 signals using command: 'killall -2 smith_waterman' after 5.11593405717s
[INFO -- 2018-12-03 10:07:28]
Starting GDB script
[INFO -- 2018-12-03 10:07:28]
initSignal:0.0
[INFO -- 2018-12-03 10:07:28]
endSignal:6.0
[INFO -- 2018-12-03 10:07:31]
sending 5 signals using command: 'killall -2 smith_waterman' after 3.06590362562s
[INFO -- 2018-12-03 10:07:32]
sending 5 signals using command: 'killall -2 smith_waterman' after 4.22211835377s
[INFO -- 2018-12-03 10:07:33]
Execution finished before waitTime
