[INFO -- 2018-12-09 10:57:14]
Starting GDB script
[INFO -- 2018-12-09 10:57:14]
initSignal:0.0
[INFO -- 2018-12-09 10:57:14]
endSignal:6.0
[INFO -- 2018-12-09 10:57:15]
sending 5 signals using command: 'killall -2 smith_waterman' after 1.17582781989s
[INFO -- 2018-12-09 10:57:18]
sending 5 signals using command: 'killall -2 smith_waterman' after 4.2112539536s
[INFO -- 2018-12-09 10:57:19]
sending 5 signals using command: 'killall -2 smith_waterman' after 5.08633893035s
[INFO -- 2018-12-09 10:57:22]
Execution finished before waitTime
