[INFO -- 2018-12-04 04:36:18]
Starting GDB script
[INFO -- 2018-12-04 04:36:18]
initSignal:0.0
[INFO -- 2018-12-04 04:36:18]
endSignal:6.0
[INFO -- 2018-12-04 04:36:18]
sending 5 signals using command: 'killall -2 smith_waterman' after 0.749661955089s
[INFO -- 2018-12-04 04:36:20]
sending 5 signals using command: 'killall -2 smith_waterman' after 2.84977961234s
[INFO -- 2018-12-04 04:36:22]
sending 5 signals using command: 'killall -2 smith_waterman' after 4.40743541805s
[INFO -- 2018-12-04 04:36:24]
Execution finished before waitTime
