[INFO -- 2018-12-04 11:13:39]
Starting flip_value script
version: 1.1
[INFO -- 2018-12-04 11:13:39]
Initialization strings:
[INFO -- 2018-12-04 11:13:39]
(1) file /tmp/smith_waterman/smith_waterman
[INFO -- 2018-12-04 11:13:39]
(2) set args -x /tmp/smith_waterman/randInputX -y /tmp/smith_waterman/randInputY -o /tmp/smith_waterman/output -z /tmp/smith_waterman/detected.log
[INFO -- 2018-12-04 11:13:39]
initSignal:0
[INFO -- 2018-12-04 11:13:39]
endSignal:6
[INFO -- 2018-12-04 11:13:39]
faultModel:1
[INFO -- 2018-12-04 11:13:41]
Backtrace BEGIN:
#0  0x0000555555555235 in smith_waterman (x_num=12300, x_num2=12300, y_num=15000, y_num2=15000, str_x=0x5555557586c0 "EYYZMOVZWWFFFGGYYGGDDVVMWLCRRSXKQALEOIFMNBBUHHSWQQZZMMSKFBBBXTZJBBUPEUFRYYMMFFBBXXILLHVAIIYCZJNNFFTKKYDDZWHHYIBXLLJGGFFBBKFFDTFFBZKFFXOWHHAAWWBJJNMFFCIXMNNCHKILLIQIIIXQQMXKKHUUSMCCMKKJANKKKSSXNQRRPPXB"..., str_y=0x55555575b6e0 "ERYCZMOVZWFUFFGOYOGWDUVSMWLCRSSXKQALEOIFMNBTUHHSWQQZKMSXKFBBXTZJLBUPREUFRYYMFFGBXXBILVHVAIYZCZJNAFFTKBYDZWRHEYIBXLJIGSFIBDKFDTUFYBZKFXOGWHNAHWBEJNMSFTCIXMNCHKJILISQIIXGQMGXKHEUUSMCMQKJDANKKWSXHNQRVPXN"...) at smith_waterman.c:142
#1  0x0000555555555e65 in execute (file_x_name=0x7fffffffe0b4 "/tmp/smith_waterman/randInputX", file_y_name=0x7fffffffe0d6 "/tmp/smith_waterman/randInputY") at smith_waterman.c:309
#2  0x0000555555556082 in main (argc=9, argv=0x7fffffffdc88) at smith_waterman.c:355

137	        check_index(i, i2);
138	        for(j=1; j<y_num+1; j++){
139	            if(str_x[i-1]==str_y[j-1]){diff=match_score;}
140	            else{diff=mismatch_score;}
141	            matrix[i][j]=my_maxof(matrix[i-1][j-1]+diff, matrix[i-1][j]+gap_score, matrix[i][j-1]+gap_score,0);
142	            if(matrix[i][j]>max_score)
143	                max_score=matrix[i][j];
144	        }
145	        i2++;
146	    }

Backtrace END
Memory content before bitflip:0xff0x7f0x000x00
Fault Model: Double bit-flip
base address to flip value: 0x7fffffffda2c
address max offset: 4
Memory content after  bitflip:0xff0x7f0x000x48
frame name: smith_waterman
symbol name: error
symbol filename: smith_waterman.c
symbol line: 286
value: 1207992319
value address: 0x7fffffffda2c
Type: The type is an integer type.
Type sizeof: 4

[INFO -- 2018-12-04 11:13:41]
Fault Injection Successful after 2.335745334625244s
[INFO -- 2018-12-04 11:13:44]
event type: exit
[INFO -- 2018-12-04 11:13:44]
exit code: 0
