[INFO -- 2018-12-08 12:28:20]
sending 5 signals using command: 'killall -2 smith_waterman' after 4.48156677673s
[INFO -- 2018-12-08 12:28:20]
Starting GDB script
[INFO -- 2018-12-08 12:28:20]
initSignal:0.0
[INFO -- 2018-12-08 12:28:20]
endSignal:6.0
[INFO -- 2018-12-08 12:28:21]
sending 5 signals using command: 'killall -2 smith_waterman' after 1.36105597661s
[INFO -- 2018-12-08 12:28:22]
Execution finished before waitTime
