[INFO -- 2018-09-26 21:32:57]
Starting GDB script
[INFO -- 2018-09-26 21:32:57]
initSignal:0.0
[INFO -- 2018-09-26 21:32:57]
endSignal:2.0
[INFO -- 2018-09-26 21:32:58]
sending 5 signals using command: 'killall -2 smith_waterman' after 0.628413298592s
[INFO -- 2018-09-26 21:32:59]
sending 5 signals using command: 'killall -2 smith_waterman' after 1.19694543553s
[INFO -- 2018-09-26 21:32:59]
sending 5 signals using command: 'killall -2 smith_waterman' after 1.2065082314s
[INFO -- 2018-09-26 21:33:03]
Execution finished before waitTime
