[INFO -- 2018-12-05 11:54:43]
Starting GDB script
[INFO -- 2018-12-05 11:54:43]
initSignal:0.0
[INFO -- 2018-12-05 11:54:43]
endSignal:6.0
[INFO -- 2018-12-05 11:54:43]
sending 5 signals using command: 'killall -2 smith_waterman' after 0.123930090815s
[INFO -- 2018-12-05 11:54:46]
sending 5 signals using command: 'killall -2 smith_waterman' after 2.68244063619s
[INFO -- 2018-12-05 11:54:48]
sending 5 signals using command: 'killall -2 smith_waterman' after 5.06282554804s
[INFO -- 2018-12-05 11:54:50]
Execution finished before waitTime
