[INFO -- 2018-09-27 09:56:00]
Starting flip_value script
version: 1.1
[INFO -- 2018-09-27 09:56:00]
Initialization strings:
[INFO -- 2018-09-27 09:56:00]
(1) file /tmp/smith_waterman/smith_waterman
[INFO -- 2018-09-27 09:56:00]
(2) set args -x /tmp/smith_waterman/randInputX -y /tmp/smith_waterman/randInputY -o /tmp/smith_waterman/output
[INFO -- 2018-09-27 09:56:00]
initSignal:0
[INFO -- 2018-09-27 09:56:00]
endSignal:2
[INFO -- 2018-09-27 09:56:00]
faultModel:2
[INFO -- 2018-09-27 09:56:00]
Backtrace BEGIN:
#0  dl_main (phdr=<optimized out>, phnum=<optimized out>, user_entry=<optimized out>, auxv=<optimized out>) at rtld.c:2289
#1  0x00007ffff7defdd0 in _dl_sysdep_start (start_argptr=start_argptr@entry=0x7fffffffdcb0, dl_main=dl_main@entry=0x7ffff7dd7660 <dl_main>) at ../elf/dl-sysdep.c:253
#2  0x00007ffff7dd7128 in _dl_start_final (arg=0x7fffffffdcb0) at rtld.c:414
#3  _dl_start (arg=0x7fffffffdcb0) at rtld.c:521
#4  0x00007ffff7dd6098 in _start () from /lib64/ld-linux-x86-64.so.2
#5  0x0000000000000007 in ?? ()
#6  0x00007fffffffe0a8 in ?? ()
#7  0x00007fffffffe0cb in ?? ()
#8  0x00007fffffffe0ce in ?? ()
#9  0x00007fffffffe0ed in ?? ()
#10 0x00007fffffffe0f0 in ?? ()
#11 0x00007fffffffe10f in ?? ()
#12 0x00007fffffffe112 in ?? ()
#13 0x0000000000000000 in ?? ()

2284	rtld.c: No such file or directory.

Backtrace END
Fliping a bit of the pointer
Memory content before bitflip:0xb80xdc0xff0xff0xff0x7f0x000x00
Fault Model: Random bit-flip
base address to flip value: 0x7ffff7ffc740 
address max offset: 8
Memory content after  bitflip:0x9e0x780x7d0xda0x460x560x910x07
frame name: _dl_start
symbol name: __GI__dl_argv
symbol filename: rtld.c
symbol line: 83
value: 0x7fffffffdcb8
value address: 0x7ffff7ffc740 <_dl_argv>
Type: The type is a pointer.
Type sizeof: 8

[INFO -- 2018-09-27 09:56:00]
Fault Injection Successful after 0.7439436912536621s
[INFO -- 2018-09-27 09:56:05]
event type: exit
[INFO -- 2018-09-27 09:56:05]
exit code: 0
