[INFO -- 2018-12-08 16:13:41]
Starting GDB script
[INFO -- 2018-12-08 16:13:41]
initSignal:0.0
[INFO -- 2018-12-08 16:13:41]
endSignal:6.0
[INFO -- 2018-12-08 16:13:43]
sending 5 signals using command: 'killall -2 smith_waterman' after 2.16348356843s
[INFO -- 2018-12-08 16:13:45]
sending 5 signals using command: 'killall -2 smith_waterman' after 4.08641309741s
[INFO -- 2018-12-08 16:13:46]
sending 5 signals using command: 'killall -2 smith_waterman' after 5.09942280349s
[INFO -- 2018-12-08 16:13:48]
Execution finished before waitTime
