[INFO -- 2018-09-23 14:15:13]
Starting GDB script
[INFO -- 2018-09-23 14:15:13]
initSignal:0.0
[INFO -- 2018-09-23 14:15:13]
endSignal:2.0
[INFO -- 2018-09-23 14:15:14]
sending 5 signals using command: 'killall -2 smith_waterman' after 0.728836177838s
[INFO -- 2018-09-23 14:15:15]
sending 5 signals using command: 'killall -2 smith_waterman' after 1.57039828992s
[INFO -- 2018-09-23 14:15:15]
sending 5 signals using command: 'killall -2 smith_waterman' after 1.95708816975s
[INFO -- 2018-09-23 14:15:18]
Execution finished before waitTime
