[INFO -- 2018-12-05 10:57:17]
Starting GDB script
[INFO -- 2018-12-05 10:57:17]
initSignal:0.0
[INFO -- 2018-12-05 10:57:17]
endSignal:6.0
[INFO -- 2018-12-05 10:57:18]
sending 5 signals using command: 'killall -2 smith_waterman' after 1.61079025117s
[INFO -- 2018-12-05 10:57:20]
sending 5 signals using command: 'killall -2 smith_waterman' after 3.48680863347s
[INFO -- 2018-12-05 10:57:21]
sending 5 signals using command: 'killall -2 smith_waterman' after 4.28387968826s
[INFO -- 2018-12-05 10:57:24]
Execution finished before waitTime
