[INFO -- 2018-12-04 05:39:18]
Starting GDB script
[INFO -- 2018-12-04 05:39:18]
initSignal:0.0
[INFO -- 2018-12-04 05:39:18]
endSignal:6.0
[INFO -- 2018-12-04 05:39:21]
sending 5 signals using command: 'killall -2 smith_waterman' after 2.73409643942s
[INFO -- 2018-12-04 05:39:22]
sending 5 signals using command: 'killall -2 smith_waterman' after 4.168825344s
[INFO -- 2018-12-04 05:39:23]
sending 5 signals using command: 'killall -2 smith_waterman' after 4.8376879717s
[INFO -- 2018-12-04 05:39:24]
Execution finished before waitTime
