[INFO -- 2018-09-27 07:47:34]
Starting GDB script
[INFO -- 2018-09-27 07:47:34]
initSignal:0.0
[INFO -- 2018-09-27 07:47:34]
endSignal:2.0
[INFO -- 2018-09-27 07:47:34]
sending 5 signals using command: 'killall -2 smith_waterman' after 0.494635209248s
[INFO -- 2018-09-27 07:47:35]
sending 5 signals using command: 'killall -2 smith_waterman' after 1.27017897132s
[INFO -- 2018-09-27 07:47:36]
sending 5 signals using command: 'killall -2 smith_waterman' after 1.81911971423s
[INFO -- 2018-09-27 07:47:40]
Execution finished before waitTime
