[INFO -- 2018-12-08 17:20:33]
Starting GDB script
[INFO -- 2018-12-08 17:20:33]
initSignal:0.0
[INFO -- 2018-12-08 17:20:33]
endSignal:6.0
[INFO -- 2018-12-08 17:20:36]
sending 5 signals using command: 'killall -2 smith_waterman' after 2.93595227018s
[INFO -- 2018-12-08 17:20:37]
sending 5 signals using command: 'killall -2 smith_waterman' after 4.16973442166s
[INFO -- 2018-12-08 17:20:38]
sending 5 signals using command: 'killall -2 smith_waterman' after 4.79632321986s
[INFO -- 2018-12-08 17:20:53]
Execution did not finish before waitTime
