[INFO -- 2018-09-28 06:24:55]
Starting GDB script
[INFO -- 2018-09-28 06:24:55]
initSignal:0.0
[INFO -- 2018-09-28 06:24:55]
endSignal:2.0
[INFO -- 2018-09-28 06:24:56]
sending 5 signals using command: 'killall -2 smith_waterman' after 0.745967129328s
[INFO -- 2018-09-28 06:24:56]
sending 5 signals using command: 'killall -2 smith_waterman' after 1.04231903367s
[INFO -- 2018-09-28 06:24:56]
sending 5 signals using command: 'killall -2 smith_waterman' after 1.21709083692s
[INFO -- 2018-09-28 06:25:02]
Execution finished before waitTime
