[INFO -- 2018-09-27 01:30:14]
Starting flip_value script
version: 1.1
[INFO -- 2018-09-27 01:30:14]
Initialization strings:
[INFO -- 2018-09-27 01:30:14]
(1) file /tmp/smith_waterman/smith_waterman
[INFO -- 2018-09-27 01:30:14]
(2) set args -x /tmp/smith_waterman/randInputX -y /tmp/smith_waterman/randInputY -o /tmp/smith_waterman/output
[INFO -- 2018-09-27 01:30:14]
initSignal:0
[INFO -- 2018-09-27 01:30:14]
endSignal:2
[INFO -- 2018-09-27 01:30:14]
faultModel:0
[INFO -- 2018-09-27 01:30:15]
Backtrace BEGIN:
#0  0x0000555555555012 in smith_waterman (x_num=13650, y_num=15000, str_x=0x5555557586c0 "CRYJJAEEPLLARRRRVCCVAHRFOOCMQQQEHPPQRRCJGNJZZCCEGGBBQVLLJPPVGMHPDXNVSSEAAPBBTJJPZSFLNNTTKQZQCCJIGVDALHHPYEEANNQQMXVZSQYDDZZLIDTRRWTMMFDDAEEWXMZZJMLLNJLLKHHVMMBMNXBFDDIFLLVIITWHTTFGGQZAIIVXXJKMMORWTTCE"..., str_y=0x55555575bc20 "CMRYJOAEEPLLARTRGVCBVAHRFOOCMQQPEHPQWRUCJGNJZGCIEGJBGQVLGJPVBGMHPDXNVSPEACPBLTJPZSSFLNTTYKQZQCJIGGVDALHCPYEARNRQIMXVZSQYDHZVLIDTRBWTMFWDDAEWPXMZJMWLGNJLWKHHVMBMNXHBFDFIFLFVITWUHTFOGQZCAILVXMJKMRORWTBC"..., fo=0x555555758260) at smith_waterman.c:98
#1  0x0000555555555e38 in main (argc=7, argv=0x7fffffffdcb8) at smith_waterman.c:298

93	    double max_score=0.0;
94	    for(i=1; i<x_num+1; i++){
95	        for(j=1; j<y_num+1; j++){
96	            if(str_x[i-1]==str_y[j-1]){diff=match_score;}
97	            else{diff=mismatch_score;}
98	            matrix[i][j]=my_maxof(matrix[i-1][j-1]+diff, matrix[i-1][j]+gap_score, matrix[i][j-1]+gap_score,0);
99	            if(matrix[i][j]>max_score)
100	                max_score=matrix[i][j];
101	        }
102	    }

Backtrace END
Fliping a bit of the value pointed by a pointer
Memory content before bitflip:0x2f
Fault Model: Single bit-flip
base address to flip value: 0x7fffffffe0f0 
address max offset: 1
Memory content after  bitflip:0x27
frame name: main
symbol name: file_y_name
symbol filename: smith_waterman.c
symbol line: 248
value: 0x7fffffffe0f0 "'tmp/smith_waterman/randInputY"
value address: 0x7fffffffdb90
Type: The type is a pointer.
Type sizeof: 8

[INFO -- 2018-09-27 01:30:15]
Fault Injection Successful after 1.3065712451934814s
[INFO -- 2018-09-27 01:30:20]
event type: exit
[INFO -- 2018-09-27 01:30:20]
exit code: 0
