[INFO -- 2018-12-04 13:18:41]
Starting GDB script
[INFO -- 2018-12-04 13:18:41]
initSignal:0.0
[INFO -- 2018-12-04 13:18:41]
endSignal:6.0
[INFO -- 2018-12-04 13:18:44]
sending 5 signals using command: 'killall -2 smith_waterman' after 3.13499462064s
[INFO -- 2018-12-04 13:18:45]
sending 5 signals using command: 'killall -2 smith_waterman' after 3.5279533275s
[INFO -- 2018-12-04 13:18:45]
sending 5 signals using command: 'killall -2 smith_waterman' after 4.25143292011s
[INFO -- 2018-12-04 13:18:47]
Execution finished before waitTime
