[INFO -- 2018-09-24 23:34:23]
Starting GDB script
[INFO -- 2018-09-24 23:34:23]
initSignal:0.0
[INFO -- 2018-09-24 23:34:23]
endSignal:2.0
[INFO -- 2018-09-24 23:34:23]
sending 5 signals using command: 'killall -2 smith_waterman' after 0.423823655772s
[INFO -- 2018-09-24 23:34:24]
sending 5 signals using command: 'killall -2 smith_waterman' after 0.774392276411s
[INFO -- 2018-09-24 23:34:24]
sending 5 signals using command: 'killall -2 smith_waterman' after 1.29068452169s
[INFO -- 2018-09-24 23:34:28]
Execution finished before waitTime
