[INFO -- 2018-12-08 03:53:19]
Starting flip_value script
version: 1.1
[INFO -- 2018-12-08 03:53:19]
Initialization strings:
[INFO -- 2018-12-08 03:53:19]
(1) file /tmp/smith_waterman/smith_waterman
[INFO -- 2018-12-08 03:53:19]
(2) set args -x /tmp/smith_waterman/randInputX -y /tmp/smith_waterman/randInputY -o /tmp/smith_waterman/output -z /tmp/smith_waterman/detected.log
[INFO -- 2018-12-08 03:53:19]
initSignal:0
[INFO -- 2018-12-08 03:53:19]
endSignal:6
[INFO -- 2018-12-08 03:53:19]
faultModel:2
[INFO -- 2018-12-08 03:53:23]
Backtrace BEGIN:
#0  0x00005555555554e0 in smith_waterman (x_num=12150, x_num2=12150, y_num=15000, y_num2=15000, str_x=0x5555557586c0 "VVEHCQLLZKVGVBBGHUUUUOHHKKJRTLYHHJLAAYXBKUFNNKOTUNNQNNXHZGBSUGTRROTTBLUMGDTQQHORRCCSQZBRICMKKFFITTUJQQXNRIIKAWWCCAMVNNMJSYCCDSNOOAXVRUNNNSZOXXIXXURYJIIBCXGHMMVMMUDFQNUFFSSZSCVPMMQPPJJXXPBPDVVRSYILLTTT"..., str_y=0x55555575b640 "DVEHCRQLZKVGVTBGFHUUUOYHHKJRTLFYHJILAYXBKUJFNKOTUKNQYNXHZGBSUGTBRBOTBLUMGDTTQHOKRDCSQZBRICMCKFFBITUJHQXNURIKAXWSCAMVZNMJSYNCDSGNOAXVRUKNNSZORXIUXURYJDIBCXGHQMVGMUDFQNUEFTSZSCVPWMQHPAJTXPBPDYVRSYXILTMT"...) at smith_waterman.c:206
#1  0x0000555555556178 in execute (file_x_name=0x7fffffffe065 "/tmp/smith_waterman/randInputX", file_y_name=0x7fffffffe087 "/tmp/smith_waterman/randInputY") at smith_waterman.c:379
#2  0x0000555555556393 in main (argc=9, argv=0x7fffffffdc38) at smith_waterman.c:425

201	            check_index(j, j2);
202				test_globals();
203	            if(str_x[i-1]==str_y[j-1]){diff=match_score;}
204	            else{diff=mismatch_score;}
205	            matrix[i][j]=my_maxof(matrix[i-1][j-1]+diff, matrix[i-1][j]+gap_score, matrix[i][j-1]+gap_score,0);
206	            if(matrix[i][j]>max_score)
207	                max_score=matrix[i][j];
208	            j2++;
209	        }
210	        i2++;

Backtrace END
Fliping a bit of the value pointed by a pointer
Fliping value of field: _chain
Fliping a bit of the pointer
Memory content before bitflip:0x800x060xdd0xf70xff0x7f0x000x00
Fault Model: Random bit-flip
base address to flip value: 0x5555557584f8
address max offset: 8
Memory content after  bitflip:0x780x3a0x2c0x160x880x300x600xc3
frame name: execute
symbol name: fpx
symbol filename: smith_waterman.c
symbol line: 366
value: 0x555555758490
value address: 0x7fffffffdac0
Type: The type is a pointer.
Type sizeof: 8

[INFO -- 2018-12-08 03:53:23]
Fault Injection Successful after 4.4520251750946045s
[INFO -- 2018-12-08 03:53:26]
event type: exit
[INFO -- 2018-12-08 03:53:26]
exit code: 0
