[INFO -- 2018-12-09 09:10:29]
Starting GDB script
[INFO -- 2018-12-09 09:10:29]
initSignal:0.0
[INFO -- 2018-12-09 09:10:29]
endSignal:6.0
[INFO -- 2018-12-09 09:10:29]
sending 5 signals using command: 'killall -2 smith_waterman' after 0.69624614234s
[INFO -- 2018-12-09 09:10:32]
sending 5 signals using command: 'killall -2 smith_waterman' after 2.84318053801s
[INFO -- 2018-12-09 09:10:34]
sending 5 signals using command: 'killall -2 smith_waterman' after 5.45565215399s
[INFO -- 2018-12-09 09:10:37]
Execution finished before waitTime
