[INFO -- 2018-09-26 02:17:28]
Starting GDB script
[INFO -- 2018-09-26 02:17:28]
initSignal:0.0
[INFO -- 2018-09-26 02:17:28]
endSignal:2.0
[INFO -- 2018-09-26 02:17:29]
sending 5 signals using command: 'killall -2 smith_waterman' after 0.805772884469s
[INFO -- 2018-09-26 02:17:30]
sending 5 signals using command: 'killall -2 smith_waterman' after 1.10502157478s
[INFO -- 2018-09-26 02:17:30]
sending 5 signals using command: 'killall -2 smith_waterman' after 1.2206150368s
[INFO -- 2018-09-26 02:17:35]
Execution finished before waitTime
