[INFO -- 2018-12-04 03:18:02]
Starting GDB script
[INFO -- 2018-12-04 03:18:02]
initSignal:0.0
[INFO -- 2018-12-04 03:18:02]
endSignal:6.0
[INFO -- 2018-12-04 03:18:02]
sending 5 signals using command: 'killall -2 smith_waterman' after 0.060174790849s
[INFO -- 2018-12-04 03:18:04]
sending 5 signals using command: 'killall -2 smith_waterman' after 2.10965765431s
[INFO -- 2018-12-04 03:18:07]
sending 5 signals using command: 'killall -2 smith_waterman' after 4.9296357774s
[INFO -- 2018-12-04 03:18:09]
Execution finished before waitTime
