[INFO -- 2018-12-04 00:04:50]
Starting GDB script
[INFO -- 2018-12-04 00:04:50]
initSignal:0.0
[INFO -- 2018-12-04 00:04:50]
endSignal:6.0
[INFO -- 2018-12-04 00:04:52]
sending 5 signals using command: 'killall -2 smith_waterman' after 2.63538266044s
[INFO -- 2018-12-04 00:04:54]
sending 5 signals using command: 'killall -2 smith_waterman' after 3.98363981479s
[INFO -- 2018-12-04 00:04:55]
sending 5 signals using command: 'killall -2 smith_waterman' after 5.18282000985s
[INFO -- 2018-12-04 00:04:56]
Execution finished before waitTime
