[INFO -- 2018-09-26 18:24:07]
Starting GDB script
[INFO -- 2018-09-26 18:24:07]
initSignal:0.0
[INFO -- 2018-09-26 18:24:07]
endSignal:2.0
[INFO -- 2018-09-26 18:24:07]
sending 5 signals using command: 'killall -2 smith_waterman' after 0.240752967889s
[INFO -- 2018-09-26 18:24:08]
sending 5 signals using command: 'killall -2 smith_waterman' after 1.40935257608s
[INFO -- 2018-09-26 18:24:08]
sending 5 signals using command: 'killall -2 smith_waterman' after 1.48856088402s
[INFO -- 2018-09-26 18:24:12]
Execution finished before waitTime
