[INFO -- 2018-09-24 20:03:20]
Starting flip_value script
version: 1.1
[INFO -- 2018-09-24 20:03:20]
Initialization strings:
[INFO -- 2018-09-24 20:03:20]
(1) file /tmp/smith_waterman/smith_waterman
[INFO -- 2018-09-24 20:03:20]
(2) set args -x /tmp/smith_waterman/randInputX -y /tmp/smith_waterman/randInputY -o /tmp/smith_waterman/output
[INFO -- 2018-09-24 20:03:20]
initSignal:0
[INFO -- 2018-09-24 20:03:20]
endSignal:2
[INFO -- 2018-09-24 20:03:20]
faultModel:0
[INFO -- 2018-09-24 20:03:20]
Backtrace BEGIN:
#0  0x0000555555554f05 in smith_waterman (x_num=14400, y_num=15000, str_x=0x5555557586c0 "RWHEEYJJWWMMBHEIKRBOIEYQDLLGGCXXBBYMFJRDDEEGLEOXVRRDDMUUXXHBTFFWOOIVVCZLGZRTDHQAAYDVVAWOOOQQLNDBBOWSQXXWWWWBDJCDMGAAIXXYDKGOXXLJBNNRLEEPAIJFRRKETTLIIABLLJBKXSUUFXSQEHAEQQMJYWNTJVWWYZEEJHXGZTGHRYYXIIZB"..., str_y=0x55555575bf10 "PRWHEJYJFWUMUBHEIKRBOIEYQDLSGCCXTBHYMFJRDDEYGLEOXVRLDVMUBXOHBTFXWOVIVGCZLGZRTDHQAYDEVPAWOOEQHLNDBKOWSQXDWWWRBDJCDMGAEIXSYDKGOXLPJBNBRLEPHAIJFRNKETLIDIABLLJBKXSUYFXSQEHAEQLMJYWNTJVWTYZELJHXGZTGHRYXVIZB"..., fo=0x555555758260) at smith_waterman.c:89
#1  0x0000555555555e38 in main (argc=7, argv=0x7fffffffdcb8) at smith_waterman.c:298

84	    for(i=1; i<x_num+1; i++){
85	        matrix[i]=matrix[0]+(y_num+1)*i;
86	    }
87	
88	    long j;
89	    for(i=0; i<x_num+1; i++){matrix[i][0]=0.0;}
90	    for(i=0; i<y_num+1; i++){matrix[0][i]=0.0;}
91	
92	    double diff=0.0;
93	    double max_score=0.0;

Backtrace END
Fliping a bit of the value pointed by a pointer
Fliping a bit of the pointer
Memory content before bitflip:0xaa0xe00xff0xff0xff0x7f0x000x00
Fault Model: Single bit-flip
base address to flip value: 0x7fffffffdcb8
address max offset: 8
Memory content after  bitflip:0xaa0xe80xff0xff0xff0x7f0x000x00
frame name: main
symbol name: argv
symbol filename: smith_waterman.c
symbol line: 242
value: 0x7fffffffdcb8
value address: 0x7fffffffdb50
Type: The type is a pointer.
Type sizeof: 8

[INFO -- 2018-09-24 20:03:20]
Fault Injection Successful after 0.36389589309692383s
[INFO -- 2018-09-24 20:03:26]
event type: exit
[INFO -- 2018-09-24 20:03:26]
exit code: 0
