[INFO -- 2018-12-09 05:52:29]
Starting GDB script
[INFO -- 2018-12-09 05:52:29]
initSignal:0.0
[INFO -- 2018-12-09 05:52:29]
endSignal:6.0
[INFO -- 2018-12-09 05:52:34]
sending 5 signals using command: 'killall -2 smith_waterman' after 5.01678649679s
[INFO -- 2018-12-09 05:52:34]
sending 5 signals using command: 'killall -2 smith_waterman' after 5.69792091794s
[INFO -- 2018-12-09 05:52:34]
sending 5 signals using command: 'killall -2 smith_waterman' after 5.84948470821s
[INFO -- 2018-12-09 05:52:36]
Execution finished before waitTime
