[INFO -- 2018-09-26 11:30:21]
Starting GDB script
[INFO -- 2018-09-26 11:30:21]
initSignal:0.0
[INFO -- 2018-09-26 11:30:21]
endSignal:2.0
[INFO -- 2018-09-26 11:30:21]
sending 5 signals using command: 'killall -2 smith_waterman' after 0.000969820065599s
[INFO -- 2018-09-26 11:30:21]
sending 5 signals using command: 'killall -2 smith_waterman' after 0.0311308344785s
[INFO -- 2018-09-26 11:30:22]
sending 5 signals using command: 'killall -2 smith_waterman' after 1.86078099404s
[INFO -- 2018-09-26 11:30:41]
Execution did not finish before waitTime
