[INFO -- 2018-12-09 08:57:04]
sending 5 signals using command: 'killall -2 smith_waterman' after 5.06925574646s
[INFO -- 2018-12-09 08:57:04]
Starting GDB script
[INFO -- 2018-12-09 08:57:04]
initSignal:0.0
[INFO -- 2018-12-09 08:57:04]
endSignal:6.0
[INFO -- 2018-12-09 08:57:04]
sending 5 signals using command: 'killall -2 smith_waterman' after 0.298702507349s
[INFO -- 2018-12-09 08:57:07]
sending 5 signals using command: 'killall -2 smith_waterman' after 2.83234927344s
[INFO -- 2018-12-09 08:57:09]
sending 5 signals using command: 'killall -2 smith_waterman' after 4.57561354797s
[INFO -- 2018-12-09 08:57:12]
Execution finished before waitTime
