[INFO -- 2018-12-03 21:04:08]
Starting flip_value script
version: 1.1
[INFO -- 2018-12-03 21:04:08]
Initialization strings:
[INFO -- 2018-12-03 21:04:08]
(1) file /tmp/smith_waterman/smith_waterman
[INFO -- 2018-12-03 21:04:08]
(2) set args -x /tmp/smith_waterman/randInputX -y /tmp/smith_waterman/randInputY -o /tmp/smith_waterman/output -z /tmp/smith_waterman/detected.log
[INFO -- 2018-12-03 21:04:08]
initSignal:0
[INFO -- 2018-12-03 21:04:08]
endSignal:6
[INFO -- 2018-12-03 21:04:08]
faultModel:1
[INFO -- 2018-12-03 21:04:08]
Backtrace BEGIN:
#0  dl_main (phdr=<optimized out>, phnum=<optimized out>, user_entry=<optimized out>, auxv=<optimized out>) at rtld.c:2289
#1  0x00007ffff7defdd0 in _dl_sysdep_start (start_argptr=start_argptr@entry=0x7fffffffdc80, dl_main=dl_main@entry=0x7ffff7dd7660 <dl_main>) at ../elf/dl-sysdep.c:253
#2  0x00007ffff7dd7128 in _dl_start_final (arg=0x7fffffffdc80) at rtld.c:414
#3  _dl_start (arg=0x7fffffffdc80) at rtld.c:521
#4  0x00007ffff7dd6098 in _start () from /lib64/ld-linux-x86-64.so.2
#5  0x0000000000000009 in ?? ()
#6  0x00007fffffffe08e in ?? ()
#7  0x00007fffffffe0b1 in ?? ()
#8  0x00007fffffffe0b4 in ?? ()
#9  0x00007fffffffe0d3 in ?? ()
#10 0x00007fffffffe0d6 in ?? ()
#11 0x00007fffffffe0f5 in ?? ()
#12 0x00007fffffffe0f8 in ?? ()
#13 0x00007fffffffe113 in ?? ()
#14 0x00007fffffffe116 in ?? ()
#15 0x0000000000000000 in ?? ()

2284	rtld.c: No such file or directory.

Backtrace END
Fliping value of field: name
Fliping a bit of the pointer
Memory content before bitflip:0x380x420x550x550x550x550x000x00
Fault Model: Double bit-flip
base address to flip value: 0x7ffff7ffe030 
address max offset: 8
Memory content after  bitflip:0x380x500x550x550x550x550x000x00
frame name: _dl_start_final
symbol name: _dl_rtld_libname
symbol filename: rtld.c
symbol line: 301
value: {name = 0x555555555038 <smith_waterman+599> "X\377\377\377\001H\203\205P\377\377\377\001H\213\205(\377\377\377H\203\300\001H9\205P\377\377\377|\246H\213\205X\377\377\377\211\302H\213\205P\377\377\377\211։\307\350F\375\377\377f\017\357\300\362\017\021\205h\377\377\377f\017\357\300\362\017\021\205p\377\377\377HǅX\377\377\377\001", next = 0x7ffff7ffdfe0 <newname>, dont_free = 0}
value address: 0x7ffff7ffe030 <_dl_rtld_libname>
Type: The type is a structure.
Type sizeof: 24
Field name: name
Field Type: The type is a pointer.
Field Type sizeof: 8
Field name: next
Field Type: The type is a pointer.
Field Type sizeof: 8
Field name: dont_free
Field Type: The type is an integer type.
Field Type sizeof: 4

[INFO -- 2018-12-03 21:04:08]
Fault Injection Successful after 0.4796714782714844s
[INFO -- 2018-12-03 21:04:12]
event type: exit
[INFO -- 2018-12-03 21:04:12]
exit code: 0
