[INFO -- 2018-09-27 00:56:45]
Starting GDB script
[INFO -- 2018-09-27 00:56:45]
initSignal:0.0
[INFO -- 2018-09-27 00:56:45]
endSignal:2.0
[INFO -- 2018-09-27 00:56:45]
sending 5 signals using command: 'killall -2 smith_waterman' after 0.137219706567s
[INFO -- 2018-09-27 00:56:45]
sending 5 signals using command: 'killall -2 smith_waterman' after 0.18769742313s
[INFO -- 2018-09-27 00:56:45]
sending 5 signals using command: 'killall -2 smith_waterman' after 0.210263995745s
[INFO -- 2018-09-27 00:56:51]
Execution finished before waitTime
