[INFO -- 2018-12-04 11:02:37]
sending 5 signals using command: 'killall -2 smith_waterman' after 5.15692868673s
[INFO -- 2018-12-04 11:02:37]
Starting GDB script
[INFO -- 2018-12-04 11:02:37]
initSignal:0.0
[INFO -- 2018-12-04 11:02:37]
endSignal:6.0
[INFO -- 2018-12-04 11:02:38]
sending 5 signals using command: 'killall -2 smith_waterman' after 1.43063029714s
[INFO -- 2018-12-04 11:02:40]
Execution finished before waitTime
