[INFO -- 2018-09-24 12:05:24]
Starting flip_value script
version: 1.1
[INFO -- 2018-09-24 12:05:24]
Initialization strings:
[INFO -- 2018-09-24 12:05:24]
(1) file /tmp/smith_waterman/smith_waterman
[INFO -- 2018-09-24 12:05:24]
(2) set args -x /tmp/smith_waterman/randInputX -y /tmp/smith_waterman/randInputY -o /tmp/smith_waterman/output
[INFO -- 2018-09-24 12:05:24]
initSignal:0
[INFO -- 2018-09-24 12:05:24]
endSignal:2
[INFO -- 2018-09-24 12:05:24]
faultModel:0
[INFO -- 2018-09-24 12:05:24]
Backtrace BEGIN:
#0  0x0000555555554d71 in my_maxof (a=-1, b=-2, c=-2, d=0) at smith_waterman.c:65
#1  0x00005555555550d7 in smith_waterman (x_num=12150, y_num=15000, str_x=0x5555557586c0 "GWFFISSZZEHHNAUHHEKGUUGKQQZZNOVMQBUAAJJFNNJCCZZRLTXHZDDPPURKEBBYCSSYDWWFSMMSLDJYYZJGYAAITTVXXWTTZNZQOOGJSSOFFADIJJIZLLZHUEEEQAAKQQQCYLLQQTTXCTBMEODCVVPPUUPFTZFFHHMQVVQGJESSCEIVAAZXDDMMYTSNSXXMMJJCCKQJ"..., str_y=0x55555575b640 "GWDFIKSMZJEHYNAUHEKKGUFGKQOZNOKVMQBUAVJAFNJFCLZJRLTXHZDSPUREKEBYUCSWYDWFSHMUSLDJYZJGYOAPITVUXWSTZNQZQOGJWSFOFJADIJLIZLZKHUEEQXARKQQCEYLCQTTXCTBMEOWDCVPJPUPFTPZFHRHMQVQGOJESCHEIVAOZXDIMZYTSNSXVMFJCCZKQ"..., fo=0x555555758260) at smith_waterman.c:98
#2  0x0000555555555e38 in main (argc=7, argv=0x7fffffffdcb8) at smith_waterman.c:298

60	}
61	
62	double my_maxof(double a, double b, double c, double d)
63	{
64	    double ans=a;
65	    if(ans<b) ans=b;
66	    if(ans<c) ans=c;
67	    if(ans<d) ans=d;
68	    return ans;
69	}

Backtrace END
Memory content before bitflip:0x760x2f0x000x000x000x000x000x00
Fault Model: Single bit-flip
base address to flip value: 0x7fffffffda88
address max offset: 8
Memory content after  bitflip:0x760x2f0x000x000x000x200x000x00
frame name: smith_waterman
symbol name: x_num
symbol filename: smith_waterman.c
symbol line: 79
value: 35184372100982
value address: 0x7fffffffda88
Type: The type is an integer type.
Type sizeof: 8

[INFO -- 2018-09-24 12:05:24]
Fault Injection Successful after 0.8459720611572266s
[INFO -- 2018-09-24 12:05:28]
event type: exit
[EXCEPTION -- 2018-09-24 12:05:28]
exit code: no exit code available
