[INFO -- 2018-09-26 07:49:15]
Starting GDB script
[INFO -- 2018-09-26 07:49:15]
initSignal:0.0
[INFO -- 2018-09-26 07:49:15]
endSignal:2.0
[INFO -- 2018-09-26 07:49:16]
sending 5 signals using command: 'killall -2 smith_waterman' after 0.828618412287s
[INFO -- 2018-09-26 07:49:16]
sending 5 signals using command: 'killall -2 smith_waterman' after 1.26761487026s
[INFO -- 2018-09-26 07:49:16]
sending 5 signals using command: 'killall -2 smith_waterman' after 1.65090515722s
[INFO -- 2018-09-26 07:49:35]
Execution did not finish before waitTime
