[INFO -- 2018-09-25 02:31:22]
Starting GDB script
[INFO -- 2018-09-25 02:31:22]
initSignal:0.0
[INFO -- 2018-09-25 02:31:22]
endSignal:2.0
[INFO -- 2018-09-25 02:31:22]
sending 5 signals using command: 'killall -2 smith_waterman' after 0.58438845348s
[INFO -- 2018-09-25 02:31:22]
sending 5 signals using command: 'killall -2 smith_waterman' after 0.636773964315s
[INFO -- 2018-09-25 02:31:23]
sending 5 signals using command: 'killall -2 smith_waterman' after 1.13307173959s
[INFO -- 2018-09-25 02:31:28]
Execution finished before waitTime
