[INFO -- 2018-12-04 13:00:37]
Starting GDB script
[INFO -- 2018-12-04 13:00:37]
initSignal:0.0
[INFO -- 2018-12-04 13:00:37]
endSignal:6.0
[INFO -- 2018-12-04 13:00:42]
sending 5 signals using command: 'killall -2 smith_waterman' after 4.51678787405s
[INFO -- 2018-12-04 13:00:42]
sending 5 signals using command: 'killall -2 smith_waterman' after 5.21406362375s
[INFO -- 2018-12-04 13:00:43]
sending 5 signals using command: 'killall -2 smith_waterman' after 5.50484717274s
[INFO -- 2018-12-04 13:00:43]
Execution finished before waitTime
