[INFO -- 2018-12-09 00:02:33]
sending 5 signals using command: 'killall -2 smith_waterman' after 2.09222616348s
[INFO -- 2018-12-09 00:02:35]
sending 5 signals using command: 'killall -2 smith_waterman' after 4.21486873325s
[INFO -- 2018-12-09 00:02:35]
Starting GDB script
[INFO -- 2018-12-09 00:02:35]
initSignal:0.0
[INFO -- 2018-12-09 00:02:35]
endSignal:6.0
[INFO -- 2018-12-09 00:02:35]
sending 5 signals using command: 'killall -2 smith_waterman' after 0.156690167337s
[INFO -- 2018-12-09 00:02:39]
sending 5 signals using command: 'killall -2 smith_waterman' after 3.83157661518s
[INFO -- 2018-12-09 00:02:39]
sending 5 signals using command: 'killall -2 smith_waterman' after 3.86157447561s
[INFO -- 2018-12-09 00:02:41]
Execution finished before waitTime
