[INFO -- 2018-09-25 00:28:53]
Starting GDB script
[INFO -- 2018-09-25 00:28:53]
initSignal:0.0
[INFO -- 2018-09-25 00:28:53]
endSignal:2.0
[INFO -- 2018-09-25 00:28:54]
sending 5 signals using command: 'killall -2 smith_waterman' after 0.533298236203s
[INFO -- 2018-09-25 00:28:55]
sending 5 signals using command: 'killall -2 smith_waterman' after 1.48242637348s
[INFO -- 2018-09-25 00:28:55]
sending 5 signals using command: 'killall -2 smith_waterman' after 1.86238617326s
[INFO -- 2018-09-25 00:28:59]
Execution finished before waitTime
