[INFO -- 2018-12-05 09:43:10]
Starting GDB script
[INFO -- 2018-12-05 09:43:10]
initSignal:0.0
[INFO -- 2018-12-05 09:43:10]
endSignal:6.0
[INFO -- 2018-12-05 09:43:11]
sending 5 signals using command: 'killall -2 smith_waterman' after 1.44071329256s
[INFO -- 2018-12-05 09:43:13]
sending 5 signals using command: 'killall -2 smith_waterman' after 2.95236547021s
[INFO -- 2018-12-05 09:43:14]
sending 5 signals using command: 'killall -2 smith_waterman' after 4.13621030047s
[INFO -- 2018-12-05 09:43:17]
Execution finished before waitTime
