[INFO -- 2018-12-08 05:49:41]
sending 5 signals using command: 'killall -2 smith_waterman' after 4.92493834967s
[INFO -- 2018-12-08 05:49:42]
sending 5 signals using command: 'killall -2 smith_waterman' after 5.47708151219s
[INFO -- 2018-12-08 05:49:42]
Starting GDB script
[INFO -- 2018-12-08 05:49:42]
initSignal:0.0
[INFO -- 2018-12-08 05:49:42]
endSignal:6.0
[INFO -- 2018-12-08 05:49:43]
sending 5 signals using command: 'killall -2 smith_waterman' after 1.55670347974s
[INFO -- 2018-12-08 05:49:44]
sending 5 signals using command: 'killall -2 smith_waterman' after 2.73644679353s
[INFO -- 2018-12-08 05:49:47]
sending 5 signals using command: 'killall -2 smith_waterman' after 5.61853008837s
[INFO -- 2018-12-08 05:49:50]
Execution finished before waitTime
