[INFO -- 2018-12-08 14:42:52]
Starting GDB script
[INFO -- 2018-12-08 14:42:52]
initSignal:0.0
[INFO -- 2018-12-08 14:42:52]
endSignal:6.0
[INFO -- 2018-12-08 14:42:54]
sending 5 signals using command: 'killall -2 smith_waterman' after 2.18921862141s
[INFO -- 2018-12-08 14:42:55]
sending 5 signals using command: 'killall -2 smith_waterman' after 2.49688544165s
[INFO -- 2018-12-08 14:42:57]
sending 5 signals using command: 'killall -2 smith_waterman' after 5.10948802542s
[INFO -- 2018-12-08 14:42:59]
Execution finished before waitTime
