[INFO -- 2018-12-04 03:06:14]
Starting GDB script
[INFO -- 2018-12-04 03:06:14]
initSignal:0.0
[INFO -- 2018-12-04 03:06:14]
endSignal:6.0
[INFO -- 2018-12-04 03:06:17]
sending 5 signals using command: 'killall -2 smith_waterman' after 2.88400066355s
[INFO -- 2018-12-04 03:06:19]
sending 5 signals using command: 'killall -2 smith_waterman' after 4.96467829975s
[INFO -- 2018-12-04 03:06:19]
sending 5 signals using command: 'killall -2 smith_waterman' after 5.29488722013s
[INFO -- 2018-12-04 03:06:34]
Execution did not finish before waitTime
