[INFO -- 2018-09-26 12:41:21]
Starting GDB script
[INFO -- 2018-09-26 12:41:21]
initSignal:0.0
[INFO -- 2018-09-26 12:41:21]
endSignal:2.0
[INFO -- 2018-09-26 12:41:21]
sending 5 signals using command: 'killall -2 smith_waterman' after 0.424276296071s
[INFO -- 2018-09-26 12:41:22]
sending 5 signals using command: 'killall -2 smith_waterman' after 0.961838956381s
[INFO -- 2018-09-26 12:41:22]
sending 5 signals using command: 'killall -2 smith_waterman' after 1.77316764941s
[INFO -- 2018-09-26 12:41:28]
Execution finished before waitTime
