[INFO -- 2018-11-08 20:54:35]
sending 5 signals using command: 'killall -2 smith_waterman' after 3.19373005389s
[INFO -- 2018-11-08 20:54:38]
sending 5 signals using command: 'killall -2 smith_waterman' after 5.67214657212s
[INFO -- 2018-11-08 20:54:38]
Starting GDB script
[INFO -- 2018-11-08 20:54:38]
initSignal:0.0
[INFO -- 2018-11-08 20:54:38]
endSignal:6.0
[INFO -- 2018-11-08 20:54:39]
sending 5 signals using command: 'killall -2 smith_waterman' after 1.86634273498s
[INFO -- 2018-11-08 20:54:40]
sending 5 signals using command: 'killall -2 smith_waterman' after 2.11416462538s
[INFO -- 2018-11-08 20:54:42]
sending 5 signals using command: 'killall -2 smith_waterman' after 4.38962236618s
[INFO -- 2018-11-08 20:54:58]
Execution did not finish before waitTime
