[INFO -- 2018-09-27 18:38:23]
Starting GDB script
[INFO -- 2018-09-27 18:38:23]
initSignal:0.0
[INFO -- 2018-09-27 18:38:23]
endSignal:2.0
[INFO -- 2018-09-27 18:38:23]
sending 5 signals using command: 'killall -2 smith_waterman' after 0.567597255012s
[INFO -- 2018-09-27 18:38:24]
sending 5 signals using command: 'killall -2 smith_waterman' after 0.803114671465s
[INFO -- 2018-09-27 18:38:24]
sending 5 signals using command: 'killall -2 smith_waterman' after 1.37150139629s
[INFO -- 2018-09-27 18:38:29]
Execution finished before waitTime
