[INFO -- 2018-09-24 18:04:34]
Starting GDB script
[INFO -- 2018-09-24 18:04:34]
initSignal:0.0
[INFO -- 2018-09-24 18:04:34]
endSignal:2.0
[INFO -- 2018-09-24 18:04:35]
sending 5 signals using command: 'killall -2 smith_waterman' after 0.222573061733s
[INFO -- 2018-09-24 18:04:35]
sending 5 signals using command: 'killall -2 smith_waterman' after 0.319230956159s
[INFO -- 2018-09-24 18:04:35]
sending 5 signals using command: 'killall -2 smith_waterman' after 0.662528534061s
[INFO -- 2018-09-24 18:04:41]
Execution finished before waitTime
