[INFO -- 2018-09-27 12:16:08]
Starting GDB script
[INFO -- 2018-09-27 12:16:08]
initSignal:0.0
[INFO -- 2018-09-27 12:16:08]
endSignal:2.0
[INFO -- 2018-09-27 12:16:08]
sending 5 signals using command: 'killall -2 smith_waterman' after 0.208700922465s
[INFO -- 2018-09-27 12:16:08]
sending 5 signals using command: 'killall -2 smith_waterman' after 0.486733230046s
[INFO -- 2018-09-27 12:16:09]
sending 5 signals using command: 'killall -2 smith_waterman' after 0.717114438805s
[INFO -- 2018-09-27 12:16:15]
Execution finished before waitTime
