[INFO -- 2018-09-28 06:37:32]
Starting GDB script
[INFO -- 2018-09-28 06:37:32]
initSignal:0.0
[INFO -- 2018-09-28 06:37:32]
endSignal:2.0
[INFO -- 2018-09-28 06:37:33]
sending 5 signals using command: 'killall -2 smith_waterman' after 0.690433703136s
[INFO -- 2018-09-28 06:37:33]
sending 5 signals using command: 'killall -2 smith_waterman' after 1.16947110447s
[INFO -- 2018-09-28 06:37:34]
sending 5 signals using command: 'killall -2 smith_waterman' after 1.78759730046s
[INFO -- 2018-09-28 06:37:34]
Execution finished before waitTime
