[INFO -- 2018-12-08 07:51:53]
Starting GDB script
[INFO -- 2018-12-08 07:51:53]
initSignal:0.0
[INFO -- 2018-12-08 07:51:53]
endSignal:6.0
[INFO -- 2018-12-08 07:51:54]
sending 5 signals using command: 'killall -2 smith_waterman' after 0.971411006381s
[INFO -- 2018-12-08 07:51:57]
sending 5 signals using command: 'killall -2 smith_waterman' after 3.80317114968s
[INFO -- 2018-12-08 07:51:57]
sending 5 signals using command: 'killall -2 smith_waterman' after 4.26239258166s
[INFO -- 2018-12-08 07:52:01]
Execution finished before waitTime
