[INFO -- 2018-09-25 00:17:03]
Starting GDB script
[INFO -- 2018-09-25 00:17:03]
initSignal:0.0
[INFO -- 2018-09-25 00:17:03]
endSignal:2.0
[INFO -- 2018-09-25 00:17:04]
sending 5 signals using command: 'killall -2 smith_waterman' after 0.127232107369s
[INFO -- 2018-09-25 00:17:04]
sending 5 signals using command: 'killall -2 smith_waterman' after 0.602212527277s
[INFO -- 2018-09-25 00:17:04]
sending 5 signals using command: 'killall -2 smith_waterman' after 0.723212755595s
[INFO -- 2018-09-25 00:17:09]
Execution finished before waitTime
