[INFO -- 2018-09-24 22:15:24]
Starting GDB script
[INFO -- 2018-09-24 22:15:24]
initSignal:0.0
[INFO -- 2018-09-24 22:15:24]
endSignal:2.0
[INFO -- 2018-09-24 22:15:24]
sending 5 signals using command: 'killall -2 smith_waterman' after 0.0227305477824s
[INFO -- 2018-09-24 22:15:24]
sending 5 signals using command: 'killall -2 smith_waterman' after 0.148276127073s
[INFO -- 2018-09-24 22:15:25]
sending 5 signals using command: 'killall -2 smith_waterman' after 1.31277845882s
[INFO -- 2018-09-24 22:15:29]
Execution finished before waitTime
