[INFO -- 2018-12-04 11:43:03]
Starting GDB script
[INFO -- 2018-12-04 11:43:03]
initSignal:0.0
[INFO -- 2018-12-04 11:43:03]
endSignal:6.0
[INFO -- 2018-12-04 11:43:04]
sending 5 signals using command: 'killall -2 smith_waterman' after 1.06025857094s
[INFO -- 2018-12-04 11:43:05]
sending 5 signals using command: 'killall -2 smith_waterman' after 2.46244419335s
[INFO -- 2018-12-04 11:43:08]
sending 5 signals using command: 'killall -2 smith_waterman' after 5.06071035861s
[INFO -- 2018-12-04 11:43:09]
Execution finished before waitTime
