[INFO -- 2018-12-05 05:41:33]
Starting GDB script
[INFO -- 2018-12-05 05:41:33]
initSignal:0.0
[INFO -- 2018-12-05 05:41:33]
endSignal:6.0
[INFO -- 2018-12-05 05:41:35]
sending 5 signals using command: 'killall -2 smith_waterman' after 1.81533940571s
[INFO -- 2018-12-05 05:41:37]
sending 5 signals using command: 'killall -2 smith_waterman' after 3.66081527334s
[INFO -- 2018-12-05 05:41:38]
sending 5 signals using command: 'killall -2 smith_waterman' after 5.26562967263s
[INFO -- 2018-12-05 05:41:40]
Execution finished before waitTime
