[INFO -- 2018-12-03 08:49:50]
Starting GDB script
[INFO -- 2018-12-03 08:49:50]
initSignal:0.0
[INFO -- 2018-12-03 08:49:50]
endSignal:6.0
[INFO -- 2018-12-03 08:49:50]
sending 5 signals using command: 'killall -2 smith_waterman' after 0.497012437508s
[INFO -- 2018-12-03 08:49:53]
sending 5 signals using command: 'killall -2 smith_waterman' after 3.20781753507s
[INFO -- 2018-12-03 08:49:54]
sending 5 signals using command: 'killall -2 smith_waterman' after 4.0497040106s
[INFO -- 2018-12-03 08:49:56]
Execution finished before waitTime
