[INFO -- 2018-12-05 22:25:11]
Starting GDB script
[INFO -- 2018-12-05 22:25:11]
initSignal:0.0
[INFO -- 2018-12-05 22:25:11]
endSignal:6.0
[INFO -- 2018-12-05 22:25:12]
sending 5 signals using command: 'killall -2 smith_waterman' after 1.31232263119s
[INFO -- 2018-12-05 22:25:15]
sending 5 signals using command: 'killall -2 smith_waterman' after 3.77671218523s
[INFO -- 2018-12-05 22:25:16]
Execution finished before waitTime
