[INFO -- 2018-12-05 02:45:54]
Starting GDB script
[INFO -- 2018-12-05 02:45:54]
initSignal:0.0
[INFO -- 2018-12-05 02:45:54]
endSignal:6.0
[INFO -- 2018-12-05 02:45:56]
sending 5 signals using command: 'killall -2 smith_waterman' after 1.49466348032s
[INFO -- 2018-12-05 02:45:58]
sending 5 signals using command: 'killall -2 smith_waterman' after 3.74882310309s
[INFO -- 2018-12-05 02:46:00]
sending 5 signals using command: 'killall -2 smith_waterman' after 5.99533548484s
[INFO -- 2018-12-05 02:46:01]
Execution finished before waitTime
