[INFO -- 2018-12-04 02:09:24]
Starting GDB script
[INFO -- 2018-12-04 02:09:24]
initSignal:0.0
[INFO -- 2018-12-04 02:09:24]
endSignal:6.0
[INFO -- 2018-12-04 02:09:28]
sending 5 signals using command: 'killall -2 smith_waterman' after 4.20113019049s
[INFO -- 2018-12-04 02:09:29]
sending 5 signals using command: 'killall -2 smith_waterman' after 4.32525510297s
[INFO -- 2018-12-04 02:09:29]
sending 5 signals using command: 'killall -2 smith_waterman' after 5.16088832059s
[INFO -- 2018-12-04 02:09:31]
Execution finished before waitTime
