[INFO -- 2018-09-27 07:39:48]
Starting GDB script
[INFO -- 2018-09-27 07:39:48]
initSignal:0.0
[INFO -- 2018-09-27 07:39:48]
endSignal:2.0
[INFO -- 2018-09-27 07:39:49]
sending 5 signals using command: 'killall -2 smith_waterman' after 0.373805424252s
[INFO -- 2018-09-27 07:39:49]
sending 5 signals using command: 'killall -2 smith_waterman' after 0.636042146597s
[INFO -- 2018-09-27 07:39:50]
sending 5 signals using command: 'killall -2 smith_waterman' after 1.49271280264s
[INFO -- 2018-09-27 07:39:54]
Execution finished before waitTime
