[INFO -- 2018-12-05 04:12:02]
Starting GDB script
[INFO -- 2018-12-05 04:12:02]
initSignal:0.0
[INFO -- 2018-12-05 04:12:02]
endSignal:6.0
[INFO -- 2018-12-05 04:12:06]
sending 5 signals using command: 'killall -2 smith_waterman' after 4.30534999063s
[INFO -- 2018-12-05 04:12:08]
sending 5 signals using command: 'killall -2 smith_waterman' after 5.6880400891s
[INFO -- 2018-12-05 04:12:08]
sending 5 signals using command: 'killall -2 smith_waterman' after 5.75351403735s
[INFO -- 2018-12-05 04:12:09]
Execution finished before waitTime
