[INFO -- 2018-09-27 05:50:24]
Starting GDB script
[INFO -- 2018-09-27 05:50:24]
initSignal:0.0
[INFO -- 2018-09-27 05:50:24]
endSignal:2.0
[INFO -- 2018-09-27 05:50:25]
sending 5 signals using command: 'killall -2 smith_waterman' after 0.874039887522s
[INFO -- 2018-09-27 05:50:25]
sending 5 signals using command: 'killall -2 smith_waterman' after 1.03412786161s
[INFO -- 2018-09-27 05:50:26]
sending 5 signals using command: 'killall -2 smith_waterman' after 1.51489615365s
[INFO -- 2018-09-27 05:50:30]
Execution finished before waitTime
