[INFO -- 2018-09-25 00:13:43]
Starting flip_value script
version: 1.1
[INFO -- 2018-09-25 00:13:43]
Initialization strings:
[INFO -- 2018-09-25 00:13:43]
(1) file /tmp/smith_waterman/smith_waterman
[INFO -- 2018-09-25 00:13:43]
(2) set args -x /tmp/smith_waterman/randInputX -y /tmp/smith_waterman/randInputY -o /tmp/smith_waterman/output
[INFO -- 2018-09-25 00:13:43]
initSignal:0
[INFO -- 2018-09-25 00:13:43]
endSignal:2
[INFO -- 2018-09-25 00:13:43]
faultModel:1
[INFO -- 2018-09-25 00:13:44]
Backtrace BEGIN:
#0  0x000055555555510a in smith_waterman (x_num=10050, y_num=15000, str_x=0x5555557586c0 "SGCZCCCCNUWGCCRWKBBPPZQDLEEVVSTQYPDCNGRHHEYBRXXZAAQBLIEWOOUJJLKLJZOOOFWBFFIIWYYYEEQBRBOPPZILUMWTBKIIQQGVHHJUMUUHSKKKNYFTTFGCCRCUUPUHPPEEHHFFUUMMHAUUUZPPHVIAZFFVPPPEENCVVCIZZZEGZCTYEIELFFOLWWXLAVPPZUUD"..., str_y=0x55555575ae10 "SGCZBCVCNUWGRCRWKIBNPZFQDLEJVSTQAYPDCNGRHEYBGRXQZAEQBLIEWOQUJLKLJZPOOXFWBFZIWYAYAEQBRBHOPZIALUMWTBKIYQGBVHJUHMUHSMKKNTYFTIFGCRCXUPHUHPWEYHYFTUOMHAWUUWZPGHVIAZFVQPPXENCDVCIQZZEGZCCTYEIELFOLHWIXLAVPNZUK"..., fo=0x555555758260) at smith_waterman.c:99
#1  0x0000555555555e38 in main (argc=7, argv=0x7fffffffdcb8) at smith_waterman.c:298

94	    for(i=1; i<x_num+1; i++){
95	        for(j=1; j<y_num+1; j++){
96	            if(str_x[i-1]==str_y[j-1]){diff=match_score;}
97	            else{diff=mismatch_score;}
98	            matrix[i][j]=my_maxof(matrix[i-1][j-1]+diff, matrix[i-1][j]+gap_score, matrix[i][j-1]+gap_score,0);
99	            if(matrix[i][j]>max_score)
100	                max_score=matrix[i][j];
101	        }
102	    }
103	

Backtrace END
Memory content before bitflip:0x000x000x000x000x000x000x000xc0
Fault Model: Double bit-flip
base address to flip value: 0x555555757020 
address max offset: 8
Memory content after  bitflip:0x000x000x440x000x000x000x000xc0
frame name: main
symbol name: gap_score
symbol filename: smith_waterman.c
symbol line: 9
value: -2.0000000019790605
value address: 0x555555757020 <gap_score>
Type: A floating point type.
Type sizeof: 8

[INFO -- 2018-09-25 00:13:44]
Fault Injection Successful after 1.9015719890594482s
