[INFO -- 2018-12-08 00:43:50]
Starting GDB script
[INFO -- 2018-12-08 00:43:50]
initSignal:0.0
[INFO -- 2018-12-08 00:43:50]
endSignal:6.0
[INFO -- 2018-12-08 00:43:51]
sending 5 signals using command: 'killall -2 smith_waterman' after 0.215541151935s
[INFO -- 2018-12-08 00:43:51]
sending 5 signals using command: 'killall -2 smith_waterman' after 0.38892798328s
[INFO -- 2018-12-08 00:43:56]
sending 5 signals using command: 'killall -2 smith_waterman' after 5.33982013842s
[INFO -- 2018-12-08 00:43:58]
Execution finished before waitTime
