[INFO -- 2018-09-26 09:54:53]
Starting GDB script
[INFO -- 2018-09-26 09:54:53]
initSignal:0.0
[INFO -- 2018-09-26 09:54:53]
endSignal:2.0
[INFO -- 2018-09-26 09:54:53]
sending 5 signals using command: 'killall -2 smith_waterman' after 0.417017393346s
[INFO -- 2018-09-26 09:54:54]
sending 5 signals using command: 'killall -2 smith_waterman' after 0.82518032348s
[INFO -- 2018-09-26 09:54:55]
sending 5 signals using command: 'killall -2 smith_waterman' after 1.84014608478s
[INFO -- 2018-09-26 09:55:00]
Execution finished before waitTime
