[INFO -- 2018-09-24 15:39:29]
Starting flip_value script
version: 1.1
[INFO -- 2018-09-24 15:39:29]
Initialization strings:
[INFO -- 2018-09-24 15:39:29]
(1) file /tmp/smith_waterman/smith_waterman
[INFO -- 2018-09-24 15:39:29]
(2) set args -x /tmp/smith_waterman/randInputX -y /tmp/smith_waterman/randInputY -o /tmp/smith_waterman/output
[INFO -- 2018-09-24 15:39:29]
initSignal:0
[INFO -- 2018-09-24 15:39:29]
endSignal:2
[INFO -- 2018-09-24 15:39:29]
faultModel:1
[INFO -- 2018-09-24 15:39:29]
Backtrace BEGIN:
#0  0x0000555555554f05 in smith_waterman (x_num=15000, y_num=13050, str_x=0x5555557586c0 "POUGBBTKUDSLRHKHGTCONFQYUKVFYVNPKKVLNQVJTPVMWFVCAXTNDJLXTJCTESIQCDCRVZAQRVFNCASDYLQDWEARNFKTXSKBXOSSNSIEQNUSQMVOXMRVSTMFYYAXQKYPYSHOLRSBHOTXARNZFGUXZIEAGEXYPYNNQWBDQWEXKAWNRLOWRJVQTZQADQASOOIGMLKCJOBU"..., str_y=0x55555575c170 "OUGBBBKKUDSRRHHHTTOOFQQYKVFYVNPKKKLLQQJTTPVWFFVAAXNNDJXTTCCTEIIQCDRRVAAQRFNNASSYYLQWWERRNFTTSSBBOSSSNSIEQNUQQVVOMRRSSTFFYAAXQYPYSSHORRBBHOXAANNFGUXZIIEAEXXYYYNNWWBQQWEKKWNNLLWRJVQTZZQADQSSOOIMLLKCOBBU"..., fo=0x555555758260) at smith_waterman.c:89
#1  0x0000555555555e38 in main (argc=7, argv=0x7fffffffdcb8) at smith_waterman.c:298

84	    for(i=1; i<x_num+1; i++){
85	        matrix[i]=matrix[0]+(y_num+1)*i;
86	    }
87	
88	    long j;
89	    for(i=0; i<x_num+1; i++){matrix[i][0]=0.0;}
90	    for(i=0; i<y_num+1; i++){matrix[0][i]=0.0;}
91	
92	    double diff=0.0;
93	    double max_score=0.0;

Backtrace END
Memory content before bitflip:0x000x000x000x000x000x000x000x00
Fault Model: Double bit-flip
base address to flip value: 0x7fffffffda98
address max offset: 8
Memory content after  bitflip:0x000x000x000x000x060x000x000x00
frame name: smith_waterman
symbol name: j
symbol filename: smith_waterman.c
symbol line: 88
value: 25769803776
value address: 0x7fffffffda98
Type: The type is an integer type.
Type sizeof: 8

[INFO -- 2018-09-24 15:39:29]
Fault Injection Successful after 0.5891070365905762s
[INFO -- 2018-09-24 15:39:34]
event type: exit
[INFO -- 2018-09-24 15:39:34]
exit code: 0
