[INFO -- 2018-12-04 00:15:23]
Starting GDB script
[INFO -- 2018-12-04 00:15:23]
initSignal:0.0
[INFO -- 2018-12-04 00:15:23]
endSignal:6.0
[INFO -- 2018-12-04 00:15:26]
sending 5 signals using command: 'killall -2 smith_waterman' after 2.66294035515s
[INFO -- 2018-12-04 00:15:26]
sending 5 signals using command: 'killall -2 smith_waterman' after 3.30615202418s
[INFO -- 2018-12-04 00:15:28]
sending 5 signals using command: 'killall -2 smith_waterman' after 5.59249748164s
[INFO -- 2018-12-04 00:15:30]
Execution finished before waitTime
