[INFO -- 2018-09-27 18:21:05]
Starting GDB script
[INFO -- 2018-09-27 18:21:05]
initSignal:0.0
[INFO -- 2018-09-27 18:21:05]
endSignal:2.0
[INFO -- 2018-09-27 18:21:06]
sending 5 signals using command: 'killall -2 smith_waterman' after 0.651162874174s
[INFO -- 2018-09-27 18:21:07]
sending 5 signals using command: 'killall -2 smith_waterman' after 1.71645281505s
[INFO -- 2018-09-27 18:21:07]
sending 5 signals using command: 'killall -2 smith_waterman' after 1.72304247892s
[INFO -- 2018-09-27 18:21:11]
Execution finished before waitTime
