[INFO -- 2018-09-25 00:09:40]
Starting GDB script
[INFO -- 2018-09-25 00:09:40]
initSignal:0.0
[INFO -- 2018-09-25 00:09:40]
endSignal:2.0
[INFO -- 2018-09-25 00:09:40]
sending 5 signals using command: 'killall -2 smith_waterman' after 0.0231932113141s
[INFO -- 2018-09-25 00:09:40]
sending 5 signals using command: 'killall -2 smith_waterman' after 0.193431930109s
[INFO -- 2018-09-25 00:09:41]
Execution finished before waitTime
