[INFO -- 2018-12-04 04:01:30]
Starting GDB script
[INFO -- 2018-12-04 04:01:30]
initSignal:0.0
[INFO -- 2018-12-04 04:01:30]
endSignal:6.0
[INFO -- 2018-12-04 04:01:34]
sending 5 signals using command: 'killall -2 smith_waterman' after 3.55682797616s
[INFO -- 2018-12-04 04:01:34]
sending 5 signals using command: 'killall -2 smith_waterman' after 3.87139196441s
[INFO -- 2018-12-04 04:01:36]
sending 5 signals using command: 'killall -2 smith_waterman' after 5.80069593735s
[INFO -- 2018-12-04 04:01:36]
Execution finished before waitTime
