[INFO -- 2018-09-23 10:54:07]
Starting GDB script
[INFO -- 2018-09-23 10:54:07]
initSignal:0.0
[INFO -- 2018-09-23 10:54:07]
endSignal:2.0
[INFO -- 2018-09-23 10:54:07]
sending 5 signals using command: 'killall -2 smith_waterman' after 0.0700425106827s
[INFO -- 2018-09-23 10:54:07]
sending 5 signals using command: 'killall -2 smith_waterman' after 0.364327118811s
[INFO -- 2018-09-23 10:54:08]
sending 5 signals using command: 'killall -2 smith_waterman' after 1.35522056139s
[INFO -- 2018-09-23 10:54:13]
Execution finished before waitTime
