[INFO -- 2018-12-04 02:14:02]
Starting GDB script
[INFO -- 2018-12-04 02:14:02]
initSignal:0.0
[INFO -- 2018-12-04 02:14:02]
endSignal:6.0
[INFO -- 2018-12-04 02:14:04]
sending 5 signals using command: 'killall -2 smith_waterman' after 1.90858269343s
[INFO -- 2018-12-04 02:14:04]
sending 5 signals using command: 'killall -2 smith_waterman' after 1.94158807242s
[INFO -- 2018-12-04 02:14:07]
sending 5 signals using command: 'killall -2 smith_waterman' after 4.52496336022s
[INFO -- 2018-12-04 02:14:10]
Execution finished before waitTime
