[INFO -- 2018-09-28 03:30:47]
Starting flip_value script
version: 1.1
[INFO -- 2018-09-28 03:30:47]
Initialization strings:
[INFO -- 2018-09-28 03:30:47]
(1) file /tmp/smith_waterman/smith_waterman
[INFO -- 2018-09-28 03:30:47]
(2) set args -x /tmp/smith_waterman/randInputX -y /tmp/smith_waterman/randInputY -o /tmp/smith_waterman/output
[INFO -- 2018-09-28 03:30:47]
initSignal:0
[INFO -- 2018-09-28 03:30:47]
endSignal:2
[INFO -- 2018-09-28 03:30:47]
faultModel:0
[EXCEPTION -- 2018-09-28 03:30:47]
gdbException: Attempt to dereference a generic pointer.
[INFO -- 2018-09-28 03:30:47]
Backtrace BEGIN:
#0  0x00005555555550d7 in smith_waterman (x_num=15000, y_num=14850, str_x=0x5555557586c0 "LPGECVRAPYPIAVSYNQBHRQVBJKYWZTVLIDRKBIMQJBALYSJLIKVACQDODEKCXHPHLGTMRHEAKELIXWVHJSJLLNZORLSQTIZEOSSHZYHJEUTBTOLCJUPUHRIACASXKRDZLXGKVQVAMQDFHOJQJZKSSSVWUNUFHZGSXOFSGAUTTYYAOKQZLASDUPBQEXXLXDEUUJOALJTE"..., str_y=0x55555575c170 "LPGECVRAPYPIASSNNBBRRQBBKYYWZVVLIDRKBMMQJBALYSJIIKAACQDOEEKCHHPHLGTMRHEAEELIXWVHJSJLLNZOLSSTIIZEOSSZZYHJEUTBTLLCJUPUHRIACASXKDDZXXGKVVVAQQDHHJJQZZKSSSVWUNFFHZSSXOFSGATTTYYOOQQLLSSUPPBEEXXLXDEUUJOALJTE"..., fo=0x555555758260) at smith_waterman.c:98
#1  0x0000555555555e38 in main (argc=7, argv=0x7fffffffdcb8) at smith_waterman.c:298

93	    double max_score=0.0;
94	    for(i=1; i<x_num+1; i++){
95	        for(j=1; j<y_num+1; j++){
96	            if(str_x[i-1]==str_y[j-1]){diff=match_score;}
97	            else{diff=mismatch_score;}
98	            matrix[i][j]=my_maxof(matrix[i-1][j-1]+diff, matrix[i-1][j]+gap_score, matrix[i][j-1]+gap_score,0);
99	            if(matrix[i][j]>max_score)
100	                max_score=matrix[i][j];
101	        }
102	    }

Backtrace END
Fliping a bit of the pointer
Memory content before bitflip:0x600x820x750x550x550x550x000x00
Fault Model: Single bit-flip
base address to flip value: 0x7fffffffdbb8
address max offset: 8
Memory content after  bitflip:0x600x820x770x550x550x550x000x00
frame name: main
symbol name: fo
symbol filename: smith_waterman.c
symbol line: 278
value: 0x555555758260
value address: 0x7fffffffdbb8
Type: The type is a pointer.
Type sizeof: 8

[INFO -- 2018-09-28 03:30:47]
Fault Injection Successful after 0.6665115356445312s
[INFO -- 2018-09-28 03:30:53]
event type: exit
[EXCEPTION -- 2018-09-28 03:30:53]
exit code: no exit code available
