[INFO -- 2018-09-25 02:11:35]
Starting GDB script
[INFO -- 2018-09-25 02:11:35]
initSignal:0.0
[INFO -- 2018-09-25 02:11:35]
endSignal:2.0
[INFO -- 2018-09-25 02:11:36]
sending 5 signals using command: 'killall -2 smith_waterman' after 0.826377159139s
[INFO -- 2018-09-25 02:11:36]
sending 5 signals using command: 'killall -2 smith_waterman' after 0.874318171813s
[INFO -- 2018-09-25 02:11:37]
sending 5 signals using command: 'killall -2 smith_waterman' after 1.61353094329s
[INFO -- 2018-09-25 02:11:42]
Execution finished before waitTime
