[INFO -- 2018-12-05 07:36:56]
Starting GDB script
[INFO -- 2018-12-05 07:36:56]
initSignal:0.0
[INFO -- 2018-12-05 07:36:56]
endSignal:6.0
[INFO -- 2018-12-05 07:36:56]
sending 5 signals using command: 'killall -2 smith_waterman' after 0.485569499527s
[INFO -- 2018-12-05 07:36:58]
sending 5 signals using command: 'killall -2 smith_waterman' after 1.96266509585s
[INFO -- 2018-12-05 07:37:00]
sending 5 signals using command: 'killall -2 smith_waterman' after 4.28926233768s
[INFO -- 2018-12-05 07:37:02]
Execution finished before waitTime
