[INFO -- 2018-12-08 18:47:49]
sending 5 signals using command: 'killall -2 smith_waterman' after 3.99334962571s
[INFO -- 2018-12-08 18:47:49]
sending 5 signals using command: 'killall -2 smith_waterman' after 4.06760026517s
[INFO -- 2018-12-08 18:47:49]
Starting GDB script
[INFO -- 2018-12-08 18:47:49]
initSignal:0.0
[INFO -- 2018-12-08 18:47:49]
endSignal:6.0
[INFO -- 2018-12-08 18:47:54]
sending 5 signals using command: 'killall -2 smith_waterman' after 4.0704720046s
[INFO -- 2018-12-08 18:47:54]
sending 5 signals using command: 'killall -2 smith_waterman' after 4.96533226205s
[INFO -- 2018-12-08 18:47:55]
sending 5 signals using command: 'killall -2 smith_waterman' after 5.81047540168s
[INFO -- 2018-12-08 18:47:58]
Execution finished before waitTime
