[INFO -- 2018-09-23 13:18:08]
Starting GDB script
[INFO -- 2018-09-23 13:18:08]
initSignal:0.0
[INFO -- 2018-09-23 13:18:08]
endSignal:2.0
[INFO -- 2018-09-23 13:18:08]
sending 5 signals using command: 'killall -2 smith_waterman' after 0.51475531985s
[INFO -- 2018-09-23 13:18:09]
sending 5 signals using command: 'killall -2 smith_waterman' after 1.15642239482s
[INFO -- 2018-09-23 13:18:09]
sending 5 signals using command: 'killall -2 smith_waterman' after 1.49907171215s
[INFO -- 2018-09-23 13:18:14]
Execution finished before waitTime
