[INFO -- 2018-12-05 12:17:08]
Starting GDB script
[INFO -- 2018-12-05 12:17:08]
initSignal:0.0
[INFO -- 2018-12-05 12:17:08]
endSignal:6.0
[INFO -- 2018-12-05 12:17:11]
sending 5 signals using command: 'killall -2 smith_waterman' after 2.50717285949s
[INFO -- 2018-12-05 12:17:11]
sending 5 signals using command: 'killall -2 smith_waterman' after 3.12904242905s
[INFO -- 2018-12-05 12:17:14]
sending 5 signals using command: 'killall -2 smith_waterman' after 5.19490421732s
[INFO -- 2018-12-05 12:17:15]
Execution finished before waitTime
