[INFO -- 2018-09-24 18:51:35]
Starting GDB script
[INFO -- 2018-09-24 18:51:35]
initSignal:0.0
[INFO -- 2018-09-24 18:51:35]
endSignal:2.0
[INFO -- 2018-09-24 18:51:35]
sending 5 signals using command: 'killall -2 smith_waterman' after 0.127244009249s
[INFO -- 2018-09-24 18:51:36]
sending 5 signals using command: 'killall -2 smith_waterman' after 0.928861872249s
[INFO -- 2018-09-24 18:51:36]
Execution finished before waitTime
