[INFO -- 2018-09-27 01:56:51]
Starting GDB script
[INFO -- 2018-09-27 01:56:51]
initSignal:0.0
[INFO -- 2018-09-27 01:56:51]
endSignal:2.0
[INFO -- 2018-09-27 01:56:52]
sending 5 signals using command: 'killall -2 smith_waterman' after 0.407874354459s
[INFO -- 2018-09-27 01:56:52]
sending 5 signals using command: 'killall -2 smith_waterman' after 0.487697138118s
[INFO -- 2018-09-27 01:56:53]
sending 5 signals using command: 'killall -2 smith_waterman' after 1.55877549904s
[INFO -- 2018-09-27 01:57:11]
Execution did not finish before waitTime
