[INFO -- 2018-12-08 09:41:44]
Starting GDB script
[INFO -- 2018-12-08 09:41:44]
initSignal:0.0
[INFO -- 2018-12-08 09:41:44]
endSignal:6.0
[INFO -- 2018-12-08 09:41:45]
sending 5 signals using command: 'killall -2 smith_waterman' after 0.687137046593s
[INFO -- 2018-12-08 09:41:45]
Execution finished before waitTime
