[INFO -- 2018-12-04 06:50:22]
Starting GDB script
[INFO -- 2018-12-04 06:50:22]
initSignal:0.0
[INFO -- 2018-12-04 06:50:22]
endSignal:6.0
[INFO -- 2018-12-04 06:50:22]
sending 5 signals using command: 'killall -2 smith_waterman' after 0.614810078304s
[INFO -- 2018-12-04 06:50:22]
sending 5 signals using command: 'killall -2 smith_waterman' after 0.758512306757s
[INFO -- 2018-12-04 06:50:23]
sending 5 signals using command: 'killall -2 smith_waterman' after 1.94688195157s
[INFO -- 2018-12-04 06:50:28]
Execution finished before waitTime
