[INFO -- 2018-09-25 18:23:06]
Starting GDB script
[INFO -- 2018-09-25 18:23:06]
initSignal:0.0
[INFO -- 2018-09-25 18:23:06]
endSignal:2.0
[INFO -- 2018-09-25 18:23:07]
sending 5 signals using command: 'killall -2 smith_waterman' after 1.12644009182s
[INFO -- 2018-09-25 18:23:07]
sending 5 signals using command: 'killall -2 smith_waterman' after 1.26363124717s
[INFO -- 2018-09-25 18:23:07]
sending 5 signals using command: 'killall -2 smith_waterman' after 1.33841093929s
[INFO -- 2018-09-25 18:23:26]
Execution did not finish before waitTime
