[INFO -- 2018-12-04 07:40:53]
Starting GDB script
[INFO -- 2018-12-04 07:40:53]
initSignal:0.0
[INFO -- 2018-12-04 07:40:53]
endSignal:6.0
[INFO -- 2018-12-04 07:40:53]
sending 5 signals using command: 'killall -2 smith_waterman' after 0.329844004502s
[INFO -- 2018-12-04 07:40:56]
sending 5 signals using command: 'killall -2 smith_waterman' after 3.52109235701s
[INFO -- 2018-12-04 07:40:57]
sending 5 signals using command: 'killall -2 smith_waterman' after 4.32491867287s
[INFO -- 2018-12-04 07:40:59]
Execution finished before waitTime
