[INFO -- 2018-11-09 00:36:34]
sending 5 signals using command: 'killall -2 smith_waterman' after 3.37497484331s
[INFO -- 2018-11-09 00:36:34]
Starting GDB script
[INFO -- 2018-11-09 00:36:34]
initSignal:0.0
[INFO -- 2018-11-09 00:36:34]
endSignal:6.0
[INFO -- 2018-11-09 00:36:34]
sending 5 signals using command: 'killall -2 smith_waterman' after 0.220348300416s
[INFO -- 2018-11-09 00:36:37]
sending 5 signals using command: 'killall -2 smith_waterman' after 2.9825809085s
[INFO -- 2018-11-09 00:36:37]
Execution finished before waitTime
