[INFO -- 2018-09-25 19:00:43]
Starting GDB script
[INFO -- 2018-09-25 19:00:43]
initSignal:0.0
[INFO -- 2018-09-25 19:00:43]
endSignal:2.0
[INFO -- 2018-09-25 19:00:44]
sending 5 signals using command: 'killall -2 smith_waterman' after 0.926926712308s
[INFO -- 2018-09-25 19:00:45]
sending 5 signals using command: 'killall -2 smith_waterman' after 1.69515135487s
[INFO -- 2018-09-25 19:00:45]
sending 5 signals using command: 'killall -2 smith_waterman' after 1.81619373911s
[INFO -- 2018-09-25 19:00:50]
Execution finished before waitTime
