[INFO -- 2018-09-24 19:23:52]
Starting GDB script
[INFO -- 2018-09-24 19:23:52]
initSignal:0.0
[INFO -- 2018-09-24 19:23:52]
endSignal:2.0
[INFO -- 2018-09-24 19:23:53]
sending 5 signals using command: 'killall -2 smith_waterman' after 0.825788140907s
[INFO -- 2018-09-24 19:23:53]
sending 5 signals using command: 'killall -2 smith_waterman' after 0.93325256082s
[INFO -- 2018-09-24 19:23:54]
sending 5 signals using command: 'killall -2 smith_waterman' after 1.88418830099s
[INFO -- 2018-09-24 19:24:12]
Execution did not finish before waitTime
