[INFO -- 2018-12-08 10:44:54]
Starting GDB script
[INFO -- 2018-12-08 10:44:54]
initSignal:0.0
[INFO -- 2018-12-08 10:44:54]
endSignal:6.0
[INFO -- 2018-12-08 10:44:58]
sending 5 signals using command: 'killall -2 smith_waterman' after 4.01884837656s
[INFO -- 2018-12-08 10:44:58]
sending 5 signals using command: 'killall -2 smith_waterman' after 4.2987565032s
[INFO -- 2018-12-08 10:44:59]
sending 5 signals using command: 'killall -2 smith_waterman' after 4.83744031459s
[INFO -- 2018-12-08 10:44:59]
Execution finished before waitTime
