[INFO -- 2018-12-05 18:29:20]
Starting GDB script
[INFO -- 2018-12-05 18:29:20]
initSignal:0.0
[INFO -- 2018-12-05 18:29:20]
endSignal:6.0
[INFO -- 2018-12-05 18:29:20]
sending 5 signals using command: 'killall -2 smith_waterman' after 0.0780906585131s
[INFO -- 2018-12-05 18:29:21]
sending 5 signals using command: 'killall -2 smith_waterman' after 1.25541392443s
[INFO -- 2018-12-05 18:29:23]
sending 5 signals using command: 'killall -2 smith_waterman' after 2.96771364405s
[INFO -- 2018-12-05 18:29:26]
Execution finished before waitTime
