[INFO -- 2018-12-08 07:32:19]
Starting GDB script
[INFO -- 2018-12-08 07:32:19]
initSignal:0.0
[INFO -- 2018-12-08 07:32:19]
endSignal:6.0
[INFO -- 2018-12-08 07:32:20]
sending 5 signals using command: 'killall -2 smith_waterman' after 1.77190670607s
[INFO -- 2018-12-08 07:32:22]
sending 5 signals using command: 'killall -2 smith_waterman' after 3.22239123825s
[INFO -- 2018-12-08 07:32:23]
sending 5 signals using command: 'killall -2 smith_waterman' after 4.66511713825s
[INFO -- 2018-12-08 07:32:27]
Execution finished before waitTime
