[INFO -- 2018-09-23 20:12:52]
Starting GDB script
[INFO -- 2018-09-23 20:12:52]
initSignal:0.0
[INFO -- 2018-09-23 20:12:52]
endSignal:2.0
[INFO -- 2018-09-23 20:12:53]
sending 5 signals using command: 'killall -2 smith_waterman' after 0.686217222285s
[INFO -- 2018-09-23 20:12:53]
sending 5 signals using command: 'killall -2 smith_waterman' after 1.14406967256s
[INFO -- 2018-09-23 20:12:54]
sending 5 signals using command: 'killall -2 smith_waterman' after 1.6162600452s
[INFO -- 2018-09-23 20:12:59]
Execution finished before waitTime
