[INFO -- 2018-12-09 13:23:03]
Starting GDB script
[INFO -- 2018-12-09 13:23:03]
initSignal:0.0
[INFO -- 2018-12-09 13:23:03]
endSignal:6.0
[INFO -- 2018-12-09 13:23:03]
sending 5 signals using command: 'killall -2 smith_waterman' after 0.476408182851s
[INFO -- 2018-12-09 13:23:05]
sending 5 signals using command: 'killall -2 smith_waterman' after 1.8248022839s
[INFO -- 2018-12-09 13:23:07]
sending 5 signals using command: 'killall -2 smith_waterman' after 4.68359980544s
[INFO -- 2018-12-09 13:23:11]
Execution finished before waitTime
