[INFO -- 2018-09-26 13:04:07]
Starting GDB script
[INFO -- 2018-09-26 13:04:07]
initSignal:0.0
[INFO -- 2018-09-26 13:04:07]
endSignal:2.0
[INFO -- 2018-09-26 13:04:07]
sending 5 signals using command: 'killall -2 smith_waterman' after 0.286456255127s
[INFO -- 2018-09-26 13:04:07]
sending 5 signals using command: 'killall -2 smith_waterman' after 0.531072896985s
[INFO -- 2018-09-26 13:04:08]
sending 5 signals using command: 'killall -2 smith_waterman' after 1.07699579077s
[INFO -- 2018-09-26 13:04:13]
Execution finished before waitTime
