[INFO -- 2018-09-28 02:20:22]
Starting flip_value script
version: 1.1
[INFO -- 2018-09-28 02:20:22]
Initialization strings:
[INFO -- 2018-09-28 02:20:22]
(1) file /tmp/smith_waterman/smith_waterman
[INFO -- 2018-09-28 02:20:22]
(2) set args -x /tmp/smith_waterman/randInputX -y /tmp/smith_waterman/randInputY -o /tmp/smith_waterman/output
[INFO -- 2018-09-28 02:20:22]
initSignal:0
[INFO -- 2018-09-28 02:20:22]
endSignal:2
[INFO -- 2018-09-28 02:20:22]
faultModel:2
[INFO -- 2018-09-28 02:20:22]
Backtrace BEGIN:
#0  0x0000555555555038 in smith_waterman (x_num=15000, y_num=14850, str_x=0x5555557586c0 "LPGECVRAPYPIAVSYNQBHRQVBJKYWZTVLIDRKBIMQJBALYSJLIKVACQDODEKCXHPHLGTMRHEAKELIXWVHJSJLLNZORLSQTIZEOSSHZYHJEUTBTOLCJUPUHRIACASXKRDZLXGKVQVAMQDFHOJQJZKSSSVWUNUFHZGSXOFSGAUTTYYAOKQZLASDUPBQEXXLXDEUUJOALJTE"..., str_y=0x55555575c170 "LPGECVRAPYPIASSNNBBRRQBBKYYWZVVLIDRKBMMQJBALYSJIIKAACQDOEEKCHHPHLGTMRHEAEELIXWVHJSJLLNZOLSSTIIZEOSSZZYHJEUTBTLLCJUPUHRIACASXKDDZXXGKVVVAQQDHHJJQZZKSSSVWUNFFHZSSXOFSGATTTYYOOQQLLSSUPPBEEXXLXDEUUJOALJTE"..., fo=0x555555758260) at smith_waterman.c:98
#1  0x0000555555555e38 in main (argc=7, argv=0x7fffffffdcb8) at smith_waterman.c:298

93	    double max_score=0.0;
94	    for(i=1; i<x_num+1; i++){
95	        for(j=1; j<y_num+1; j++){
96	            if(str_x[i-1]==str_y[j-1]){diff=match_score;}
97	            else{diff=mismatch_score;}
98	            matrix[i][j]=my_maxof(matrix[i-1][j-1]+diff, matrix[i-1][j]+gap_score, matrix[i][j-1]+gap_score,0);
99	            if(matrix[i][j]>max_score)
100	                max_score=matrix[i][j];
101	        }
102	    }

Backtrace END
Fliping a bit of the pointer
Memory content before bitflip:0xc00x860x750x550x550x550x000x00
Fault Model: Random bit-flip
base address to flip value: 0x7fffffffdba8
address max offset: 8
Memory content after  bitflip:0xd60xf80xeb0x6e0x5c0x870x7d0x09
frame name: main
symbol name: str_x
symbol filename: smith_waterman.c
symbol line: 285
value: 0x5555557586c0 "LPGECVRAPYPIAVSYNQBHRQVBJKYWZTVLIDRKBIMQJBALYSJLIKVACQDODEKCXHPHLGTMRHEAKELIXWVHJSJLLNZORLSQTIZEOSSHZYHJEUTBTOLCJUPUHRIACASXKRDZLXGKVQVAMQDFHOJQJZKSSSVWUNUFHZGSXOFSGAUTTYYAOKQZLASDUPBQEXXLXDEUUJOALJTE"...
value address: 0x7fffffffdba8
Type: The type is a pointer.
Type sizeof: 8

[INFO -- 2018-09-28 02:20:22]
Fault Injection Successful after 0.8458020687103271s
[INFO -- 2018-09-28 02:20:28]
event type: exit
[EXCEPTION -- 2018-09-28 02:20:28]
exit code: no exit code available
