[INFO -- 2018-09-24 13:22:16]
Starting GDB script
[INFO -- 2018-09-24 13:22:16]
initSignal:0.0
[INFO -- 2018-09-24 13:22:16]
endSignal:2.0
[INFO -- 2018-09-24 13:22:17]
sending 5 signals using command: 'killall -2 smith_waterman' after 1.44735661064s
[INFO -- 2018-09-24 13:22:18]
sending 5 signals using command: 'killall -2 smith_waterman' after 1.61164354813s
[INFO -- 2018-09-24 13:22:18]
sending 5 signals using command: 'killall -2 smith_waterman' after 1.6275331032s
[INFO -- 2018-09-24 13:22:22]
Execution finished before waitTime
