[INFO -- 2018-09-26 17:51:53]
Starting GDB script
[INFO -- 2018-09-26 17:51:53]
initSignal:0.0
[INFO -- 2018-09-26 17:51:53]
endSignal:2.0
[INFO -- 2018-09-26 17:51:53]
sending 5 signals using command: 'killall -2 smith_waterman' after 0.235875162423s
[INFO -- 2018-09-26 17:51:54]
sending 5 signals using command: 'killall -2 smith_waterman' after 1.03023869972s
[INFO -- 2018-09-26 17:51:54]
sending 5 signals using command: 'killall -2 smith_waterman' after 1.47306081745s
[INFO -- 2018-09-26 17:51:58]
Execution finished before waitTime
