[INFO -- 2018-12-08 17:26:25]
sending 5 signals using command: 'killall -2 smith_waterman' after 4.399719305s
[INFO -- 2018-12-08 17:26:27]
sending 5 signals using command: 'killall -2 smith_waterman' after 5.92234243812s
[INFO -- 2018-12-08 17:26:27]
Starting GDB script
[INFO -- 2018-12-08 17:26:27]
initSignal:0.0
[INFO -- 2018-12-08 17:26:27]
endSignal:6.0
[INFO -- 2018-12-08 17:26:28]
sending 5 signals using command: 'killall -2 smith_waterman' after 1.76520248438s
[INFO -- 2018-12-08 17:26:31]
sending 5 signals using command: 'killall -2 smith_waterman' after 4.35210009412s
[INFO -- 2018-12-08 17:26:31]
sending 5 signals using command: 'killall -2 smith_waterman' after 4.61355218575s
[INFO -- 2018-12-08 17:26:34]
Execution finished before waitTime
