[INFO -- 2018-09-24 23:00:15]
Starting flip_value script
version: 1.1
[INFO -- 2018-09-24 23:00:15]
Initialization strings:
[INFO -- 2018-09-24 23:00:15]
(1) file /tmp/smith_waterman/smith_waterman
[INFO -- 2018-09-24 23:00:15]
(2) set args -x /tmp/smith_waterman/randInputX -y /tmp/smith_waterman/randInputY -o /tmp/smith_waterman/output
[INFO -- 2018-09-24 23:00:15]
initSignal:0
[INFO -- 2018-09-24 23:00:15]
endSignal:2
[INFO -- 2018-09-24 23:00:15]
faultModel:0
[INFO -- 2018-09-24 23:00:16]
Backtrace BEGIN:
#0  0x0000555555554daf in my_maxof (a=0, b=-2, c=0, d=0) at smith_waterman.c:69
#1  0x00005555555550d7 in smith_waterman (x_num=10050, y_num=15000, str_x=0x5555557586c0 "SGCZCCCCNUWGCCRWKBBPPZQDLEEVVSTQYPDCNGRHHEYBRXXZAAQBLIEWOOUJJLKLJZOOOFWBFFIIWYYYEEQBRBOPPZILUMWTBKIIQQGVHHJUMUUHSKKKNYFTTFGCCRCUUPUHPPEEHHFFUUMMHAUUUZPPHVIAZFFVPPPEENCVVCIZZZEGZCTYEIELFFOLWWXLAVPPZUUD"..., str_y=0x55555575ae10 "SGCZBCVCNUWGRCRWKIBNPZFQDLEJVSTQAYPDCNGRHEYBGRXQZAEQBLIEWOQUJLKLJZPOOXFWBFZIWYAYAEQBRBHOPZIALUMWTBKIYQGBVHJUHMUHSMKKNTYFTIFGCRCXUPHUHPWEYHYFTUOMHAWUUWZPGHVIAZFVQPPXENCDVCIQZZEGZCCTYEIELFOLHWIXLAVPNZUK"..., fo=0x555555758260) at smith_waterman.c:98
#2  0x0000555555555e38 in main (argc=7, argv=0x7fffffffdcb8) at smith_waterman.c:298

64	    double ans=a;
65	    if(ans<b) ans=b;
66	    if(ans<c) ans=c;
67	    if(ans<d) ans=d;
68	    return ans;
69	}
70	
71	double matchMisScore(long i, long j, char* str_y, char* str_x)
72	{
73	    if (str_y[j] == str_x[i])

Backtrace END
Fliping a bit of the pointer
Memory content before bitflip:0x000xb20x950x4a0x4e0x9b0x9a0x69
Fault Model: Single bit-flip
base address to flip value: 0x7fffffffdac8
address max offset: 8
Memory content after  bitflip:0x000xb20x950x4a0x4e0x8b0x9a0x69
frame name: smith_waterman
symbol name: alignmentA
symbol filename: smith_waterman.c
symbol line: 133
value: 0x699a9b4e4a95b200 <error: Cannot access memory at address 0x699a9b4e4a95b200>
value address: 0x7fffffffdac8
Type: The type is a pointer.
Type sizeof: 8

[INFO -- 2018-09-24 23:00:16]
Fault Injection Successful after 1.5911295413970947s
[INFO -- 2018-09-24 23:00:20]
event type: exit
[INFO -- 2018-09-24 23:00:20]
exit code: 0
