[INFO -- 2018-12-09 08:06:16]
sending 5 signals using command: 'killall -2 smith_waterman' after 3.55132230461s
[INFO -- 2018-12-09 08:06:16]
sending 5 signals using command: 'killall -2 smith_waterman' after 3.78710873181s
[INFO -- 2018-12-09 08:06:16]
Starting GDB script
[INFO -- 2018-12-09 08:06:16]
initSignal:0.0
[INFO -- 2018-12-09 08:06:16]
endSignal:6.0
[INFO -- 2018-12-09 08:06:17]
sending 5 signals using command: 'killall -2 smith_waterman' after 0.662980001411s
[INFO -- 2018-12-09 08:06:21]
sending 5 signals using command: 'killall -2 smith_waterman' after 4.6410321722s
[INFO -- 2018-12-09 08:06:22]
sending 5 signals using command: 'killall -2 smith_waterman' after 5.54665824802s
[INFO -- 2018-12-09 08:06:24]
Execution finished before waitTime
