[INFO -- 2018-09-24 23:34:40]
Starting GDB script
[INFO -- 2018-09-24 23:34:40]
initSignal:0.0
[INFO -- 2018-09-24 23:34:40]
endSignal:2.0
[INFO -- 2018-09-24 23:34:40]
sending 5 signals using command: 'killall -2 smith_waterman' after 0.0529315915912s
[INFO -- 2018-09-24 23:34:41]
sending 5 signals using command: 'killall -2 smith_waterman' after 0.303695793978s
[INFO -- 2018-09-24 23:34:41]
sending 5 signals using command: 'killall -2 smith_waterman' after 0.894117973653s
[INFO -- 2018-09-24 23:34:45]
Execution finished before waitTime
