[INFO -- 2018-12-03 16:07:59]
sending 5 signals using command: 'killall -2 smith_waterman' after 5.69287611573s
[INFO -- 2018-12-03 16:07:59]
Starting GDB script
[INFO -- 2018-12-03 16:07:59]
initSignal:0.0
[INFO -- 2018-12-03 16:07:59]
endSignal:6.0
[INFO -- 2018-12-03 16:07:59]
sending 5 signals using command: 'killall -2 smith_waterman' after 0.165127606112s
[INFO -- 2018-12-03 16:08:00]
sending 5 signals using command: 'killall -2 smith_waterman' after 1.2120206062s
[INFO -- 2018-12-03 16:08:04]
sending 5 signals using command: 'killall -2 smith_waterman' after 4.85203330136s
[INFO -- 2018-12-03 16:08:04]
Execution finished before waitTime
