[INFO -- 2018-12-09 01:56:56]
sending 5 signals using command: 'killall -2 smith_waterman' after 3.6307467968s
[INFO -- 2018-12-09 01:56:56]
sending 5 signals using command: 'killall -2 smith_waterman' after 4.00598588302s
[INFO -- 2018-12-09 01:56:57]
Starting GDB script
[INFO -- 2018-12-09 01:56:57]
initSignal:0.0
[INFO -- 2018-12-09 01:56:57]
endSignal:6.0
[INFO -- 2018-12-09 01:57:00]
sending 5 signals using command: 'killall -2 smith_waterman' after 3.38513646985s
[INFO -- 2018-12-09 01:57:00]
sending 5 signals using command: 'killall -2 smith_waterman' after 3.83762969799s
[INFO -- 2018-12-09 01:57:01]
sending 5 signals using command: 'killall -2 smith_waterman' after 4.70353975472s
[INFO -- 2018-12-09 01:57:03]
Execution finished before waitTime
