[INFO -- 2018-09-25 21:10:03]
Starting GDB script
[INFO -- 2018-09-25 21:10:03]
initSignal:0.0
[INFO -- 2018-09-25 21:10:03]
endSignal:2.0
[INFO -- 2018-09-25 21:10:03]
sending 5 signals using command: 'killall -2 smith_waterman' after 0.574434764048s
[INFO -- 2018-09-25 21:10:04]
sending 5 signals using command: 'killall -2 smith_waterman' after 1.20142928948s
[INFO -- 2018-09-25 21:10:04]
sending 5 signals using command: 'killall -2 smith_waterman' after 1.49541033175s
[INFO -- 2018-09-25 21:10:10]
Execution finished before waitTime
