[INFO -- 2018-09-26 15:09:18]
Starting GDB script
[INFO -- 2018-09-26 15:09:18]
initSignal:0.0
[INFO -- 2018-09-26 15:09:18]
endSignal:2.0
[INFO -- 2018-09-26 15:09:18]
sending 5 signals using command: 'killall -2 smith_waterman' after 0.0318210348666s
[INFO -- 2018-09-26 15:09:19]
sending 5 signals using command: 'killall -2 smith_waterman' after 0.730304270884s
[INFO -- 2018-09-26 15:09:20]
sending 5 signals using command: 'killall -2 smith_waterman' after 1.63673357034s
[INFO -- 2018-09-26 15:09:24]
Execution finished before waitTime
