[INFO -- 2018-11-08 23:28:15]
Starting GDB script
[INFO -- 2018-11-08 23:28:15]
initSignal:0.0
[INFO -- 2018-11-08 23:28:15]
endSignal:6.0
[INFO -- 2018-11-08 23:28:18]
Execution finished before waitTime
