[INFO -- 2018-12-08 03:44:26]
Starting GDB script
[INFO -- 2018-12-08 03:44:26]
initSignal:0.0
[INFO -- 2018-12-08 03:44:26]
endSignal:6.0
[INFO -- 2018-12-08 03:44:26]
sending 5 signals using command: 'killall -2 smith_waterman' after 0.171548667892s
[INFO -- 2018-12-08 03:44:31]
sending 5 signals using command: 'killall -2 smith_waterman' after 4.94028295784s
[INFO -- 2018-12-08 03:44:31]
sending 5 signals using command: 'killall -2 smith_waterman' after 4.96335384802s
[INFO -- 2018-12-08 03:44:33]
Execution finished before waitTime
