[INFO -- 2018-12-08 23:52:08]
Starting GDB script
[INFO -- 2018-12-08 23:52:08]
initSignal:0.0
[INFO -- 2018-12-08 23:52:08]
endSignal:6.0
[INFO -- 2018-12-08 23:52:09]
sending 5 signals using command: 'killall -2 smith_waterman' after 0.578534711694s
[INFO -- 2018-12-08 23:52:10]
sending 5 signals using command: 'killall -2 smith_waterman' after 2.00278009035s
[INFO -- 2018-12-08 23:52:13]
sending 5 signals using command: 'killall -2 smith_waterman' after 5.29824435865s
[INFO -- 2018-12-08 23:52:15]
Execution finished before waitTime
