[INFO -- 2018-09-27 11:04:11]
Starting GDB script
[INFO -- 2018-09-27 11:04:11]
initSignal:0.0
[INFO -- 2018-09-27 11:04:11]
endSignal:2.0
[INFO -- 2018-09-27 11:04:12]
sending 5 signals using command: 'killall -2 smith_waterman' after 0.956841862848s
[INFO -- 2018-09-27 11:04:13]
sending 5 signals using command: 'killall -2 smith_waterman' after 1.83825643727s
[INFO -- 2018-09-27 11:04:13]
sending 5 signals using command: 'killall -2 smith_waterman' after 1.99772717959s
[INFO -- 2018-09-27 11:04:13]
Execution finished before waitTime
