[INFO -- 2018-09-26 10:57:29]
sending 5 signals using command: 'killall -2 smith_waterman' after 1.34868452941s
[INFO -- 2018-09-26 10:57:29]
Starting GDB script
[INFO -- 2018-09-26 10:57:29]
initSignal:0.0
[INFO -- 2018-09-26 10:57:29]
endSignal:2.0
[INFO -- 2018-09-26 10:57:30]
sending 5 signals using command: 'killall -2 smith_waterman' after 0.245272327576s
[INFO -- 2018-09-26 10:57:30]
sending 5 signals using command: 'killall -2 smith_waterman' after 0.900013036692s
[INFO -- 2018-09-26 10:57:30]
Execution finished before waitTime
