[INFO -- 2018-12-08 23:09:20]
Starting GDB script
[INFO -- 2018-12-08 23:09:20]
initSignal:0.0
[INFO -- 2018-12-08 23:09:20]
endSignal:6.0
[INFO -- 2018-12-08 23:09:20]
sending 5 signals using command: 'killall -2 smith_waterman' after 0.26718573916s
[INFO -- 2018-12-08 23:09:22]
sending 5 signals using command: 'killall -2 smith_waterman' after 2.20606282942s
[INFO -- 2018-12-08 23:09:23]
sending 5 signals using command: 'killall -2 smith_waterman' after 3.33165861801s
[INFO -- 2018-12-08 23:09:26]
Execution finished before waitTime
