[INFO -- 2018-12-09 07:38:58]
Starting GDB script
[INFO -- 2018-12-09 07:38:58]
initSignal:0.0
[INFO -- 2018-12-09 07:38:58]
endSignal:6.0
[INFO -- 2018-12-09 07:38:58]
sending 5 signals using command: 'killall -2 smith_waterman' after 0.0584848408874s
[INFO -- 2018-12-09 07:39:03]
sending 5 signals using command: 'killall -2 smith_waterman' after 4.8004137854s
[INFO -- 2018-12-09 07:39:04]
sending 5 signals using command: 'killall -2 smith_waterman' after 5.48673257528s
[INFO -- 2018-12-09 07:39:06]
Execution finished before waitTime
