[INFO -- 2018-09-26 12:34:15]
Starting GDB script
[INFO -- 2018-09-26 12:34:15]
initSignal:0.0
[INFO -- 2018-09-26 12:34:15]
endSignal:2.0
[INFO -- 2018-09-26 12:34:16]
sending 5 signals using command: 'killall -2 smith_waterman' after 0.174893994438s
[INFO -- 2018-09-26 12:34:16]
sending 5 signals using command: 'killall -2 smith_waterman' after 0.669029231373s
[INFO -- 2018-09-26 12:34:17]
sending 5 signals using command: 'killall -2 smith_waterman' after 1.61126018932s
[INFO -- 2018-09-26 12:34:23]
Execution finished before waitTime
