[INFO -- 2018-12-04 07:10:10]
Starting GDB script
[INFO -- 2018-12-04 07:10:10]
initSignal:0.0
[INFO -- 2018-12-04 07:10:10]
endSignal:6.0
[INFO -- 2018-12-04 07:10:11]
sending 5 signals using command: 'killall -2 smith_waterman' after 0.374322908825s
[INFO -- 2018-12-04 07:10:13]
sending 5 signals using command: 'killall -2 smith_waterman' after 2.51470957161s
[INFO -- 2018-12-04 07:10:14]
sending 5 signals using command: 'killall -2 smith_waterman' after 3.5696961424s
[INFO -- 2018-12-04 07:10:16]
Execution finished before waitTime
