[INFO -- 2018-09-25 21:21:46]
Starting GDB script
[INFO -- 2018-09-25 21:21:46]
initSignal:0.0
[INFO -- 2018-09-25 21:21:46]
endSignal:2.0
[INFO -- 2018-09-25 21:21:47]
sending 5 signals using command: 'killall -2 smith_waterman' after 0.67923795786s
[INFO -- 2018-09-25 21:21:48]
sending 5 signals using command: 'killall -2 smith_waterman' after 1.47196222537s
[INFO -- 2018-09-25 21:21:48]
sending 5 signals using command: 'killall -2 smith_waterman' after 1.62473252336s
[INFO -- 2018-09-25 21:21:53]
Execution finished before waitTime
