[INFO -- 2018-12-08 11:20:57]
Starting GDB script
[INFO -- 2018-12-08 11:20:57]
initSignal:0.0
[INFO -- 2018-12-08 11:20:57]
endSignal:6.0
[INFO -- 2018-12-08 11:20:59]
sending 5 signals using command: 'killall -2 smith_waterman' after 2.51629968226s
[INFO -- 2018-12-08 11:21:01]
sending 5 signals using command: 'killall -2 smith_waterman' after 4.65464959996s
[INFO -- 2018-12-08 11:21:02]
sending 5 signals using command: 'killall -2 smith_waterman' after 4.98926900106s
[INFO -- 2018-12-08 11:21:05]
Execution finished before waitTime
