[INFO -- 2018-09-27 17:07:41]
Starting GDB script
[INFO -- 2018-09-27 17:07:41]
initSignal:0.0
[INFO -- 2018-09-27 17:07:41]
endSignal:2.0
[INFO -- 2018-09-27 17:07:41]
sending 5 signals using command: 'killall -2 smith_waterman' after 0.747191888386s
[INFO -- 2018-09-27 17:07:42]
sending 5 signals using command: 'killall -2 smith_waterman' after 0.976404103949s
[INFO -- 2018-09-27 17:07:42]
sending 5 signals using command: 'killall -2 smith_waterman' after 1.09468914079s
[INFO -- 2018-09-27 17:07:47]
Execution finished before waitTime
