[INFO -- 2018-12-09 11:55:44]
Starting GDB script
[INFO -- 2018-12-09 11:55:44]
initSignal:0.0
[INFO -- 2018-12-09 11:55:44]
endSignal:6.0
[INFO -- 2018-12-09 11:55:46]
sending 5 signals using command: 'killall -2 smith_waterman' after 2.24538606479s
[INFO -- 2018-12-09 11:55:47]
Execution finished before waitTime
