[INFO -- 2018-09-25 19:44:17]
Starting flip_value script
version: 1.1
[INFO -- 2018-09-25 19:44:17]
Initialization strings:
[INFO -- 2018-09-25 19:44:17]
(1) file /tmp/smith_waterman/smith_waterman
[INFO -- 2018-09-25 19:44:17]
(2) set args -x /tmp/smith_waterman/randInputX -y /tmp/smith_waterman/randInputY -o /tmp/smith_waterman/output
[INFO -- 2018-09-25 19:44:17]
initSignal:0
[INFO -- 2018-09-25 19:44:17]
endSignal:2
[INFO -- 2018-09-25 19:44:17]
faultModel:2
[EXCEPTION -- 2018-09-25 19:44:17]
gdbException: Attempt to dereference a generic pointer.
[INFO -- 2018-09-25 19:44:17]
Backtrace BEGIN:
#0  dl_main (phdr=<optimized out>, phnum=<optimized out>, user_entry=<optimized out>, auxv=<optimized out>) at rtld.c:2289
#1  0x00007ffff7defdd0 in _dl_sysdep_start (start_argptr=start_argptr@entry=0x7fffffffdcb0, dl_main=dl_main@entry=0x7ffff7dd7660 <dl_main>) at ../elf/dl-sysdep.c:253
#2  0x00007ffff7dd7128 in _dl_start_final (arg=0x7fffffffdcb0) at rtld.c:414
#3  _dl_start (arg=0x7fffffffdcb0) at rtld.c:521
#4  0x00007ffff7dd6098 in _start () from /lib64/ld-linux-x86-64.so.2
#5  0x0000000000000007 in ?? ()
#6  0x00007fffffffe0aa in ?? ()
#7  0x00007fffffffe0cd in ?? ()
#8  0x00007fffffffe0d0 in ?? ()
#9  0x00007fffffffe0ef in ?? ()
#10 0x00007fffffffe0f2 in ?? ()
#11 0x00007fffffffe111 in ?? ()
#12 0x00007fffffffe114 in ?? ()
#13 0x0000000000000000 in ?? ()

2284	in rtld.c

Backtrace END
Fliping value of field: next
Fliping a bit of the pointer
Memory content before bitflip:0xe00xdf0xff0xf70xff0x7f0x000x00
Fault Model: Random bit-flip
base address to flip value: 0x7ffff7ffe038 
address max offset: 8
Memory content after  bitflip:0x350x0b0x410x6f0x6c0xd10x8d0xb9
frame name: dl_main
symbol name: _dl_rtld_libname
symbol filename: rtld.c
symbol line: 301
value: {name = 0x555555554238 "/lib64/ld-linux-x86-64.so.2", next = 0xb98dd16c6f410b35, dont_free = 0}
value address: 0x7ffff7ffe030 <_dl_rtld_libname>
Type: The type is a structure.
Type sizeof: 24
Field name: name
Field Type: The type is a pointer.
Field Type sizeof: 8
Field name: next
Field Type: The type is a pointer.
Field Type sizeof: 8
Field name: dont_free
Field Type: The type is an integer type.
Field Type sizeof: 4

[INFO -- 2018-09-25 19:44:17]
Fault Injection Successful after 0.2653203010559082s
[INFO -- 2018-09-25 19:44:23]
event type: exit
[INFO -- 2018-09-25 19:44:23]
exit code: 0
