[INFO -- 2018-09-26 20:06:57]
Starting flip_value script
version: 1.1
[INFO -- 2018-09-26 20:06:57]
Initialization strings:
[INFO -- 2018-09-26 20:06:57]
(1) file /tmp/smith_waterman/smith_waterman
[INFO -- 2018-09-26 20:06:57]
(2) set args -x /tmp/smith_waterman/randInputX -y /tmp/smith_waterman/randInputY -o /tmp/smith_waterman/output
[INFO -- 2018-09-26 20:06:57]
initSignal:0
[INFO -- 2018-09-26 20:06:57]
endSignal:2
[INFO -- 2018-09-26 20:06:57]
faultModel:2
[INFO -- 2018-09-26 20:06:57]
Backtrace BEGIN:
#0  0x0000555555555019 in smith_waterman (x_num=11250, y_num=15000, str_x=0x5555557586c0 "OXXECOEJZANNRNNBHHEKKGFPMQQUUEFFXJVVPPGMIZWZOOKVVGGLNZZQPKVVMANNLKWAAQJLXKYZIIWOOQZEEFFUCBBODDFAPPYRHEFUNFTYYROOGXMMCSSJJVRYXBBMMJUUPZZFFFDVVRRDPQUPPKAAMMAFJBXYDGSXUOCCNHHWABWWRQYBLLZAZZOLCJGGEETYJJZY"..., str_y=0x55555575b2c0 "JOXECOEJZTANNRNBIHEUKGFPCMQUUEAFTXJVLPGMIGZWZOZKVDGHLNZQZPKVUMANJLKWAQJLXKJYZIKWOQGZEFRFUCBQODFARPYRGHEFUNFTYQROGXPMCHSZJVRZYXBPMAJUHPZBFFWDVQRDPGQUPKVAFMAFJBXYDGSLXUOCZNHWFABWHRQYBLZIAZOLCLJGTETQYJVZ"..., fo=0x555555758260) at smith_waterman.c:98
#1  0x0000555555555e38 in main (argc=7, argv=0x7fffffffdcb8) at smith_waterman.c:298

93	    double max_score=0.0;
94	    for(i=1; i<x_num+1; i++){
95	        for(j=1; j<y_num+1; j++){
96	            if(str_x[i-1]==str_y[j-1]){diff=match_score;}
97	            else{diff=mismatch_score;}
98	            matrix[i][j]=my_maxof(matrix[i-1][j-1]+diff, matrix[i-1][j]+gap_score, matrix[i][j-1]+gap_score,0);
99	            if(matrix[i][j]>max_score)
100	                max_score=matrix[i][j];
101	        }
102	    }

Backtrace END
Memory content before bitflip:0x000x000x000x000x000x000x000x00
Fault Model: Random bit-flip
base address to flip value: 0x7fffffffdb10
address max offset: 8
Memory content after  bitflip:0xdf0xef0xce0x600x5c0x930x020xdb
frame name: smith_waterman
symbol name: scoreUp
symbol filename: smith_waterman.c
symbol line: 136
value: -2.5752040858286925e+130
value address: 0x7fffffffdb10
Type: A floating point type.
Type sizeof: 8

[INFO -- 2018-09-26 20:06:57]
Fault Injection Successful after 0.6376750469207764s
[INFO -- 2018-09-26 20:07:01]
event type: exit
[INFO -- 2018-09-26 20:07:01]
exit code: 0
