[INFO -- 2018-12-05 22:13:41]
sending 5 signals using command: 'killall -2 smith_waterman' after 3.45775444616s
[INFO -- 2018-12-05 22:13:42]
sending 5 signals using command: 'killall -2 smith_waterman' after 5.21261372157s
[INFO -- 2018-12-05 22:13:42]
Starting GDB script
[INFO -- 2018-12-05 22:13:42]
initSignal:0.0
[INFO -- 2018-12-05 22:13:42]
endSignal:6.0
[INFO -- 2018-12-05 22:13:43]
sending 5 signals using command: 'killall -2 smith_waterman' after 0.265462451661s
[INFO -- 2018-12-05 22:13:44]
sending 5 signals using command: 'killall -2 smith_waterman' after 1.23881685919s
[INFO -- 2018-12-05 22:13:47]
sending 5 signals using command: 'killall -2 smith_waterman' after 4.83852545863s
[INFO -- 2018-12-05 22:13:47]
Execution finished before waitTime
