[INFO -- 2018-11-08 21:30:06]
Starting flip_value script
version: 1.1
[INFO -- 2018-11-08 21:30:06]
Initialization strings:
[INFO -- 2018-11-08 21:30:06]
(1) file /tmp/smith_waterman/smith_waterman
[INFO -- 2018-11-08 21:30:06]
(2) set args -x /tmp/smith_waterman/randInputX -y /tmp/smith_waterman/randInputY -o /tmp/smith_waterman/output
[INFO -- 2018-11-08 21:30:06]
initSignal:0
[INFO -- 2018-11-08 21:30:06]
endSignal:6
[INFO -- 2018-11-08 21:30:06]
faultModel:2
[INFO -- 2018-11-08 21:30:07]
Backtrace BEGIN:
#0  my_maxof (a=-1, b=-2, c=-2, d=0) at smith_waterman.c:65
#1  0x00005555555550d7 in smith_waterman (x_num=15000, y_num=13650, str_x=0x5555557586c0 "NZPJOUKFYJFFHEGCNGKERGLVCNVICJIPKXAATKGSULXDPDFFLRJEYWZCJUMLGUCQUETNPZFLMCOEHVJSMSWMQVOZSBMAXOQRULFJKMWXRKDYHMTUGRGWPXVJAJJXXBRTNYDZKZYDMBCVNXPTOYRFXOOXXXWWBNQOLTPYUOBIPDEDCVYTVQYSEPRCOOYPBQFPJVNGJOOY"..., str_y=0x55555575c170 "ZZPOOKKYJJFFHGGCGGKERGVVCNIICIPPKXAAKGGUUXXDDDFFLRJEYZZJUUMLGUCQUTNPZZLLMCOEVVSSSSWMQVZZBBMXOOQUULJKKWWXRKYYMTTGGRGPPVVAAJJXXRRTYYDKKZYMMCVVNXPOORFFOOOXXXWWNNQOLPPYUBIIDEDDCVTVVQYSPRRCOOYPQFFJVNGGJOYY"..., fo=0x555555758260) at smith_waterman.c:98
#2  0x0000555555555e38 in main (argc=7, argv=0x7fffffffde98) at smith_waterman.c:298

60	}
61	
62	double my_maxof(double a, double b, double c, double d)
63	{
64	    double ans=a;
65	    if(ans<b) ans=b;
66	    if(ans<c) ans=c;
67	    if(ans<d) ans=d;
68	    return ans;
69	}

Backtrace END
Fliping a bit of the pointer
Memory content before bitflip:0x000xad0x630x460xa90x480x660xd6
Fault Model: Random bit-flip
base address to flip value: 0x7fffffffdca8
address max offset: 8
Memory content after  bitflip:0x0f0x3a0x940xd10x000x580x7f0x58
frame name: smith_waterman
symbol name: alignmentA
symbol filename: smith_waterman.c
symbol line: 133
value: 0xd66648a94663ad00 <error: Cannot access memory at address 0xd66648a94663ad00>
value address: 0x7fffffffdca8
Type: The type is a pointer.
Type sizeof: 8

[INFO -- 2018-11-08 21:30:07]
Fault Injection Successful after 1.9368464946746826s
[INFO -- 2018-11-08 21:30:09]
event type: exit
[INFO -- 2018-11-08 21:30:09]
exit code: 0
