[INFO -- 2018-12-05 20:50:03]
Starting GDB script
[INFO -- 2018-12-05 20:50:03]
initSignal:0.0
[INFO -- 2018-12-05 20:50:03]
endSignal:6.0
[INFO -- 2018-12-05 20:50:05]
sending 5 signals using command: 'killall -2 smith_waterman' after 2.88345966957s
[INFO -- 2018-12-05 20:50:08]
Execution finished before waitTime
