[INFO -- 2018-12-08 04:43:18]
Starting GDB script
[INFO -- 2018-12-08 04:43:18]
initSignal:0.0
[INFO -- 2018-12-08 04:43:18]
endSignal:6.0
[INFO -- 2018-12-08 04:43:21]
sending 5 signals using command: 'killall -2 smith_waterman' after 2.86519154989s
[INFO -- 2018-12-08 04:43:21]
sending 5 signals using command: 'killall -2 smith_waterman' after 3.11029383493s
[INFO -- 2018-12-08 04:43:22]
sending 5 signals using command: 'killall -2 smith_waterman' after 3.57245388154s
[INFO -- 2018-12-08 04:43:25]
Execution finished before waitTime
