[INFO -- 2018-12-04 10:16:03]
sending 5 signals using command: 'killall -2 smith_waterman' after 5.90564763702s
[INFO -- 2018-12-04 10:16:03]
Starting GDB script
[INFO -- 2018-12-04 10:16:03]
initSignal:0.0
[INFO -- 2018-12-04 10:16:03]
endSignal:6.0
[INFO -- 2018-12-04 10:16:03]
sending 5 signals using command: 'killall -2 smith_waterman' after 0.053305423846s
[INFO -- 2018-12-04 10:16:06]
sending 5 signals using command: 'killall -2 smith_waterman' after 2.12720057405s
[INFO -- 2018-12-04 10:16:07]
sending 5 signals using command: 'killall -2 smith_waterman' after 3.28220506615s
[INFO -- 2018-12-04 10:16:08]
Execution finished before waitTime
