[INFO -- 2018-09-26 18:32:14]
Starting flip_value script
version: 1.1
[INFO -- 2018-09-26 18:32:14]
Initialization strings:
[INFO -- 2018-09-26 18:32:14]
(1) file /tmp/smith_waterman/smith_waterman
[INFO -- 2018-09-26 18:32:14]
(2) set args -x /tmp/smith_waterman/randInputX -y /tmp/smith_waterman/randInputY -o /tmp/smith_waterman/output
[INFO -- 2018-09-26 18:32:14]
initSignal:0
[INFO -- 2018-09-26 18:32:14]
endSignal:2
[INFO -- 2018-09-26 18:32:14]
faultModel:0
[INFO -- 2018-09-26 18:32:14]
Backtrace BEGIN:
#0  0x00005555555550dc in smith_waterman (x_num=15000, y_num=9900, str_x=0x5555557586c0 "JHTTCOVWKLWIIMZBCXJLTMDBVQUCNRAYYVTCJOAWZZEJLDMNCVAXIFZFVVHKNIKNDESNSSLURPDCUQRWLUTVZUCXQKHDUUSZYKOQDZMWOQBIIUGVQCRQWVNMFWRBQKBQUPHZPTYFLZOTVWPMYIEXDTJLPBOINPYHFHJWDHBQIRKDOBROLVLQOXDGASONHOWOYFMBMORU"..., str_y=0x55555575c170 "HTTTOVVKLLIIMMBCCJJTMMBVVUUCRAYYVTCJJOWWZZJJDMMCVAXXFFZFVHKNNKNNESNNSSURPDCCQQRWUUVZZCCXKKDDUSZYYOQQZZWWQQIIIGVQQRQWVNNMWRBQKBBQUPHPPTYLZZTVVPMYIEXXTJJPBOOIPYYHHJJDHBBQIRDOBRRLVLQQOXGGSSNHOOOYYFBMMRUH"..., fo=0x555555758260) at smith_waterman.c:98
#1  0x0000555555555e38 in main (argc=7, argv=0x7fffffffdcb8) at smith_waterman.c:298

93	    double max_score=0.0;
94	    for(i=1; i<x_num+1; i++){
95	        for(j=1; j<y_num+1; j++){
96	            if(str_x[i-1]==str_y[j-1]){diff=match_score;}
97	            else{diff=mismatch_score;}
98	            matrix[i][j]=my_maxof(matrix[i-1][j-1]+diff, matrix[i-1][j]+gap_score, matrix[i][j-1]+gap_score,0);
99	            if(matrix[i][j]>max_score)
100	                max_score=matrix[i][j];
101	        }
102	    }

Backtrace END
Fliping a bit of the value pointed by a pointer
Memory content before bitflip:0x77
Fault Model: Single bit-flip
base address to flip value: 0x55555555600f 
address max offset: 1
Memory content after  bitflip:0x7f
frame name: smith_waterman
symbol name: alignmentBcopy
symbol filename: smith_waterman.c
symbol line: 133
value: 0x55555555600f "\177"
value address: 0x7fffffffdaf8
Type: The type is a pointer.
Type sizeof: 8

[INFO -- 2018-09-26 18:32:14]
Fault Injection Successful after 0.2954134941101074s
[INFO -- 2018-09-26 18:32:18]
event type: exit
[INFO -- 2018-09-26 18:32:18]
exit code: 0
