[INFO -- 2018-12-05 19:13:53]
Starting GDB script
[INFO -- 2018-12-05 19:13:53]
initSignal:0.0
[INFO -- 2018-12-05 19:13:53]
endSignal:6.0
[INFO -- 2018-12-05 19:13:55]
sending 5 signals using command: 'killall -2 smith_waterman' after 1.57889975275s
[INFO -- 2018-12-05 19:13:56]
sending 5 signals using command: 'killall -2 smith_waterman' after 2.97024328554s
[INFO -- 2018-12-05 19:13:56]
sending 5 signals using command: 'killall -2 smith_waterman' after 3.29526137472s
[INFO -- 2018-12-05 19:13:59]
Execution finished before waitTime
