[INFO -- 2018-12-04 12:12:30]
Starting GDB script
[INFO -- 2018-12-04 12:12:30]
initSignal:0.0
[INFO -- 2018-12-04 12:12:30]
endSignal:6.0
[INFO -- 2018-12-04 12:12:32]
sending 5 signals using command: 'killall -2 smith_waterman' after 2.11006029224s
[INFO -- 2018-12-04 12:12:34]
sending 5 signals using command: 'killall -2 smith_waterman' after 4.34762424884s
[INFO -- 2018-12-04 12:12:35]
sending 5 signals using command: 'killall -2 smith_waterman' after 5.35939432276s
[INFO -- 2018-12-04 12:12:36]
Execution finished before waitTime
