[INFO -- 2018-11-08 23:22:04]
Starting flip_value script
version: 1.1
[INFO -- 2018-11-08 23:22:04]
Initialization strings:
[INFO -- 2018-11-08 23:22:04]
(1) file /tmp/smith_waterman/smith_waterman
[INFO -- 2018-11-08 23:22:04]
(2) set args -x /tmp/smith_waterman/randInputX -y /tmp/smith_waterman/randInputY -o /tmp/smith_waterman/output
[INFO -- 2018-11-08 23:22:04]
initSignal:0
[INFO -- 2018-11-08 23:22:04]
endSignal:6
[INFO -- 2018-11-08 23:22:04]
faultModel:0
[INFO -- 2018-11-08 23:22:05]
Backtrace BEGIN:
#0  0x0000555555554d9f in my_maxof (a=-1, b=-2, c=-2, d=0) at smith_waterman.c:67
#1  0x00005555555550d7 in smith_waterman (x_num=15000, y_num=13650, str_x=0x5555557586c0 "NZPJOUKFYJFFHEGCNGKERGLVCNVICJIPKXAATKGSULXDPDFFLRJEYWZCJUMLGUCQUETNPZFLMCOEHVJSMSWMQVOZSBMAXOQRULFJKMWXRKDYHMTUGRGWPXVJAJJXXBRTNYDZKZYDMBCVNXPTOYRFXOOXXXWWBNQOLTPYUOBIPDEDCVYTVQYSEPRCOOYPBQFPJVNGJOOY"..., str_y=0x55555575c170 "ZZPOOKKYJJFFHGGCGGKERGVVCNIICIPPKXAAKGGUUXXDDDFFLRJEYZZJUUMLGUCQUTNPZZLLMCOEVVSSSSWMQVZZBBMXOOQUULJKKWWXRKYYMTTGGRGPPVVAAJJXXRRTYYDKKZYMMCVVNXPOORFFOOOXXXWWNNQOLPPYUBIIDEDDCVTVVQYSPRRCOOYPQFFJVNGGJOYY"..., fo=0x555555758260) at smith_waterman.c:98
#2  0x0000555555555e38 in main (argc=7, argv=0x7fffffffde98) at smith_waterman.c:298

62	double my_maxof(double a, double b, double c, double d)
63	{
64	    double ans=a;
65	    if(ans<b) ans=b;
66	    if(ans<c) ans=c;
67	    if(ans<d) ans=d;
68	    return ans;
69	}
70	
71	double matchMisScore(long i, long j, char* str_y, char* str_x)

Backtrace END
Memory content before bitflip:0x000x000x000x000x000x000x000xc0
Fault Model: Single bit-flip
base address to flip value: 0x7fffffffdc10
address max offset: 8
Memory content after  bitflip:0x000x000x000x000x000x100x000xc0
frame name: my_maxof
symbol name: b
symbol filename: smith_waterman.c
symbol line: 62
value: -2.0078125
value address: 0x7fffffffdc10
Type: A floating point type.
Type sizeof: 8

[INFO -- 2018-11-08 23:22:05]
Fault Injection Successful after 1.4637534618377686s
[INFO -- 2018-11-08 23:22:07]
event type: exit
[INFO -- 2018-11-08 23:22:07]
exit code: 0
