[INFO -- 2018-12-08 04:16:26]
Starting GDB script
[INFO -- 2018-12-08 04:16:26]
initSignal:0.0
[INFO -- 2018-12-08 04:16:26]
endSignal:6.0
[INFO -- 2018-12-08 04:16:28]
sending 5 signals using command: 'killall -2 smith_waterman' after 1.36650264102s
[INFO -- 2018-12-08 04:16:28]
sending 5 signals using command: 'killall -2 smith_waterman' after 1.46379690066s
[INFO -- 2018-12-08 04:16:29]
sending 5 signals using command: 'killall -2 smith_waterman' after 2.97953887698s
[INFO -- 2018-12-08 04:16:34]
Execution finished before waitTime
