[INFO -- 2018-09-28 02:19:38]
Starting GDB script
[INFO -- 2018-09-28 02:19:38]
initSignal:0.0
[INFO -- 2018-09-28 02:19:38]
endSignal:2.0
[INFO -- 2018-09-28 02:19:38]
sending 5 signals using command: 'killall -2 smith_waterman' after 0.0361036846397s
[INFO -- 2018-09-28 02:19:38]
sending 5 signals using command: 'killall -2 smith_waterman' after 0.094819564071s
[INFO -- 2018-09-28 02:19:38]
sending 5 signals using command: 'killall -2 smith_waterman' after 0.500999240931s
[INFO -- 2018-09-28 02:19:39]
Execution finished before waitTime
