[INFO -- 2018-12-03 21:32:06]
sending 5 signals using command: 'killall -2 smith_waterman' after 5.56676569485s
[INFO -- 2018-12-03 21:32:06]
Starting GDB script
[INFO -- 2018-12-03 21:32:06]
initSignal:0.0
[INFO -- 2018-12-03 21:32:06]
endSignal:6.0
[INFO -- 2018-12-03 21:32:11]
sending 5 signals using command: 'killall -2 smith_waterman' after 4.54896918411s
[INFO -- 2018-12-03 21:32:11]
Execution finished before waitTime
