[INFO -- 2018-09-28 03:00:18]
Starting GDB script
[INFO -- 2018-09-28 03:00:18]
initSignal:0.0
[INFO -- 2018-09-28 03:00:18]
endSignal:2.0
[INFO -- 2018-09-28 03:00:18]
sending 5 signals using command: 'killall -2 smith_waterman' after 0.140771667354s
[INFO -- 2018-09-28 03:00:19]
sending 5 signals using command: 'killall -2 smith_waterman' after 1.3642472667s
[INFO -- 2018-09-28 03:00:20]
sending 5 signals using command: 'killall -2 smith_waterman' after 1.54275379322s
[INFO -- 2018-09-28 03:00:25]
Execution finished before waitTime
