[INFO -- 2018-09-27 10:14:24]
Starting flip_value script
version: 1.1
[INFO -- 2018-09-27 10:14:24]
Initialization strings:
[INFO -- 2018-09-27 10:14:24]
(1) file /tmp/smith_waterman/smith_waterman
[INFO -- 2018-09-27 10:14:24]
(2) set args -x /tmp/smith_waterman/randInputX -y /tmp/smith_waterman/randInputY -o /tmp/smith_waterman/output
[INFO -- 2018-09-27 10:14:24]
initSignal:0
[INFO -- 2018-09-27 10:14:24]
endSignal:2
[INFO -- 2018-09-27 10:14:24]
faultModel:2
[EXCEPTION -- 2018-09-27 10:14:24]
pythonException: invalid literal for int() with base 16: '0x5555557586c0 ...'
[INFO -- 2018-09-27 10:14:24]
Backtrace BEGIN:
#0  smith_waterman (x_num=11850, y_num=15000, str_x=0x5555557586c0 "DWCDDJGCCLXGDVVBUJOFHRBBXWUPXWNBRLLYNNGEYEBBNIFHTTNAMKEGYYAGQJJRHURMXXQIDKKNNRYGNNHYLLJFLNIIZBBTUUVDTNLXSNNFONAAAVZZJJTTVDUURFFKACNWQVIYYIMYYEPYZPHHHAAWGGSMMAEPCTSSGDDSQVGZXPYYPPFYHHOZNISAYYLSSFFMKKGC"..., str_y=0x55555575b520 "DWCIDJAGCLXGDHVBUJOFHRVBXWUPXWNBURLYCNGEYEMBNIFHTTNAMKEJGYAGWQJRHURMIXQIDDKQNRYGMNHYXLJFLJNIZWBJTUVDTNLXSXNFONMAAVAZGJFTVUDURGFKACNWQAVIYIQMYEPYZPAHBHAWBGSSMAEPCTLSUGDSQVGQZXPYPPFQYHOZNISAIYRLSCFMKKGC"..., fo=0x555555758260) at smith_waterman.c:95
#1  0x0000555555555e38 in main (argc=7, argv=0x7fffffffdcb8) at smith_waterman.c:298

90	    for(i=0; i<y_num+1; i++){matrix[0][i]=0.0;}
91	
92	    double diff=0.0;
93	    double max_score=0.0;
94	    for(i=1; i<x_num+1; i++){
95	        for(j=1; j<y_num+1; j++){
96	            if(str_x[i-1]==str_y[j-1]){diff=match_score;}
97	            else{diff=mismatch_score;}
98	            matrix[i][j]=my_maxof(matrix[i-1][j-1]+diff, matrix[i-1][j]+gap_score, matrix[i][j-1]+gap_score,0);
99	            if(matrix[i][j]>max_score)

Backtrace END
Memory content before bitflip:0x980x3a0x000x000x000x000x000x00
Fault Model: Random bit-flip
base address to flip value: 0x7fffffffdb80
address max offset: 8
Memory content after  bitflip:0xc40x000x6a0x900x500x810xa50xc5
frame name: main
symbol name: y_num
symbol filename: smith_waterman.c
symbol line: 281
value: -4204812494060257084
value address: 0x7fffffffdb80
Type: The type is an integer type.
Type sizeof: 8

[INFO -- 2018-09-27 10:14:24]
Fault Injection Successful after 0.6764907836914062s
[INFO -- 2018-09-27 10:14:29]
event type: exit
[INFO -- 2018-09-27 10:14:29]
exit code: 0
