[INFO -- 2018-09-27 13:10:46]
Starting GDB script
[INFO -- 2018-09-27 13:10:46]
initSignal:0.0
[INFO -- 2018-09-27 13:10:46]
endSignal:2.0
[INFO -- 2018-09-27 13:10:46]
sending 5 signals using command: 'killall -2 smith_waterman' after 0.50152677041s
[INFO -- 2018-09-27 13:10:47]
sending 5 signals using command: 'killall -2 smith_waterman' after 1.50128259816s
[INFO -- 2018-09-27 13:10:48]
sending 5 signals using command: 'killall -2 smith_waterman' after 1.54434861495s
[INFO -- 2018-09-27 13:10:53]
Execution finished before waitTime
