[INFO -- 2018-12-04 12:01:38]
Starting GDB script
[INFO -- 2018-12-04 12:01:38]
initSignal:0.0
[INFO -- 2018-12-04 12:01:38]
endSignal:6.0
[INFO -- 2018-12-04 12:01:41]
sending 5 signals using command: 'killall -2 smith_waterman' after 3.43288615121s
[INFO -- 2018-12-04 12:01:43]
sending 5 signals using command: 'killall -2 smith_waterman' after 4.9440693253s
[INFO -- 2018-12-04 12:01:43]
sending 5 signals using command: 'killall -2 smith_waterman' after 5.18837545748s
[INFO -- 2018-12-04 12:01:58]
Execution did not finish before waitTime
