[INFO -- 2018-09-26 15:33:38]
Starting GDB script
[INFO -- 2018-09-26 15:33:38]
initSignal:0.0
[INFO -- 2018-09-26 15:33:38]
endSignal:2.0
[INFO -- 2018-09-26 15:33:40]
sending 5 signals using command: 'killall -2 smith_waterman' after 1.59954043059s
[INFO -- 2018-09-26 15:33:40]
sending 5 signals using command: 'killall -2 smith_waterman' after 1.60520061452s
[INFO -- 2018-09-26 15:33:40]
sending 5 signals using command: 'killall -2 smith_waterman' after 1.96613349628s
[INFO -- 2018-09-26 15:33:45]
Execution finished before waitTime
