[INFO -- 2018-09-24 14:50:31]
Starting GDB script
[INFO -- 2018-09-24 14:50:31]
initSignal:0.0
[INFO -- 2018-09-24 14:50:31]
endSignal:2.0
[INFO -- 2018-09-24 14:50:31]
sending 5 signals using command: 'killall -2 smith_waterman' after 0.780717827458s
[INFO -- 2018-09-24 14:50:32]
sending 5 signals using command: 'killall -2 smith_waterman' after 1.25475552154s
[INFO -- 2018-09-24 14:50:33]
sending 5 signals using command: 'killall -2 smith_waterman' after 1.91714231931s
[INFO -- 2018-09-24 14:50:37]
Execution finished before waitTime
