[INFO -- 2018-12-05 02:47:20]
Starting GDB script
[INFO -- 2018-12-05 02:47:20]
initSignal:0.0
[INFO -- 2018-12-05 02:47:20]
endSignal:6.0
[INFO -- 2018-12-05 02:47:21]
sending 5 signals using command: 'killall -2 smith_waterman' after 1.14490342818s
[INFO -- 2018-12-05 02:47:22]
Execution finished before waitTime
