[INFO -- 2018-12-03 16:02:51]
Starting GDB script
[INFO -- 2018-12-03 16:02:51]
initSignal:0.0
[INFO -- 2018-12-03 16:02:51]
endSignal:6.0
[INFO -- 2018-12-03 16:02:54]
sending 5 signals using command: 'killall -2 smith_waterman' after 3.19287188336s
[INFO -- 2018-12-03 16:02:56]
Execution finished before waitTime
