[INFO -- 2018-12-09 12:53:50]
Starting GDB script
[INFO -- 2018-12-09 12:53:50]
initSignal:0.0
[INFO -- 2018-12-09 12:53:50]
endSignal:6.0
[INFO -- 2018-12-09 12:53:54]
sending 5 signals using command: 'killall -2 smith_waterman' after 3.60314632987s
[INFO -- 2018-12-09 12:53:54]
Execution finished before waitTime
