[INFO -- 2018-09-26 20:59:04]
Starting flip_value script
version: 1.1
[INFO -- 2018-09-26 20:59:04]
Initialization strings:
[INFO -- 2018-09-26 20:59:04]
(1) file /tmp/smith_waterman/smith_waterman
[INFO -- 2018-09-26 20:59:04]
(2) set args -x /tmp/smith_waterman/randInputX -y /tmp/smith_waterman/randInputY -o /tmp/smith_waterman/output
[INFO -- 2018-09-26 20:59:04]
initSignal:0
[INFO -- 2018-09-26 20:59:04]
endSignal:2
[INFO -- 2018-09-26 20:59:04]
faultModel:2
[INFO -- 2018-09-26 20:59:06]
Backtrace BEGIN:
#0  smith_waterman (x_num=11250, y_num=15000, str_x=0x5555557586c0 "OXXECOEJZANNRNNBHHEKKGFPMQQUUEFFXJVVPPGMIZWZOOKVVGGLNZZQPKVVMANNLKWAAQJLXKYZIIWOOQZEEFFUCBBODDFAPPYRHEFUNFTYYROOGXMMCSSJJVRYXBBMMJUUPZZFFFDVVRRDPQUPPKAAMMAFJBXYDGSXUOCCNHHWABWWRQYBLLZAZZOLCJGGEETYJJZY"..., str_y=0x55555575b2c0 "JOXECOEJZTANNRNBIHEUKGFPCMQUUEAFTXJVLPGMIGZWZOZKVDGHLNZQZPKVUMANJLKWAQJLXKJYZIKWOQGZEFRFUCBQODFARPYRGHEFUNFTYQROGXPMCHSZJVRZYXBPMAJUHPZBFFWDVQRDPGQUPKVAFMAFJBXYDGSLXUOCZNHWFABWHRQYBLZIAZOLCLJGTETQYJVZ"..., fo=0x555555758260) at smith_waterman.c:95
#1  0x0000555555555e38 in main (argc=7, argv=0x7fffffffdcb8) at smith_waterman.c:298

90	    for(i=0; i<y_num+1; i++){matrix[0][i]=0.0;}
91	
92	    double diff=0.0;
93	    double max_score=0.0;
94	    for(i=1; i<x_num+1; i++){
95	        for(j=1; j<y_num+1; j++){
96	            if(str_x[i-1]==str_y[j-1]){diff=match_score;}
97	            else{diff=mismatch_score;}
98	            matrix[i][j]=my_maxof(matrix[i-1][j-1]+diff, matrix[i-1][j]+gap_score, matrix[i][j-1]+gap_score,0);
99	            if(matrix[i][j]>max_score)

Backtrace END
Fliping a bit of the pointer
Memory content before bitflip:0xc00xb20x750x550x550x550x000x00
Fault Model: Random bit-flip
base address to flip value: 0x7fffffffdbb0
address max offset: 8
Memory content after  bitflip:0xa10xfc0x710x3e0xae0xf50xed0x71
frame name: main
symbol name: str_y
symbol filename: smith_waterman.c
symbol line: 286
value: 0x55555575b2c0 "JOXECOEJZTANNRNBIHEUKGFPCMQUUEAFTXJVLPGMIGZWZOZKVDGHLNZQZPKVUMANJLKWAQJLXKJYZIKWOQGZEFRFUCBQODFARPYRGHEFUNFTYQROGXPMCHSZJVRZYXBPMAJUHPZBFFWDVQRDPGQUPKVAFMAFJBXYDGSLXUOCZNHWFABWHRQYBLZIAZOLCLJGTETQYJVZ"...
value address: 0x7fffffffdbb0
Type: The type is a pointer.
Type sizeof: 8

[INFO -- 2018-09-26 20:59:06]
Fault Injection Successful after 2.1562836170196533s
[INFO -- 2018-09-26 20:59:09]
event type: exit
[EXCEPTION -- 2018-09-26 20:59:09]
exit code: no exit code available
