[INFO -- 2018-09-26 06:45:06]
Starting GDB script
[INFO -- 2018-09-26 06:45:06]
initSignal:0.0
[INFO -- 2018-09-26 06:45:06]
endSignal:2.0
[INFO -- 2018-09-26 06:45:07]
sending 5 signals using command: 'killall -2 smith_waterman' after 0.837348878189s
[INFO -- 2018-09-26 06:45:07]
sending 5 signals using command: 'killall -2 smith_waterman' after 1.02159201194s
[INFO -- 2018-09-26 06:45:08]
sending 5 signals using command: 'killall -2 smith_waterman' after 1.8351001463s
[INFO -- 2018-09-26 06:45:13]
Execution finished before waitTime
