[INFO -- 2018-12-09 05:54:43]
Starting GDB script
[INFO -- 2018-12-09 05:54:43]
initSignal:0.0
[INFO -- 2018-12-09 05:54:43]
endSignal:6.0
[INFO -- 2018-12-09 05:54:45]
sending 5 signals using command: 'killall -2 smith_waterman' after 2.43179352669s
[INFO -- 2018-12-09 05:54:45]
sending 5 signals using command: 'killall -2 smith_waterman' after 2.54780313203s
[INFO -- 2018-12-09 05:54:47]
sending 5 signals using command: 'killall -2 smith_waterman' after 4.68970595006s
[INFO -- 2018-12-09 05:54:50]
Execution finished before waitTime
