[INFO -- 2018-09-27 05:10:35]
Starting GDB script
[INFO -- 2018-09-27 05:10:35]
initSignal:0.0
[INFO -- 2018-09-27 05:10:35]
endSignal:2.0
[INFO -- 2018-09-27 05:10:37]
sending 5 signals using command: 'killall -2 smith_waterman' after 1.547967463s
[INFO -- 2018-09-27 05:10:37]
sending 5 signals using command: 'killall -2 smith_waterman' after 1.92471820803s
[INFO -- 2018-09-27 05:10:37]
sending 5 signals using command: 'killall -2 smith_waterman' after 1.9328722127s
[INFO -- 2018-09-27 05:10:40]
Execution finished before waitTime
