[INFO -- 2018-09-25 03:52:51]
Starting GDB script
[INFO -- 2018-09-25 03:52:51]
initSignal:0.0
[INFO -- 2018-09-25 03:52:51]
endSignal:2.0
[INFO -- 2018-09-25 03:52:52]
sending 5 signals using command: 'killall -2 smith_waterman' after 0.436678739788s
[INFO -- 2018-09-25 03:52:52]
sending 5 signals using command: 'killall -2 smith_waterman' after 0.639999392796s
[INFO -- 2018-09-25 03:52:52]
sending 5 signals using command: 'killall -2 smith_waterman' after 1.29932100449s
[INFO -- 2018-09-25 03:52:57]
Execution finished before waitTime
