[INFO -- 2018-09-26 05:16:54]
Starting flip_value script
version: 1.1
[INFO -- 2018-09-26 05:16:54]
Initialization strings:
[INFO -- 2018-09-26 05:16:54]
(1) file /tmp/smith_waterman/smith_waterman
[INFO -- 2018-09-26 05:16:54]
(2) set args -x /tmp/smith_waterman/randInputX -y /tmp/smith_waterman/randInputY -o /tmp/smith_waterman/output
[INFO -- 2018-09-26 05:16:54]
initSignal:0
[INFO -- 2018-09-26 05:16:54]
endSignal:2
[INFO -- 2018-09-26 05:16:54]
faultModel:1
[INFO -- 2018-09-26 05:16:54]
Backtrace BEGIN:
#0  0x0000555555554d71 in my_maxof (a=-1, b=-2, c=-2, d=0) at smith_waterman.c:65
#1  0x00005555555550d7 in smith_waterman (x_num=15000, y_num=14100, str_x=0x5555557586c0 "WPPDOWKMKBKMEBENYIDSFHLFKERIDWDBLVECRPQEQAQWCWJAEPULWITIMKQPJWTWRXYKOOOHRGDTCPVJGRWEZPMNCEFLAYHTVIEMYUTPDYKHNHQVZPBAENOGUVTWTDQQNWCLSVDVUNDJVVFWKGWRWMXQJTOCYEVLCXYVVBQRPTAMRHIBQGSOVSEENSJLZEYBDWWYYPPP"..., str_y=0x55555575c170 "PPPOWKKKBKMEEENYIDDFHLFFERRDWDBLVECRPQEEAAQCWJAAEULLITTIKKPJJTWWXYKOOOORGGTTPVVJRWWEPPNNEFLLYHTVIEMYUUPDYKKNHQQZZPBENNOUVTTTTDQNWWLLSDVVNNJVVVFKGWWWMXXJTOCCEELLCYYVBQQPTAMRHIBBQSOVSEEENSJZEYBBWWYYYPPP"..., fo=0x555555758260) at smith_waterman.c:98
#2  0x0000555555555e38 in main (argc=7, argv=0x7fffffffdcb8) at smith_waterman.c:298

60	}
61	
62	double my_maxof(double a, double b, double c, double d)
63	{
64	    double ans=a;
65	    if(ans<b) ans=b;
66	    if(ans<c) ans=c;
67	    if(ans<d) ans=d;
68	    return ans;
69	}

Backtrace END
Memory content before bitflip:0x000x000x000x000x000x000x000x00
Fault Model: Double bit-flip
base address to flip value: 0x7fffffffdab8
address max offset: 8
Memory content after  bitflip:0x000x000x000x000x000x000x440x00
frame name: smith_waterman
symbol name: y
symbol filename: smith_waterman.c
symbol line: 115
value: 19140298416324608
value address: 0x7fffffffdab8
Type: The type is an integer type.
Type sizeof: 8

[INFO -- 2018-09-26 05:16:54]
Fault Injection Successful after 0.5912201404571533s
[INFO -- 2018-09-26 05:17:00]
event type: exit
[INFO -- 2018-09-26 05:17:00]
exit code: 0
