[INFO -- 2018-09-23 17:53:24]
Starting GDB script
[INFO -- 2018-09-23 17:53:24]
initSignal:0.0
[INFO -- 2018-09-23 17:53:24]
endSignal:2.0
[INFO -- 2018-09-23 17:53:25]
sending 5 signals using command: 'killall -2 smith_waterman' after 0.939968241617s
[INFO -- 2018-09-23 17:53:25]
sending 5 signals using command: 'killall -2 smith_waterman' after 1.03039752869s
[INFO -- 2018-09-23 17:53:25]
sending 5 signals using command: 'killall -2 smith_waterman' after 1.59252731053s
[INFO -- 2018-09-23 17:53:29]
Execution finished before waitTime
