[INFO -- 2018-09-27 12:57:16]
Starting flip_value script
version: 1.1
[INFO -- 2018-09-27 12:57:16]
Initialization strings:
[INFO -- 2018-09-27 12:57:16]
(1) file /tmp/smith_waterman/smith_waterman
[INFO -- 2018-09-27 12:57:16]
(2) set args -x /tmp/smith_waterman/randInputX -y /tmp/smith_waterman/randInputY -o /tmp/smith_waterman/output
[INFO -- 2018-09-27 12:57:16]
initSignal:0
[INFO -- 2018-09-27 12:57:16]
endSignal:2
[INFO -- 2018-09-27 12:57:16]
faultModel:1
[INFO -- 2018-09-27 12:57:16]
Backtrace BEGIN:
#0  0x0000555555554fd3 in smith_waterman (x_num=13950, y_num=15000, str_x=0x5555557586c0 "HIISTTJXWVVITTIDMHHGHHGGJBBBOLWTTGJNTTHHRJZZXCRRKUUSUZZRASSSQJIIUUXNNKIEZZGZZKSJOOSSHDJJFEDUODDJJAUYMCFGLLGXXMMPPQQTTZIADLVAAVLCCQJPSOUUBFZZKKWVARRWMZWNNTTTPPYFHHPXYMUZRRADDXUELAAZYTTAMMPNBPIIXAIOOCYV"..., str_y=0x55555575bd50 "BHIQSTJXFWVIITIDMLHDGHWGUJBBOLWRTGJNATMHRJPZDXCRKLUSURZRCASSNQJIXUXZNKIETZGYZKSJYOCSHDJJFEDUUODTJAUYMCFGCLGBXYMVPQQWTZIADLVAAAVLCQJPSOXUBFXZGKWVAMRWMZWRNTTNTPYYFHPXYMUZTRAZDXUELMAZNYTASMPNBPLIXAIXOCYI"..., fo=0x555555758260) at smith_waterman.c:96
#1  0x0000555555555e38 in main (argc=7, argv=0x7fffffffdcb8) at smith_waterman.c:298

91	
92	    double diff=0.0;
93	    double max_score=0.0;
94	    for(i=1; i<x_num+1; i++){
95	        for(j=1; j<y_num+1; j++){
96	            if(str_x[i-1]==str_y[j-1]){diff=match_score;}
97	            else{diff=mismatch_score;}
98	            matrix[i][j]=my_maxof(matrix[i-1][j-1]+diff, matrix[i-1][j]+gap_score, matrix[i][j-1]+gap_score,0);
99	            if(matrix[i][j]>max_score)
100	                max_score=matrix[i][j];

Backtrace END
Memory content before bitflip:0xb00xdc0xff0xff0xff0x7f0x000x00
Fault Model: Double bit-flip
base address to flip value: 0x7fffffffdbc0
address max offset: 8
Memory content after  bitflip:0xb00xdc0xff0xff0xff0x7f0x220x00
frame name: main
symbol name: time_taken
symbol filename: smith_waterman.c
symbol line: 305
value: 5.1454832977889705e-308
value address: 0x7fffffffdbc0
Type: A floating point type.
Type sizeof: 8

[INFO -- 2018-09-27 12:57:16]
Fault Injection Successful after 0.49819207191467285s
[INFO -- 2018-09-27 12:57:21]
event type: exit
[INFO -- 2018-09-27 12:57:21]
exit code: 0
