[INFO -- 2018-09-23 16:10:18]
Starting GDB script
[INFO -- 2018-09-23 16:10:18]
initSignal:0.0
[INFO -- 2018-09-23 16:10:18]
endSignal:2.0
[INFO -- 2018-09-23 16:10:19]
sending 5 signals using command: 'killall -2 smith_waterman' after 0.601835271683s
[INFO -- 2018-09-23 16:10:20]
sending 5 signals using command: 'killall -2 smith_waterman' after 1.63323083072s
[INFO -- 2018-09-23 16:10:20]
sending 5 signals using command: 'killall -2 smith_waterman' after 1.65242097181s
[INFO -- 2018-09-23 16:10:23]
Execution finished before waitTime
