[INFO -- 2018-11-08 18:41:55]
sending 5 signals using command: 'killall -2 smith_waterman' after 4.20641977877s
[INFO -- 2018-11-08 18:41:56]
sending 5 signals using command: 'killall -2 smith_waterman' after 5.25730572803s
[INFO -- 2018-11-08 18:41:56]
Starting GDB script
[INFO -- 2018-11-08 18:41:56]
initSignal:0.0
[INFO -- 2018-11-08 18:41:56]
endSignal:2.0
[INFO -- 2018-11-08 18:41:56]
sending 5 signals using command: 'killall -2 smith_waterman' after 0.467972193818s
[INFO -- 2018-11-08 18:41:57]
sending 5 signals using command: 'killall -2 smith_waterman' after 1.20473199318s
[INFO -- 2018-11-08 18:41:57]
sending 5 signals using command: 'killall -2 smith_waterman' after 1.29722630492s
[INFO -- 2018-11-08 18:42:00]
Execution finished before waitTime
