[INFO -- 2018-11-08 20:09:53]
Starting GDB script
[INFO -- 2018-11-08 20:09:53]
initSignal:0.0
[INFO -- 2018-11-08 20:09:53]
endSignal:6.0
[INFO -- 2018-11-08 20:09:55]
sending 5 signals using command: 'killall -2 smith_waterman' after 2.77970506726s
[INFO -- 2018-11-08 20:09:56]
sending 5 signals using command: 'killall -2 smith_waterman' after 2.89409281523s
[INFO -- 2018-11-08 20:09:56]
Execution finished before waitTime
