[INFO -- 2018-09-26 03:06:43]
Starting GDB script
[INFO -- 2018-09-26 03:06:43]
initSignal:0.0
[INFO -- 2018-09-26 03:06:43]
endSignal:2.0
[INFO -- 2018-09-26 03:06:43]
sending 5 signals using command: 'killall -2 smith_waterman' after 0.157703175754s
[INFO -- 2018-09-26 03:06:44]
sending 5 signals using command: 'killall -2 smith_waterman' after 0.415333050685s
[INFO -- 2018-09-26 03:06:44]
sending 5 signals using command: 'killall -2 smith_waterman' after 1.02446614886s
[INFO -- 2018-09-26 03:06:49]
Execution finished before waitTime
