[INFO -- 2018-12-04 10:47:53]
Starting GDB script
[INFO -- 2018-12-04 10:47:53]
initSignal:0.0
[INFO -- 2018-12-04 10:47:53]
endSignal:6.0
[INFO -- 2018-12-04 10:47:57]
sending 5 signals using command: 'killall -2 smith_waterman' after 4.01097780717s
[INFO -- 2018-12-04 10:47:58]
sending 5 signals using command: 'killall -2 smith_waterman' after 5.01626388942s
[INFO -- 2018-12-04 10:47:58]
sending 5 signals using command: 'killall -2 smith_waterman' after 5.32955137015s
[INFO -- 2018-12-04 10:48:13]
Execution did not finish before waitTime
