[INFO -- 2018-11-08 23:43:12]
sending 5 signals using command: 'killall -2 smith_waterman' after 4.92556575321s
[INFO -- 2018-11-08 23:43:12]
sending 5 signals using command: 'killall -2 smith_waterman' after 5.47193580655s
[INFO -- 2018-11-08 23:43:12]
Starting GDB script
[INFO -- 2018-11-08 23:43:12]
initSignal:0.0
[INFO -- 2018-11-08 23:43:12]
endSignal:6.0
[INFO -- 2018-11-08 23:43:12]
sending 5 signals using command: 'killall -2 smith_waterman' after 0.320348147825s
[INFO -- 2018-11-08 23:43:15]
sending 5 signals using command: 'killall -2 smith_waterman' after 2.72798078325s
[INFO -- 2018-11-08 23:43:15]
Execution finished before waitTime
