[INFO -- 2018-12-04 03:44:51]
Starting GDB script
[INFO -- 2018-12-04 03:44:51]
initSignal:0.0
[INFO -- 2018-12-04 03:44:51]
endSignal:6.0
[INFO -- 2018-12-04 03:44:52]
sending 5 signals using command: 'killall -2 smith_waterman' after 1.36393286955s
[INFO -- 2018-12-04 03:44:53]
sending 5 signals using command: 'killall -2 smith_waterman' after 1.9321667025s
[INFO -- 2018-12-04 03:44:55]
sending 5 signals using command: 'killall -2 smith_waterman' after 3.61455304662s
[INFO -- 2018-12-04 03:44:57]
Execution finished before waitTime
