[INFO -- 2018-09-24 20:06:33]
sending 5 signals using command: 'killall -2 smith_waterman' after 1.08515094679s
[INFO -- 2018-09-24 20:06:33]
Starting GDB script
[INFO -- 2018-09-24 20:06:33]
initSignal:0.0
[INFO -- 2018-09-24 20:06:33]
endSignal:2.0
[INFO -- 2018-09-24 20:06:35]
sending 5 signals using command: 'killall -2 smith_waterman' after 1.3197372335s
[INFO -- 2018-09-24 20:06:35]
sending 5 signals using command: 'killall -2 smith_waterman' after 1.34560404832s
[INFO -- 2018-09-24 20:06:35]
sending 5 signals using command: 'killall -2 smith_waterman' after 1.71189446679s
[INFO -- 2018-09-24 20:06:40]
Execution finished before waitTime
