[INFO -- 2018-09-26 08:12:00]
Starting GDB script
[INFO -- 2018-09-26 08:12:00]
initSignal:0.0
[INFO -- 2018-09-26 08:12:00]
endSignal:2.0
[INFO -- 2018-09-26 08:12:00]
sending 5 signals using command: 'killall -2 smith_waterman' after 0.183298767946s
[INFO -- 2018-09-26 08:12:01]
sending 5 signals using command: 'killall -2 smith_waterman' after 0.872963118142s
[INFO -- 2018-09-26 08:12:02]
sending 5 signals using command: 'killall -2 smith_waterman' after 1.912244631s
[INFO -- 2018-09-26 08:12:07]
Execution finished before waitTime
