[INFO -- 2018-12-04 15:38:42]
Starting GDB script
[INFO -- 2018-12-04 15:38:42]
initSignal:0.0
[INFO -- 2018-12-04 15:38:42]
endSignal:6.0
[INFO -- 2018-12-04 15:38:43]
sending 5 signals using command: 'killall -2 smith_waterman' after 0.651135894883s
[INFO -- 2018-12-04 15:38:44]
sending 5 signals using command: 'killall -2 smith_waterman' after 1.55353400837s
[INFO -- 2018-12-04 15:38:47]
sending 5 signals using command: 'killall -2 smith_waterman' after 4.73837313059s
[INFO -- 2018-12-04 15:39:02]
Execution did not finish before waitTime
