[INFO -- 2018-09-24 17:45:55]
sending 5 signals using command: 'killall -2 smith_waterman' after 1.83109259996s
[INFO -- 2018-09-24 17:45:55]
Starting GDB script
[INFO -- 2018-09-24 17:45:55]
initSignal:0.0
[INFO -- 2018-09-24 17:45:55]
endSignal:2.0
[INFO -- 2018-09-24 17:45:56]
sending 5 signals using command: 'killall -2 smith_waterman' after 1.06534513096s
[INFO -- 2018-09-24 17:45:56]
sending 5 signals using command: 'killall -2 smith_waterman' after 1.24887789697s
[INFO -- 2018-09-24 17:45:57]
sending 5 signals using command: 'killall -2 smith_waterman' after 1.99424650259s
[INFO -- 2018-09-24 17:46:02]
Execution finished before waitTime
