[INFO -- 2018-12-03 11:32:53]
Starting flip_value script
version: 1.1
[INFO -- 2018-12-03 11:32:53]
Initialization strings:
[INFO -- 2018-12-03 11:32:53]
(1) file /tmp/smith_waterman/smith_waterman
[INFO -- 2018-12-03 11:32:53]
(2) set args -x /tmp/smith_waterman/randInputX -y /tmp/smith_waterman/randInputY -o /tmp/smith_waterman/output -z /tmp/smith_waterman/detected.log
[INFO -- 2018-12-03 11:32:53]
initSignal:0
[INFO -- 2018-12-03 11:32:53]
endSignal:6
[INFO -- 2018-12-03 11:32:53]
faultModel:0
[INFO -- 2018-12-03 11:32:56]
Backtrace BEGIN:
#0  0x00005555555550d5 in smith_waterman (x_num=12900, y_num=15000, str_x=0x5555557914b0 "KJUUVWERRROQCIOHBBHMTJJJJYWWWMMXXISKEEDDVLATJJHAQOOFXIWYYFBRFFKUUSGXXGJUEEOODRZUUFHFFEEDUBBKKEGGDPMVVZQBTFFXWWTBBAGOEELKOOYXZDFUPPHMMGICCFBBLVUTWWJBJJUOXMZZZEUHHNMWWLYMQQBXNOOJRMSUVJUHXXTMMZVNNRRLCCLU"..., str_y=0x555555794720 "QKJUTVWERROQCIOHHBHMTVJDJYWEWMEMXPISKEXDVLTATJHAKQOFLXIWYFBWRFKQUSJGXGJUTEUONDRZUFHHFPEDUFBOKLEGDPMCVVZQBTFOXWPTBWAGOELKLOYXZFDFUPHSMGIPCNFBLVUPTWXJBJUOXSMZZPEUHNMVWWLYMQBXNVOJRMSUVMJUHXTGMZCVNQRLNCLZ"...) at smith_waterman.c:102
#1  0x0000555555555cbf in execute (file_x_name=0x7fffffffe1f3 "/tmp/smith_waterman/randInputX", file_y_name=0x7fffffffe215 "/tmp/smith_waterman/randInputY") at smith_waterman.c:263
#2  0x0000555555555f1f in main (argc=9, argv=0x7fffffffde38) at smith_waterman.c:315

97	    double max_score=0.0;
98	    for(i=1; i<x_num+1; i++){
99	        for(j=1; j<y_num+1; j++){
100	            if(str_x[i-1]==str_y[j-1]){diff=match_score;}
101	            else{diff=mismatch_score;}
102	            matrix[i][j]=my_maxof(matrix[i-1][j-1]+diff, matrix[i-1][j]+gap_score, matrix[i][j-1]+gap_score,0);
103	            if(matrix[i][j]>max_score)
104	                max_score=matrix[i][j];
105	        }
106	    }

Backtrace END
Memory content before bitflip:0x640x320x000x000x000x000x000x00
Fault Model: Single bit-flip
base address to flip value: 0x7fffffffdbb8
address max offset: 8
Memory content after  bitflip:0x640x320x000x000x400x000x000x00
frame name: smith_waterman
symbol name: x_num
symbol filename: smith_waterman.c
symbol line: 82
value: 274877919844
value address: 0x7fffffffdbb8
Type: The type is an integer type.
Type sizeof: 8

[INFO -- 2018-12-03 11:32:56]
Fault Injection Successful after 3.641585350036621s
[INFO -- 2018-12-03 11:32:58]
event type: exit
[EXCEPTION -- 2018-12-03 11:32:58]
exit code: no exit code available
