[INFO -- 2018-09-27 07:03:11]
Starting GDB script
[INFO -- 2018-09-27 07:03:11]
initSignal:0.0
[INFO -- 2018-09-27 07:03:11]
endSignal:2.0
[INFO -- 2018-09-27 07:03:11]
sending 5 signals using command: 'killall -2 smith_waterman' after 0.720583060696s
[INFO -- 2018-09-27 07:03:12]
sending 5 signals using command: 'killall -2 smith_waterman' after 1.04334958169s
[INFO -- 2018-09-27 07:03:13]
sending 5 signals using command: 'killall -2 smith_waterman' after 1.98746164341s
[INFO -- 2018-09-27 07:03:16]
Execution finished before waitTime
