[INFO -- 2018-09-24 18:07:50]
Starting GDB script
[INFO -- 2018-09-24 18:07:50]
initSignal:0.0
[INFO -- 2018-09-24 18:07:50]
endSignal:2.0
[INFO -- 2018-09-24 18:07:51]
sending 5 signals using command: 'killall -2 smith_waterman' after 0.715267548144s
[INFO -- 2018-09-24 18:07:51]
sending 5 signals using command: 'killall -2 smith_waterman' after 0.988963324405s
[INFO -- 2018-09-24 18:07:52]
sending 5 signals using command: 'killall -2 smith_waterman' after 1.66769496256s
[INFO -- 2018-09-24 18:07:57]
Execution finished before waitTime
