[INFO -- 2018-09-25 19:08:14]
Starting GDB script
[INFO -- 2018-09-25 19:08:14]
initSignal:0.0
[INFO -- 2018-09-25 19:08:14]
endSignal:2.0
[INFO -- 2018-09-25 19:08:14]
sending 5 signals using command: 'killall -2 smith_waterman' after 0.0806708924269s
[INFO -- 2018-09-25 19:08:14]
sending 5 signals using command: 'killall -2 smith_waterman' after 0.24828872856s
[INFO -- 2018-09-25 19:08:16]
sending 5 signals using command: 'killall -2 smith_waterman' after 1.83242253991s
[INFO -- 2018-09-25 19:08:21]
Execution finished before waitTime
