[INFO -- 2018-12-04 01:08:00]
Starting GDB script
[INFO -- 2018-12-04 01:08:00]
initSignal:0.0
[INFO -- 2018-12-04 01:08:00]
endSignal:6.0
[INFO -- 2018-12-04 01:08:00]
sending 5 signals using command: 'killall -2 smith_waterman' after 0.00388056044724s
[INFO -- 2018-12-04 01:08:02]
sending 5 signals using command: 'killall -2 smith_waterman' after 2.44118434629s
[INFO -- 2018-12-04 01:08:06]
sending 5 signals using command: 'killall -2 smith_waterman' after 5.92707207389s
[INFO -- 2018-12-04 01:08:07]
Execution finished before waitTime
