[INFO -- 2018-09-24 02:09:56]
Starting GDB script
[INFO -- 2018-09-24 02:09:56]
initSignal:0.0
[INFO -- 2018-09-24 02:09:56]
endSignal:2.0
[INFO -- 2018-09-24 02:09:56]
sending 5 signals using command: 'killall -2 smith_waterman' after 0.0527964317367s
[INFO -- 2018-09-24 02:09:56]
sending 5 signals using command: 'killall -2 smith_waterman' after 0.410474069721s
[INFO -- 2018-09-24 02:09:57]
sending 5 signals using command: 'killall -2 smith_waterman' after 0.560468926246s
[INFO -- 2018-09-24 02:10:16]
Execution did not finish before waitTime
