[INFO -- 2018-12-04 00:13:10]
Starting GDB script
[INFO -- 2018-12-04 00:13:10]
initSignal:0.0
[INFO -- 2018-12-04 00:13:10]
endSignal:6.0
[INFO -- 2018-12-04 00:13:12]
sending 5 signals using command: 'killall -2 smith_waterman' after 1.92247237819s
[INFO -- 2018-12-04 00:13:14]
sending 5 signals using command: 'killall -2 smith_waterman' after 3.39789324037s
[INFO -- 2018-12-04 00:13:14]
sending 5 signals using command: 'killall -2 smith_waterman' after 4.20393431255s
[INFO -- 2018-12-04 00:13:16]
Execution finished before waitTime
