[INFO -- 2018-09-26 00:02:43]
Starting GDB script
[INFO -- 2018-09-26 00:02:43]
initSignal:0.0
[INFO -- 2018-09-26 00:02:43]
endSignal:2.0
[INFO -- 2018-09-26 00:02:43]
sending 5 signals using command: 'killall -2 smith_waterman' after 0.0824380883673s
[INFO -- 2018-09-26 00:02:44]
sending 5 signals using command: 'killall -2 smith_waterman' after 0.818152242103s
[INFO -- 2018-09-26 00:02:45]
sending 5 signals using command: 'killall -2 smith_waterman' after 1.91091002123s
[INFO -- 2018-09-26 00:02:48]
Execution finished before waitTime
