[INFO -- 2018-12-08 03:57:53]
Starting GDB script
[INFO -- 2018-12-08 03:57:53]
initSignal:0.0
[INFO -- 2018-12-08 03:57:53]
endSignal:6.0
[INFO -- 2018-12-08 03:57:53]
sending 5 signals using command: 'killall -2 smith_waterman' after 0.184391220671s
[INFO -- 2018-12-08 03:57:55]
sending 5 signals using command: 'killall -2 smith_waterman' after 2.24858233271s
[INFO -- 2018-12-08 03:57:58]
sending 5 signals using command: 'killall -2 smith_waterman' after 5.61935419004s
[INFO -- 2018-12-08 03:58:00]
Execution finished before waitTime
