[INFO -- 2018-12-08 18:14:06]
Starting GDB script
[INFO -- 2018-12-08 18:14:06]
initSignal:0.0
[INFO -- 2018-12-08 18:14:06]
endSignal:6.0
[INFO -- 2018-12-08 18:14:09]
sending 5 signals using command: 'killall -2 smith_waterman' after 3.39441453482s
[INFO -- 2018-12-08 18:14:11]
sending 5 signals using command: 'killall -2 smith_waterman' after 4.79612059139s
[INFO -- 2018-12-08 18:14:12]
sending 5 signals using command: 'killall -2 smith_waterman' after 5.48692076018s
[INFO -- 2018-12-08 18:14:13]
Execution finished before waitTime
