[INFO -- 2018-12-03 16:56:04]
Starting GDB script
[INFO -- 2018-12-03 16:56:04]
initSignal:0.0
[INFO -- 2018-12-03 16:56:04]
endSignal:6.0
[INFO -- 2018-12-03 16:56:06]
sending 5 signals using command: 'killall -2 smith_waterman' after 2.37955629677s
[INFO -- 2018-12-03 16:56:06]
sending 5 signals using command: 'killall -2 smith_waterman' after 2.4818733273s
[INFO -- 2018-12-03 16:56:07]
sending 5 signals using command: 'killall -2 smith_waterman' after 3.29964618429s
[INFO -- 2018-12-03 16:56:09]
Execution finished before waitTime
