[INFO -- 2018-12-04 10:56:08]
Starting GDB script
[INFO -- 2018-12-04 10:56:08]
initSignal:0.0
[INFO -- 2018-12-04 10:56:08]
endSignal:6.0
[INFO -- 2018-12-04 10:56:08]
sending 5 signals using command: 'killall -2 smith_waterman' after 0.310221967478s
[INFO -- 2018-12-04 10:56:10]
sending 5 signals using command: 'killall -2 smith_waterman' after 1.84372881947s
[INFO -- 2018-12-04 10:56:11]
Execution finished before waitTime
