[INFO -- 2018-09-24 00:43:43]
Starting GDB script
[INFO -- 2018-09-24 00:43:43]
initSignal:0.0
[INFO -- 2018-09-24 00:43:43]
endSignal:2.0
[INFO -- 2018-09-24 00:43:44]
sending 5 signals using command: 'killall -2 smith_waterman' after 1.08136607893s
[INFO -- 2018-09-24 00:43:44]
sending 5 signals using command: 'killall -2 smith_waterman' after 1.29757317507s
[INFO -- 2018-09-24 00:43:45]
sending 5 signals using command: 'killall -2 smith_waterman' after 1.57287171886s
[INFO -- 2018-09-24 00:43:49]
Execution finished before waitTime
