[INFO -- 2018-12-08 03:25:55]
sending 5 signals using command: 'killall -2 smith_waterman' after 3.51818053922s
[INFO -- 2018-12-08 03:25:57]
sending 5 signals using command: 'killall -2 smith_waterman' after 5.19592931452s
[INFO -- 2018-12-08 03:25:57]
Starting GDB script
[INFO -- 2018-12-08 03:25:57]
initSignal:0.0
[INFO -- 2018-12-08 03:25:57]
endSignal:6.0
[INFO -- 2018-12-08 03:26:01]
sending 5 signals using command: 'killall -2 smith_waterman' after 4.71075732335s
[INFO -- 2018-12-08 03:26:02]
sending 5 signals using command: 'killall -2 smith_waterman' after 5.03282844777s
[INFO -- 2018-12-08 03:26:03]
sending 5 signals using command: 'killall -2 smith_waterman' after 5.84516216676s
[INFO -- 2018-12-08 03:26:04]
Execution finished before waitTime
