[INFO -- 2018-09-24 01:02:45]
Starting GDB script
[INFO -- 2018-09-24 01:02:45]
initSignal:0.0
[INFO -- 2018-09-24 01:02:45]
endSignal:2.0
[INFO -- 2018-09-24 01:02:45]
sending 5 signals using command: 'killall -2 smith_waterman' after 0.107860870642s
[INFO -- 2018-09-24 01:02:46]
sending 5 signals using command: 'killall -2 smith_waterman' after 0.423075580318s
[INFO -- 2018-09-24 01:02:47]
sending 5 signals using command: 'killall -2 smith_waterman' after 1.95830361154s
[INFO -- 2018-09-24 01:02:51]
Execution finished before waitTime
