[INFO -- 2018-09-23 13:58:50]
Starting flip_value script
version: 1.1
[INFO -- 2018-09-23 13:58:50]
Initialization strings:
[INFO -- 2018-09-23 13:58:50]
(1) file /tmp/smith_waterman/smith_waterman
[INFO -- 2018-09-23 13:58:50]
(2) set args -x /tmp/smith_waterman/randInputX -y /tmp/smith_waterman/randInputY -o /tmp/smith_waterman/output
[INFO -- 2018-09-23 13:58:50]
initSignal:0
[INFO -- 2018-09-23 13:58:50]
endSignal:2
[INFO -- 2018-09-23 13:58:50]
faultModel:2
[INFO -- 2018-09-23 13:58:51]
Backtrace BEGIN:
#0  smith_waterman (x_num=15000, y_num=10500, str_x=0x5555557586c0 "WMKKDIDYJKGIAXTGCYLWDOCAQJVJDGUCTGMYRRYABEKDDDJFDWCINGIFQFOVMLXFTLFKCDKGHUJKZVRCTTMGAXOSCCNQPNVJYATDFELMAWYATQENLRVLQJFSOTJDGGMGJILOOWDOVBOOTVDFMBSCKYWARHEZOSFXCRNQNQFKUVZNQCSEDNGQLFSEMYDCRIBVBPMRHRBB"..., str_y=0x55555575c170 "MMKKIDYYKGIAATTGCYLDDCAQJVJJDGCCTMMRRRYBBEKDDJJFDWCNGGFQQOOVLXXTTLKKCDKGUUKZZVRTTTGAXOSSCCNPNVVJYADFELLMAWYTQENLRVLQJJSOTJJGGGMGJIOOWDDOBBOTTVFFMBSCYWWRHEEOSFXCCNNNQFFUUZZQCSSDDNQLFFSEMDDCRIBBBMMRHBBO"..., fo=0x555555758260) at smith_waterman.c:95
#1  0x0000555555555e38 in main (argc=7, argv=0x7fffffffdcb8) at smith_waterman.c:298

90	    for(i=0; i<y_num+1; i++){matrix[0][i]=0.0;}
91	
92	    double diff=0.0;
93	    double max_score=0.0;
94	    for(i=1; i<x_num+1; i++){
95	        for(j=1; j<y_num+1; j++){
96	            if(str_x[i-1]==str_y[j-1]){diff=match_score;}
97	            else{diff=mismatch_score;}
98	            matrix[i][j]=my_maxof(matrix[i-1][j-1]+diff, matrix[i-1][j]+gap_score, matrix[i][j-1]+gap_score,0);
99	            if(matrix[i][j]>max_score)

Backtrace END
Memory content before bitflip:0x000x000x000x000x000x000xf00x3f
Fault Model: Random bit-flip
base address to flip value: 0x555555757010 
address max offset: 8
Memory content after  bitflip:0xde0x630xb80x4a0xf00xdc0x5b0xab
frame name: main
symbol name: match_score
symbol filename: smith_waterman.c
symbol line: 7
value: -7.961776297335139e-100
value address: 0x555555757010 <match_score>
Type: A floating point type.
Type sizeof: 8

[INFO -- 2018-09-23 13:58:51]
Fault Injection Successful after 1.3853816986083984s
