[INFO -- 2018-12-05 20:56:18]
Starting GDB script
[INFO -- 2018-12-05 20:56:18]
initSignal:0.0
[INFO -- 2018-12-05 20:56:18]
endSignal:6.0
[INFO -- 2018-12-05 20:56:19]
sending 5 signals using command: 'killall -2 smith_waterman' after 0.129927487672s
[INFO -- 2018-12-05 20:56:20]
sending 5 signals using command: 'killall -2 smith_waterman' after 1.05257602956s
[INFO -- 2018-12-05 20:56:22]
sending 5 signals using command: 'killall -2 smith_waterman' after 3.19464443173s
[INFO -- 2018-12-05 20:56:24]
Execution finished before waitTime
