[INFO -- 2018-12-04 19:52:42]
Starting GDB script
[INFO -- 2018-12-04 19:52:42]
initSignal:0.0
[INFO -- 2018-12-04 19:52:42]
endSignal:6.0
[INFO -- 2018-12-04 19:52:43]
sending 5 signals using command: 'killall -2 smith_waterman' after 1.88702881807s
[INFO -- 2018-12-04 19:52:46]
sending 5 signals using command: 'killall -2 smith_waterman' after 4.90285229629s
[INFO -- 2018-12-04 19:52:47]
sending 5 signals using command: 'killall -2 smith_waterman' after 5.2300631713s
[INFO -- 2018-12-04 19:53:02]
Execution did not finish before waitTime
