[INFO -- 2018-11-08 19:59:03]
sending 5 signals using command: 'killall -2 smith_waterman' after 4.27269275197s
[INFO -- 2018-11-08 19:59:03]
Starting GDB script
[INFO -- 2018-11-08 19:59:03]
initSignal:0.0
[INFO -- 2018-11-08 19:59:03]
endSignal:6.0
[INFO -- 2018-11-08 19:59:04]
sending 5 signals using command: 'killall -2 smith_waterman' after 0.289079402027s
[INFO -- 2018-11-08 19:59:06]
sending 5 signals using command: 'killall -2 smith_waterman' after 2.66675413779s
[INFO -- 2018-11-08 19:59:06]
Execution finished before waitTime
