[INFO -- 2018-12-05 20:59:20]
Starting GDB script
[INFO -- 2018-12-05 20:59:20]
initSignal:0.0
[INFO -- 2018-12-05 20:59:20]
endSignal:6.0
[INFO -- 2018-12-05 20:59:20]
sending 5 signals using command: 'killall -2 smith_waterman' after 0.537882389627s
[INFO -- 2018-12-05 20:59:21]
sending 5 signals using command: 'killall -2 smith_waterman' after 1.54901414081s
[INFO -- 2018-12-05 20:59:24]
sending 5 signals using command: 'killall -2 smith_waterman' after 4.21104921029s
[INFO -- 2018-12-05 20:59:25]
Execution finished before waitTime
