[INFO -- 2018-09-27 00:33:52]
Starting GDB script
[INFO -- 2018-09-27 00:33:52]
initSignal:0.0
[INFO -- 2018-09-27 00:33:52]
endSignal:2.0
[INFO -- 2018-09-27 00:33:53]
sending 5 signals using command: 'killall -2 smith_waterman' after 0.289334908475s
[INFO -- 2018-09-27 00:33:53]
sending 5 signals using command: 'killall -2 smith_waterman' after 1.06796226176s
[INFO -- 2018-09-27 00:33:54]
sending 5 signals using command: 'killall -2 smith_waterman' after 1.43585266183s
[INFO -- 2018-09-27 00:33:58]
Execution finished before waitTime
