[INFO -- 2018-09-27 09:53:12]
Starting GDB script
[INFO -- 2018-09-27 09:53:12]
initSignal:0.0
[INFO -- 2018-09-27 09:53:12]
endSignal:2.0
[INFO -- 2018-09-27 09:53:13]
sending 5 signals using command: 'killall -2 smith_waterman' after 0.222322306045s
[INFO -- 2018-09-27 09:53:14]
sending 5 signals using command: 'killall -2 smith_waterman' after 1.48998554989s
[INFO -- 2018-09-27 09:53:14]
sending 5 signals using command: 'killall -2 smith_waterman' after 1.62539677792s
[INFO -- 2018-09-27 09:53:18]
Execution finished before waitTime
