[INFO -- 2018-12-03 23:19:12]
Starting GDB script
[INFO -- 2018-12-03 23:19:12]
initSignal:0.0
[INFO -- 2018-12-03 23:19:12]
endSignal:6.0
[INFO -- 2018-12-03 23:19:15]
sending 5 signals using command: 'killall -2 smith_waterman' after 2.56698240413s
[INFO -- 2018-12-03 23:19:16]
sending 5 signals using command: 'killall -2 smith_waterman' after 3.7407750034s
[INFO -- 2018-12-03 23:19:17]
Execution finished before waitTime
