[INFO -- 2018-09-23 20:55:49]
Starting flip_value script
version: 1.1
[INFO -- 2018-09-23 20:55:49]
Initialization strings:
[INFO -- 2018-09-23 20:55:49]
(1) file /tmp/smith_waterman/smith_waterman
[INFO -- 2018-09-23 20:55:49]
(2) set args -x /tmp/smith_waterman/randInputX -y /tmp/smith_waterman/randInputY -o /tmp/smith_waterman/output
[INFO -- 2018-09-23 20:55:49]
initSignal:0
[INFO -- 2018-09-23 20:55:49]
endSignal:2
[INFO -- 2018-09-23 20:55:49]
faultModel:1
[INFO -- 2018-09-23 20:55:50]
Backtrace BEGIN:
#0  0x0000555555554d71 in my_maxof (a=-1, b=-2, c=-2, d=0) at smith_waterman.c:65
#1  0x00005555555550d7 in smith_waterman (x_num=15000, y_num=15000, str_x=0x5555557586c0 "ZTTOPPYFRVVXFAAUKKTTSSPGGSJVIIVNNONBFMBFFDAUKBVVLQFFSUUYHFKNFFACNDBBBMEHPBCCFZSSTYLLIURAAWPPDXAAXDDQJXBMMADVEEMVVMDIIPINNRASQUVCYYDDGRGULLNPBJJMNMRENNTTGIWWEAYYHVDNOJKKUBBJAKQZZOODBWWHHKFTTFLCCOQZCCTB"..., str_y=0x55555575c170 "ZDTPOPYFVRVXPFAUKKHTUSXPGSJJVIVWNONBFMGBFDAUKBRVLYQFSPUYHFKENFACVNDBBMEHPEBCFUZSTRYLIUMRAWVPDXSAMXDQJHXBMADTVEMQVMDDIPUINRASQUVCTYUDGRGUULNRPBJMNMRWENGTGIMWEJAYHVDNOJJKUZBJAKXQZOODBWWHHKFLTFLDCOQRZCBT"..., fo=0x555555758260) at smith_waterman.c:98
#2  0x0000555555555e38 in main (argc=7, argv=0x7fffffffdcb8) at smith_waterman.c:298

60	}
61	
62	double my_maxof(double a, double b, double c, double d)
63	{
64	    double ans=a;
65	    if(ans<b) ans=b;
66	    if(ans<c) ans=c;
67	    if(ans<d) ans=d;
68	    return ans;
69	}

Backtrace END
Memory content before bitflip:0xb00xdc0xff0xff0xff0x7f0x000x00
Fault Model: Double bit-flip
base address to flip value: 0x7fffffffdbc0
address max offset: 8
Memory content after  bitflip:0xb00xdc0xff0xff0xff0x7f0x000x03
frame name: main
symbol name: time_taken
symbol filename: smith_waterman.c
symbol line: 305
value: 3.2293728457112973e-294
value address: 0x7fffffffdbc0
Type: A floating point type.
Type sizeof: 8

[INFO -- 2018-09-23 20:55:50]
Fault Injection Successful after 1.6901483535766602s
[INFO -- 2018-09-23 20:55:55]
event type: exit
[INFO -- 2018-09-23 20:55:55]
exit code: 0
