[INFO -- 2018-12-04 19:13:24]
Starting GDB script
[INFO -- 2018-12-04 19:13:24]
initSignal:0.0
[INFO -- 2018-12-04 19:13:24]
endSignal:6.0
[INFO -- 2018-12-04 19:13:25]
sending 5 signals using command: 'killall -2 smith_waterman' after 0.675982556875s
[INFO -- 2018-12-04 19:13:25]
sending 5 signals using command: 'killall -2 smith_waterman' after 0.975177950471s
[INFO -- 2018-12-04 19:13:26]
sending 5 signals using command: 'killall -2 smith_waterman' after 1.88761963683s
[INFO -- 2018-12-04 19:13:30]
Execution finished before waitTime
