[INFO -- 2018-11-08 20:50:53]
Starting flip_value script
version: 1.1
[INFO -- 2018-11-08 20:50:53]
Initialization strings:
[INFO -- 2018-11-08 20:50:53]
(1) file /tmp/smith_waterman/smith_waterman
[INFO -- 2018-11-08 20:50:53]
(2) set args -x /tmp/smith_waterman/randInputX -y /tmp/smith_waterman/randInputY -o /tmp/smith_waterman/output
[INFO -- 2018-11-08 20:50:53]
initSignal:0
[INFO -- 2018-11-08 20:50:53]
endSignal:6
[INFO -- 2018-11-08 20:50:53]
faultModel:1
[INFO -- 2018-11-08 20:50:55]
event type: exit
[INFO -- 2018-11-08 20:50:55]
exit code: 0
