[INFO -- 2018-09-27 20:52:21]
Starting GDB script
[INFO -- 2018-09-27 20:52:21]
initSignal:0.0
[INFO -- 2018-09-27 20:52:21]
endSignal:2.0
[INFO -- 2018-09-27 20:52:22]
sending 5 signals using command: 'killall -2 smith_waterman' after 0.196989548553s
[INFO -- 2018-09-27 20:52:22]
sending 5 signals using command: 'killall -2 smith_waterman' after 0.4922156634s
[INFO -- 2018-09-27 20:52:22]
sending 5 signals using command: 'killall -2 smith_waterman' after 0.596702958748s
[INFO -- 2018-09-27 20:52:27]
Execution finished before waitTime
