[INFO -- 2018-12-09 09:43:21]
Starting GDB script
[INFO -- 2018-12-09 09:43:21]
initSignal:0.0
[INFO -- 2018-12-09 09:43:21]
endSignal:6.0
[INFO -- 2018-12-09 09:43:21]
sending 5 signals using command: 'killall -2 smith_waterman' after 0.83539888348s
[INFO -- 2018-12-09 09:43:24]
sending 5 signals using command: 'killall -2 smith_waterman' after 3.42986593745s
[INFO -- 2018-12-09 09:43:26]
sending 5 signals using command: 'killall -2 smith_waterman' after 5.56500983198s
[INFO -- 2018-12-09 09:43:29]
Execution finished before waitTime
