[INFO -- 2018-12-04 18:35:05]
Starting GDB script
[INFO -- 2018-12-04 18:35:05]
initSignal:0.0
[INFO -- 2018-12-04 18:35:05]
endSignal:6.0
[INFO -- 2018-12-04 18:35:06]
sending 5 signals using command: 'killall -2 smith_waterman' after 1.3993582142s
[INFO -- 2018-12-04 18:35:10]
sending 5 signals using command: 'killall -2 smith_waterman' after 5.205886357s
[INFO -- 2018-12-04 18:35:10]
sending 5 signals using command: 'killall -2 smith_waterman' after 5.27235656161s
[INFO -- 2018-12-04 18:35:25]
Execution did not finish before waitTime
