[INFO -- 2018-12-05 15:24:48]
Starting GDB script
[INFO -- 2018-12-05 15:24:48]
initSignal:0.0
[INFO -- 2018-12-05 15:24:48]
endSignal:6.0
[INFO -- 2018-12-05 15:24:49]
sending 5 signals using command: 'killall -2 smith_waterman' after 0.96289547586s
[INFO -- 2018-12-05 15:24:49]
sending 5 signals using command: 'killall -2 smith_waterman' after 1.45087583638s
[INFO -- 2018-12-05 15:24:52]
sending 5 signals using command: 'killall -2 smith_waterman' after 4.15557972791s
[INFO -- 2018-12-05 15:24:53]
Execution finished before waitTime
