[INFO -- 2018-09-27 04:51:31]
Starting GDB script
[INFO -- 2018-09-27 04:51:31]
initSignal:0.0
[INFO -- 2018-09-27 04:51:31]
endSignal:2.0
[INFO -- 2018-09-27 04:51:31]
sending 5 signals using command: 'killall -2 smith_waterman' after 0.026281669559s
[INFO -- 2018-09-27 04:51:32]
sending 5 signals using command: 'killall -2 smith_waterman' after 0.2167217901s
[INFO -- 2018-09-27 04:51:32]
sending 5 signals using command: 'killall -2 smith_waterman' after 0.812818397422s
[INFO -- 2018-09-27 04:51:37]
Execution finished before waitTime
