[INFO -- 2018-09-26 18:21:18]
Starting GDB script
[INFO -- 2018-09-26 18:21:18]
initSignal:0.0
[INFO -- 2018-09-26 18:21:18]
endSignal:2.0
[INFO -- 2018-09-26 18:21:18]
sending 5 signals using command: 'killall -2 smith_waterman' after 0.22740688934s
[INFO -- 2018-09-26 18:21:19]
sending 5 signals using command: 'killall -2 smith_waterman' after 0.663631457035s
[INFO -- 2018-09-26 18:21:19]
sending 5 signals using command: 'killall -2 smith_waterman' after 0.758246534914s
[INFO -- 2018-09-26 18:21:23]
Execution finished before waitTime
