[INFO -- 2018-12-03 20:11:07]
Starting flip_value script
version: 1.1
[INFO -- 2018-12-03 20:11:07]
Initialization strings:
[INFO -- 2018-12-03 20:11:07]
(1) file /tmp/smith_waterman/smith_waterman
[INFO -- 2018-12-03 20:11:07]
(2) set args -x /tmp/smith_waterman/randInputX -y /tmp/smith_waterman/randInputY -o /tmp/smith_waterman/output -z /tmp/smith_waterman/detected.log
[INFO -- 2018-12-03 20:11:07]
initSignal:0
[INFO -- 2018-12-03 20:11:07]
endSignal:6
[INFO -- 2018-12-03 20:11:07]
faultModel:2
[INFO -- 2018-12-03 20:11:08]
Backtrace BEGIN:
#0  my_maxof (a=1969, b=1969, c=1966, d=0) at smith_waterman.c:69
#1  0x00005555555550d0 in smith_waterman (x_num=12000, y_num=15000, str_x=0x5555557586c0 "EAACFHVVGNBDZZIIKXXWWAANJBBVJPAPCARLFBIOOMQYKKXXIINHHPUCCLNOONDRUCCUVHHWWAMJKWHSEWZLMVBQPPFCIAAFCCCOUUONWCYGZHAGGRRUSKPPHPYKYCFCQQSSYYGGCOOBPPFVQPNNBEAATEMTEQAGJJTTIBMMQQFHHUBSSSLLUQNWZIIAPIIXJJFFRSRJ"..., str_y=0x55555575b5b0 "ELACIFHVGNBDJZRIKWXQWXANJMBVJPAPCARLFBINOMQYLKIXIINGHPUQCXLNONDRNUCUVKHMWAMJKWHSEWZLMVBQSPFHCIAQFCMCOUONWCYGZHADGZRUWSKPHPYKAYCFCQJSKYHGCGOBPPFVQYPNQBEATEMTEQAGGJATJIBMQQNFHUBXSSMLUQNNWZIAPIIXTJQFRSRJ"...) at smith_waterman.c:102
#2  0x0000555555555cbf in execute (file_x_name=0x7fffffffe1f3 "/tmp/smith_waterman/randInputX", file_y_name=0x7fffffffe215 "/tmp/smith_waterman/randInputY") at smith_waterman.c:263
#3  0x0000555555555f08 in main (argc=9, argv=0x7fffffffde38) at smith_waterman.c:314

64	
65	double my_maxof(double a, double b, double c, double d)
66	{
67	    double ans=a;
68	    if(ans<b) ans=b;
69	    if(ans<c) ans=c;
70	    if(ans<d) ans=d;
71	    return ans;
72	}
73	

Backtrace END
Memory content before bitflip:0xe00x2e0x000x000x000x000x000x00
Fault Model: Random bit-flip
base address to flip value: 0x7fffffffdbb8
address max offset: 8
Memory content after  bitflip:0xe20x900xfc0x650x3f0x590x940x83
frame name: smith_waterman
symbol name: x_num
symbol filename: smith_waterman.c
symbol line: 82
value: -8965442829358952222
value address: 0x7fffffffdbb8
Type: The type is an integer type.
Type sizeof: 8

[INFO -- 2018-12-03 20:11:08]
Fault Injection Successful after 1.0794899463653564s
[INFO -- 2018-12-03 20:11:08]
event type: exit
[EXCEPTION -- 2018-12-03 20:11:08]
exit code: no exit code available
