[INFO -- 2018-09-26 07:41:48]
Starting GDB script
[INFO -- 2018-09-26 07:41:48]
initSignal:0.0
[INFO -- 2018-09-26 07:41:48]
endSignal:2.0
[INFO -- 2018-09-26 07:41:48]
sending 5 signals using command: 'killall -2 smith_waterman' after 0.274796444252s
[INFO -- 2018-09-26 07:41:50]
sending 5 signals using command: 'killall -2 smith_waterman' after 1.94731786143s
[INFO -- 2018-09-26 07:41:50]
sending 5 signals using command: 'killall -2 smith_waterman' after 1.99949876073s
[INFO -- 2018-09-26 07:41:55]
Execution finished before waitTime
