[INFO -- 2018-09-27 20:31:50]
Starting GDB script
[INFO -- 2018-09-27 20:31:50]
initSignal:0.0
[INFO -- 2018-09-27 20:31:50]
endSignal:2.0
[INFO -- 2018-09-27 20:31:50]
sending 5 signals using command: 'killall -2 smith_waterman' after 0.277945032971s
[INFO -- 2018-09-27 20:31:50]
sending 5 signals using command: 'killall -2 smith_waterman' after 0.380625578248s
[INFO -- 2018-09-27 20:31:52]
sending 5 signals using command: 'killall -2 smith_waterman' after 1.99491928362s
[INFO -- 2018-09-27 20:31:55]
Execution finished before waitTime
