[INFO -- 2018-12-08 04:30:17]
Starting GDB script
[INFO -- 2018-12-08 04:30:17]
initSignal:0.0
[INFO -- 2018-12-08 04:30:17]
endSignal:6.0
[INFO -- 2018-12-08 04:30:17]
sending 5 signals using command: 'killall -2 smith_waterman' after 0.00189430908183s
[INFO -- 2018-12-08 04:30:18]
sending 5 signals using command: 'killall -2 smith_waterman' after 1.67087528803s
[INFO -- 2018-12-08 04:30:19]
Execution finished before waitTime
