[INFO -- 2018-09-23 11:59:55]
Starting GDB script
[INFO -- 2018-09-23 11:59:55]
initSignal:0.0
[INFO -- 2018-09-23 11:59:55]
endSignal:2.0
[INFO -- 2018-09-23 11:59:56]
sending 5 signals using command: 'killall -2 smith_waterman' after 1.02298220123s
[INFO -- 2018-09-23 11:59:56]
sending 5 signals using command: 'killall -2 smith_waterman' after 1.08764386978s
[INFO -- 2018-09-23 11:59:56]
sending 5 signals using command: 'killall -2 smith_waterman' after 1.22532289033s
[INFO -- 2018-09-23 12:00:01]
Execution finished before waitTime
