[INFO -- 2018-09-24 22:21:25]
sending 5 signals using command: 'killall -2 smith_waterman' after 1.7052865171s
[INFO -- 2018-09-24 22:21:26]
Starting GDB script
[INFO -- 2018-09-24 22:21:26]
initSignal:0.0
[INFO -- 2018-09-24 22:21:26]
endSignal:2.0
[INFO -- 2018-09-24 22:21:27]
sending 5 signals using command: 'killall -2 smith_waterman' after 1.66355940677s
[INFO -- 2018-09-24 22:21:27]
sending 5 signals using command: 'killall -2 smith_waterman' after 1.7200321983s
[INFO -- 2018-09-24 22:21:27]
sending 5 signals using command: 'killall -2 smith_waterman' after 1.7798774295s
[INFO -- 2018-09-24 22:21:46]
Execution did not finish before waitTime
