[INFO -- 2018-11-09 00:34:31]
sending 5 signals using command: 'killall -2 smith_waterman' after 3.83886604852s
[INFO -- 2018-11-09 00:34:32]
sending 5 signals using command: 'killall -2 smith_waterman' after 5.05221574195s
[INFO -- 2018-11-09 00:34:32]
Starting GDB script
[INFO -- 2018-11-09 00:34:32]
initSignal:0.0
[INFO -- 2018-11-09 00:34:32]
endSignal:6.0
[INFO -- 2018-11-09 00:34:33]
sending 5 signals using command: 'killall -2 smith_waterman' after 1.03734098311s
[INFO -- 2018-11-09 00:34:34]
Execution finished before waitTime
