[INFO -- 2018-12-03 10:48:59]
Starting GDB script
[INFO -- 2018-12-03 10:48:59]
initSignal:0.0
[INFO -- 2018-12-03 10:48:59]
endSignal:6.0
[INFO -- 2018-12-03 10:48:59]
sending 5 signals using command: 'killall -2 smith_waterman' after 0.451168160127s
[INFO -- 2018-12-03 10:48:59]
sending 5 signals using command: 'killall -2 smith_waterman' after 0.70153280887s
[INFO -- 2018-12-03 10:49:04]
sending 5 signals using command: 'killall -2 smith_waterman' after 4.71681061794s
[INFO -- 2018-12-03 10:49:04]
Execution finished before waitTime
