[INFO -- 2018-09-27 16:35:28]
Starting GDB script
[INFO -- 2018-09-27 16:35:28]
initSignal:0.0
[INFO -- 2018-09-27 16:35:28]
endSignal:2.0
[INFO -- 2018-09-27 16:35:29]
sending 5 signals using command: 'killall -2 smith_waterman' after 0.452918028149s
[INFO -- 2018-09-27 16:35:30]
sending 5 signals using command: 'killall -2 smith_waterman' after 1.52384579516s
[INFO -- 2018-09-27 16:35:30]
sending 5 signals using command: 'killall -2 smith_waterman' after 1.90322060311s
[INFO -- 2018-09-27 16:35:34]
Execution finished before waitTime
