[INFO -- 2018-12-04 07:48:53]
Starting GDB script
[INFO -- 2018-12-04 07:48:53]
initSignal:0.0
[INFO -- 2018-12-04 07:48:53]
endSignal:6.0
[INFO -- 2018-12-04 07:48:55]
sending 5 signals using command: 'killall -2 smith_waterman' after 1.40839356398s
[INFO -- 2018-12-04 07:48:56]
sending 5 signals using command: 'killall -2 smith_waterman' after 2.97438093815s
[INFO -- 2018-12-04 07:48:58]
sending 5 signals using command: 'killall -2 smith_waterman' after 5.21893311523s
[INFO -- 2018-12-04 07:48:59]
Execution finished before waitTime
