[INFO -- 2018-09-27 05:34:07]
Starting GDB script
[INFO -- 2018-09-27 05:34:07]
initSignal:0.0
[INFO -- 2018-09-27 05:34:07]
endSignal:2.0
[INFO -- 2018-09-27 05:34:08]
sending 5 signals using command: 'killall -2 smith_waterman' after 0.438643163308s
[INFO -- 2018-09-27 05:34:08]
sending 5 signals using command: 'killall -2 smith_waterman' after 0.549846496145s
[INFO -- 2018-09-27 05:34:08]
sending 5 signals using command: 'killall -2 smith_waterman' after 0.763851505138s
[INFO -- 2018-09-27 05:34:13]
Execution finished before waitTime
