[INFO -- 2018-12-03 18:57:25]
Starting GDB script
[INFO -- 2018-12-03 18:57:25]
initSignal:0.0
[INFO -- 2018-12-03 18:57:25]
endSignal:6.0
[INFO -- 2018-12-03 18:57:25]
sending 5 signals using command: 'killall -2 smith_waterman' after 0.765653066771s
[INFO -- 2018-12-03 18:57:28]
sending 5 signals using command: 'killall -2 smith_waterman' after 3.16846849175s
[INFO -- 2018-12-03 18:57:29]
sending 5 signals using command: 'killall -2 smith_waterman' after 4.28199421147s
[INFO -- 2018-12-03 18:57:32]
Execution finished before waitTime
