[INFO -- 2018-12-04 21:04:50]
Starting GDB script
[INFO -- 2018-12-04 21:04:50]
initSignal:0.0
[INFO -- 2018-12-04 21:04:50]
endSignal:6.0
[INFO -- 2018-12-04 21:04:51]
sending 5 signals using command: 'killall -2 smith_waterman' after 1.17863502482s
[INFO -- 2018-12-04 21:04:52]
sending 5 signals using command: 'killall -2 smith_waterman' after 2.38521233194s
[INFO -- 2018-12-04 21:04:55]
sending 5 signals using command: 'killall -2 smith_waterman' after 4.67871926348s
[INFO -- 2018-12-04 21:04:56]
Execution finished before waitTime
