[INFO -- 2018-09-26 21:27:57]
Starting GDB script
[INFO -- 2018-09-26 21:27:57]
initSignal:0.0
[INFO -- 2018-09-26 21:27:57]
endSignal:2.0
[INFO -- 2018-09-26 21:27:58]
sending 5 signals using command: 'killall -2 smith_waterman' after 1.14496519288s
[INFO -- 2018-09-26 21:27:58]
sending 5 signals using command: 'killall -2 smith_waterman' after 1.16454860853s
[INFO -- 2018-09-26 21:27:58]
sending 5 signals using command: 'killall -2 smith_waterman' after 1.45672714956s
[INFO -- 2018-09-26 21:28:03]
Execution finished before waitTime
