[INFO -- 2018-09-26 14:50:49]
Starting GDB script
[INFO -- 2018-09-26 14:50:49]
initSignal:0.0
[INFO -- 2018-09-26 14:50:49]
endSignal:2.0
[INFO -- 2018-09-26 14:50:50]
sending 5 signals using command: 'killall -2 smith_waterman' after 0.417474326209s
[INFO -- 2018-09-26 14:50:50]
sending 5 signals using command: 'killall -2 smith_waterman' after 0.955465174972s
[INFO -- 2018-09-26 14:50:50]
sending 5 signals using command: 'killall -2 smith_waterman' after 1.1292867551s
[INFO -- 2018-09-26 14:51:09]
Execution did not finish before waitTime
