[INFO -- 2018-12-03 14:48:51]
Starting GDB script
[INFO -- 2018-12-03 14:48:51]
initSignal:0.0
[INFO -- 2018-12-03 14:48:51]
endSignal:6.0
[INFO -- 2018-12-03 14:48:52]
sending 5 signals using command: 'killall -2 smith_waterman' after 1.66348399955s
[INFO -- 2018-12-03 14:48:54]
sending 5 signals using command: 'killall -2 smith_waterman' after 3.35780243132s
[INFO -- 2018-12-03 14:48:55]
sending 5 signals using command: 'killall -2 smith_waterman' after 4.63112228877s
[INFO -- 2018-12-03 14:48:56]
Execution finished before waitTime
