[INFO -- 2018-09-23 20:05:20]
Starting GDB script
[INFO -- 2018-09-23 20:05:20]
initSignal:0.0
[INFO -- 2018-09-23 20:05:20]
endSignal:2.0
[INFO -- 2018-09-23 20:05:20]
sending 5 signals using command: 'killall -2 smith_waterman' after 0.25296401382s
[INFO -- 2018-09-23 20:05:21]
Execution finished before waitTime
