[INFO -- 2018-12-04 15:52:00]
Starting GDB script
[INFO -- 2018-12-04 15:52:00]
initSignal:0.0
[INFO -- 2018-12-04 15:52:00]
endSignal:6.0
[INFO -- 2018-12-04 15:52:04]
sending 5 signals using command: 'killall -2 smith_waterman' after 3.3558963651s
[INFO -- 2018-12-04 15:52:05]
sending 5 signals using command: 'killall -2 smith_waterman' after 4.88776244225s
[INFO -- 2018-12-04 15:52:06]
sending 5 signals using command: 'killall -2 smith_waterman' after 5.83033034471s
[INFO -- 2018-12-04 15:52:07]
Execution finished before waitTime
