[INFO -- 2018-12-05 23:29:02]
sending 5 signals using command: 'killall -2 smith_waterman' after 5.61922293224s
[INFO -- 2018-12-05 23:29:02]
Starting GDB script
[INFO -- 2018-12-05 23:29:02]
initSignal:0.0
[INFO -- 2018-12-05 23:29:02]
endSignal:6.0
[INFO -- 2018-12-05 23:29:02]
sending 5 signals using command: 'killall -2 smith_waterman' after 0.230912078749s
[INFO -- 2018-12-05 23:29:03]
sending 5 signals using command: 'killall -2 smith_waterman' after 1.60550664935s
[INFO -- 2018-12-05 23:29:05]
sending 5 signals using command: 'killall -2 smith_waterman' after 2.79285900125s
[INFO -- 2018-12-05 23:29:07]
Execution finished before waitTime
