[INFO -- 2018-12-09 06:27:37]
sending 5 signals using command: 'killall -2 smith_waterman' after 4.7415441731s
[INFO -- 2018-12-09 06:27:38]
sending 5 signals using command: 'killall -2 smith_waterman' after 5.34150107222s
[INFO -- 2018-12-09 06:27:38]
Starting GDB script
[INFO -- 2018-12-09 06:27:38]
initSignal:0.0
[INFO -- 2018-12-09 06:27:38]
endSignal:6.0
[INFO -- 2018-12-09 06:27:40]
sending 5 signals using command: 'killall -2 smith_waterman' after 2.25272398409s
[INFO -- 2018-12-09 06:27:41]
Execution finished before waitTime
