[INFO -- 2018-09-27 19:33:52]
Starting flip_value script
version: 1.1
[INFO -- 2018-09-27 19:33:52]
Initialization strings:
[INFO -- 2018-09-27 19:33:52]
(1) file /tmp/smith_waterman/smith_waterman
[INFO -- 2018-09-27 19:33:52]
(2) set args -x /tmp/smith_waterman/randInputX -y /tmp/smith_waterman/randInputY -o /tmp/smith_waterman/output
[INFO -- 2018-09-27 19:33:52]
initSignal:0
[INFO -- 2018-09-27 19:33:52]
endSignal:2
[INFO -- 2018-09-27 19:33:52]
faultModel:1
[EXCEPTION -- 2018-09-27 19:33:52]
gdbException: Attempt to dereference a generic pointer.
[EXCEPTION -- 2018-09-27 19:33:53]
pythonException: invalid literal for int() with base 16: '0x55555575b190 ...'
[INFO -- 2018-09-27 19:33:53]
Backtrace BEGIN:
#0  0x000055555555505c in smith_waterman (x_num=10950, y_num=15000, str_x=0x5555557586c0 "GXNOTCCYYTKWVYQNNIUGGJLLFFZHHAPZZNWWIFCGMMPJJNOXXTDDEQQLLEUSSJRSSNDDTRJTFRPPOGQBJRNNHIYZMTRREKKMXPMQQBGZZZPPFDDJOUYDGBBVWWWBBZZGRRGXSOVTIIJXNOGBIECNNFIIPPXHYWDGLLHHABBSMMXXCWYCCCZPKSOOWWXJAPPKVSSNVVIJ"..., str_y=0x55555575b190 "GXNOXTCEYTKGWVYQNIFUGQJLIFZIHAZPZNDWIFCGAMPWJNOZXTTDLEQTLQEUSDJRSMNDTRJTFYRPOGQLBJRNNHIYZMTRSEKMRXPMQBGWZZNPFDDJOUYBDGBDVWWNBHZUGRGXSOVTQIJXNOGBIECNNFSIEPXHYWDGPLFHAABSKMPXCWYKCCZPKSZOJWXJTAPKLVSNVVFI"..., fo=0x555555758260) at smith_waterman.c:98
#1  0x0000555555555e38 in main (argc=7, argv=0x7fffffffdcb8) at smith_waterman.c:298

93	    double max_score=0.0;
94	    for(i=1; i<x_num+1; i++){
95	        for(j=1; j<y_num+1; j++){
96	            if(str_x[i-1]==str_y[j-1]){diff=match_score;}
97	            else{diff=mismatch_score;}
98	            matrix[i][j]=my_maxof(matrix[i-1][j-1]+diff, matrix[i-1][j]+gap_score, matrix[i][j-1]+gap_score,0);
99	            if(matrix[i][j]>max_score)
100	                max_score=matrix[i][j];
101	        }
102	    }

Backtrace END
Memory content before bitflip:0x000x000x000x000x000x180x8a0x40
Fault Model: Double bit-flip
base address to flip value: 0x7fffffffdaa8
address max offset: 8
Memory content after  bitflip:0x000x000x000x000x090x180x8a0x40
frame name: smith_waterman
symbol name: max_score
symbol filename: smith_waterman.c
symbol line: 93
value: 835.00439453125
value address: 0x7fffffffdaa8
Type: A floating point type.
Type sizeof: 8

[INFO -- 2018-09-27 19:33:53]
Fault Injection Successful after 1.6296448707580566s
[INFO -- 2018-09-27 19:33:57]
event type: exit
[INFO -- 2018-09-27 19:33:57]
exit code: 0
