[INFO -- 2018-09-25 03:12:50]
Starting GDB script
[INFO -- 2018-09-25 03:12:50]
initSignal:0.0
[INFO -- 2018-09-25 03:12:50]
endSignal:2.0
[INFO -- 2018-09-25 03:12:51]
sending 5 signals using command: 'killall -2 smith_waterman' after 0.142252450036s
[INFO -- 2018-09-25 03:12:52]
sending 5 signals using command: 'killall -2 smith_waterman' after 1.11961914568s
[INFO -- 2018-09-25 03:12:52]
sending 5 signals using command: 'killall -2 smith_waterman' after 1.1929625027s
[INFO -- 2018-09-25 03:12:57]
Execution finished before waitTime
