[INFO -- 2018-09-25 18:07:35]
sending 5 signals using command: 'killall -2 smith_waterman' after 1.07906733307s
[INFO -- 2018-09-25 18:07:35]
sending 5 signals using command: 'killall -2 smith_waterman' after 1.39575171844s
[INFO -- 2018-09-25 18:07:35]
Starting GDB script
[INFO -- 2018-09-25 18:07:35]
initSignal:0.0
[INFO -- 2018-09-25 18:07:35]
endSignal:2.0
[INFO -- 2018-09-25 18:07:36]
sending 5 signals using command: 'killall -2 smith_waterman' after 0.663763904599s
[INFO -- 2018-09-25 18:07:36]
sending 5 signals using command: 'killall -2 smith_waterman' after 1.36339350446s
[INFO -- 2018-09-25 18:07:37]
sending 5 signals using command: 'killall -2 smith_waterman' after 1.95123841571s
[INFO -- 2018-09-25 18:07:40]
Execution finished before waitTime
