[INFO -- 2018-09-24 20:40:26]
Starting GDB script
[INFO -- 2018-09-24 20:40:26]
initSignal:0.0
[INFO -- 2018-09-24 20:40:26]
endSignal:2.0
[INFO -- 2018-09-24 20:40:27]
sending 5 signals using command: 'killall -2 smith_waterman' after 0.466737593427s
[INFO -- 2018-09-24 20:40:28]
sending 5 signals using command: 'killall -2 smith_waterman' after 1.40303787717s
[INFO -- 2018-09-24 20:40:28]
sending 5 signals using command: 'killall -2 smith_waterman' after 1.91795496168s
[INFO -- 2018-09-24 20:40:33]
Execution finished before waitTime
