[INFO -- 2018-12-04 05:22:53]
Starting GDB script
[INFO -- 2018-12-04 05:22:53]
initSignal:0.0
[INFO -- 2018-12-04 05:22:53]
endSignal:6.0
[INFO -- 2018-12-04 05:22:57]
sending 5 signals using command: 'killall -2 smith_waterman' after 4.22178109304s
[INFO -- 2018-12-04 05:22:57]
sending 5 signals using command: 'killall -2 smith_waterman' after 4.44191662146s
[INFO -- 2018-12-04 05:22:59]
sending 5 signals using command: 'killall -2 smith_waterman' after 5.51949483761s
[INFO -- 2018-12-04 05:22:59]
Execution finished before waitTime
