[INFO -- 2018-11-09 00:29:09]
Starting flip_value script
version: 1.1
[INFO -- 2018-11-09 00:29:09]
Initialization strings:
[INFO -- 2018-11-09 00:29:09]
(1) file /tmp/smith_waterman/smith_waterman
[INFO -- 2018-11-09 00:29:09]
(2) set args -x /tmp/smith_waterman/randInputX -y /tmp/smith_waterman/randInputY -o /tmp/smith_waterman/output
[INFO -- 2018-11-09 00:29:09]
initSignal:0
[INFO -- 2018-11-09 00:29:09]
endSignal:6
[INFO -- 2018-11-09 00:29:09]
faultModel:1
[INFO -- 2018-11-09 00:29:09]
Backtrace BEGIN:
#0  0x000055555555506f in smith_waterman (x_num=15000, y_num=12750, str_x=0x5555557586c0 "WVTXFRRWGXRZNVVXIQQUGRNTPUUJPRNLNJKUABQIYIJLDELLXDHDUUYJQSSFMHQBSAVTDMDDWNRBREOOHVSBRSKHLEMZNEAGGVBLJEOHRFILJWBSTVTMOFVBLJCBPCHXZKILOZSIEDVQBYKXWEJKLHNZQPAGTJDSTODJNYTTDQLEPWBLCNXNUMOMBOSUXYOQMUCBUVUX"..., str_y=0x55555575c170 "VVTXRRRGGXZNVVXXQQQURNTTUUJPRRLNNJUAABIYIJLLDLLLXHHDUYJQSSSMMHQSAVTDDDDDWRBREEOOVVBRSKKLEMMZNEAGVVBLEEOHRIILJBSTTTMOFFVLLCBPCHXXZIIOOSSEDVVBBKKWWEKLHHZZQAGTJJDTTOJNNYTTDLEPWWBCNNXUUOMBOOUXYOQQMUBUVUXM"..., fo=0x555555758260) at smith_waterman.c:98
#1  0x0000555555555e38 in main (argc=7, argv=0x7fffffffde98) at smith_waterman.c:298

93	    double max_score=0.0;
94	    for(i=1; i<x_num+1; i++){
95	        for(j=1; j<y_num+1; j++){
96	            if(str_x[i-1]==str_y[j-1]){diff=match_score;}
97	            else{diff=mismatch_score;}
98	            matrix[i][j]=my_maxof(matrix[i-1][j-1]+diff, matrix[i-1][j]+gap_score, matrix[i][j-1]+gap_score,0);
99	            if(matrix[i][j]>max_score)
100	                max_score=matrix[i][j];
101	        }
102	    }

Backtrace END
Memory content before bitflip:0x5d0x030x000x000x000x000x000x00
Fault Model: Double bit-flip
base address to flip value: 0x7fffffffdd80
address max offset: 8
Memory content after  bitflip:0x5d0x330x000x000x000x000x000x00
frame name: main
symbol name: t
symbol filename: smith_waterman.c
symbol line: 244
value: 13149
value address: 0x7fffffffdd80
Type: The type is an integer type.
Type sizeof: 8

[INFO -- 2018-11-09 00:29:09]
Fault Injection Successful after 0.4355309009552002s
[INFO -- 2018-11-09 00:29:11]
event type: exit
[INFO -- 2018-11-09 00:29:11]
exit code: 0
