[INFO -- 2018-09-27 06:10:00]
Starting GDB script
[INFO -- 2018-09-27 06:10:00]
initSignal:0.0
[INFO -- 2018-09-27 06:10:00]
endSignal:2.0
[INFO -- 2018-09-27 06:10:01]
sending 5 signals using command: 'killall -2 smith_waterman' after 1.02894358021s
[INFO -- 2018-09-27 06:10:02]
sending 5 signals using command: 'killall -2 smith_waterman' after 1.83772610151s
[INFO -- 2018-09-27 06:10:02]
sending 5 signals using command: 'killall -2 smith_waterman' after 1.99580632547s
[INFO -- 2018-09-27 06:10:05]
Execution finished before waitTime
