[INFO -- 2018-09-23 11:39:12]
Starting GDB script
[INFO -- 2018-09-23 11:39:12]
initSignal:0.0
[INFO -- 2018-09-23 11:39:12]
endSignal:2.0
[INFO -- 2018-09-23 11:39:13]
sending 5 signals using command: 'killall -2 smith_waterman' after 1.29136913333s
[INFO -- 2018-09-23 11:39:13]
sending 5 signals using command: 'killall -2 smith_waterman' after 1.31254284259s
[INFO -- 2018-09-23 11:39:14]
sending 5 signals using command: 'killall -2 smith_waterman' after 1.718946061s
[INFO -- 2018-09-23 11:39:19]
Execution finished before waitTime
