[INFO -- 2018-12-04 12:18:41]
sending 5 signals using command: 'killall -2 smith_waterman' after 5.30739063595s
[INFO -- 2018-12-04 12:18:41]
Starting GDB script
[INFO -- 2018-12-04 12:18:41]
initSignal:0.0
[INFO -- 2018-12-04 12:18:41]
endSignal:6.0
[INFO -- 2018-12-04 12:18:45]
sending 5 signals using command: 'killall -2 smith_waterman' after 4.13714137602s
[INFO -- 2018-12-04 12:18:46]
Execution finished before waitTime
