[INFO -- 2018-09-23 20:38:21]
Starting GDB script
[INFO -- 2018-09-23 20:38:21]
initSignal:0.0
[INFO -- 2018-09-23 20:38:21]
endSignal:2.0
[INFO -- 2018-09-23 20:38:22]
sending 5 signals using command: 'killall -2 smith_waterman' after 0.616026817461s
[INFO -- 2018-09-23 20:38:23]
sending 5 signals using command: 'killall -2 smith_waterman' after 1.45453518702s
[INFO -- 2018-09-23 20:38:23]
sending 5 signals using command: 'killall -2 smith_waterman' after 1.86026603202s
[INFO -- 2018-09-23 20:38:28]
Execution finished before waitTime
