[INFO -- 2018-09-26 15:59:43]
Starting GDB script
[INFO -- 2018-09-26 15:59:43]
initSignal:0.0
[INFO -- 2018-09-26 15:59:43]
endSignal:2.0
[INFO -- 2018-09-26 15:59:43]
sending 5 signals using command: 'killall -2 smith_waterman' after 0.232523868512s
[INFO -- 2018-09-26 15:59:44]
sending 5 signals using command: 'killall -2 smith_waterman' after 1.01814217403s
[INFO -- 2018-09-26 15:59:44]
sending 5 signals using command: 'killall -2 smith_waterman' after 1.36878198099s
[INFO -- 2018-09-26 15:59:48]
Execution finished before waitTime
