[INFO -- 2018-09-27 06:20:32]
Starting flip_value script
version: 1.1
[INFO -- 2018-09-27 06:20:32]
Initialization strings:
[INFO -- 2018-09-27 06:20:32]
(1) file /tmp/smith_waterman/smith_waterman
[INFO -- 2018-09-27 06:20:32]
(2) set args -x /tmp/smith_waterman/randInputX -y /tmp/smith_waterman/randInputY -o /tmp/smith_waterman/output
[INFO -- 2018-09-27 06:20:32]
initSignal:0
[INFO -- 2018-09-27 06:20:32]
endSignal:2
[INFO -- 2018-09-27 06:20:32]
faultModel:0
[INFO -- 2018-09-27 06:20:33]
Backtrace BEGIN:
#0  0x000055555555506f in smith_waterman (x_num=10050, y_num=15000, str_x=0x5555557586c0 "DDYTFPCADOIMYXEBBMGLUQROZLPPJEEUKCNRURTHHELHBTLIRREEJKXXKPPTTNNYYCUVVRCCECIYVOOOOGAAQVXQQOUUKLIKORELSOOYZXZZUXHFFTVVRKYJUULFFOVVBBHAXXAXUJRIGGCNCKKTBICCCNNKZKHLLQJNNLKWIIBOOFTQWLXMMAARPBBBCKPPVVOOHKDU"..., str_y=0x55555575ae10 "IDYTFPCADOIMYXIEBMGLUQRDOZLPJHEUKCNRURTXHELHBTLEIRREJKJXKVPTCTNOYCHUVARCECJIYVOIOGMAQVXAQOWUKLIKORELSVOYZXIZUXHLFTLVRKYJBUELFOVVIBHAWXAXUJXRIGCNCPKTBIECCKNKZKHJLQJJNLJKWIBEOFTQWELXMQARAPBBCKKPBVBOHKYD"..., fo=0x555555758260) at smith_waterman.c:98
#1  0x0000555555555e38 in main (argc=7, argv=0x7fffffffdcb8) at smith_waterman.c:298

93	    double max_score=0.0;
94	    for(i=1; i<x_num+1; i++){
95	        for(j=1; j<y_num+1; j++){
96	            if(str_x[i-1]==str_y[j-1]){diff=match_score;}
97	            else{diff=mismatch_score;}
98	            matrix[i][j]=my_maxof(matrix[i-1][j-1]+diff, matrix[i-1][j]+gap_score, matrix[i][j-1]+gap_score,0);
99	            if(matrix[i][j]>max_score)
100	                max_score=matrix[i][j];
101	        }
102	    }

Backtrace END
Memory content before bitflip:0xff0xff0xff0xff
Fault Model: Single bit-flip
base address to flip value: 0x7fffffffdb64
address max offset: 4
Memory content after  bitflip:0xff0xff0x7f0xff
frame name: main
symbol name: opt
symbol filename: smith_waterman.c
symbol line: 246
value: -8388609
value address: 0x7fffffffdb64
Type: The type is an integer type.
Type sizeof: 4

[INFO -- 2018-09-27 06:20:33]
Fault Injection Successful after 1.7105002403259277s
[INFO -- 2018-09-27 06:20:36]
event type: exit
[INFO -- 2018-09-27 06:20:36]
exit code: 0
