[INFO -- 2018-09-26 22:55:40]
Starting GDB script
[INFO -- 2018-09-26 22:55:40]
initSignal:0.0
[INFO -- 2018-09-26 22:55:40]
endSignal:2.0
[INFO -- 2018-09-26 22:55:40]
sending 5 signals using command: 'killall -2 smith_waterman' after 0.0673707261987s
[INFO -- 2018-09-26 22:55:41]
sending 5 signals using command: 'killall -2 smith_waterman' after 0.76771348676s
[INFO -- 2018-09-26 22:55:42]
sending 5 signals using command: 'killall -2 smith_waterman' after 1.55269884949s
[INFO -- 2018-09-26 22:55:46]
Execution finished before waitTime
