[INFO -- 2018-09-27 08:01:10]
Starting flip_value script
version: 1.1
[INFO -- 2018-09-27 08:01:10]
Initialization strings:
[INFO -- 2018-09-27 08:01:10]
(1) file /tmp/smith_waterman/smith_waterman
[INFO -- 2018-09-27 08:01:10]
(2) set args -x /tmp/smith_waterman/randInputX -y /tmp/smith_waterman/randInputY -o /tmp/smith_waterman/output
[INFO -- 2018-09-27 08:01:10]
initSignal:0
[INFO -- 2018-09-27 08:01:10]
endSignal:2
[INFO -- 2018-09-27 08:01:10]
faultModel:1
[INFO -- 2018-09-27 08:01:12]
Backtrace BEGIN:
#0  0x0000555555554fd3 in smith_waterman (x_num=11850, y_num=15000, str_x=0x5555557586c0 "DWCDDJGCCLXGDVVBUJOFHRBBXWUPXWNBRLLYNNGEYEBBNIFHTTNAMKEGYYAGQJJRHURMXXQIDKKNNRYGNNHYLLJFLNIIZBBTUUVDTNLXSNNFONAAAVZZJJTTVDUURFFKACNWQVIYYIMYYEPYZPHHHAAWGGSMMAEPCTSSGDDSQVGZXPYYPPFYHHOZNISAYYLSSFFMKKGC"..., str_y=0x55555575b520 "DWCIDJAGCLXGDHVBUJOFHRVBXWUPXWNBURLYCNGEYEMBNIFHTTNAMKEJGYAGWQJRHURMIXQIDDKQNRYGMNHYXLJFLJNIZWBJTUVDTNLXSXNFONMAAVAZGJFTVUDURGFKACNWQAVIYIQMYEPYZPAHBHAWBGSSMAEPCTLSUGDSQVGQZXPYPPFQYHOZNISAIYRLSCFMKKGC"..., fo=0x555555758260) at smith_waterman.c:96
#1  0x0000555555555e38 in main (argc=7, argv=0x7fffffffdcb8) at smith_waterman.c:298

91	
92	    double diff=0.0;
93	    double max_score=0.0;
94	    for(i=1; i<x_num+1; i++){
95	        for(j=1; j<y_num+1; j++){
96	            if(str_x[i-1]==str_y[j-1]){diff=match_score;}
97	            else{diff=mismatch_score;}
98	            matrix[i][j]=my_maxof(matrix[i-1][j-1]+diff, matrix[i-1][j]+gap_score, matrix[i][j-1]+gap_score,0);
99	            if(matrix[i][j]>max_score)
100	                max_score=matrix[i][j];

Backtrace END
Memory content before bitflip:0xff0xff0xff0xff
Fault Model: Double bit-flip
base address to flip value: 0x7fffffffdb64
address max offset: 4
Memory content after  bitflip:0xff0xff0xff0xf5
frame name: main
symbol name: opt
symbol filename: smith_waterman.c
symbol line: 246
value: -167772161
value address: 0x7fffffffdb64
Type: The type is an integer type.
Type sizeof: 4

[INFO -- 2018-09-27 08:01:12]
Fault Injection Successful after 2.65276837348938s
[INFO -- 2018-09-27 08:01:16]
event type: exit
[INFO -- 2018-09-27 08:01:16]
exit code: 0
