[INFO -- 2018-12-04 19:29:44]
Starting GDB script
[INFO -- 2018-12-04 19:29:44]
initSignal:0.0
[INFO -- 2018-12-04 19:29:44]
endSignal:6.0
[INFO -- 2018-12-04 19:29:44]
sending 5 signals using command: 'killall -2 smith_waterman' after 0.0710393531168s
[INFO -- 2018-12-04 19:29:45]
sending 5 signals using command: 'killall -2 smith_waterman' after 0.750220589284s
[INFO -- 2018-12-04 19:29:45]
Execution finished before waitTime
