[INFO -- 2018-12-04 05:06:24]
Starting GDB script
[INFO -- 2018-12-04 05:06:24]
initSignal:0.0
[INFO -- 2018-12-04 05:06:24]
endSignal:6.0
[INFO -- 2018-12-04 05:06:24]
sending 5 signals using command: 'killall -2 smith_waterman' after 0.51018380596s
[INFO -- 2018-12-04 05:06:24]
sending 5 signals using command: 'killall -2 smith_waterman' after 0.708487765482s
[INFO -- 2018-12-04 05:06:27]
sending 5 signals using command: 'killall -2 smith_waterman' after 3.3447566575s
[INFO -- 2018-12-04 05:06:30]
Execution finished before waitTime
