[INFO -- 2018-12-04 14:17:35]
Starting GDB script
[INFO -- 2018-12-04 14:17:35]
initSignal:0.0
[INFO -- 2018-12-04 14:17:35]
endSignal:6.0
[INFO -- 2018-12-04 14:17:36]
sending 5 signals using command: 'killall -2 smith_waterman' after 0.83758838648s
[INFO -- 2018-12-04 14:17:37]
sending 5 signals using command: 'killall -2 smith_waterman' after 2.21233727991s
[INFO -- 2018-12-04 14:17:40]
sending 5 signals using command: 'killall -2 smith_waterman' after 4.85622340871s
[INFO -- 2018-12-04 14:17:55]
Execution did not finish before waitTime
