[INFO -- 2018-11-09 01:45:58]
sending 5 signals using command: 'killall -2 smith_waterman' after 4.48891541342s
[INFO -- 2018-11-09 01:45:59]
sending 5 signals using command: 'killall -2 smith_waterman' after 5.52229290477s
[INFO -- 2018-11-09 01:45:59]
Starting GDB script
[INFO -- 2018-11-09 01:45:59]
initSignal:0.0
[INFO -- 2018-11-09 01:45:59]
endSignal:6.0
[INFO -- 2018-11-09 01:46:00]
sending 5 signals using command: 'killall -2 smith_waterman' after 0.783237314053s
[INFO -- 2018-11-09 01:46:02]
sending 5 signals using command: 'killall -2 smith_waterman' after 2.40481661297s
[INFO -- 2018-11-09 01:46:02]
Execution finished before waitTime
