[INFO -- 2018-09-23 23:19:00]
Starting GDB script
[INFO -- 2018-09-23 23:19:00]
initSignal:0.0
[INFO -- 2018-09-23 23:19:00]
endSignal:2.0
[INFO -- 2018-09-23 23:19:00]
sending 5 signals using command: 'killall -2 smith_waterman' after 0.249751093279s
[INFO -- 2018-09-23 23:19:01]
sending 5 signals using command: 'killall -2 smith_waterman' after 1.31218978246s
[INFO -- 2018-09-23 23:19:02]
sending 5 signals using command: 'killall -2 smith_waterman' after 1.71790760263s
[INFO -- 2018-09-23 23:19:06]
Execution finished before waitTime
