[INFO -- 2018-11-09 00:47:43]
sending 5 signals using command: 'killall -2 smith_waterman' after 5.41960218605s
[INFO -- 2018-11-09 00:47:43]
Starting GDB script
[INFO -- 2018-11-09 00:47:43]
initSignal:0.0
[INFO -- 2018-11-09 00:47:43]
endSignal:6.0
[INFO -- 2018-11-09 00:47:43]
sending 5 signals using command: 'killall -2 smith_waterman' after 0.459917047241s
[INFO -- 2018-11-09 00:47:45]
sending 5 signals using command: 'killall -2 smith_waterman' after 1.77782997075s
[INFO -- 2018-11-09 00:47:46]
Execution finished before waitTime
