[INFO -- 2018-09-23 22:49:32]
Starting GDB script
[INFO -- 2018-09-23 22:49:32]
initSignal:0.0
[INFO -- 2018-09-23 22:49:32]
endSignal:2.0
[INFO -- 2018-09-23 22:49:32]
sending 5 signals using command: 'killall -2 smith_waterman' after 0.321349249814s
[INFO -- 2018-09-23 22:49:33]
sending 5 signals using command: 'killall -2 smith_waterman' after 1.53025088943s
[INFO -- 2018-09-23 22:49:34]
sending 5 signals using command: 'killall -2 smith_waterman' after 1.79264061371s
[INFO -- 2018-09-23 22:49:39]
Execution finished before waitTime
