[INFO -- 2018-09-23 14:16:34]
Starting GDB script
[INFO -- 2018-09-23 14:16:34]
initSignal:0.0
[INFO -- 2018-09-23 14:16:34]
endSignal:2.0
[INFO -- 2018-09-23 14:16:34]
sending 5 signals using command: 'killall -2 smith_waterman' after 0.0313854439631s
[INFO -- 2018-09-23 14:16:35]
sending 5 signals using command: 'killall -2 smith_waterman' after 1.48350272637s
[INFO -- 2018-09-23 14:16:35]
sending 5 signals using command: 'killall -2 smith_waterman' after 1.49298079488s
[INFO -- 2018-09-23 14:16:39]
Execution finished before waitTime
