[INFO -- 2018-12-04 20:38:27]
Starting GDB script
[INFO -- 2018-12-04 20:38:27]
initSignal:0.0
[INFO -- 2018-12-04 20:38:27]
endSignal:6.0
[INFO -- 2018-12-04 20:38:28]
sending 5 signals using command: 'killall -2 smith_waterman' after 0.314442222559s
[INFO -- 2018-12-04 20:38:30]
sending 5 signals using command: 'killall -2 smith_waterman' after 2.63899131985s
[INFO -- 2018-12-04 20:38:31]
sending 5 signals using command: 'killall -2 smith_waterman' after 3.46489024402s
[INFO -- 2018-12-04 20:38:33]
Execution finished before waitTime
