[INFO -- 2018-12-05 11:50:07]
Starting GDB script
[INFO -- 2018-12-05 11:50:07]
initSignal:0.0
[INFO -- 2018-12-05 11:50:07]
endSignal:6.0
[INFO -- 2018-12-05 11:50:10]
sending 5 signals using command: 'killall -2 smith_waterman' after 2.28720759227s
[INFO -- 2018-12-05 11:50:12]
sending 5 signals using command: 'killall -2 smith_waterman' after 4.41035563245s
[INFO -- 2018-12-05 11:50:13]
sending 5 signals using command: 'killall -2 smith_waterman' after 5.44769059625s
[INFO -- 2018-12-05 11:50:14]
Execution finished before waitTime
