[INFO -- 2018-09-24 16:31:05]
Starting GDB script
[INFO -- 2018-09-24 16:31:05]
initSignal:0.0
[INFO -- 2018-09-24 16:31:05]
endSignal:2.0
[INFO -- 2018-09-24 16:31:06]
sending 5 signals using command: 'killall -2 smith_waterman' after 0.497556855448s
[INFO -- 2018-09-24 16:31:06]
sending 5 signals using command: 'killall -2 smith_waterman' after 0.579998288172s
[INFO -- 2018-09-24 16:31:07]
sending 5 signals using command: 'killall -2 smith_waterman' after 1.63601058263s
[INFO -- 2018-09-24 16:31:20]
Execution finished before waitTime
