[INFO -- 2018-12-04 00:25:58]
Starting GDB script
[INFO -- 2018-12-04 00:25:58]
initSignal:0.0
[INFO -- 2018-12-04 00:25:58]
endSignal:6.0
[INFO -- 2018-12-04 00:25:59]
sending 5 signals using command: 'killall -2 smith_waterman' after 1.06591821294s
[INFO -- 2018-12-04 00:26:02]
sending 5 signals using command: 'killall -2 smith_waterman' after 4.2498796452s
[INFO -- 2018-12-04 00:26:02]
sending 5 signals using command: 'killall -2 smith_waterman' after 4.39297823544s
[INFO -- 2018-12-04 00:26:04]
Execution finished before waitTime
