[INFO -- 2018-12-08 20:34:17]
Starting GDB script
[INFO -- 2018-12-08 20:34:17]
initSignal:0.0
[INFO -- 2018-12-08 20:34:17]
endSignal:6.0
[INFO -- 2018-12-08 20:34:21]
sending 5 signals using command: 'killall -2 smith_waterman' after 4.03156725641s
[INFO -- 2018-12-08 20:34:22]
sending 5 signals using command: 'killall -2 smith_waterman' after 5.01309130863s
[INFO -- 2018-12-08 20:34:23]
sending 5 signals using command: 'killall -2 smith_waterman' after 5.26854470476s
[INFO -- 2018-12-08 20:34:23]
Execution finished before waitTime
