[INFO -- 2018-11-07 18:31:11]
Starting flip_value script
version: 1.1
[INFO -- 2018-11-07 18:31:11]
Initialization strings:
[INFO -- 2018-11-07 18:31:11]
(1) file /tmp/smith_waterman/smith_waterman
[INFO -- 2018-11-07 18:31:11]
(2) set args -x /tmp/smith_waterman/randInputX -y /tmp/smith_waterman/randInputY -o /tmp/smith_waterman/output
[INFO -- 2018-11-07 18:31:11]
initSignal:0
[INFO -- 2018-11-07 18:31:11]
endSignal:2
[INFO -- 2018-11-07 18:31:11]
faultModel:0
[INFO -- 2018-11-07 18:31:11]
Backtrace BEGIN:
#0  dl_main (phdr=<optimized out>, phnum=<optimized out>, user_entry=<optimized out>, auxv=<optimized out>) at rtld.c:2286
#1  0x00007ffff7df015a in _dl_sysdep_start (start_argptr=start_argptr@entry=0x7fffffffde40, dl_main=dl_main@entry=0x7ffff7dd73d0 <dl_main>) at ../elf/dl-sysdep.c:253
#2  0x00007ffff7dd6e88 in _dl_start_final (arg=0x7fffffffde40) at rtld.c:414
#3  _dl_start (arg=0x7fffffffde40) at rtld.c:520
#4  0x00007ffff7dd5ea8 in _start () from /lib64/ld-linux-x86-64.so.2
#5  0x0000000000000007 in ?? ()
#6  0x00007fffffffe1db in ?? ()
#7  0x00007fffffffe1fe in ?? ()
#8  0x00007fffffffe201 in ?? ()
#9  0x00007fffffffe220 in ?? ()
#10 0x00007fffffffe223 in ?? ()
#11 0x00007fffffffe242 in ?? ()
#12 0x00007fffffffe245 in ?? ()
#13 0x0000000000000000 in ?? ()

2281	rtld.c: No such file or directory.

Backtrace END
Memory content before bitflip:0x000x000x000x00
Fault Model: Single bit-flip
base address to flip value: 0x7ffff7ffc8b8 
address max offset: 4
Memory content after  bitflip:0x000x000x400x00
frame name: _dl_start
symbol name: _dl_skip_args
symbol filename: rtld.c
symbol line: 84
value: 4194304
value address: 0x7ffff7ffc8b8 <_dl_skip_args>
Type: The type is an integer type.
Type sizeof: 4

[INFO -- 2018-11-07 18:31:11]
Fault Injection Successful after 0.7154572010040283s
[INFO -- 2018-11-07 18:31:11]
event type: exit
[EXCEPTION -- 2018-11-07 18:31:11]
exit code: no exit code available
