[INFO -- 2018-09-27 07:55:51]
Starting GDB script
[INFO -- 2018-09-27 07:55:51]
initSignal:0.0
[INFO -- 2018-09-27 07:55:51]
endSignal:2.0
[INFO -- 2018-09-27 07:55:51]
sending 5 signals using command: 'killall -2 smith_waterman' after 0.680657677164s
[INFO -- 2018-09-27 07:55:52]
sending 5 signals using command: 'killall -2 smith_waterman' after 0.908628515775s
[INFO -- 2018-09-27 07:55:52]
sending 5 signals using command: 'killall -2 smith_waterman' after 1.78281219432s
[INFO -- 2018-09-27 07:55:57]
Execution finished before waitTime
