[INFO -- 2018-11-08 21:01:09]
Starting flip_value script
version: 1.1
[INFO -- 2018-11-08 21:01:09]
Initialization strings:
[INFO -- 2018-11-08 21:01:09]
(1) file /tmp/smith_waterman/smith_waterman
[INFO -- 2018-11-08 21:01:09]
(2) set args -x /tmp/smith_waterman/randInputX -y /tmp/smith_waterman/randInputY -o /tmp/smith_waterman/output
[INFO -- 2018-11-08 21:01:09]
initSignal:0
[INFO -- 2018-11-08 21:01:09]
endSignal:6
[INFO -- 2018-11-08 21:01:09]
faultModel:1
[INFO -- 2018-11-08 21:01:11]
event type: exit
[INFO -- 2018-11-08 21:01:11]
exit code: 0
