[INFO -- 2018-09-26 00:58:43]
Starting GDB script
[INFO -- 2018-09-26 00:58:43]
initSignal:0.0
[INFO -- 2018-09-26 00:58:43]
endSignal:2.0
[INFO -- 2018-09-26 00:58:44]
sending 5 signals using command: 'killall -2 smith_waterman' after 0.891021788263s
[INFO -- 2018-09-26 00:58:44]
sending 5 signals using command: 'killall -2 smith_waterman' after 1.00901077635s
[INFO -- 2018-09-26 00:58:45]
sending 5 signals using command: 'killall -2 smith_waterman' after 1.86362214441s
[INFO -- 2018-09-26 00:58:48]
Execution finished before waitTime
