[INFO -- 2018-12-09 01:27:57]
Starting GDB script
[INFO -- 2018-12-09 01:27:57]
initSignal:0.0
[INFO -- 2018-12-09 01:27:57]
endSignal:6.0
[INFO -- 2018-12-09 01:27:58]
sending 5 signals using command: 'killall -2 smith_waterman' after 0.838183496941s
[INFO -- 2018-12-09 01:27:59]
sending 5 signals using command: 'killall -2 smith_waterman' after 1.9101757217s
[INFO -- 2018-12-09 01:28:00]
Execution finished before waitTime
