[INFO -- 2018-12-08 17:27:25]
Starting flip_value script
version: 1.1
[INFO -- 2018-12-08 17:27:25]
Initialization strings:
[INFO -- 2018-12-08 17:27:25]
(1) file /tmp/smith_waterman/smith_waterman
[INFO -- 2018-12-08 17:27:25]
(2) set args -x /tmp/smith_waterman/randInputX -y /tmp/smith_waterman/randInputY -o /tmp/smith_waterman/output -z /tmp/smith_waterman/detected.log
[INFO -- 2018-12-08 17:27:25]
initSignal:0
[INFO -- 2018-12-08 17:27:25]
endSignal:6
[INFO -- 2018-12-08 17:27:25]
faultModel:2
[INFO -- 2018-12-08 17:27:26]
Backtrace BEGIN:
#0  test_globals () at smith_waterman.c:75
#1  0x0000555555555371 in smith_waterman (x_num=15000, x_num2=15000, y_num=12150, y_num2=12150, str_x=0x5555557586c0 "XVDLHCJWPSEBDCNRHWOWBXQOTWEAMFHJDMVKOGJGYPHCUUVBQMZTLPIENOGAWNLZZILOQUUPMDTGYQHQCGKPYUTNKAPGNDHPLVFERBTDEOJEESVJZHYZDUONUEWJHFYUADYUETXLJJPQBKBCRZDUTSKPYIZHNZDQDEMJXJUJUKZYWACOBGKXAWMYGNFUNIMSMYBMJYVE"..., str_y=0x55555575c170 "XVDHHJJWPEEBCCNHWWOBXQQOTWEAMFJJMMVOGJJGYPHCUUVBMZTTLPINOOGANNLZZLLQQUUPMTGYQQHQCGPPYUTNKPPGNHHLVVEEBBDEEJJESSJJZHZZDUNUEEWHHFYAAYUEEXLJJPPQBKBRRDUTSSPPYZZNNZDQDMJXJUJUKZZYWACBBGXXWWYYGNFNNISSMYBJJYVI"...) at smith_waterman.c:202
#2  0x0000555555556178 in execute (file_x_name=0x7fffffffe065 "/tmp/smith_waterman/randInputX", file_y_name=0x7fffffffe087 "/tmp/smith_waterman/randInputY") at smith_waterman.c:379
#3  0x0000555555556393 in main (argc=9, argv=0x7fffffffdc38) at smith_waterman.c:425

70	
71	
72	    exit(0); // ocorreu SDC
73	}
74	
75	void test_globals(){
76		if( (match_score != match_score2) || (gap_score != gap_score2) || (mismatch_score != mismatch_score2) )
77	    {
78			sdc_exit();
79	    }

Backtrace END
Fliping a bit of the pointer
Memory content before bitflip:0xc00x860x750x550x550x550x000x00
Fault Model: Random bit-flip
base address to flip value: 0x7fffffffdae0
address max offset: 8
Memory content after  bitflip:0x820x780xaf0xf90xea0x380x0d0xc9
frame name: execute
symbol name: str_x
symbol filename: smith_waterman.c
symbol line: 373
value: 0x5555557586c0 "XVDLHCJWPSEBDCNRHWOWBXQOTWEAMFHJDMVKOGJGYPHCUUVBQMZTLPIENOGAWNLZZILOQUUPMDTGYQHQCGKPYUTNKAPGNDHPLVFERBTDEOJEESVJZHYZDUONUEWJHFYUADYUETXLJJPQBKBCRZDUTSKPYIZHNZDQDEMJXJUJUKZYWACOBGKXAWMYGNFUNIMSMYBMJYVE"...
value address: 0x7fffffffdae0
Type: The type is a pointer.
Type sizeof: 8

[INFO -- 2018-12-08 17:27:26]
Fault Injection Successful after 1.4008865356445312s
[INFO -- 2018-12-08 17:27:32]
event type: exit
[EXCEPTION -- 2018-12-08 17:27:32]
exit code: no exit code available
