[INFO -- 2018-09-25 05:52:25]
Starting GDB script
[INFO -- 2018-09-25 05:52:25]
initSignal:0.0
[INFO -- 2018-09-25 05:52:25]
endSignal:2.0
[INFO -- 2018-09-25 05:52:25]
sending 5 signals using command: 'killall -2 smith_waterman' after 0.451613978621s
[INFO -- 2018-09-25 05:52:25]
sending 5 signals using command: 'killall -2 smith_waterman' after 0.746743415593s
[INFO -- 2018-09-25 05:52:26]
sending 5 signals using command: 'killall -2 smith_waterman' after 1.32571463574s
[INFO -- 2018-09-25 05:52:31]
Execution finished before waitTime
