[INFO -- 2018-09-26 05:00:55]
Starting GDB script
[INFO -- 2018-09-26 05:00:55]
initSignal:0.0
[INFO -- 2018-09-26 05:00:55]
endSignal:2.0
[INFO -- 2018-09-26 05:00:56]
sending 5 signals using command: 'killall -2 smith_waterman' after 0.344422987352s
[INFO -- 2018-09-26 05:00:57]
sending 5 signals using command: 'killall -2 smith_waterman' after 1.9142801929s
[INFO -- 2018-09-26 05:00:57]
sending 5 signals using command: 'killall -2 smith_waterman' after 1.97927644834s
[INFO -- 2018-09-26 05:01:02]
Execution finished before waitTime
