[INFO -- 2018-12-09 07:46:53]
Starting GDB script
[INFO -- 2018-12-09 07:46:53]
initSignal:0.0
[INFO -- 2018-12-09 07:46:53]
endSignal:6.0
[INFO -- 2018-12-09 07:46:56]
sending 5 signals using command: 'killall -2 smith_waterman' after 2.32227619208s
[INFO -- 2018-12-09 07:46:57]
sending 5 signals using command: 'killall -2 smith_waterman' after 3.74932767336s
[INFO -- 2018-12-09 07:46:59]
sending 5 signals using command: 'killall -2 smith_waterman' after 5.15446428337s
[INFO -- 2018-12-09 07:47:02]
Execution finished before waitTime
