[INFO -- 2018-09-23 14:16:14]
Starting GDB script
[INFO -- 2018-09-23 14:16:14]
initSignal:0.0
[INFO -- 2018-09-23 14:16:14]
endSignal:2.0
[INFO -- 2018-09-23 14:16:14]
sending 5 signals using command: 'killall -2 smith_waterman' after 0.0357841733973s
[INFO -- 2018-09-23 14:16:14]
sending 5 signals using command: 'killall -2 smith_waterman' after 0.131886889326s
[INFO -- 2018-09-23 14:16:15]
sending 5 signals using command: 'killall -2 smith_waterman' after 0.71285014507s
[INFO -- 2018-09-23 14:16:15]
Execution finished before waitTime
