[INFO -- 2018-09-28 01:51:09]
Starting GDB script
[INFO -- 2018-09-28 01:51:09]
initSignal:0.0
[INFO -- 2018-09-28 01:51:09]
endSignal:2.0
[INFO -- 2018-09-28 01:51:10]
sending 5 signals using command: 'killall -2 smith_waterman' after 1.24145364951s
[INFO -- 2018-09-28 01:51:10]
sending 5 signals using command: 'killall -2 smith_waterman' after 1.35491429962s
[INFO -- 2018-09-28 01:51:10]
sending 5 signals using command: 'killall -2 smith_waterman' after 1.63286236239s
[INFO -- 2018-09-28 01:51:16]
Execution finished before waitTime
