[INFO -- 2018-12-03 19:28:47]
Starting GDB script
[INFO -- 2018-12-03 19:28:47]
initSignal:0.0
[INFO -- 2018-12-03 19:28:47]
endSignal:6.0
[INFO -- 2018-12-03 19:28:51]
sending 5 signals using command: 'killall -2 smith_waterman' after 3.46055015399s
[INFO -- 2018-12-03 19:28:52]
sending 5 signals using command: 'killall -2 smith_waterman' after 4.86428861713s
[INFO -- 2018-12-03 19:28:52]
sending 5 signals using command: 'killall -2 smith_waterman' after 5.01766194538s
[INFO -- 2018-12-03 19:28:54]
Execution finished before waitTime
