[INFO -- 2018-09-27 21:47:12]
Starting GDB script
[INFO -- 2018-09-27 21:47:12]
initSignal:0.0
[INFO -- 2018-09-27 21:47:12]
endSignal:2.0
[INFO -- 2018-09-27 21:47:12]
sending 5 signals using command: 'killall -2 smith_waterman' after 0.241840460955s
[INFO -- 2018-09-27 21:47:14]
sending 5 signals using command: 'killall -2 smith_waterman' after 1.73028983332s
[INFO -- 2018-09-27 21:47:14]
sending 5 signals using command: 'killall -2 smith_waterman' after 1.96375679652s
[INFO -- 2018-09-27 21:47:17]
Execution finished before waitTime
