[INFO -- 2018-09-25 00:26:08]
Starting flip_value script
version: 1.1
[INFO -- 2018-09-25 00:26:08]
Initialization strings:
[INFO -- 2018-09-25 00:26:08]
(1) file /tmp/smith_waterman/smith_waterman
[INFO -- 2018-09-25 00:26:08]
(2) set args -x /tmp/smith_waterman/randInputX -y /tmp/smith_waterman/randInputY -o /tmp/smith_waterman/output
[INFO -- 2018-09-25 00:26:08]
initSignal:0
[INFO -- 2018-09-25 00:26:08]
endSignal:2
[INFO -- 2018-09-25 00:26:08]
faultModel:0
[INFO -- 2018-09-25 00:26:08]
Backtrace BEGIN:
#0  my_maxof (a=1, b=-2, c=-2, d=0) at smith_waterman.c:69
#1  0x00005555555550d7 in smith_waterman (x_num=15000, y_num=11850, str_x=0x5555557586c0 "BPPWDXJRVCANBMUBFGBROBWMRJXDGBIJQYHVVQOTURGVDCXIIYBXCZLVIJYQMGCEGJCEAQXWJFSOHPWSPZRTBCOJNOCBXEGDNIHPAGMMLGATXZLMYCIZGWLULPXIVDNINVAQBMCNUCIRBVFCZNDFKQBXFZHAEULSRLKVZMITOSMSNRUOFXTRQXQVWXYCRLUJWGEXSOSJ"..., str_y=0x55555575c170 "PPWWDJJRVCNNBMUBFGBRBBWRRJXDGBIQQHHVVQOUURVDDCXIIBBXCZLVIYYQMGEEGJCAAXXWJFSOHWWSPRRTBCONNOCBXEGNNIPAAGMMLAATXZLYYCIZWLLUPPIIVNNINVABBCCNUCIBBVFCNNDKKQBXFZHEELLSRLKVMMITOSSSNUOFFXTRQXQWXXCCRLJWWGEXOOSJ"..., fo=0x555555758260) at smith_waterman.c:98
#2  0x0000555555555e38 in main (argc=7, argv=0x7fffffffdcb8) at smith_waterman.c:298

64	    double ans=a;
65	    if(ans<b) ans=b;
66	    if(ans<c) ans=c;
67	    if(ans<d) ans=d;
68	    return ans;
69	}
70	
71	double matchMisScore(long i, long j, char* str_y, char* str_x)
72	{
73	    if (str_y[j] == str_x[i])

Backtrace END
Memory content before bitflip:0x4a0x2e0x000x000x000x000x000x00
Fault Model: Single bit-flip
base address to flip value: 0x7fffffffda80
address max offset: 8
Memory content after  bitflip:0x4a0x2e0x000x080x000x000x000x00
frame name: smith_waterman
symbol name: y_num
symbol filename: smith_waterman.c
symbol line: 79
value: 134229578
value address: 0x7fffffffda80
Type: The type is an integer type.
Type sizeof: 8

[INFO -- 2018-09-25 00:26:08]
Fault Injection Successful after 0.7135753631591797s
[INFO -- 2018-09-25 00:26:08]
event type: exit
[EXCEPTION -- 2018-09-25 00:26:08]
exit code: no exit code available
