[INFO -- 2018-12-03 12:33:56]
sending 5 signals using command: 'killall -2 smith_waterman' after 5.43994166828s
[INFO -- 2018-12-03 12:33:56]
Starting GDB script
[INFO -- 2018-12-03 12:33:56]
initSignal:0.0
[INFO -- 2018-12-03 12:33:56]
endSignal:6.0
[INFO -- 2018-12-03 12:33:59]
sending 5 signals using command: 'killall -2 smith_waterman' after 2.81071034779s
[INFO -- 2018-12-03 12:34:00]
sending 5 signals using command: 'killall -2 smith_waterman' after 4.37708800562s
[INFO -- 2018-12-03 12:34:02]
sending 5 signals using command: 'killall -2 smith_waterman' after 5.79690026871s
[INFO -- 2018-12-03 12:34:02]
Execution finished before waitTime
