[INFO -- 2018-12-04 02:05:59]
Starting GDB script
[INFO -- 2018-12-04 02:05:59]
initSignal:0.0
[INFO -- 2018-12-04 02:05:59]
endSignal:6.0
[INFO -- 2018-12-04 02:06:00]
sending 5 signals using command: 'killall -2 smith_waterman' after 1.29387488875s
[INFO -- 2018-12-04 02:06:03]
sending 5 signals using command: 'killall -2 smith_waterman' after 4.18964183081s
[INFO -- 2018-12-04 02:06:03]
sending 5 signals using command: 'killall -2 smith_waterman' after 4.62079407547s
[INFO -- 2018-12-04 02:06:19]
Execution did not finish before waitTime
