[INFO -- 2018-12-04 10:08:20]
Starting GDB script
[INFO -- 2018-12-04 10:08:20]
initSignal:0.0
[INFO -- 2018-12-04 10:08:20]
endSignal:6.0
[INFO -- 2018-12-04 10:08:20]
sending 5 signals using command: 'killall -2 smith_waterman' after 0.200582059448s
[INFO -- 2018-12-04 10:08:21]
sending 5 signals using command: 'killall -2 smith_waterman' after 1.00054722892s
[INFO -- 2018-12-04 10:08:22]
sending 5 signals using command: 'killall -2 smith_waterman' after 2.14000173198s
[INFO -- 2018-12-04 10:08:26]
Execution finished before waitTime
