[INFO -- 2018-11-08 18:38:00]
sending 5 signals using command: 'killall -2 smith_waterman' after 2.76094301369s
[INFO -- 2018-11-08 18:38:03]
sending 5 signals using command: 'killall -2 smith_waterman' after 5.64021198257s
[INFO -- 2018-11-08 18:38:03]
Starting GDB script
[INFO -- 2018-11-08 18:38:03]
initSignal:0.0
[INFO -- 2018-11-08 18:38:03]
endSignal:6.0
[INFO -- 2018-11-08 18:38:05]
sending 5 signals using command: 'killall -2 smith_waterman' after 1.41876497223s
[INFO -- 2018-11-08 18:38:05]
Execution finished before waitTime
