[INFO -- 2018-12-05 23:18:40]
Starting GDB script
[INFO -- 2018-12-05 23:18:40]
initSignal:0.0
[INFO -- 2018-12-05 23:18:40]
endSignal:6.0
[INFO -- 2018-12-05 23:18:41]
sending 5 signals using command: 'killall -2 smith_waterman' after 0.878857171386s
[INFO -- 2018-12-05 23:18:43]
sending 5 signals using command: 'killall -2 smith_waterman' after 3.26128124461s
[INFO -- 2018-12-05 23:18:46]
sending 5 signals using command: 'killall -2 smith_waterman' after 5.58292719934s
[INFO -- 2018-12-05 23:19:00]
Execution did not finish before waitTime
