[INFO -- 2018-09-24 02:25:37]
Starting GDB script
[INFO -- 2018-09-24 02:25:37]
initSignal:0.0
[INFO -- 2018-09-24 02:25:37]
endSignal:2.0
[INFO -- 2018-09-24 02:25:37]
sending 5 signals using command: 'killall -2 smith_waterman' after 0.184766858333s
[INFO -- 2018-09-24 02:25:37]
sending 5 signals using command: 'killall -2 smith_waterman' after 0.344287603127s
[INFO -- 2018-09-24 02:25:38]
sending 5 signals using command: 'killall -2 smith_waterman' after 1.15824596964s
[INFO -- 2018-09-24 02:25:43]
Execution finished before waitTime
