[INFO -- 2018-09-23 18:46:04]
Starting flip_value script
version: 1.1
[INFO -- 2018-09-23 18:46:04]
Initialization strings:
[INFO -- 2018-09-23 18:46:04]
(1) file /tmp/smith_waterman/smith_waterman
[INFO -- 2018-09-23 18:46:04]
(2) set args -x /tmp/smith_waterman/randInputX -y /tmp/smith_waterman/randInputY -o /tmp/smith_waterman/output
[INFO -- 2018-09-23 18:46:04]
initSignal:0
[INFO -- 2018-09-23 18:46:04]
endSignal:2
[INFO -- 2018-09-23 18:46:04]
faultModel:2
[INFO -- 2018-09-23 18:46:05]
Backtrace BEGIN:
#0  0x0000555555554daf in my_maxof (a=-1, b=-2, c=-2, d=0) at smith_waterman.c:69
#1  0x00005555555550d7 in smith_waterman (x_num=15000, y_num=10050, str_x=0x5555557586c0 "FPCPKWVEDJKMTXYVDFKCLMYQTBEQOECVVFKGDFMGQYTJXTHBBRFOGFEZJIRXPUSKBESEMGKCEFOCBVFCOMQUSWWBHPAWLUIMABSMHFROKHSNEZRSLHPFGNINEILQEVEFYXTICKWORQCVPVQADFILUQAYBNOFIVMHSGPWQNKKDOHUKXWPEEAYVCZYPPDXKSGCYVAQKLCP"..., str_y=0x55555575c170 "PPCKKWVEJKKTTXYDDFKCMMQQTEQOOEVVFKGGDFGGYYJXXTHBBRFOFFZZJRRPPSKBESEEMKKCEFOBVFCCOMQSWWWHHPWWLIMMBSMMFFROKHNEERRLLPPGNINNELQEEVFFXTTIKWORRCVPVVQDDFLLUQYYNOOFIVMHSPWQNKKKDHHKXWWPEEYYVZYYPPXKKSCCYAAKLLPB"..., fo=0x555555758260) at smith_waterman.c:98
#2  0x0000555555555e38 in main (argc=7, argv=0x7fffffffdcb8) at smith_waterman.c:298

64	    double ans=a;
65	    if(ans<b) ans=b;
66	    if(ans<c) ans=c;
67	    if(ans<d) ans=d;
68	    return ans;
69	}
70	
71	double matchMisScore(long i, long j, char* str_y, char* str_x)
72	{
73	    if (str_y[j] == str_x[i])

Backtrace END
Memory content before bitflip:0x000x000x000x000x000x000x000xc0
Fault Model: Random bit-flip
base address to flip value: 0x7fffffffda28
address max offset: 8
Memory content after  bitflip:0x220x290x800x560x5b0x3c0xe00xe6
frame name: my_maxof
symbol name: c
symbol filename: smith_waterman.c
symbol line: 62
value: -3.532158403441855e+187
value address: 0x7fffffffda28
Type: A floating point type.
Type sizeof: 8

[INFO -- 2018-09-23 18:46:05]
Fault Injection Successful after 1.139869213104248s
[INFO -- 2018-09-23 18:46:08]
event type: exit
[INFO -- 2018-09-23 18:46:08]
exit code: 0
