[INFO -- 2018-12-05 07:58:58]
Starting GDB script
[INFO -- 2018-12-05 07:58:58]
initSignal:0.0
[INFO -- 2018-12-05 07:58:58]
endSignal:6.0
[INFO -- 2018-12-05 07:58:58]
sending 5 signals using command: 'killall -2 smith_waterman' after 0.073435237474s
[INFO -- 2018-12-05 07:58:59]
sending 5 signals using command: 'killall -2 smith_waterman' after 1.23497564807s
[INFO -- 2018-12-05 07:59:00]
sending 5 signals using command: 'killall -2 smith_waterman' after 2.55585781221s
[INFO -- 2018-12-05 07:59:04]
Execution finished before waitTime
