[INFO -- 2018-12-04 09:39:38]
Starting GDB script
[INFO -- 2018-12-04 09:39:38]
initSignal:0.0
[INFO -- 2018-12-04 09:39:38]
endSignal:6.0
[INFO -- 2018-12-04 09:39:39]
sending 5 signals using command: 'killall -2 smith_waterman' after 0.582588399187s
[INFO -- 2018-12-04 09:39:41]
sending 5 signals using command: 'killall -2 smith_waterman' after 2.88858269041s
[INFO -- 2018-12-04 09:39:43]
Execution finished before waitTime
