[INFO -- 2018-09-24 16:03:22]
Starting GDB script
[INFO -- 2018-09-24 16:03:22]
initSignal:0.0
[INFO -- 2018-09-24 16:03:22]
endSignal:2.0
[INFO -- 2018-09-24 16:03:22]
sending 5 signals using command: 'killall -2 smith_waterman' after 0.0753931281139s
[INFO -- 2018-09-24 16:03:23]
sending 5 signals using command: 'killall -2 smith_waterman' after 0.720962716643s
[INFO -- 2018-09-24 16:03:23]
sending 5 signals using command: 'killall -2 smith_waterman' after 1.21189785794s
[INFO -- 2018-09-24 16:03:28]
Execution finished before waitTime
