[INFO -- 2018-12-09 05:33:08]
Starting GDB script
[INFO -- 2018-12-09 05:33:08]
initSignal:0.0
[INFO -- 2018-12-09 05:33:08]
endSignal:6.0
[INFO -- 2018-12-09 05:33:09]
sending 5 signals using command: 'killall -2 smith_waterman' after 0.141014769956s
[INFO -- 2018-12-09 05:33:12]
sending 5 signals using command: 'killall -2 smith_waterman' after 3.06206359576s
[INFO -- 2018-12-09 05:33:14]
sending 5 signals using command: 'killall -2 smith_waterman' after 5.51376096342s
[INFO -- 2018-12-09 05:33:16]
Execution finished before waitTime
