[INFO -- 2018-09-27 19:16:28]
Starting GDB script
[INFO -- 2018-09-27 19:16:28]
initSignal:0.0
[INFO -- 2018-09-27 19:16:28]
endSignal:2.0
[INFO -- 2018-09-27 19:16:28]
sending 5 signals using command: 'killall -2 smith_waterman' after 0.0409265814979s
[INFO -- 2018-09-27 19:16:29]
sending 5 signals using command: 'killall -2 smith_waterman' after 1.1673019139s
[INFO -- 2018-09-27 19:16:30]
sending 5 signals using command: 'killall -2 smith_waterman' after 1.31891906987s
[INFO -- 2018-09-27 19:16:33]
Execution finished before waitTime
