[INFO -- 2018-12-04 02:12:45]
Starting GDB script
[INFO -- 2018-12-04 02:12:45]
initSignal:0.0
[INFO -- 2018-12-04 02:12:45]
endSignal:6.0
[INFO -- 2018-12-04 02:12:46]
sending 5 signals using command: 'killall -2 smith_waterman' after 0.775132961617s
[INFO -- 2018-12-04 02:12:47]
sending 5 signals using command: 'killall -2 smith_waterman' after 1.75487441287s
[INFO -- 2018-12-04 02:12:50]
sending 5 signals using command: 'killall -2 smith_waterman' after 4.2962720016s
[INFO -- 2018-12-04 02:12:52]
Execution finished before waitTime
