[INFO -- 2018-09-27 16:57:57]
Starting flip_value script
version: 1.1
[INFO -- 2018-09-27 16:57:57]
Initialization strings:
[INFO -- 2018-09-27 16:57:57]
(1) file /tmp/smith_waterman/smith_waterman
[INFO -- 2018-09-27 16:57:57]
(2) set args -x /tmp/smith_waterman/randInputX -y /tmp/smith_waterman/randInputY -o /tmp/smith_waterman/output
[INFO -- 2018-09-27 16:57:57]
initSignal:0
[INFO -- 2018-09-27 16:57:57]
endSignal:2
[INFO -- 2018-09-27 16:57:57]
faultModel:1
[INFO -- 2018-09-27 16:57:57]
Backtrace BEGIN:
#0  dl_main (phdr=<optimized out>, phnum=<optimized out>, user_entry=<optimized out>, auxv=<optimized out>) at rtld.c:2289
#1  0x00007ffff7defdd0 in _dl_sysdep_start (start_argptr=start_argptr@entry=0x7fffffffdcb0, dl_main=dl_main@entry=0x7ffff7dd7660 <dl_main>) at ../elf/dl-sysdep.c:253
#2  0x00007ffff7dd7128 in _dl_start_final (arg=0x7fffffffdcb0) at rtld.c:414
#3  _dl_start (arg=0x7fffffffdcb0) at rtld.c:521
#4  0x00007ffff7dd6098 in _start () from /lib64/ld-linux-x86-64.so.2
#5  0x0000000000000007 in ?? ()
#6  0x00007fffffffe0a8 in ?? ()
#7  0x00007fffffffe0cb in ?? ()
#8  0x00007fffffffe0ce in ?? ()
#9  0x00007fffffffe0ed in ?? ()
#10 0x00007fffffffe0f0 in ?? ()
#11 0x00007fffffffe10f in ?? ()
#12 0x00007fffffffe112 in ?? ()
#13 0x0000000000000000 in ?? ()

2284	rtld.c: No such file or directory.

Backtrace END
Fliping value of field: name
Fliping a bit of the pointer
Memory content before bitflip:0x380x420x550x550x550x550x000x00
Fault Model: Double bit-flip
base address to flip value: 0x7ffff7ffe030 
address max offset: 8
Memory content after  bitflip:0x380x420x550x550x550x550x000x82
frame name: _dl_start
symbol name: _dl_rtld_libname
symbol filename: rtld.c
symbol line: 301
value: {name = 0x8200555555554238 <error: Cannot access memory at address 0x8200555555554238>, next = 0x7ffff7ffdfe0 <newname>, dont_free = 0}
value address: 0x7ffff7ffe030 <_dl_rtld_libname>
Type: The type is a structure.
Type sizeof: 24
Field name: name
Field Type: The type is a pointer.
Field Type sizeof: 8
Field name: next
Field Type: The type is a pointer.
Field Type sizeof: 8
Field name: dont_free
Field Type: The type is an integer type.
Field Type sizeof: 4

[INFO -- 2018-09-27 16:57:57]
Fault Injection Successful after 0.9332826137542725s
[INFO -- 2018-09-27 16:58:02]
event type: exit
[INFO -- 2018-09-27 16:58:02]
exit code: 0
