[INFO -- 2018-09-24 23:25:29]
Starting GDB script
[INFO -- 2018-09-24 23:25:29]
initSignal:0.0
[INFO -- 2018-09-24 23:25:29]
endSignal:2.0
[INFO -- 2018-09-24 23:25:29]
sending 5 signals using command: 'killall -2 smith_waterman' after 0.145554070698s
[INFO -- 2018-09-24 23:25:31]
sending 5 signals using command: 'killall -2 smith_waterman' after 1.67419162385s
[INFO -- 2018-09-24 23:25:31]
sending 5 signals using command: 'killall -2 smith_waterman' after 1.95233540113s
[INFO -- 2018-09-24 23:25:34]
Execution finished before waitTime
