[INFO -- 2018-09-24 01:34:12]
sending 5 signals using command: 'killall -2 smith_waterman' after 1.70792681387s
[INFO -- 2018-09-24 01:34:12]
Starting GDB script
[INFO -- 2018-09-24 01:34:12]
initSignal:0.0
[INFO -- 2018-09-24 01:34:12]
endSignal:2.0
[INFO -- 2018-09-24 01:34:12]
sending 5 signals using command: 'killall -2 smith_waterman' after 0.422198564396s
[INFO -- 2018-09-24 01:34:13]
sending 5 signals using command: 'killall -2 smith_waterman' after 0.734864010233s
[INFO -- 2018-09-24 01:34:13]
sending 5 signals using command: 'killall -2 smith_waterman' after 0.963815237396s
[INFO -- 2018-09-24 01:34:32]
Execution did not finish before waitTime
