[INFO -- 2018-12-09 08:13:02]
sending 5 signals using command: 'killall -2 smith_waterman' after 4.47039042331s
[INFO -- 2018-12-09 08:13:02]
Starting GDB script
[INFO -- 2018-12-09 08:13:02]
initSignal:0.0
[INFO -- 2018-12-09 08:13:02]
endSignal:6.0
[INFO -- 2018-12-09 08:13:03]
sending 5 signals using command: 'killall -2 smith_waterman' after 0.323505316923s
[INFO -- 2018-12-09 08:13:03]
sending 5 signals using command: 'killall -2 smith_waterman' after 0.482075697118s
[INFO -- 2018-12-09 08:13:06]
sending 5 signals using command: 'killall -2 smith_waterman' after 3.85321666178s
[INFO -- 2018-12-09 08:13:10]
Execution finished before waitTime
