[INFO -- 2018-12-09 13:26:24]
sending 5 signals using command: 'killall -2 smith_waterman' after 2.51109857526s
[INFO -- 2018-12-09 13:26:25]
sending 5 signals using command: 'killall -2 smith_waterman' after 4.01945221918s
[INFO -- 2018-12-09 13:26:25]
Starting GDB script
[INFO -- 2018-12-09 13:26:25]
initSignal:0.0
[INFO -- 2018-12-09 13:26:25]
endSignal:6.0
[INFO -- 2018-12-09 13:26:27]
sending 5 signals using command: 'killall -2 smith_waterman' after 1.50154283329s
[INFO -- 2018-12-09 13:26:28]
sending 5 signals using command: 'killall -2 smith_waterman' after 3.1454192525s
[INFO -- 2018-12-09 13:26:29]
sending 5 signals using command: 'killall -2 smith_waterman' after 3.93336832123s
[INFO -- 2018-12-09 13:26:33]
Execution finished before waitTime
