[INFO -- 2018-12-08 05:37:59]
sending 5 signals using command: 'killall -2 smith_waterman' after 4.28532968599s
[INFO -- 2018-12-08 05:38:01]
sending 5 signals using command: 'killall -2 smith_waterman' after 5.99179580722s
[INFO -- 2018-12-08 05:38:01]
Starting GDB script
[INFO -- 2018-12-08 05:38:01]
initSignal:0.0
[INFO -- 2018-12-08 05:38:01]
endSignal:6.0
[INFO -- 2018-12-08 05:38:02]
sending 5 signals using command: 'killall -2 smith_waterman' after 0.656624846632s
[INFO -- 2018-12-08 05:38:02]
Execution finished before waitTime
