[INFO -- 2018-12-03 10:44:25]
sending 5 signals using command: 'killall -2 smith_waterman' after 5.98209594623s
[INFO -- 2018-12-03 10:44:25]
Starting GDB script
[INFO -- 2018-12-03 10:44:25]
initSignal:0.0
[INFO -- 2018-12-03 10:44:25]
endSignal:6.0
[INFO -- 2018-12-03 10:44:26]
sending 5 signals using command: 'killall -2 smith_waterman' after 0.470115231637s
[INFO -- 2018-12-03 10:44:28]
sending 5 signals using command: 'killall -2 smith_waterman' after 3.01329082036s
[INFO -- 2018-12-03 10:44:30]
sending 5 signals using command: 'killall -2 smith_waterman' after 4.27831783802s
[INFO -- 2018-12-03 10:44:30]
Execution finished before waitTime
