[INFO -- 2018-12-08 21:39:49]
sending 5 signals using command: 'killall -2 smith_waterman' after 5.35474146981s
[INFO -- 2018-12-08 21:39:49]
Starting GDB script
[INFO -- 2018-12-08 21:39:49]
initSignal:0.0
[INFO -- 2018-12-08 21:39:49]
endSignal:6.0
[INFO -- 2018-12-08 21:39:49]
sending 5 signals using command: 'killall -2 smith_waterman' after 0.327082856255s
[INFO -- 2018-12-08 21:39:50]
sending 5 signals using command: 'killall -2 smith_waterman' after 1.18664729561s
[INFO -- 2018-12-08 21:39:54]
sending 5 signals using command: 'killall -2 smith_waterman' after 5.33894614586s
[INFO -- 2018-12-08 21:39:55]
Execution finished before waitTime
