[INFO -- 2018-11-08 19:53:20]
sending 5 signals using command: 'killall -2 smith_waterman' after 5.23491786677s
[INFO -- 2018-11-08 19:53:20]
Starting GDB script
[INFO -- 2018-11-08 19:53:20]
initSignal:0.0
[INFO -- 2018-11-08 19:53:20]
endSignal:6.0
[INFO -- 2018-11-08 19:53:21]
sending 5 signals using command: 'killall -2 smith_waterman' after 0.793786431245s
[INFO -- 2018-11-08 19:53:23]
sending 5 signals using command: 'killall -2 smith_waterman' after 2.36483474171s
[INFO -- 2018-11-08 19:53:23]
sending 5 signals using command: 'killall -2 smith_waterman' after 2.5457730485s
[INFO -- 2018-11-08 19:53:23]
Execution finished before waitTime
