[INFO -- 2018-12-05 08:55:01]
Starting GDB script
[INFO -- 2018-12-05 08:55:01]
initSignal:0.0
[INFO -- 2018-12-05 08:55:01]
endSignal:6.0
[INFO -- 2018-12-05 08:55:02]
sending 5 signals using command: 'killall -2 smith_waterman' after 1.23668448442s
[INFO -- 2018-12-05 08:55:05]
sending 5 signals using command: 'killall -2 smith_waterman' after 3.81154919036s
[INFO -- 2018-12-05 08:55:05]
sending 5 signals using command: 'killall -2 smith_waterman' after 4.0245788685s
[INFO -- 2018-12-05 08:55:07]
Execution finished before waitTime
