[INFO -- 2018-12-03 17:20:47]
sending 5 signals using command: 'killall -2 smith_waterman' after 5.21254489336s
[INFO -- 2018-12-03 17:20:47]
sending 5 signals using command: 'killall -2 smith_waterman' after 5.45891701851s
[INFO -- 2018-12-03 17:20:47]
Starting GDB script
[INFO -- 2018-12-03 17:20:47]
initSignal:0.0
[INFO -- 2018-12-03 17:20:47]
endSignal:6.0
[INFO -- 2018-12-03 17:20:50]
sending 5 signals using command: 'killall -2 smith_waterman' after 2.98527322528s
[INFO -- 2018-12-03 17:20:51]
sending 5 signals using command: 'killall -2 smith_waterman' after 3.92128195985s
[INFO -- 2018-12-03 17:20:52]
Execution finished before waitTime
