[INFO -- 2018-09-25 21:30:37]
Starting GDB script
[INFO -- 2018-09-25 21:30:37]
initSignal:0.0
[INFO -- 2018-09-25 21:30:37]
endSignal:2.0
[INFO -- 2018-09-25 21:30:38]
sending 5 signals using command: 'killall -2 smith_waterman' after 0.244489782674s
[INFO -- 2018-09-25 21:30:38]
sending 5 signals using command: 'killall -2 smith_waterman' after 0.256410947161s
[INFO -- 2018-09-25 21:30:39]
sending 5 signals using command: 'killall -2 smith_waterman' after 1.85152017953s
[INFO -- 2018-09-25 21:30:45]
Execution finished before waitTime
