[INFO -- 2018-12-09 12:32:38]
Starting GDB script
[INFO -- 2018-12-09 12:32:38]
initSignal:0.0
[INFO -- 2018-12-09 12:32:38]
endSignal:6.0
[INFO -- 2018-12-09 12:32:39]
sending 5 signals using command: 'killall -2 smith_waterman' after 1.75661862556s
[INFO -- 2018-12-09 12:32:41]
sending 5 signals using command: 'killall -2 smith_waterman' after 3.45731078634s
[INFO -- 2018-12-09 12:32:43]
sending 5 signals using command: 'killall -2 smith_waterman' after 5.77974140998s
[INFO -- 2018-12-09 12:32:46]
Execution finished before waitTime
