[INFO -- 2018-12-05 20:56:46]
sending 5 signals using command: 'killall -2 smith_waterman' after 1.06843600337s
[INFO -- 2018-12-05 20:56:47]
sending 5 signals using command: 'killall -2 smith_waterman' after 2.01958921909s
[INFO -- 2018-12-05 20:56:47]
Starting GDB script
[INFO -- 2018-12-05 20:56:47]
initSignal:0.0
[INFO -- 2018-12-05 20:56:47]
endSignal:6.0
[INFO -- 2018-12-05 20:56:50]
sending 5 signals using command: 'killall -2 smith_waterman' after 3.29712822729s
[INFO -- 2018-12-05 20:56:50]
sending 5 signals using command: 'killall -2 smith_waterman' after 3.56854853546s
[INFO -- 2018-12-05 20:56:51]
sending 5 signals using command: 'killall -2 smith_waterman' after 3.86006376983s
[INFO -- 2018-12-05 20:56:52]
Execution finished before waitTime
