[INFO -- 2018-12-03 12:25:21]
Starting GDB script
[INFO -- 2018-12-03 12:25:21]
initSignal:0.0
[INFO -- 2018-12-03 12:25:21]
endSignal:6.0
[INFO -- 2018-12-03 12:25:23]
sending 5 signals using command: 'killall -2 smith_waterman' after 1.66055643668s
[INFO -- 2018-12-03 12:25:24]
sending 5 signals using command: 'killall -2 smith_waterman' after 3.06998967138s
[INFO -- 2018-12-03 12:25:25]
sending 5 signals using command: 'killall -2 smith_waterman' after 4.18430485274s
[INFO -- 2018-12-03 12:25:27]
Execution finished before waitTime
