[INFO -- 2018-09-25 04:46:13]
Starting GDB script
[INFO -- 2018-09-25 04:46:13]
initSignal:0.0
[INFO -- 2018-09-25 04:46:13]
endSignal:2.0
[INFO -- 2018-09-25 04:46:13]
sending 5 signals using command: 'killall -2 smith_waterman' after 0.385747087759s
[INFO -- 2018-09-25 04:46:14]
sending 5 signals using command: 'killall -2 smith_waterman' after 0.625104735403s
[INFO -- 2018-09-25 04:46:14]
sending 5 signals using command: 'killall -2 smith_waterman' after 0.996768510395s
[INFO -- 2018-09-25 04:46:33]
Execution did not finish before waitTime
