[INFO -- 2018-12-04 17:22:36]
Starting GDB script
[INFO -- 2018-12-04 17:22:36]
initSignal:0.0
[INFO -- 2018-12-04 17:22:36]
endSignal:6.0
[INFO -- 2018-12-04 17:22:36]
sending 5 signals using command: 'killall -2 smith_waterman' after 0.0670615219787s
[INFO -- 2018-12-04 17:22:39]
sending 5 signals using command: 'killall -2 smith_waterman' after 3.08193186181s
[INFO -- 2018-12-04 17:22:42]
sending 5 signals using command: 'killall -2 smith_waterman' after 5.66112416775s
[INFO -- 2018-12-04 17:22:42]
Execution finished before waitTime
