[INFO -- 2018-09-25 02:17:01]
Starting GDB script
[INFO -- 2018-09-25 02:17:01]
initSignal:0.0
[INFO -- 2018-09-25 02:17:01]
endSignal:2.0
[INFO -- 2018-09-25 02:17:01]
sending 5 signals using command: 'killall -2 smith_waterman' after 0.15930568141s
[INFO -- 2018-09-25 02:17:02]
sending 5 signals using command: 'killall -2 smith_waterman' after 0.583423970074s
[INFO -- 2018-09-25 02:17:03]
sending 5 signals using command: 'killall -2 smith_waterman' after 1.77986952511s
[INFO -- 2018-09-25 02:17:07]
Execution finished before waitTime
