[INFO -- 2018-12-04 15:02:00]
Starting GDB script
[INFO -- 2018-12-04 15:02:00]
initSignal:0.0
[INFO -- 2018-12-04 15:02:00]
endSignal:6.0
[INFO -- 2018-12-04 15:02:00]
sending 5 signals using command: 'killall -2 smith_waterman' after 0.190344860374s
[INFO -- 2018-12-04 15:02:02]
sending 5 signals using command: 'killall -2 smith_waterman' after 2.57757378182s
[INFO -- 2018-12-04 15:02:03]
sending 5 signals using command: 'killall -2 smith_waterman' after 3.69405953798s
[INFO -- 2018-12-04 15:02:06]
Execution finished before waitTime
