[INFO -- 2018-12-03 18:08:17]
Starting GDB script
[INFO -- 2018-12-03 18:08:17]
initSignal:0.0
[INFO -- 2018-12-03 18:08:17]
endSignal:6.0
[INFO -- 2018-12-03 18:08:18]
sending 5 signals using command: 'killall -2 smith_waterman' after 0.45047888134s
[INFO -- 2018-12-03 18:08:20]
sending 5 signals using command: 'killall -2 smith_waterman' after 2.95286974957s
[INFO -- 2018-12-03 18:08:20]
sending 5 signals using command: 'killall -2 smith_waterman' after 3.27196114923s
[INFO -- 2018-12-03 18:08:37]
Execution did not finish before waitTime
