[INFO -- 2018-12-04 21:26:09]
Starting GDB script
[INFO -- 2018-12-04 21:26:09]
initSignal:0.0
[INFO -- 2018-12-04 21:26:09]
endSignal:6.0
[INFO -- 2018-12-04 21:26:09]
sending 5 signals using command: 'killall -2 smith_waterman' after 0.729019591473s
[INFO -- 2018-12-04 21:26:10]
sending 5 signals using command: 'killall -2 smith_waterman' after 1.2339751248s
[INFO -- 2018-12-04 21:26:12]
sending 5 signals using command: 'killall -2 smith_waterman' after 3.79259685062s
[INFO -- 2018-12-04 21:26:29]
Execution did not finish before waitTime
