[INFO -- 2018-11-08 19:20:14]
Starting flip_value script
version: 1.1
[INFO -- 2018-11-08 19:20:14]
Initialization strings:
[INFO -- 2018-11-08 19:20:14]
(1) file /tmp/smith_waterman/smith_waterman
[INFO -- 2018-11-08 19:20:14]
(2) set args -x /tmp/smith_waterman/randInputX -y /tmp/smith_waterman/randInputY -o /tmp/smith_waterman/output
[INFO -- 2018-11-08 19:20:14]
initSignal:0
[INFO -- 2018-11-08 19:20:14]
endSignal:6
[INFO -- 2018-11-08 19:20:14]
faultModel:0
[INFO -- 2018-11-08 19:20:16]
event type: exit
[INFO -- 2018-11-08 19:20:16]
exit code: 0
