[INFO -- 2018-12-03 21:22:03]
Starting GDB script
[INFO -- 2018-12-03 21:22:03]
initSignal:0.0
[INFO -- 2018-12-03 21:22:03]
endSignal:6.0
[INFO -- 2018-12-03 21:22:06]
sending 5 signals using command: 'killall -2 smith_waterman' after 2.64939336773s
[INFO -- 2018-12-03 21:22:07]
sending 5 signals using command: 'killall -2 smith_waterman' after 3.9611290553s
[INFO -- 2018-12-03 21:22:08]
Execution finished before waitTime
