[INFO -- 2018-09-23 18:12:50]
Starting GDB script
[INFO -- 2018-09-23 18:12:50]
initSignal:0.0
[INFO -- 2018-09-23 18:12:50]
endSignal:2.0
[INFO -- 2018-09-23 18:12:51]
sending 5 signals using command: 'killall -2 smith_waterman' after 1.53650746574s
[INFO -- 2018-09-23 18:12:51]
sending 5 signals using command: 'killall -2 smith_waterman' after 1.6105985414s
[INFO -- 2018-09-23 18:12:51]
sending 5 signals using command: 'killall -2 smith_waterman' after 1.8822089843s
[INFO -- 2018-09-23 18:12:55]
Execution finished before waitTime
