[INFO -- 2018-12-04 06:43:15]
Starting GDB script
[INFO -- 2018-12-04 06:43:15]
initSignal:0.0
[INFO -- 2018-12-04 06:43:15]
endSignal:6.0
[INFO -- 2018-12-04 06:43:17]
sending 5 signals using command: 'killall -2 smith_waterman' after 1.43934621619s
[INFO -- 2018-12-04 06:43:17]
sending 5 signals using command: 'killall -2 smith_waterman' after 1.81328799818s
[INFO -- 2018-12-04 06:43:18]
sending 5 signals using command: 'killall -2 smith_waterman' after 2.50038689298s
[INFO -- 2018-12-04 06:43:21]
Execution finished before waitTime
