[INFO -- 2018-12-03 19:49:48]
Starting GDB script
[INFO -- 2018-12-03 19:49:48]
initSignal:0.0
[INFO -- 2018-12-03 19:49:48]
endSignal:6.0
[INFO -- 2018-12-03 19:49:50]
sending 5 signals using command: 'killall -2 smith_waterman' after 1.50697529161s
[INFO -- 2018-12-03 19:49:53]
sending 5 signals using command: 'killall -2 smith_waterman' after 4.2780357872s
[INFO -- 2018-12-03 19:49:54]
sending 5 signals using command: 'killall -2 smith_waterman' after 5.92453584234s
[INFO -- 2018-12-03 19:50:08]
Execution did not finish before waitTime
