[INFO -- 2018-11-08 20:53:18]
Starting flip_value script
version: 1.1
[INFO -- 2018-11-08 20:53:18]
Initialization strings:
[INFO -- 2018-11-08 20:53:18]
(1) file /tmp/smith_waterman/smith_waterman
[INFO -- 2018-11-08 20:53:18]
(2) set args -x /tmp/smith_waterman/randInputX -y /tmp/smith_waterman/randInputY -o /tmp/smith_waterman/output
[INFO -- 2018-11-08 20:53:18]
initSignal:0
[INFO -- 2018-11-08 20:53:18]
endSignal:6
[INFO -- 2018-11-08 20:53:18]
faultModel:0
[INFO -- 2018-11-08 20:53:19]
Backtrace BEGIN:
#0  0x0000555555554d71 in my_maxof (a=-1, b=-2, c=-2, d=0) at smith_waterman.c:65
#1  0x00005555555550d7 in smith_waterman (x_num=9900, y_num=15000, str_x=0x5555557586c0 "DWODJDCCKKOEERGGLXXRRHHFNNMAJHHMWPPAACHWMPSSGYYTYYQQQGGYNTWWHHJPFWWHCFDUPPCCMXXKOODCOLBGGYZZMJOTJMBMRFFNQQKKERXOHARXMTSWWYUJKKCRFFFQMGGEEWWQQWXYYQMMVVHVVRRFWWKKDDDRRJBVIAGWWGWWVJJSSTTTTKEEIQRVUUBODFNN"..., str_y=0x55555575ad80 "DWODJDMCTKGOERLGLZXVRSHOFNMAJYHMWXPFACHWMPKSGXYTWYQQQYGYNTAWTHJPFYWHCFDRUPLCMMXLKODCOLABGDYZMJOTJMBMRGFNWQRKERXOHARXMTYSWYUJHKCRXFFQMMGKEZWJQWXXYQUMKVHIVBRFLWYKBDDPRJBVIAGBWGYWYVJISQTNTKSEIQRKVUBODFMN"..., fo=0x555555758260) at smith_waterman.c:98
#2  0x0000555555555e38 in main (argc=7, argv=0x7fffffffde98) at smith_waterman.c:298

60	}
61	
62	double my_maxof(double a, double b, double c, double d)
63	{
64	    double ans=a;
65	    if(ans<b) ans=b;
66	    if(ans<c) ans=c;
67	    if(ans<d) ans=d;
68	    return ans;
69	}

Backtrace END
Memory content before bitflip:0x780x030x000x000x000x000x000x00
Fault Model: Single bit-flip
base address to flip value: 0x7fffffffdd80
address max offset: 8
Memory content after  bitflip:0x780x030x000x200x000x000x000x00
frame name: main
symbol name: t
symbol filename: smith_waterman.c
symbol line: 244
value: 536871800
value address: 0x7fffffffdd80
Type: The type is an integer type.
Type sizeof: 8

[INFO -- 2018-11-08 20:53:19]
Fault Injection Successful after 1.0002129077911377s
[INFO -- 2018-11-08 20:53:20]
event type: exit
[INFO -- 2018-11-08 20:53:20]
exit code: 0
