[INFO -- 2018-12-04 09:16:38]
Starting flip_value script
version: 1.1
[INFO -- 2018-12-04 09:16:38]
Initialization strings:
[INFO -- 2018-12-04 09:16:38]
(1) file /tmp/smith_waterman/smith_waterman
[INFO -- 2018-12-04 09:16:38]
(2) set args -x /tmp/smith_waterman/randInputX -y /tmp/smith_waterman/randInputY -o /tmp/smith_waterman/output -z /tmp/smith_waterman/detected.log
[INFO -- 2018-12-04 09:16:38]
initSignal:0
[INFO -- 2018-12-04 09:16:38]
endSignal:6
[INFO -- 2018-12-04 09:16:38]
faultModel:0
[INFO -- 2018-12-04 09:16:40]
Backtrace BEGIN:
#0  0x0000555555555256 in smith_waterman (x_num=15000, y_num=14850, str_x=0x5555557586c0 "KYVNBSEOYDMSTAHMLDXDHEYGJKZBPPJZNGMRYTFZYTRRWADHDDLNJLTVXTWNIHOXODOMWVNUPEOLETUKYHXISQFSLDHVLVTZYHNWFBRUHHHOABYZJVJDNOVBRCWCARDYZTVEUOADVHRXIRWTOFXEVUFNZBRZTXXUQUAKKCPHJJFTABNRJMVEGARFDLEYIEUYAWKLYZUJ"..., str_y=0x55555575c170 "KVVNBEOYYMMTAAMMDDDHEYGJKZBPPPZNGGRRTFZZTTRWAADHDLLJLLVXTWNIHOXODDMWWNUPPELETUUYHXIIQQFLLHHVLVZZHNWFBRUHHHOAAYZJJJJDNOBRCCCCADYYTTEEUAAVHRXIIWTTFXEVUFNZZRRTTXXUQUAKCPPHJFFABNNJJVEEAAFFDEEIIUYAWKLYZZJI"...) at smith_waterman.c:130
#1  0x0000555555555cbf in execute (file_x_name=0x7fffffffe22c "/tmp/smith_waterman/randInputX", file_y_name=0x7fffffffe24e "/tmp/smith_waterman/randInputY") at smith_waterman.c:263
#2  0x0000555555555f08 in main (argc=9, argv=0x7fffffffde78) at smith_waterman.c:314

125	            if(i==0 && j==0){
126	                maxValue = matrix[i][j];
127	                y = i;
128	                x = j;
129	            }
130	            if(maxValue < matrix[i][j]){
131	                maxValue = matrix[i][j];
132	                y = i;
133	                x = j;
134	            }

Backtrace END
Fliping a bit of the value pointed by a pointer
Memory content before bitflip:0x2f
Fault Model: Single bit-flip
base address to flip value: 0x7fffffffe24e 
address max offset: 1
Memory content after  bitflip:0x6f
frame name: main
symbol name: file_y_name
symbol filename: smith_waterman.c
symbol line: 274
value: 0x7fffffffe24e "otmp/smith_waterman/randInputY"
value address: 0x7fffffffdd48
Type: The type is a pointer.
Type sizeof: 8

[INFO -- 2018-12-04 09:16:40]
Fault Injection Successful after 2.72300124168396s
[INFO -- 2018-12-04 09:16:41]
event type: exit
[INFO -- 2018-12-04 09:16:41]
exit code: 0
