[INFO -- 2018-12-09 09:19:52]
Starting GDB script
[INFO -- 2018-12-09 09:19:52]
initSignal:0.0
[INFO -- 2018-12-09 09:19:52]
endSignal:6.0
[INFO -- 2018-12-09 09:19:53]
sending 5 signals using command: 'killall -2 smith_waterman' after 0.829137394548s
[INFO -- 2018-12-09 09:19:53]
sending 5 signals using command: 'killall -2 smith_waterman' after 1.42240912325s
[INFO -- 2018-12-09 09:19:55]
sending 5 signals using command: 'killall -2 smith_waterman' after 3.56044365544s
[INFO -- 2018-12-09 09:20:00]
Execution finished before waitTime
