[INFO -- 2018-09-27 10:11:35]
Starting GDB script
[INFO -- 2018-09-27 10:11:35]
initSignal:0.0
[INFO -- 2018-09-27 10:11:35]
endSignal:2.0
[INFO -- 2018-09-27 10:11:36]
sending 5 signals using command: 'killall -2 smith_waterman' after 0.57027005887s
[INFO -- 2018-09-27 10:11:36]
sending 5 signals using command: 'killall -2 smith_waterman' after 0.807305489284s
[INFO -- 2018-09-27 10:11:37]
sending 5 signals using command: 'killall -2 smith_waterman' after 1.73688238559s
[INFO -- 2018-09-27 10:11:41]
Execution finished before waitTime
