[INFO -- 2018-12-08 18:32:36]
sending 5 signals using command: 'killall -2 smith_waterman' after 5.10899231798s
[INFO -- 2018-12-08 18:32:37]
sending 5 signals using command: 'killall -2 smith_waterman' after 5.96993717397s
[INFO -- 2018-12-08 18:32:37]
Starting GDB script
[INFO -- 2018-12-08 18:32:37]
initSignal:0.0
[INFO -- 2018-12-08 18:32:37]
endSignal:6.0
[INFO -- 2018-12-08 18:32:41]
sending 5 signals using command: 'killall -2 smith_waterman' after 3.25339918278s
[INFO -- 2018-12-08 18:32:41]
Execution finished before waitTime
