[INFO -- 2018-09-27 09:26:00]
Starting GDB script
[INFO -- 2018-09-27 09:26:00]
initSignal:0.0
[INFO -- 2018-09-27 09:26:00]
endSignal:2.0
[INFO -- 2018-09-27 09:26:00]
sending 5 signals using command: 'killall -2 smith_waterman' after 0.00582212350349s
[INFO -- 2018-09-27 09:26:00]
sending 5 signals using command: 'killall -2 smith_waterman' after 0.509287531238s
[INFO -- 2018-09-27 09:26:01]
sending 5 signals using command: 'killall -2 smith_waterman' after 1.1025927715s
[INFO -- 2018-09-27 09:26:20]
Execution did not finish before waitTime
