[INFO -- 2018-12-04 01:27:53]
Starting GDB script
[INFO -- 2018-12-04 01:27:53]
initSignal:0.0
[INFO -- 2018-12-04 01:27:53]
endSignal:6.0
[INFO -- 2018-12-04 01:27:55]
sending 5 signals using command: 'killall -2 smith_waterman' after 1.15401352817s
[INFO -- 2018-12-04 01:27:55]
Execution finished before waitTime
