[INFO -- 2018-12-04 15:19:30]
Starting GDB script
[INFO -- 2018-12-04 15:19:30]
initSignal:0.0
[INFO -- 2018-12-04 15:19:30]
endSignal:6.0
[INFO -- 2018-12-04 15:19:31]
sending 5 signals using command: 'killall -2 smith_waterman' after 0.680587177431s
[INFO -- 2018-12-04 15:19:32]
sending 5 signals using command: 'killall -2 smith_waterman' after 1.79149145031s
[INFO -- 2018-12-04 15:19:34]
sending 5 signals using command: 'killall -2 smith_waterman' after 3.27355442123s
[INFO -- 2018-12-04 15:19:50]
Execution did not finish before waitTime
