[INFO -- 2018-12-03 14:34:24]
Starting GDB script
[INFO -- 2018-12-03 14:34:24]
initSignal:0.0
[INFO -- 2018-12-03 14:34:24]
endSignal:6.0
[INFO -- 2018-12-03 14:34:24]
sending 5 signals using command: 'killall -2 smith_waterman' after 0.58158352297s
[INFO -- 2018-12-03 14:34:25]
Execution finished before waitTime
