[INFO -- 2018-12-04 14:33:38]
Starting flip_value script
version: 1.1
[INFO -- 2018-12-04 14:33:38]
Initialization strings:
[INFO -- 2018-12-04 14:33:38]
(1) file /tmp/smith_waterman/smith_waterman
[INFO -- 2018-12-04 14:33:38]
(2) set args -x /tmp/smith_waterman/randInputX -y /tmp/smith_waterman/randInputY -o /tmp/smith_waterman/output -z /tmp/smith_waterman/detected.log
[INFO -- 2018-12-04 14:33:38]
initSignal:0
[INFO -- 2018-12-04 14:33:38]
endSignal:6
[INFO -- 2018-12-04 14:33:38]
faultModel:2
[EXCEPTION -- 2018-12-04 14:33:41]
gdbException: Attempt to dereference a generic pointer.
[INFO -- 2018-12-04 14:33:41]
Backtrace BEGIN:
#0  __strlen_avx2 () at ../sysdeps/x86_64/multiarch/strlen-avx2.S:181
#1  0x00005555555555e1 in smith_waterman (x_num=15000, y_num=12750, str_x=0x5555557586c0 "UMXHKAHVSFIPTMRSSXLHCSNKSNCKAPZWEYFOAMKSTSIOHBHZZUIDNYPFNRRNJQLNRQBRFNMYIUPPXYQYSYCFYRKMLCZUUNJLDMFKARLILAXKYNJSNLYMEKYROZNJMWWSJBCLSPTFPSQPHZIUMIISSIKHIZSWWOQHQVSIKNQCFGRMHBITLRNGZXNJXHIVVYENTWYGJOIQ"..., str_y=0x55555575c170 "MXHKAHVSFFPTMRSSSLLCSNNSNCCKPPWEYFFAMKSSTIOHBHZZZIDDYPPNRRNNJLNRQQBRFNYIIUPXYYQYSCFFRRMLCZZUNJJLMFKARRLLLXXKNJSNNYMEKYYRZNJMWWSJJBLSSPFPPSPPZIUMIIISSKHHZZWWOQHHVVSKKQCCFRMHHIILRNNGZNJXHIVVVYNTTYYJOOQU"...) at smith_waterman.c:170
#2  0x0000555555555cbf in execute (file_x_name=0x7fffffffe22c "/tmp/smith_waterman/randInputX", file_y_name=0x7fffffffe24e "/tmp/smith_waterman/randInputY") at smith_waterman.c:263
#3  0x0000555555555f08 in main (argc=9, argv=0x7fffffffde78) at smith_waterman.c:314

176	../sysdeps/x86_64/multiarch/strlen-avx2.S: No such file or directory.

Backtrace END
Memory content before bitflip:0x980x3a0x000x000x000x000x000x00
Fault Model: Random bit-flip
base address to flip value: 0x7fffffffdce0
address max offset: 8
Memory content after  bitflip:0x880x750x750xb00x030x3c0xea0x5d
frame name: execute
symbol name: x_num
symbol filename: smith_waterman.c
symbol line: 253
value: 6767287376620647816
value address: 0x7fffffffdce0
Type: The type is an integer type.
Type sizeof: 8

[INFO -- 2018-12-04 14:33:41]
Fault Injection Successful after 3.46423602104187s
[INFO -- 2018-12-04 14:33:44]
event type: exit
[INFO -- 2018-12-04 14:33:44]
exit code: 0
