[INFO -- 2018-09-25 18:32:29]
Starting GDB script
[INFO -- 2018-09-25 18:32:29]
initSignal:0.0
[INFO -- 2018-09-25 18:32:29]
endSignal:2.0
[INFO -- 2018-09-25 18:32:30]
sending 5 signals using command: 'killall -2 smith_waterman' after 0.961817729572s
[INFO -- 2018-09-25 18:32:31]
sending 5 signals using command: 'killall -2 smith_waterman' after 1.63888778389s
[INFO -- 2018-09-25 18:32:31]
sending 5 signals using command: 'killall -2 smith_waterman' after 1.91717653029s
[INFO -- 2018-09-25 18:32:49]
Execution did not finish before waitTime
