[INFO -- 2018-09-23 22:20:08]
Starting GDB script
[INFO -- 2018-09-23 22:20:08]
initSignal:0.0
[INFO -- 2018-09-23 22:20:08]
endSignal:2.0
[INFO -- 2018-09-23 22:20:08]
sending 5 signals using command: 'killall -2 smith_waterman' after 0.0177063324727s
[INFO -- 2018-09-23 22:20:09]
sending 5 signals using command: 'killall -2 smith_waterman' after 0.703077864297s
[INFO -- 2018-09-23 22:20:09]
sending 5 signals using command: 'killall -2 smith_waterman' after 1.38020399708s
[INFO -- 2018-09-23 22:20:10]
Execution finished before waitTime
