[INFO -- 2018-12-04 12:05:10]
Starting GDB script
[INFO -- 2018-12-04 12:05:10]
initSignal:0.0
[INFO -- 2018-12-04 12:05:10]
endSignal:6.0
[INFO -- 2018-12-04 12:05:11]
sending 5 signals using command: 'killall -2 smith_waterman' after 0.407183589678s
[INFO -- 2018-12-04 12:05:13]
Execution finished before waitTime
