[INFO -- 2018-12-09 09:36:51]
Starting GDB script
[INFO -- 2018-12-09 09:36:51]
initSignal:0.0
[INFO -- 2018-12-09 09:36:51]
endSignal:6.0
[INFO -- 2018-12-09 09:36:53]
sending 5 signals using command: 'killall -2 smith_waterman' after 2.65500682881s
[INFO -- 2018-12-09 09:36:54]
sending 5 signals using command: 'killall -2 smith_waterman' after 2.83489171503s
[INFO -- 2018-12-09 09:36:54]
Execution finished before waitTime
