[INFO -- 2018-12-04 08:42:42]
Starting GDB script
[INFO -- 2018-12-04 08:42:42]
initSignal:0.0
[INFO -- 2018-12-04 08:42:42]
endSignal:6.0
[INFO -- 2018-12-04 08:42:43]
sending 5 signals using command: 'killall -2 smith_waterman' after 1.03183545892s
[INFO -- 2018-12-04 08:42:44]
sending 5 signals using command: 'killall -2 smith_waterman' after 1.59985953154s
[INFO -- 2018-12-04 08:42:47]
sending 5 signals using command: 'killall -2 smith_waterman' after 5.12073985323s
[INFO -- 2018-12-04 08:43:02]
Execution did not finish before waitTime
