[INFO -- 2018-09-23 15:20:58]
Starting GDB script
[INFO -- 2018-09-23 15:20:58]
initSignal:0.0
[INFO -- 2018-09-23 15:20:58]
endSignal:2.0
[INFO -- 2018-09-23 15:20:58]
sending 5 signals using command: 'killall -2 smith_waterman' after 0.211285901485s
[INFO -- 2018-09-23 15:20:58]
sending 5 signals using command: 'killall -2 smith_waterman' after 0.448498350741s
[INFO -- 2018-09-23 15:20:59]
sending 5 signals using command: 'killall -2 smith_waterman' after 0.912730742736s
[INFO -- 2018-09-23 15:21:03]
Execution finished before waitTime
