[INFO -- 2018-09-27 00:24:38]
Starting GDB script
[INFO -- 2018-09-27 00:24:38]
initSignal:0.0
[INFO -- 2018-09-27 00:24:38]
endSignal:2.0
[INFO -- 2018-09-27 00:24:38]
sending 5 signals using command: 'killall -2 smith_waterman' after 0.0145780243605s
[INFO -- 2018-09-27 00:24:38]
sending 5 signals using command: 'killall -2 smith_waterman' after 0.549799977422s
[INFO -- 2018-09-27 00:24:40]
sending 5 signals using command: 'killall -2 smith_waterman' after 1.72225357692s
[INFO -- 2018-09-27 00:24:44]
Execution finished before waitTime
