[INFO -- 2018-12-09 09:06:18]
Starting GDB script
[INFO -- 2018-12-09 09:06:18]
initSignal:0.0
[INFO -- 2018-12-09 09:06:18]
endSignal:6.0
[INFO -- 2018-12-09 09:06:20]
sending 5 signals using command: 'killall -2 smith_waterman' after 1.94684921694s
[INFO -- 2018-12-09 09:06:22]
sending 5 signals using command: 'killall -2 smith_waterman' after 3.64954415268s
[INFO -- 2018-12-09 09:06:23]
sending 5 signals using command: 'killall -2 smith_waterman' after 4.70081531876s
[INFO -- 2018-12-09 09:06:26]
Execution finished before waitTime
