[INFO -- 2018-09-28 05:26:37]
Starting GDB script
[INFO -- 2018-09-28 05:26:37]
initSignal:0.0
[INFO -- 2018-09-28 05:26:37]
endSignal:2.0
[INFO -- 2018-09-28 05:26:38]
sending 5 signals using command: 'killall -2 smith_waterman' after 1.02371087764s
[INFO -- 2018-09-28 05:26:38]
sending 5 signals using command: 'killall -2 smith_waterman' after 1.05426583273s
[INFO -- 2018-09-28 05:26:38]
sending 5 signals using command: 'killall -2 smith_waterman' after 1.33961962125s
[INFO -- 2018-09-28 05:26:44]
Execution finished before waitTime
