[INFO -- 2018-12-04 20:39:07]
Starting GDB script
[INFO -- 2018-12-04 20:39:07]
initSignal:0.0
[INFO -- 2018-12-04 20:39:07]
endSignal:6.0
[INFO -- 2018-12-04 20:39:09]
sending 5 signals using command: 'killall -2 smith_waterman' after 1.51104673363s
[INFO -- 2018-12-04 20:39:10]
sending 5 signals using command: 'killall -2 smith_waterman' after 2.93555006637s
[INFO -- 2018-12-04 20:39:11]
sending 5 signals using command: 'killall -2 smith_waterman' after 4.34896594077s
[INFO -- 2018-12-04 20:39:13]
Execution finished before waitTime
