[INFO -- 2018-09-23 16:20:51]
Starting GDB script
[INFO -- 2018-09-23 16:20:51]
initSignal:0.0
[INFO -- 2018-09-23 16:20:51]
endSignal:2.0
[INFO -- 2018-09-23 16:20:51]
sending 5 signals using command: 'killall -2 smith_waterman' after 0.315375204437s
[INFO -- 2018-09-23 16:20:52]
sending 5 signals using command: 'killall -2 smith_waterman' after 1.01942003795s
[INFO -- 2018-09-23 16:20:52]
sending 5 signals using command: 'killall -2 smith_waterman' after 1.8068176941s
[INFO -- 2018-09-23 16:20:56]
Execution finished before waitTime
