[INFO -- 2018-11-08 23:19:42]
sending 5 signals using command: 'killall -2 smith_waterman' after 4.58978903737s
[INFO -- 2018-11-08 23:19:42]
Starting GDB script
[INFO -- 2018-11-08 23:19:42]
initSignal:0.0
[INFO -- 2018-11-08 23:19:42]
endSignal:6.0
[INFO -- 2018-11-08 23:19:42]
sending 5 signals using command: 'killall -2 smith_waterman' after 0.162719548145s
[INFO -- 2018-11-08 23:19:43]
sending 5 signals using command: 'killall -2 smith_waterman' after 0.736901293269s
[INFO -- 2018-11-08 23:19:44]
sending 5 signals using command: 'killall -2 smith_waterman' after 1.9182561s
[INFO -- 2018-11-08 23:19:45]
Execution finished before waitTime
