[INFO -- 2018-09-25 03:37:06]
Starting GDB script
[INFO -- 2018-09-25 03:37:06]
initSignal:0.0
[INFO -- 2018-09-25 03:37:06]
endSignal:2.0
[INFO -- 2018-09-25 03:37:06]
sending 5 signals using command: 'killall -2 smith_waterman' after 0.292166617771s
[INFO -- 2018-09-25 03:37:07]
sending 5 signals using command: 'killall -2 smith_waterman' after 0.853372438595s
[INFO -- 2018-09-25 03:37:07]
sending 5 signals using command: 'killall -2 smith_waterman' after 1.13942664645s
[INFO -- 2018-09-25 03:37:12]
Execution finished before waitTime
