[INFO -- 2018-12-09 02:40:21]
Starting GDB script
[INFO -- 2018-12-09 02:40:21]
initSignal:0.0
[INFO -- 2018-12-09 02:40:21]
endSignal:6.0
[INFO -- 2018-12-09 02:40:21]
sending 5 signals using command: 'killall -2 smith_waterman' after 0.301579955251s
[INFO -- 2018-12-09 02:40:21]
sending 5 signals using command: 'killall -2 smith_waterman' after 0.488555912063s
[INFO -- 2018-12-09 02:40:22]
sending 5 signals using command: 'killall -2 smith_waterman' after 1.08805452625s
[INFO -- 2018-12-09 02:40:30]
Execution finished before waitTime
