[INFO -- 2018-12-08 16:14:09]
Starting GDB script
[INFO -- 2018-12-08 16:14:09]
initSignal:0.0
[INFO -- 2018-12-08 16:14:09]
endSignal:6.0
[INFO -- 2018-12-08 16:14:10]
sending 5 signals using command: 'killall -2 smith_waterman' after 0.411782008274s
[INFO -- 2018-12-08 16:14:13]
sending 5 signals using command: 'killall -2 smith_waterman' after 3.65294296592s
[INFO -- 2018-12-08 16:14:14]
sending 5 signals using command: 'killall -2 smith_waterman' after 4.47103782515s
[INFO -- 2018-12-08 16:14:16]
Execution finished before waitTime
