[INFO -- 2018-09-24 01:14:40]
Starting GDB script
[INFO -- 2018-09-24 01:14:40]
initSignal:0.0
[INFO -- 2018-09-24 01:14:40]
endSignal:2.0
[INFO -- 2018-09-24 01:14:40]
sending 5 signals using command: 'killall -2 smith_waterman' after 0.0649825154275s
[INFO -- 2018-09-24 01:14:40]
sending 5 signals using command: 'killall -2 smith_waterman' after 0.341852630199s
[INFO -- 2018-09-24 01:14:42]
sending 5 signals using command: 'killall -2 smith_waterman' after 1.60324436705s
[INFO -- 2018-09-24 01:14:46]
Execution finished before waitTime
