[INFO -- 2018-11-08 19:01:21]
sending 5 signals using command: 'killall -2 smith_waterman' after 3.69748486694s
[INFO -- 2018-11-08 19:01:21]
sending 5 signals using command: 'killall -2 smith_waterman' after 4.35785077502s
[INFO -- 2018-11-08 19:01:22]
sending 5 signals using command: 'killall -2 smith_waterman' after 5.26038912366s
[INFO -- 2018-11-08 19:01:22]
Starting GDB script
[INFO -- 2018-11-08 19:01:22]
initSignal:0.0
[INFO -- 2018-11-08 19:01:22]
endSignal:6.0
[INFO -- 2018-11-08 19:01:25]
Execution finished before waitTime
