[INFO -- 2018-12-03 21:01:24]
Starting GDB script
[INFO -- 2018-12-03 21:01:24]
initSignal:0.0
[INFO -- 2018-12-03 21:01:24]
endSignal:6.0
[INFO -- 2018-12-03 21:01:24]
sending 5 signals using command: 'killall -2 smith_waterman' after 0.550682871787s
[INFO -- 2018-12-03 21:01:26]
sending 5 signals using command: 'killall -2 smith_waterman' after 2.22441441636s
[INFO -- 2018-12-03 21:01:28]
sending 5 signals using command: 'killall -2 smith_waterman' after 4.19261471581s
[INFO -- 2018-12-03 21:01:29]
Execution finished before waitTime
