[INFO -- 2018-12-05 08:55:43]
sending 5 signals using command: 'killall -2 smith_waterman' after 5.64569998377s
[INFO -- 2018-12-05 08:55:44]
sending 5 signals using command: 'killall -2 smith_waterman' after 5.91508491311s
[INFO -- 2018-12-05 08:55:44]
Starting GDB script
[INFO -- 2018-12-05 08:55:44]
initSignal:0.0
[INFO -- 2018-12-05 08:55:44]
endSignal:6.0
[INFO -- 2018-12-05 08:55:44]
sending 5 signals using command: 'killall -2 smith_waterman' after 0.250172201179s
[INFO -- 2018-12-05 08:55:46]
sending 5 signals using command: 'killall -2 smith_waterman' after 2.25583481128s
[INFO -- 2018-12-05 08:55:46]
sending 5 signals using command: 'killall -2 smith_waterman' after 2.59061397279s
[INFO -- 2018-12-05 08:55:50]
Execution finished before waitTime
