[INFO -- 2018-12-03 11:09:19]
Starting GDB script
[INFO -- 2018-12-03 11:09:19]
initSignal:0.0
[INFO -- 2018-12-03 11:09:19]
endSignal:6.0
[INFO -- 2018-12-03 11:09:21]
sending 5 signals using command: 'killall -2 smith_waterman' after 1.58691693898s
[INFO -- 2018-12-03 11:09:23]
sending 5 signals using command: 'killall -2 smith_waterman' after 3.23758691289s
[INFO -- 2018-12-03 11:09:24]
sending 5 signals using command: 'killall -2 smith_waterman' after 4.9661795597s
[INFO -- 2018-12-03 11:09:26]
Execution finished before waitTime
