[INFO -- 2018-09-24 17:28:36]
Starting flip_value script
version: 1.1
[INFO -- 2018-09-24 17:28:36]
Initialization strings:
[INFO -- 2018-09-24 17:28:36]
(1) file /tmp/smith_waterman/smith_waterman
[INFO -- 2018-09-24 17:28:36]
(2) set args -x /tmp/smith_waterman/randInputX -y /tmp/smith_waterman/randInputY -o /tmp/smith_waterman/output
[INFO -- 2018-09-24 17:28:36]
initSignal:0
[INFO -- 2018-09-24 17:28:36]
endSignal:2
[INFO -- 2018-09-24 17:28:36]
faultModel:1
[INFO -- 2018-09-24 17:28:37]
Backtrace BEGIN:
#0  my_maxof (a=-1, b=-2, c=-2, d=0) at smith_waterman.c:63
#1  0x00005555555550d7 in smith_waterman (x_num=15000, y_num=13050, str_x=0x5555557586c0 "POUGBBTKUDSLRHKHGTCONFQYUKVFYVNPKKVLNQVJTPVMWFVCAXTNDJLXTJCTESIQCDCRVZAQRVFNCASDYLQDWEARNFKTXSKBXOSSNSIEQNUSQMVOXMRVSTMFYYAXQKYPYSHOLRSBHOTXARNZFGUXZIEAGEXYPYNNQWBDQWEXKAWNRLOWRJVQTZQADQASOOIGMLKCJOBU"..., str_y=0x55555575c170 "OUGBBBKKUDSRRHHHTTOOFQQYKVFYVNPKKKLLQQJTTPVWFFVAAXNNDJXTTCCTEIIQCDRRVAAQRFNNASSYYLQWWERRNFTTSSBBOSSSNSIEQNUQQVVOMRRSSTFFYAAXQYPYSSHORRBBHOXAANNFGUXZIIEAEXXYYYNNWWBQQWEKKWNNLLWRJVQTZZQADQSSOOIMLLKCOBBU"..., fo=0x555555758260) at smith_waterman.c:98
#2  0x0000555555555e38 in main (argc=7, argv=0x7fffffffdcb8) at smith_waterman.c:298

58	        exit(0);
59	    }
60	}
61	
62	double my_maxof(double a, double b, double c, double d)
63	{
64	    double ans=a;
65	    if(ans<b) ans=b;
66	    if(ans<c) ans=c;
67	    if(ans<d) ans=d;

Backtrace END
Fliping a bit of the value pointed by a pointer
Fliping value of field: _IO_write_ptr
Fliping a bit of the pointer
Memory content before bitflip:0x000x000x000x000x000x000x000x00
Fault Model: Double bit-flip
base address to flip value: 0x555555758288
address max offset: 8
Memory content after  bitflip:0x000x000x000x000x500x000x000x00
frame name: main
symbol name: fpy
symbol filename: smith_waterman.c
symbol line: 278
value: 0x555555758260
value address: 0x7fffffffdb70
Type: The type is a pointer.
Type sizeof: 8

[INFO -- 2018-09-24 17:28:37]
Fault Injection Successful after 1.1570689678192139s
[INFO -- 2018-09-24 17:28:42]
event type: exit
[INFO -- 2018-09-24 17:28:42]
exit code: 0
