[INFO -- 2018-12-03 23:40:18]
sending 5 signals using command: 'killall -2 smith_waterman' after 5.29199930651s
[INFO -- 2018-12-03 23:40:18]
Starting GDB script
[INFO -- 2018-12-03 23:40:18]
initSignal:0.0
[INFO -- 2018-12-03 23:40:18]
endSignal:6.0
[INFO -- 2018-12-03 23:40:20]
sending 5 signals using command: 'killall -2 smith_waterman' after 1.46561297116s
[INFO -- 2018-12-03 23:40:23]
sending 5 signals using command: 'killall -2 smith_waterman' after 4.71012500452s
[INFO -- 2018-12-03 23:40:24]
Execution finished before waitTime
