[INFO -- 2018-12-05 09:48:40]
Starting GDB script
[INFO -- 2018-12-05 09:48:40]
initSignal:0.0
[INFO -- 2018-12-05 09:48:40]
endSignal:6.0
[INFO -- 2018-12-05 09:48:42]
sending 5 signals using command: 'killall -2 smith_waterman' after 2.37761146029s
[INFO -- 2018-12-05 09:48:43]
sending 5 signals using command: 'killall -2 smith_waterman' after 3.27719537997s
[INFO -- 2018-12-05 09:48:44]
sending 5 signals using command: 'killall -2 smith_waterman' after 3.72360223388s
[INFO -- 2018-12-05 09:49:00]
Execution did not finish before waitTime
