[INFO -- 2018-09-25 23:57:08]
Starting GDB script
[INFO -- 2018-09-25 23:57:08]
initSignal:0.0
[INFO -- 2018-09-25 23:57:08]
endSignal:2.0
[INFO -- 2018-09-25 23:57:09]
sending 5 signals using command: 'killall -2 smith_waterman' after 0.34127342231s
[INFO -- 2018-09-25 23:57:09]
sending 5 signals using command: 'killall -2 smith_waterman' after 0.535238352663s
[INFO -- 2018-09-25 23:57:09]
sending 5 signals using command: 'killall -2 smith_waterman' after 0.555892194189s
[INFO -- 2018-09-25 23:57:13]
Execution finished before waitTime
