[INFO -- 2018-11-08 23:15:26]
sending 5 signals using command: 'killall -2 smith_waterman' after 3.08262023292s
[INFO -- 2018-11-08 23:15:26]
sending 5 signals using command: 'killall -2 smith_waterman' after 3.29576065699s
[INFO -- 2018-11-08 23:15:26]
Starting GDB script
[INFO -- 2018-11-08 23:15:26]
initSignal:0.0
[INFO -- 2018-11-08 23:15:26]
endSignal:6.0
[INFO -- 2018-11-08 23:15:27]
sending 5 signals using command: 'killall -2 smith_waterman' after 0.173947298183s
[INFO -- 2018-11-08 23:15:27]
Execution finished before waitTime
