[INFO -- 2018-09-27 20:57:58]
Starting GDB script
[INFO -- 2018-09-27 20:57:58]
initSignal:0.0
[INFO -- 2018-09-27 20:57:58]
endSignal:2.0
[INFO -- 2018-09-27 20:57:59]
sending 5 signals using command: 'killall -2 smith_waterman' after 0.873844270395s
[INFO -- 2018-09-27 20:57:59]
sending 5 signals using command: 'killall -2 smith_waterman' after 0.969883287316s
[INFO -- 2018-09-27 20:57:59]
sending 5 signals using command: 'killall -2 smith_waterman' after 1.35783974787s
[INFO -- 2018-09-27 20:58:03]
Execution finished before waitTime
