[INFO -- 2018-09-26 00:52:58]
Starting GDB script
[INFO -- 2018-09-26 00:52:58]
initSignal:0.0
[INFO -- 2018-09-26 00:52:58]
endSignal:2.0
[INFO -- 2018-09-26 00:52:58]
sending 5 signals using command: 'killall -2 smith_waterman' after 0.354612507493s
[INFO -- 2018-09-26 00:52:59]
sending 5 signals using command: 'killall -2 smith_waterman' after 1.21482155192s
[INFO -- 2018-09-26 00:53:00]
sending 5 signals using command: 'killall -2 smith_waterman' after 1.8638694294s
[INFO -- 2018-09-26 00:53:03]
Execution finished before waitTime
