[INFO -- 2018-11-08 22:50:32]
Starting flip_value script
version: 1.1
[INFO -- 2018-11-08 22:50:32]
Initialization strings:
[INFO -- 2018-11-08 22:50:32]
(1) file /tmp/smith_waterman/smith_waterman
[INFO -- 2018-11-08 22:50:32]
(2) set args -x /tmp/smith_waterman/randInputX -y /tmp/smith_waterman/randInputY -o /tmp/smith_waterman/output
[INFO -- 2018-11-08 22:50:32]
initSignal:0
[INFO -- 2018-11-08 22:50:32]
endSignal:6
[INFO -- 2018-11-08 22:50:32]
faultModel:1
[INFO -- 2018-11-08 22:50:33]
Backtrace BEGIN:
#0  smith_waterman (x_num=15000, y_num=13650, str_x=0x5555557586c0 "NZPJOUKFYJFFHEGCNGKERGLVCNVICJIPKXAATKGSULXDPDFFLRJEYWZCJUMLGUCQUETNPZFLMCOEHVJSMSWMQVOZSBMAXOQRULFJKMWXRKDYHMTUGRGWPXVJAJJXXBRTNYDZKZYDMBCVNXPTOYRFXOOXXXWWBNQOLTPYUOBIPDEDCVYTVQYSEPRCOOYPBQFPJVNGJOOY"..., str_y=0x55555575c170 "ZZPOOKKYJJFFHGGCGGKERGVVCNIICIPPKXAAKGGUUXXDDDFFLRJEYZZJUUMLGUCQUTNPZZLLMCOEVVSSSSWMQVZZBBMXOOQUULJKKWWXRKYYMTTGGRGPPVVAAJJXXRRTYYDKKZYMMCVVNXPOORFFOOOXXXWWNNQOLPPYUBIIDEDDCVTVVQYSPRRCOOYPQFFJVNGGJOYY"..., fo=0x555555758260) at smith_waterman.c:96
#1  0x0000555555555e38 in main (argc=7, argv=0x7fffffffde98) at smith_waterman.c:298

91	
92	    double diff=0.0;
93	    double max_score=0.0;
94	    for(i=1; i<x_num+1; i++){
95	        for(j=1; j<y_num+1; j++){
96	            if(str_x[i-1]==str_y[j-1]){diff=match_score;}
97	            else{diff=mismatch_score;}
98	            matrix[i][j]=my_maxof(matrix[i-1][j-1]+diff, matrix[i-1][j]+gap_score, matrix[i][j-1]+gap_score,0);
99	            if(matrix[i][j]>max_score)
100	                max_score=matrix[i][j];

Backtrace END
Fliping a bit of the pointer
Memory content before bitflip:0x5c0xe20xff0xff0xff0x7f0x000x00
Fault Model: Double bit-flip
base address to flip value: 0x7fffffffdd70
address max offset: 8
Memory content after  bitflip:0x5c0xe20xff0xff0xff0x7f0x500x00
frame name: main
symbol name: file_y_name
symbol filename: smith_waterman.c
symbol line: 248
value: 0x7fffffffe25c "/tmp/smith_waterman/randInputY"
value address: 0x7fffffffdd70
Type: The type is a pointer.
Type sizeof: 8

[INFO -- 2018-11-08 22:50:33]
Fault Injection Successful after 1.775249719619751s
[INFO -- 2018-11-08 22:50:35]
event type: exit
[INFO -- 2018-11-08 22:50:35]
exit code: 0
