[INFO -- 2018-09-26 21:40:00]
Starting GDB script
[INFO -- 2018-09-26 21:40:00]
initSignal:0.0
[INFO -- 2018-09-26 21:40:00]
endSignal:2.0
[INFO -- 2018-09-26 21:40:01]
sending 5 signals using command: 'killall -2 smith_waterman' after 0.427337982692s
[INFO -- 2018-09-26 21:40:02]
sending 5 signals using command: 'killall -2 smith_waterman' after 1.61030648699s
[INFO -- 2018-09-26 21:40:02]
sending 5 signals using command: 'killall -2 smith_waterman' after 1.61463873637s
[INFO -- 2018-09-26 21:40:06]
Execution finished before waitTime
