[INFO -- 2018-12-09 00:41:44]
Starting GDB script
[INFO -- 2018-12-09 00:41:44]
initSignal:0.0
[INFO -- 2018-12-09 00:41:44]
endSignal:6.0
[INFO -- 2018-12-09 00:41:46]
sending 5 signals using command: 'killall -2 smith_waterman' after 1.52365511642s
[INFO -- 2018-12-09 00:41:46]
Execution finished before waitTime
