[INFO -- 2018-09-26 17:16:30]
Starting GDB script
[INFO -- 2018-09-26 17:16:30]
initSignal:0.0
[INFO -- 2018-09-26 17:16:30]
endSignal:2.0
[INFO -- 2018-09-26 17:16:30]
sending 5 signals using command: 'killall -2 smith_waterman' after 0.141492846021s
[INFO -- 2018-09-26 17:16:30]
sending 5 signals using command: 'killall -2 smith_waterman' after 0.261189273869s
[INFO -- 2018-09-26 17:16:31]
sending 5 signals using command: 'killall -2 smith_waterman' after 1.53409368758s
[INFO -- 2018-09-26 17:16:35]
Execution finished before waitTime
