[INFO -- 2018-09-24 02:20:12]
Starting GDB script
[INFO -- 2018-09-24 02:20:12]
initSignal:0.0
[INFO -- 2018-09-24 02:20:12]
endSignal:2.0
[INFO -- 2018-09-24 02:20:12]
sending 5 signals using command: 'killall -2 smith_waterman' after 0.428785938266s
[INFO -- 2018-09-24 02:20:12]
sending 5 signals using command: 'killall -2 smith_waterman' after 0.580211997036s
[INFO -- 2018-09-24 02:20:12]
sending 5 signals using command: 'killall -2 smith_waterman' after 0.615980409509s
[INFO -- 2018-09-24 02:20:18]
Execution finished before waitTime
