[INFO -- 2018-09-24 02:20:12]
Starting flip_value script
version: 1.1
[INFO -- 2018-09-24 02:20:12]
Initialization strings:
[INFO -- 2018-09-24 02:20:12]
(1) file /tmp/smith_waterman/smith_waterman
[INFO -- 2018-09-24 02:20:12]
(2) set args -x /tmp/smith_waterman/randInputX -y /tmp/smith_waterman/randInputY -o /tmp/smith_waterman/output
[INFO -- 2018-09-24 02:20:12]
initSignal:0
[INFO -- 2018-09-24 02:20:12]
endSignal:2
[INFO -- 2018-09-24 02:20:12]
faultModel:0
[EXCEPTION -- 2018-09-24 02:20:12]
pythonException: invalid literal for int() with base 16: '0x55555575c170 ...'
[INFO -- 2018-09-24 02:20:12]
Backtrace BEGIN:
#0  0x00005555555550dc in smith_waterman (x_num=15000, y_num=13050, str_x=0x5555557586c0 "IUFVHZHLXWNUSKITEDROFPTZGFGFXHGFBMCINJWKFJFAVPTAUKQBALAIQJNPQWWTKABXLZJTKQTGHOIEAAFCNIKERAVJWUCIUFHIFQBPHWXQMHUMJARXIBDBDYKBUOJRTQZYJCQSYPIKXDYGFPFNTIQWJCADQJULATMJVEDVTLHSOGBTXGIQPAPYCPDUAYGCTUNRYQMR"..., str_y=0x55555575c170 "UUFHZZHXXNNSKIITDDROPTTZGGGFHHGFMMCNJJWFJFAAVPAAKKBBLLAIQJPPQWWTKABLZJJTQQGGHIEEAAFCNIKERVJJUUCIUFHIQBBPHWXQMHUJJAXIBBBDDKKBOJRRQQZJCCQSPIIKDDYGPFNTTIWJCCADQJLAAMJVVEDVLHSOOBBTGGQPAPPYCDDUYYGCTNNYYQMC"..., fo=0x555555758260) at smith_waterman.c:98
#1  0x0000555555555e38 in main (argc=7, argv=0x7fffffffdcb8) at smith_waterman.c:298

93	    double max_score=0.0;
94	    for(i=1; i<x_num+1; i++){
95	        for(j=1; j<y_num+1; j++){
96	            if(str_x[i-1]==str_y[j-1]){diff=match_score;}
97	            else{diff=mismatch_score;}
98	            matrix[i][j]=my_maxof(matrix[i-1][j-1]+diff, matrix[i-1][j]+gap_score, matrix[i][j-1]+gap_score,0);
99	            if(matrix[i][j]>max_score)
100	                max_score=matrix[i][j];
101	        }
102	    }

Backtrace END
Memory content before bitflip:0xff0xff0xff0xff
Fault Model: Single bit-flip
base address to flip value: 0x7fffffffdb64
address max offset: 4
Memory content after  bitflip:0xfe0xff0xff0xff
frame name: main
symbol name: opt
symbol filename: smith_waterman.c
symbol line: 246
value: -2
value address: 0x7fffffffdb64
Type: The type is an integer type.
Type sizeof: 4

[INFO -- 2018-09-24 02:20:12]
Fault Injection Successful after 0.6827669143676758s
[INFO -- 2018-09-24 02:20:17]
event type: exit
[INFO -- 2018-09-24 02:20:17]
exit code: 0
