[INFO -- 2018-09-27 10:29:13]
Starting GDB script
[INFO -- 2018-09-27 10:29:13]
initSignal:0.0
[INFO -- 2018-09-27 10:29:13]
endSignal:2.0
[INFO -- 2018-09-27 10:29:13]
sending 5 signals using command: 'killall -2 smith_waterman' after 0.365194871882s
[INFO -- 2018-09-27 10:29:14]
sending 5 signals using command: 'killall -2 smith_waterman' after 1.13461317123s
[INFO -- 2018-09-27 10:29:15]
sending 5 signals using command: 'killall -2 smith_waterman' after 1.68018179374s
[INFO -- 2018-09-27 10:29:19]
Execution finished before waitTime
