[INFO -- 2018-12-04 11:27:38]
Starting GDB script
[INFO -- 2018-12-04 11:27:38]
initSignal:0.0
[INFO -- 2018-12-04 11:27:38]
endSignal:6.0
[INFO -- 2018-12-04 11:27:39]
sending 5 signals using command: 'killall -2 smith_waterman' after 1.32703170622s
[INFO -- 2018-12-04 11:27:41]
sending 5 signals using command: 'killall -2 smith_waterman' after 3.2338988936s
[INFO -- 2018-12-04 11:27:42]
sending 5 signals using command: 'killall -2 smith_waterman' after 3.83084208543s
[INFO -- 2018-12-04 11:27:43]
Execution finished before waitTime
