[INFO -- 2018-12-04 12:18:05]
Starting flip_value script
version: 1.1
[INFO -- 2018-12-04 12:18:05]
Initialization strings:
[INFO -- 2018-12-04 12:18:05]
(1) file /tmp/smith_waterman/smith_waterman
[INFO -- 2018-12-04 12:18:05]
(2) set args -x /tmp/smith_waterman/randInputX -y /tmp/smith_waterman/randInputY -o /tmp/smith_waterman/output -z /tmp/smith_waterman/detected.log
[INFO -- 2018-12-04 12:18:05]
initSignal:0
[INFO -- 2018-12-04 12:18:05]
endSignal:6
[INFO -- 2018-12-04 12:18:05]
faultModel:0
[INFO -- 2018-12-04 12:18:09]
Backtrace BEGIN:
#0  0x00005555555552bd in smith_waterman (x_num=15000, y_num=12150, str_x=0x555555795360 "GWXBPXKSSXHKVTIXOOIFFJVXDMKIIDHQCEURBELTDSGYNOYBEGGJRDIVSTFCYOTASPSWTDRXYZXLNXNUFVFXZOURHZTFPOGHDAFZDZYDYXPOVEIABPZCDTVMUPUJFATLCAKHZILAFCOCIYFJNEMTAHFUYZGGBZRFBDNBNADSCRXMREVGIJZKTFHTGNZKOSPPVCSICVDG"..., str_y=0x555555798e10 "GWBBPKKSXXHVVTXXOIIFJJXXMMKIDHQQCURREELTDGYYNOBBGGGRDDISSFFCOOAASPSWTRRYZZXLNXNUFFFZZOUHHZTFPGGDAAFDZYDYYPOVVEIAPPZCDTVMUUUJFALCCAHHZILAFCOCIYJJNETAHHUUYGGGBRFBBDNBNADCRXXMRVGIIZZKTFHTGNZOSSPVVSSIVDDG"...) at smith_waterman.c:124
#1  0x0000555555555cbf in execute (file_x_name=0x7fffffffe22c "/tmp/smith_waterman/randInputX", file_y_name=0x7fffffffe24e "/tmp/smith_waterman/randInputY") at smith_waterman.c:263
#2  0x0000555555555f1f in main (argc=9, argv=0x7fffffffde78) at smith_waterman.c:315

119	    long y=-1, x=-1;
120	    long height = x_num;
121	    long width = y_num;
122	
123	    for(i=0; i<height+1; i++){
124	        for(j=0; j<width+1; j++){
125	            if(i==0 && j==0){
126	                maxValue = matrix[i][j];
127	                y = i;
128	                x = j;

Backtrace END
Memory content before bitflip:0x000x000x000x000x000x000xf00x3f
Fault Model: Single bit-flip
base address to flip value: 0x555555757010 
address max offset: 8
Memory content after  bitflip:0x000x000x000x000x200x000xf00x3f
frame name: smith_waterman
symbol name: match_score
symbol filename: smith_waterman.c
symbol line: 7
value: 1.000030517578125
value address: 0x555555757010 <match_score>
Type: A floating point type.
Type sizeof: 8

[INFO -- 2018-12-04 12:18:09]
Fault Injection Successful after 4.663579702377319s
