[INFO -- 2018-09-25 04:07:52]
Starting GDB script
[INFO -- 2018-09-25 04:07:52]
initSignal:0.0
[INFO -- 2018-09-25 04:07:52]
endSignal:2.0
[INFO -- 2018-09-25 04:07:52]
sending 5 signals using command: 'killall -2 smith_waterman' after 0.0806767646694s
[INFO -- 2018-09-25 04:07:54]
sending 5 signals using command: 'killall -2 smith_waterman' after 1.47577566119s
[INFO -- 2018-09-25 04:07:54]
sending 5 signals using command: 'killall -2 smith_waterman' after 1.78557837356s
[INFO -- 2018-09-25 04:07:58]
Execution finished before waitTime
