[INFO -- 2018-09-26 22:51:39]
Starting GDB script
[INFO -- 2018-09-26 22:51:39]
initSignal:0.0
[INFO -- 2018-09-26 22:51:39]
endSignal:2.0
[INFO -- 2018-09-26 22:51:39]
sending 5 signals using command: 'killall -2 smith_waterman' after 0.200926470909s
[INFO -- 2018-09-26 22:51:39]
sending 5 signals using command: 'killall -2 smith_waterman' after 0.245644333155s
[INFO -- 2018-09-26 22:51:39]
sending 5 signals using command: 'killall -2 smith_waterman' after 0.587211298617s
[INFO -- 2018-09-26 22:51:44]
Execution finished before waitTime
