[INFO -- 2018-09-24 12:38:15]
Starting GDB script
[INFO -- 2018-09-24 12:38:15]
initSignal:0.0
[INFO -- 2018-09-24 12:38:15]
endSignal:2.0
[INFO -- 2018-09-24 12:38:16]
sending 5 signals using command: 'killall -2 smith_waterman' after 1.0648772898s
[INFO -- 2018-09-24 12:38:16]
sending 5 signals using command: 'killall -2 smith_waterman' after 1.27380391751s
[INFO -- 2018-09-24 12:38:17]
sending 5 signals using command: 'killall -2 smith_waterman' after 1.87422054056s
[INFO -- 2018-09-24 12:38:21]
Execution finished before waitTime
