[INFO -- 2018-12-03 10:33:23]
Starting GDB script
[INFO -- 2018-12-03 10:33:23]
initSignal:0.0
[INFO -- 2018-12-03 10:33:23]
endSignal:6.0
[INFO -- 2018-12-03 10:33:24]
sending 5 signals using command: 'killall -2 smith_waterman' after 1.04972958729s
[INFO -- 2018-12-03 10:33:26]
Execution finished before waitTime
