[INFO -- 2018-09-26 14:16:34]
Starting GDB script
[INFO -- 2018-09-26 14:16:34]
initSignal:0.0
[INFO -- 2018-09-26 14:16:34]
endSignal:2.0
[INFO -- 2018-09-26 14:16:34]
sending 5 signals using command: 'killall -2 smith_waterman' after 0.259232651509s
[INFO -- 2018-09-26 14:16:34]
sending 5 signals using command: 'killall -2 smith_waterman' after 0.43040908791s
[INFO -- 2018-09-26 14:16:34]
sending 5 signals using command: 'killall -2 smith_waterman' after 0.496528894164s
[INFO -- 2018-09-26 14:16:40]
Execution finished before waitTime
