[INFO -- 2018-12-08 22:32:51]
Starting GDB script
[INFO -- 2018-12-08 22:32:51]
initSignal:0.0
[INFO -- 2018-12-08 22:32:51]
endSignal:6.0
[INFO -- 2018-12-08 22:32:52]
sending 5 signals using command: 'killall -2 smith_waterman' after 0.125550561922s
[INFO -- 2018-12-08 22:32:52]
sending 5 signals using command: 'killall -2 smith_waterman' after 0.78406056602s
[INFO -- 2018-12-08 22:32:55]
sending 5 signals using command: 'killall -2 smith_waterman' after 3.32838212766s
[INFO -- 2018-12-08 22:32:58]
Execution finished before waitTime
