[INFO -- 2018-09-26 01:55:13]
Starting GDB script
[INFO -- 2018-09-26 01:55:13]
initSignal:0.0
[INFO -- 2018-09-26 01:55:13]
endSignal:2.0
[INFO -- 2018-09-26 01:55:13]
sending 5 signals using command: 'killall -2 smith_waterman' after 0.182376768479s
[INFO -- 2018-09-26 01:55:13]
sending 5 signals using command: 'killall -2 smith_waterman' after 0.684249843002s
[INFO -- 2018-09-26 01:55:14]
sending 5 signals using command: 'killall -2 smith_waterman' after 0.960031467232s
[INFO -- 2018-09-26 01:55:18]
Execution finished before waitTime
