[INFO -- 2018-09-24 18:22:27]
Starting GDB script
[INFO -- 2018-09-24 18:22:27]
initSignal:0.0
[INFO -- 2018-09-24 18:22:27]
endSignal:2.0
[INFO -- 2018-09-24 18:22:28]
sending 5 signals using command: 'killall -2 smith_waterman' after 0.392043593396s
[INFO -- 2018-09-24 18:22:28]
sending 5 signals using command: 'killall -2 smith_waterman' after 0.921100979303s
[INFO -- 2018-09-24 18:22:28]
sending 5 signals using command: 'killall -2 smith_waterman' after 0.934190724846s
[INFO -- 2018-09-24 18:22:35]
Execution finished before waitTime
