[INFO -- 2018-12-09 08:22:19]
Starting GDB script
[INFO -- 2018-12-09 08:22:19]
initSignal:0.0
[INFO -- 2018-12-09 08:22:19]
endSignal:6.0
[INFO -- 2018-12-09 08:22:22]
sending 5 signals using command: 'killall -2 smith_waterman' after 2.73675902956s
[INFO -- 2018-12-09 08:22:23]
sending 5 signals using command: 'killall -2 smith_waterman' after 3.54207311144s
[INFO -- 2018-12-09 08:22:23]
sending 5 signals using command: 'killall -2 smith_waterman' after 3.65296286172s
[INFO -- 2018-12-09 08:22:27]
Execution finished before waitTime
