[INFO -- 2018-12-08 14:31:52]
Starting GDB script
[INFO -- 2018-12-08 14:31:52]
initSignal:0.0
[INFO -- 2018-12-08 14:31:52]
endSignal:6.0
[INFO -- 2018-12-08 14:31:54]
sending 5 signals using command: 'killall -2 smith_waterman' after 2.3052743489s
[INFO -- 2018-12-08 14:31:55]
sending 5 signals using command: 'killall -2 smith_waterman' after 3.3878654789s
[INFO -- 2018-12-08 14:31:57]
sending 5 signals using command: 'killall -2 smith_waterman' after 5.80023948171s
[INFO -- 2018-12-08 14:31:59]
Execution finished before waitTime
