[INFO -- 2018-11-07 18:45:10]
sending 5 signals using command: 'killall -2 smith_waterman' after 3.27085166786s
[INFO -- 2018-11-07 18:45:11]
sending 5 signals using command: 'killall -2 smith_waterman' after 4.5988247455s
[INFO -- 2018-11-07 18:45:13]
sending 5 signals using command: 'killall -2 smith_waterman' after 5.84204772016s
[INFO -- 2018-11-07 18:45:13]
Starting GDB script
[INFO -- 2018-11-07 18:45:13]
initSignal:0.0
[INFO -- 2018-11-07 18:45:13]
endSignal:6.0
[INFO -- 2018-11-07 18:45:16]
sending 5 signals using command: 'killall -2 smith_waterman' after 2.87469465645s
[INFO -- 2018-11-07 18:45:16]
sending 5 signals using command: 'killall -2 smith_waterman' after 2.91121293321s
[INFO -- 2018-11-07 18:45:16]
Execution finished before waitTime
