[INFO -- 2018-09-25 00:07:32]
Starting GDB script
[INFO -- 2018-09-25 00:07:32]
initSignal:0.0
[INFO -- 2018-09-25 00:07:32]
endSignal:2.0
[INFO -- 2018-09-25 00:07:32]
sending 5 signals using command: 'killall -2 smith_waterman' after 0.537643515016s
[INFO -- 2018-09-25 00:07:33]
sending 5 signals using command: 'killall -2 smith_waterman' after 0.670606054073s
[INFO -- 2018-09-25 00:07:33]
sending 5 signals using command: 'killall -2 smith_waterman' after 1.06778069114s
[INFO -- 2018-09-25 00:07:37]
Execution finished before waitTime
