[INFO -- 2018-12-08 13:40:49]
sending 5 signals using command: 'killall -2 smith_waterman' after 5.69930816655s
[INFO -- 2018-12-08 13:40:49]
Starting GDB script
[INFO -- 2018-12-08 13:40:49]
initSignal:0.0
[INFO -- 2018-12-08 13:40:49]
endSignal:6.0
[INFO -- 2018-12-08 13:40:50]
sending 5 signals using command: 'killall -2 smith_waterman' after 0.914060363542s
[INFO -- 2018-12-08 13:40:51]
Execution finished before waitTime
