[INFO -- 2018-09-24 02:09:19]
Starting GDB script
[INFO -- 2018-09-24 02:09:19]
initSignal:0.0
[INFO -- 2018-09-24 02:09:19]
endSignal:2.0
[INFO -- 2018-09-24 02:09:20]
sending 5 signals using command: 'killall -2 smith_waterman' after 0.262668711603s
[INFO -- 2018-09-24 02:09:20]
sending 5 signals using command: 'killall -2 smith_waterman' after 0.943961786037s
[INFO -- 2018-09-24 02:09:21]
sending 5 signals using command: 'killall -2 smith_waterman' after 1.3021704272s
[INFO -- 2018-09-24 02:09:26]
Execution finished before waitTime
