[INFO -- 2018-12-07 22:31:32]
Starting GDB script
[INFO -- 2018-12-07 22:31:32]
initSignal:0.0
[INFO -- 2018-12-07 22:31:32]
endSignal:6.0
[INFO -- 2018-12-07 22:31:33]
sending 5 signals using command: 'killall -2 smith_waterman' after 1.29811851677s
[INFO -- 2018-12-07 22:31:34]
sending 5 signals using command: 'killall -2 smith_waterman' after 2.54776123103s
[INFO -- 2018-12-07 22:31:38]
sending 5 signals using command: 'killall -2 smith_waterman' after 5.96308829826s
[INFO -- 2018-12-07 22:31:40]
Execution finished before waitTime
