[INFO -- 2018-09-25 02:06:11]
Starting GDB script
[INFO -- 2018-09-25 02:06:11]
initSignal:0.0
[INFO -- 2018-09-25 02:06:11]
endSignal:2.0
[INFO -- 2018-09-25 02:06:12]
sending 5 signals using command: 'killall -2 smith_waterman' after 1.02042754734s
[INFO -- 2018-09-25 02:06:13]
sending 5 signals using command: 'killall -2 smith_waterman' after 1.23060924143s
[INFO -- 2018-09-25 02:06:13]
sending 5 signals using command: 'killall -2 smith_waterman' after 1.77269650352s
[INFO -- 2018-09-25 02:06:16]
Execution finished before waitTime
