[INFO -- 2018-09-26 12:47:13]
Starting GDB script
[INFO -- 2018-09-26 12:47:13]
initSignal:0.0
[INFO -- 2018-09-26 12:47:13]
endSignal:2.0
[INFO -- 2018-09-26 12:47:14]
sending 5 signals using command: 'killall -2 smith_waterman' after 1.13168239858s
[INFO -- 2018-09-26 12:47:15]
sending 5 signals using command: 'killall -2 smith_waterman' after 1.82998410606s
[INFO -- 2018-09-26 12:47:15]
sending 5 signals using command: 'killall -2 smith_waterman' after 1.88395788656s
[INFO -- 2018-09-26 12:47:20]
Execution finished before waitTime
