[INFO -- 2018-09-24 12:24:09]
Starting GDB script
[INFO -- 2018-09-24 12:24:09]
initSignal:0.0
[INFO -- 2018-09-24 12:24:09]
endSignal:2.0
[INFO -- 2018-09-24 12:24:09]
sending 5 signals using command: 'killall -2 smith_waterman' after 0.212745072663s
[INFO -- 2018-09-24 12:24:10]
sending 5 signals using command: 'killall -2 smith_waterman' after 1.51295672401s
[INFO -- 2018-09-24 12:24:11]
sending 5 signals using command: 'killall -2 smith_waterman' after 1.86414427897s
[INFO -- 2018-09-24 12:24:15]
Execution finished before waitTime
