[INFO -- 2018-12-08 14:57:45]
Starting GDB script
[INFO -- 2018-12-08 14:57:45]
initSignal:0.0
[INFO -- 2018-12-08 14:57:45]
endSignal:6.0
[INFO -- 2018-12-08 14:57:48]
sending 5 signals using command: 'killall -2 smith_waterman' after 2.61425418302s
[INFO -- 2018-12-08 14:57:48]
sending 5 signals using command: 'killall -2 smith_waterman' after 2.9763482689s
[INFO -- 2018-12-08 14:57:48]
Execution finished before waitTime
