[INFO -- 2018-12-03 21:11:38]
sending 5 signals using command: 'killall -2 smith_waterman' after 5.23256914898s
[INFO -- 2018-12-03 21:11:38]
sending 5 signals using command: 'killall -2 smith_waterman' after 5.63618347517s
[INFO -- 2018-12-03 21:11:38]
Starting GDB script
[INFO -- 2018-12-03 21:11:38]
initSignal:0.0
[INFO -- 2018-12-03 21:11:38]
endSignal:6.0
[INFO -- 2018-12-03 21:11:42]
sending 5 signals using command: 'killall -2 smith_waterman' after 4.21507628493s
[INFO -- 2018-12-03 21:11:43]
sending 5 signals using command: 'killall -2 smith_waterman' after 4.73401824659s
[INFO -- 2018-12-03 21:11:43]
Execution finished before waitTime
