[INFO -- 2018-09-24 11:54:01]
Starting GDB script
[INFO -- 2018-09-24 11:54:01]
initSignal:0.0
[INFO -- 2018-09-24 11:54:01]
endSignal:2.0
[INFO -- 2018-09-24 11:54:01]
sending 5 signals using command: 'killall -2 smith_waterman' after 0.0549030726351s
[INFO -- 2018-09-24 11:54:01]
sending 5 signals using command: 'killall -2 smith_waterman' after 0.0915982377489s
[INFO -- 2018-09-24 11:54:01]
sending 5 signals using command: 'killall -2 smith_waterman' after 0.382251711053s
[INFO -- 2018-09-24 11:54:07]
Execution finished before waitTime
