[INFO -- 2018-12-05 23:08:56]
Starting GDB script
[INFO -- 2018-12-05 23:08:56]
initSignal:0.0
[INFO -- 2018-12-05 23:08:56]
endSignal:6.0
[INFO -- 2018-12-05 23:08:59]
sending 5 signals using command: 'killall -2 smith_waterman' after 3.0346955116s
[INFO -- 2018-12-05 23:09:00]
sending 5 signals using command: 'killall -2 smith_waterman' after 4.0718856767s
[INFO -- 2018-12-05 23:09:01]
sending 5 signals using command: 'killall -2 smith_waterman' after 4.47179738756s
[INFO -- 2018-12-05 23:09:01]
Execution finished before waitTime
