[INFO -- 2018-12-08 12:01:31]
sending 5 signals using command: 'killall -2 smith_waterman' after 5.49610160905s
[INFO -- 2018-12-08 12:01:31]
sending 5 signals using command: 'killall -2 smith_waterman' after 5.83484481096s
[INFO -- 2018-12-08 12:01:31]
Starting GDB script
[INFO -- 2018-12-08 12:01:31]
initSignal:0.0
[INFO -- 2018-12-08 12:01:31]
endSignal:6.0
[INFO -- 2018-12-08 12:01:32]
sending 5 signals using command: 'killall -2 smith_waterman' after 1.08482626888s
[INFO -- 2018-12-08 12:01:32]
sending 5 signals using command: 'killall -2 smith_waterman' after 1.2117225492s
[INFO -- 2018-12-08 12:01:34]
sending 5 signals using command: 'killall -2 smith_waterman' after 3.09521664351s
[INFO -- 2018-12-08 12:01:39]
Execution finished before waitTime
