[INFO -- 2018-12-04 02:36:08]
Starting GDB script
[INFO -- 2018-12-04 02:36:08]
initSignal:0.0
[INFO -- 2018-12-04 02:36:08]
endSignal:6.0
[INFO -- 2018-12-04 02:36:09]
sending 5 signals using command: 'killall -2 smith_waterman' after 1.19387072671s
[INFO -- 2018-12-04 02:36:10]
sending 5 signals using command: 'killall -2 smith_waterman' after 1.91380636835s
[INFO -- 2018-12-04 02:36:12]
sending 5 signals using command: 'killall -2 smith_waterman' after 4.87333034296s
[INFO -- 2018-12-04 02:36:28]
Execution did not finish before waitTime
