[INFO -- 2018-09-25 00:08:03]
sending 5 signals using command: 'killall -2 smith_waterman' after 1.06939603568s
[INFO -- 2018-09-25 00:08:04]
Starting GDB script
[INFO -- 2018-09-25 00:08:04]
initSignal:0.0
[INFO -- 2018-09-25 00:08:04]
endSignal:2.0
[INFO -- 2018-09-25 00:08:04]
sending 5 signals using command: 'killall -2 smith_waterman' after 0.380877272697s
[INFO -- 2018-09-25 00:08:05]
sending 5 signals using command: 'killall -2 smith_waterman' after 1.1393531696s
[INFO -- 2018-09-25 00:08:05]
sending 5 signals using command: 'killall -2 smith_waterman' after 1.69910773818s
[INFO -- 2018-09-25 00:08:24]
Execution did not finish before waitTime
