[INFO -- 2018-12-04 07:28:07]
Starting GDB script
[INFO -- 2018-12-04 07:28:07]
initSignal:0.0
[INFO -- 2018-12-04 07:28:07]
endSignal:6.0
[INFO -- 2018-12-04 07:28:08]
sending 5 signals using command: 'killall -2 smith_waterman' after 0.617637195104s
[INFO -- 2018-12-04 07:28:09]
sending 5 signals using command: 'killall -2 smith_waterman' after 1.32464145606s
[INFO -- 2018-12-04 07:28:11]
sending 5 signals using command: 'killall -2 smith_waterman' after 4.15579881651s
[INFO -- 2018-12-04 07:28:13]
Execution finished before waitTime
