[INFO -- 2018-11-09 02:12:32]
Starting GDB script
[INFO -- 2018-11-09 02:12:32]
initSignal:0.0
[INFO -- 2018-11-09 02:12:32]
endSignal:6.0
[INFO -- 2018-11-09 02:12:33]
sending 5 signals using command: 'killall -2 smith_waterman' after 1.47453978274s
[INFO -- 2018-11-09 02:12:35]
Execution finished before waitTime
