[INFO -- 2018-12-03 14:28:11]
Starting GDB script
[INFO -- 2018-12-03 14:28:11]
initSignal:0.0
[INFO -- 2018-12-03 14:28:11]
endSignal:6.0
[INFO -- 2018-12-03 14:28:11]
sending 5 signals using command: 'killall -2 smith_waterman' after 0.024284829504s
[INFO -- 2018-12-03 14:28:12]
sending 5 signals using command: 'killall -2 smith_waterman' after 0.791270529067s
[INFO -- 2018-12-03 14:28:13]
sending 5 signals using command: 'killall -2 smith_waterman' after 1.60497534171s
[INFO -- 2018-12-03 14:28:17]
Execution finished before waitTime
