[INFO -- 2018-09-27 17:48:41]
Starting GDB script
[INFO -- 2018-09-27 17:48:41]
initSignal:0.0
[INFO -- 2018-09-27 17:48:41]
endSignal:2.0
[INFO -- 2018-09-27 17:48:41]
sending 5 signals using command: 'killall -2 smith_waterman' after 0.0163219612434s
[INFO -- 2018-09-27 17:48:41]
sending 5 signals using command: 'killall -2 smith_waterman' after 0.414409293448s
[INFO -- 2018-09-27 17:48:43]
sending 5 signals using command: 'killall -2 smith_waterman' after 1.81976451504s
[INFO -- 2018-09-27 17:48:47]
Execution finished before waitTime
