[INFO -- 2018-09-26 06:10:33]
Starting GDB script
[INFO -- 2018-09-26 06:10:33]
initSignal:0.0
[INFO -- 2018-09-26 06:10:33]
endSignal:2.0
[INFO -- 2018-09-26 06:10:33]
sending 5 signals using command: 'killall -2 smith_waterman' after 0.103546600337s
[INFO -- 2018-09-26 06:10:33]
sending 5 signals using command: 'killall -2 smith_waterman' after 0.157771175264s
[INFO -- 2018-09-26 06:10:35]
sending 5 signals using command: 'killall -2 smith_waterman' after 1.95557760623s
[INFO -- 2018-09-26 06:10:40]
Execution finished before waitTime
