[INFO -- 2018-11-08 23:26:19]
Starting GDB script
[INFO -- 2018-11-08 23:26:19]
initSignal:0.0
[INFO -- 2018-11-08 23:26:19]
endSignal:6.0
[INFO -- 2018-11-08 23:26:19]
sending 5 signals using command: 'killall -2 smith_waterman' after 0.347314428101s
[INFO -- 2018-11-08 23:26:24]
sending 5 signals using command: 'killall -2 smith_waterman' after 5.36925180631s
[INFO -- 2018-11-08 23:26:24]
sending 5 signals using command: 'killall -2 smith_waterman' after 5.50002926553s
[INFO -- 2018-11-08 23:26:39]
Execution did not finish before waitTime
