[INFO -- 2018-12-03 22:08:48]
sending 5 signals using command: 'killall -2 smith_waterman' after 5.15059878756s
[INFO -- 2018-12-03 22:08:48]
sending 5 signals using command: 'killall -2 smith_waterman' after 5.62240323529s
[INFO -- 2018-12-03 22:08:48]
Starting GDB script
[INFO -- 2018-12-03 22:08:48]
initSignal:0.0
[INFO -- 2018-12-03 22:08:48]
endSignal:6.0
[INFO -- 2018-12-03 22:08:49]
sending 5 signals using command: 'killall -2 smith_waterman' after 0.655797430262s
[INFO -- 2018-12-03 22:08:53]
Execution finished before waitTime
