[INFO -- 2018-11-08 23:40:46]
sending 5 signals using command: 'killall -2 smith_waterman' after 5.07621114091s
[INFO -- 2018-11-08 23:40:47]
sending 5 signals using command: 'killall -2 smith_waterman' after 5.51206114944s
[INFO -- 2018-11-08 23:40:47]
Starting GDB script
[INFO -- 2018-11-08 23:40:47]
initSignal:0.0
[INFO -- 2018-11-08 23:40:47]
endSignal:6.0
[INFO -- 2018-11-08 23:40:47]
sending 5 signals using command: 'killall -2 smith_waterman' after 0.116381110485s
[INFO -- 2018-11-08 23:40:47]
sending 5 signals using command: 'killall -2 smith_waterman' after 0.506915157095s
[INFO -- 2018-11-08 23:40:49]
sending 5 signals using command: 'killall -2 smith_waterman' after 1.99442713092s
[INFO -- 2018-11-08 23:40:50]
Execution finished before waitTime
