[INFO -- 2018-09-24 20:33:35]
Starting GDB script
[INFO -- 2018-09-24 20:33:35]
initSignal:0.0
[INFO -- 2018-09-24 20:33:35]
endSignal:2.0
[INFO -- 2018-09-24 20:33:36]
sending 5 signals using command: 'killall -2 smith_waterman' after 0.546308426324s
[INFO -- 2018-09-24 20:33:36]
sending 5 signals using command: 'killall -2 smith_waterman' after 0.684517965848s
[INFO -- 2018-09-24 20:33:36]
sending 5 signals using command: 'killall -2 smith_waterman' after 1.22694789475s
[INFO -- 2018-09-24 20:33:42]
Execution finished before waitTime
