[INFO -- 2018-12-04 06:14:26]
Starting GDB script
[INFO -- 2018-12-04 06:14:26]
initSignal:0.0
[INFO -- 2018-12-04 06:14:26]
endSignal:6.0
[INFO -- 2018-12-04 06:14:27]
sending 5 signals using command: 'killall -2 smith_waterman' after 1.58623881924s
[INFO -- 2018-12-04 06:14:29]
sending 5 signals using command: 'killall -2 smith_waterman' after 3.16859037583s
[INFO -- 2018-12-04 06:14:30]
sending 5 signals using command: 'killall -2 smith_waterman' after 3.63978811137s
[INFO -- 2018-12-04 06:14:46]
Execution did not finish before waitTime
