[INFO -- 2018-12-04 00:32:09]
Starting GDB script
[INFO -- 2018-12-04 00:32:09]
initSignal:0.0
[INFO -- 2018-12-04 00:32:09]
endSignal:6.0
[INFO -- 2018-12-04 00:32:11]
sending 5 signals using command: 'killall -2 smith_waterman' after 2.54468641113s
[INFO -- 2018-12-04 00:32:14]
sending 5 signals using command: 'killall -2 smith_waterman' after 5.17022636955s
[INFO -- 2018-12-04 00:32:14]
sending 5 signals using command: 'killall -2 smith_waterman' after 5.6290243532s
[INFO -- 2018-12-04 00:32:29]
Execution did not finish before waitTime
