[INFO -- 2018-12-05 06:17:41]
Starting GDB script
[INFO -- 2018-12-05 06:17:41]
initSignal:0.0
[INFO -- 2018-12-05 06:17:41]
endSignal:6.0
[INFO -- 2018-12-05 06:17:42]
sending 5 signals using command: 'killall -2 smith_waterman' after 1.02812683553s
[INFO -- 2018-12-05 06:17:42]
sending 5 signals using command: 'killall -2 smith_waterman' after 1.27687116256s
[INFO -- 2018-12-05 06:17:45]
sending 5 signals using command: 'killall -2 smith_waterman' after 4.08227062386s
[INFO -- 2018-12-05 06:17:47]
Execution finished before waitTime
