[INFO -- 2018-12-04 02:53:12]
Starting flip_value script
version: 1.1
[INFO -- 2018-12-04 02:53:12]
Initialization strings:
[INFO -- 2018-12-04 02:53:12]
(1) file /tmp/smith_waterman/smith_waterman
[INFO -- 2018-12-04 02:53:12]
(2) set args -x /tmp/smith_waterman/randInputX -y /tmp/smith_waterman/randInputY -o /tmp/smith_waterman/output -z /tmp/smith_waterman/detected.log
[INFO -- 2018-12-04 02:53:12]
initSignal:0
[INFO -- 2018-12-04 02:53:12]
endSignal:6
[INFO -- 2018-12-04 02:53:12]
faultModel:0
[INFO -- 2018-12-04 02:53:13]
Backtrace BEGIN:
#0  0x00005555555550d5 in smith_waterman (x_num=15000, y_num=13950, str_x=0x5555557586c0 "QNRZJUZKTNDSTDRMYBOWTTGLUDBRFQMYGFXRZWBTLENEKHSKIIGBCNOYQPPYIBWQIVHITLDERQLDXDOIMWJQLYOEPGCZHYRSTBAMODSFVDJVJZDXVOPHMDNELPFVPZNKCNYQSQXNWIIFHLEFATOOYBUKSCFHBSRFHPVZHSODDZKKMQROJHFIIZSCDZJGTCLATGBBBPGE"..., str_y=0x55555575c170 "NRZJUUKTTDDTDRRYBBOTTGLLDBRFFQYGGXRRWWBLEENKHSKIIGBCNOYYQPPYBBQQVVHTLDDRRLLXDDIMWJQQYOEPGGZHYRSTBAMOOSFFVJJJZDXVVOHMMNELLFFPZNNCCYQSQXNWIIFHLEFATOOOBBUSSFFBBRFHPVZHHODDZKKKQRRJJFIIZZCDZJGGCLLTGBBBPPEE"...) at smith_waterman.c:102
#1  0x0000555555555cbf in execute (file_x_name=0x7fffffffe22c "/tmp/smith_waterman/randInputX", file_y_name=0x7fffffffe24e "/tmp/smith_waterman/randInputY") at smith_waterman.c:263
#2  0x0000555555555f08 in main (argc=9, argv=0x7fffffffde78) at smith_waterman.c:314

97	    double max_score=0.0;
98	    for(i=1; i<x_num+1; i++){
99	        for(j=1; j<y_num+1; j++){
100	            if(str_x[i-1]==str_y[j-1]){diff=match_score;}
101	            else{diff=mismatch_score;}
102	            matrix[i][j]=my_maxof(matrix[i-1][j-1]+diff, matrix[i-1][j]+gap_score, matrix[i][j-1]+gap_score,0);
103	            if(matrix[i][j]>max_score)
104	                max_score=matrix[i][j];
105	        }
106	    }

Backtrace END
Fliping a bit of the value pointed by a pointer
Memory content before bitflip:0x41
Fault Model: Single bit-flip
base address to flip value: 0x555555556050  
address max offset: 1
Memory content after  bitflip:0x51
frame name: main
symbol name: answer1
symbol filename: smith_waterman.c
symbol line: 314
value: 0x555555556050 <__libc_csu_init> "QWAVI\211\327AUATL\215%\336\f "
value address: 0x7fffffffdd70
Type: The type is a pointer.
Type sizeof: 8

[INFO -- 2018-12-04 02:53:13]
Fault Injection Successful after 1.4142115116119385s
[INFO -- 2018-12-04 02:53:17]
event type: exit
[INFO -- 2018-12-04 02:53:17]
exit code: 0
