[INFO -- 2018-09-24 18:29:13]
Starting GDB script
[INFO -- 2018-09-24 18:29:13]
initSignal:0.0
[INFO -- 2018-09-24 18:29:13]
endSignal:2.0
[INFO -- 2018-09-24 18:29:13]
sending 5 signals using command: 'killall -2 smith_waterman' after 0.391720357669s
[INFO -- 2018-09-24 18:29:14]
sending 5 signals using command: 'killall -2 smith_waterman' after 0.8915713007s
[INFO -- 2018-09-24 18:29:14]
sending 5 signals using command: 'killall -2 smith_waterman' after 1.41935475086s
[INFO -- 2018-09-24 18:29:20]
Execution finished before waitTime
