[INFO -- 2018-09-26 22:28:41]
Starting GDB script
[INFO -- 2018-09-26 22:28:41]
initSignal:0.0
[INFO -- 2018-09-26 22:28:41]
endSignal:2.0
[INFO -- 2018-09-26 22:28:42]
sending 5 signals using command: 'killall -2 smith_waterman' after 1.15236235306s
[INFO -- 2018-09-26 22:28:43]
sending 5 signals using command: 'killall -2 smith_waterman' after 1.91112634997s
[INFO -- 2018-09-26 22:28:43]
sending 5 signals using command: 'killall -2 smith_waterman' after 1.93168112271s
[INFO -- 2018-09-26 22:28:46]
Execution finished before waitTime
