[INFO -- 2018-09-24 13:26:28]
Starting flip_value script
version: 1.1
[INFO -- 2018-09-24 13:26:28]
Initialization strings:
[INFO -- 2018-09-24 13:26:28]
(1) file /tmp/smith_waterman/smith_waterman
[INFO -- 2018-09-24 13:26:28]
(2) set args -x /tmp/smith_waterman/randInputX -y /tmp/smith_waterman/randInputY -o /tmp/smith_waterman/output
[INFO -- 2018-09-24 13:26:28]
initSignal:0
[INFO -- 2018-09-24 13:26:28]
endSignal:2
[INFO -- 2018-09-24 13:26:28]
faultModel:1
[INFO -- 2018-09-24 13:26:28]
Backtrace BEGIN:
#0  0x0000555555554f05 in smith_waterman (x_num=12150, y_num=15000, str_x=0x5555557586c0 "GWFFISSZZEHHNAUHHEKGUUGKQQZZNOVMQBUAAJJFNNJCCZZRLTXHZDDPPURKEBBYCSSYDWWFSMMSLDJYYZJGYAAITTVXXWTTZNZQOOGJSSOFFADIJJIZLLZHUEEEQAAKQQQCYLLQQTTXCTBMEODCVVPPUUPFTZFFHHMQVVQGJESSCEIVAAZXDDMMYTSNSXXMMJJCCKQJ"..., str_y=0x55555575b640 "GWDFIKSMZJEHYNAUHEKKGUFGKQOZNOKVMQBUAVJAFNJFCLZJRLTXHZDSPUREKEBYUCSWYDWFSHMUSLDJYZJGYOAPITVUXWSTZNQZQOGJWSFOFJADIJLIZLZKHUEEQXARKQQCEYLCQTTXCTBMEOWDCVPJPUPFTPZFHRHMQVQGOJESCHEIVAOZXDIMZYTSNSXVMFJCCZKQ"..., fo=0x555555758260) at smith_waterman.c:89
#1  0x0000555555555e38 in main (argc=7, argv=0x7fffffffdcb8) at smith_waterman.c:298

84	    for(i=1; i<x_num+1; i++){
85	        matrix[i]=matrix[0]+(y_num+1)*i;
86	    }
87	
88	    long j;
89	    for(i=0; i<x_num+1; i++){matrix[i][0]=0.0;}
90	    for(i=0; i<y_num+1; i++){matrix[0][i]=0.0;}
91	
92	    double diff=0.0;
93	    double max_score=0.0;

Backtrace END
Memory content before bitflip:0x110x060xa70xf70xff0x7f0x000x00
Fault Model: Double bit-flip
base address to flip value: 0x7fffffffdaa8
address max offset: 8
Memory content after  bitflip:0x110x060xf70xf70xff0x7f0x000x00
frame name: smith_waterman
symbol name: max_score
symbol filename: smith_waterman.c
symbol line: 93
value: 6.9533491475337084e-310
value address: 0x7fffffffdaa8
Type: A floating point type.
Type sizeof: 8

[INFO -- 2018-09-24 13:26:28]
Fault Injection Successful after 0.5489311218261719s
[INFO -- 2018-09-24 13:26:33]
event type: exit
[INFO -- 2018-09-24 13:26:33]
exit code: 0
