[INFO -- 2018-12-08 16:30:51]
Starting GDB script
[INFO -- 2018-12-08 16:30:51]
initSignal:0.0
[INFO -- 2018-12-08 16:30:51]
endSignal:6.0
[INFO -- 2018-12-08 16:30:52]
sending 5 signals using command: 'killall -2 smith_waterman' after 0.331541655693s
[INFO -- 2018-12-08 16:30:52]
Execution finished before waitTime
