[INFO -- 2018-09-24 22:25:38]
Starting GDB script
[INFO -- 2018-09-24 22:25:38]
initSignal:0.0
[INFO -- 2018-09-24 22:25:38]
endSignal:2.0
[INFO -- 2018-09-24 22:25:38]
sending 5 signals using command: 'killall -2 smith_waterman' after 0.341574655734s
[INFO -- 2018-09-24 22:25:39]
sending 5 signals using command: 'killall -2 smith_waterman' after 0.617725882666s
[INFO -- 2018-09-24 22:25:40]
sending 5 signals using command: 'killall -2 smith_waterman' after 1.87803767424s
[INFO -- 2018-09-24 22:25:43]
Execution finished before waitTime
