[INFO -- 2018-12-04 13:21:08]
Starting GDB script
[INFO -- 2018-12-04 13:21:08]
initSignal:0.0
[INFO -- 2018-12-04 13:21:08]
endSignal:6.0
[INFO -- 2018-12-04 13:21:10]
sending 5 signals using command: 'killall -2 smith_waterman' after 2.2461387125s
[INFO -- 2018-12-04 13:21:12]
sending 5 signals using command: 'killall -2 smith_waterman' after 4.2281531972s
[INFO -- 2018-12-04 13:21:13]
sending 5 signals using command: 'killall -2 smith_waterman' after 4.916955392s
[INFO -- 2018-12-04 13:21:14]
Execution finished before waitTime
