[INFO -- 2018-09-25 18:07:11]
Starting GDB script
[INFO -- 2018-09-25 18:07:11]
initSignal:0.0
[INFO -- 2018-09-25 18:07:11]
endSignal:2.0
[INFO -- 2018-09-25 18:07:12]
sending 5 signals using command: 'killall -2 smith_waterman' after 0.928877796675s
[INFO -- 2018-09-25 18:07:12]
sending 5 signals using command: 'killall -2 smith_waterman' after 0.931112568512s
[INFO -- 2018-09-25 18:07:12]
sending 5 signals using command: 'killall -2 smith_waterman' after 1.32100957804s
[INFO -- 2018-09-25 18:07:16]
Execution finished before waitTime
