[INFO -- 2018-12-03 18:28:47]
Starting GDB script
[INFO -- 2018-12-03 18:28:47]
initSignal:0.0
[INFO -- 2018-12-03 18:28:47]
endSignal:6.0
[INFO -- 2018-12-03 18:28:48]
sending 5 signals using command: 'killall -2 smith_waterman' after 1.56274364953s
[INFO -- 2018-12-03 18:28:48]
sending 5 signals using command: 'killall -2 smith_waterman' after 1.68103089393s
[INFO -- 2018-12-03 18:28:52]
Execution finished before waitTime
