[INFO -- 2018-09-27 20:05:27]
Starting GDB script
[INFO -- 2018-09-27 20:05:27]
initSignal:0.0
[INFO -- 2018-09-27 20:05:27]
endSignal:2.0
[INFO -- 2018-09-27 20:05:27]
sending 5 signals using command: 'killall -2 smith_waterman' after 0.244849026646s
[INFO -- 2018-09-27 20:05:28]
sending 5 signals using command: 'killall -2 smith_waterman' after 1.28755991652s
[INFO -- 2018-09-27 20:05:29]
sending 5 signals using command: 'killall -2 smith_waterman' after 1.90555646845s
[INFO -- 2018-09-27 20:05:32]
Execution finished before waitTime
