[INFO -- 2018-12-04 20:44:48]
Starting GDB script
[INFO -- 2018-12-04 20:44:48]
initSignal:0.0
[INFO -- 2018-12-04 20:44:48]
endSignal:6.0
[INFO -- 2018-12-04 20:44:49]
sending 5 signals using command: 'killall -2 smith_waterman' after 0.772983394359s
[INFO -- 2018-12-04 20:44:50]
sending 5 signals using command: 'killall -2 smith_waterman' after 1.73562762564s
[INFO -- 2018-12-04 20:44:54]
sending 5 signals using command: 'killall -2 smith_waterman' after 5.92265181652s
[INFO -- 2018-12-04 20:44:54]
Execution finished before waitTime
