[INFO -- 2018-09-25 17:04:53]
Starting GDB script
[INFO -- 2018-09-25 17:04:53]
initSignal:0.0
[INFO -- 2018-09-25 17:04:53]
endSignal:2.0
[INFO -- 2018-09-25 17:04:54]
sending 5 signals using command: 'killall -2 smith_waterman' after 0.480110866142s
[INFO -- 2018-09-25 17:04:55]
sending 5 signals using command: 'killall -2 smith_waterman' after 1.41531717513s
[INFO -- 2018-09-25 17:04:55]
sending 5 signals using command: 'killall -2 smith_waterman' after 1.51581548008s
[INFO -- 2018-09-25 17:05:13]
Execution did not finish before waitTime
