[INFO -- 2018-09-23 12:51:43]
Starting GDB script
[INFO -- 2018-09-23 12:51:43]
initSignal:0.0
[INFO -- 2018-09-23 12:51:43]
endSignal:2.0
[INFO -- 2018-09-23 12:51:43]
sending 5 signals using command: 'killall -2 smith_waterman' after 0.195186286453s
[INFO -- 2018-09-23 12:51:44]
sending 5 signals using command: 'killall -2 smith_waterman' after 0.987950902779s
[INFO -- 2018-09-23 12:51:44]
sending 5 signals using command: 'killall -2 smith_waterman' after 1.57913433012s
[INFO -- 2018-09-23 12:51:50]
Execution finished before waitTime
