[INFO -- 2018-09-26 16:57:04]
Starting GDB script
[INFO -- 2018-09-26 16:57:04]
initSignal:0.0
[INFO -- 2018-09-26 16:57:04]
endSignal:2.0
[INFO -- 2018-09-26 16:57:04]
sending 5 signals using command: 'killall -2 smith_waterman' after 0.130820387237s
[INFO -- 2018-09-26 16:57:04]
sending 5 signals using command: 'killall -2 smith_waterman' after 0.3316216262s
[INFO -- 2018-09-26 16:57:04]
sending 5 signals using command: 'killall -2 smith_waterman' after 0.388997479334s
[INFO -- 2018-09-26 16:57:09]
Execution finished before waitTime
