[INFO -- 2018-09-26 10:12:23]
Starting GDB script
[INFO -- 2018-09-26 10:12:23]
initSignal:0.0
[INFO -- 2018-09-26 10:12:23]
endSignal:2.0
[INFO -- 2018-09-26 10:12:23]
sending 5 signals using command: 'killall -2 smith_waterman' after 0.435729185198s
[INFO -- 2018-09-26 10:12:24]
sending 5 signals using command: 'killall -2 smith_waterman' after 0.978576498654s
[INFO -- 2018-09-26 10:12:24]
sending 5 signals using command: 'killall -2 smith_waterman' after 1.05479625209s
[INFO -- 2018-09-26 10:12:30]
Execution finished before waitTime
