[INFO -- 2018-12-05 14:44:25]
Starting GDB script
[INFO -- 2018-12-05 14:44:25]
initSignal:0.0
[INFO -- 2018-12-05 14:44:25]
endSignal:6.0
[INFO -- 2018-12-05 14:44:25]
sending 5 signals using command: 'killall -2 smith_waterman' after 0.00723469668292s
[INFO -- 2018-12-05 14:44:27]
sending 5 signals using command: 'killall -2 smith_waterman' after 2.50135114598s
[INFO -- 2018-12-05 14:44:30]
Execution finished before waitTime
