[INFO -- 2018-12-04 06:30:58]
Starting GDB script
[INFO -- 2018-12-04 06:30:58]
initSignal:0.0
[INFO -- 2018-12-04 06:30:58]
endSignal:6.0
[INFO -- 2018-12-04 06:31:01]
sending 5 signals using command: 'killall -2 smith_waterman' after 3.07280080306s
[INFO -- 2018-12-04 06:31:02]
sending 5 signals using command: 'killall -2 smith_waterman' after 4.36377300026s
[INFO -- 2018-12-04 06:31:03]
sending 5 signals using command: 'killall -2 smith_waterman' after 5.53248826742s
[INFO -- 2018-12-04 06:31:04]
Execution finished before waitTime
