[INFO -- 2018-09-25 16:40:05]
Starting GDB script
[INFO -- 2018-09-25 16:40:05]
initSignal:0.0
[INFO -- 2018-09-25 16:40:05]
endSignal:2.0
[INFO -- 2018-09-25 16:40:06]
sending 5 signals using command: 'killall -2 smith_waterman' after 0.769479777197s
[INFO -- 2018-09-25 16:40:07]
sending 5 signals using command: 'killall -2 smith_waterman' after 1.39522186118s
[INFO -- 2018-09-25 16:40:07]
sending 5 signals using command: 'killall -2 smith_waterman' after 1.49963739117s
[INFO -- 2018-09-25 16:40:11]
Execution finished before waitTime
