[INFO -- 2018-12-04 07:45:56]
Starting GDB script
[INFO -- 2018-12-04 07:45:56]
initSignal:0.0
[INFO -- 2018-12-04 07:45:56]
endSignal:6.0
[INFO -- 2018-12-04 07:46:00]
sending 5 signals using command: 'killall -2 smith_waterman' after 3.42373745676s
[INFO -- 2018-12-04 07:46:01]
sending 5 signals using command: 'killall -2 smith_waterman' after 4.77003440549s
[INFO -- 2018-12-04 07:46:02]
sending 5 signals using command: 'killall -2 smith_waterman' after 5.55278477892s
[INFO -- 2018-12-04 07:46:02]
Execution finished before waitTime
