[INFO -- 2018-12-08 17:00:09]
sending 5 signals using command: 'killall -2 smith_waterman' after 4.18710869028s
[INFO -- 2018-12-08 17:00:10]
sending 5 signals using command: 'killall -2 smith_waterman' after 4.68326991778s
[INFO -- 2018-12-08 17:00:10]
Starting GDB script
[INFO -- 2018-12-08 17:00:10]
initSignal:0.0
[INFO -- 2018-12-08 17:00:10]
endSignal:6.0
[INFO -- 2018-12-08 17:00:11]
sending 5 signals using command: 'killall -2 smith_waterman' after 1.36452047s
[INFO -- 2018-12-08 17:00:12]
sending 5 signals using command: 'killall -2 smith_waterman' after 2.75158320822s
[INFO -- 2018-12-08 17:00:15]
sending 5 signals using command: 'killall -2 smith_waterman' after 5.67844895824s
[INFO -- 2018-12-08 17:00:17]
Execution finished before waitTime
