[INFO -- 2018-12-05 04:30:41]
Starting GDB script
[INFO -- 2018-12-05 04:30:41]
initSignal:0.0
[INFO -- 2018-12-05 04:30:41]
endSignal:6.0
[INFO -- 2018-12-05 04:30:43]
sending 5 signals using command: 'killall -2 smith_waterman' after 1.72630885362s
[INFO -- 2018-12-05 04:30:46]
sending 5 signals using command: 'killall -2 smith_waterman' after 4.85824830535s
[INFO -- 2018-12-05 04:30:46]
sending 5 signals using command: 'killall -2 smith_waterman' after 5.19215496981s
[INFO -- 2018-12-05 04:30:48]
Execution finished before waitTime
