[INFO -- 2018-12-09 10:02:13]
sending 5 signals using command: 'killall -2 smith_waterman' after 2.14330505098s
[INFO -- 2018-12-09 10:02:16]
sending 5 signals using command: 'killall -2 smith_waterman' after 5.12980194326s
[INFO -- 2018-12-09 10:02:16]
Starting GDB script
[INFO -- 2018-12-09 10:02:16]
initSignal:0.0
[INFO -- 2018-12-09 10:02:16]
endSignal:6.0
[INFO -- 2018-12-09 10:02:16]
sending 5 signals using command: 'killall -2 smith_waterman' after 0.282960178411s
[INFO -- 2018-12-09 10:02:17]
sending 5 signals using command: 'killall -2 smith_waterman' after 0.729858849629s
[INFO -- 2018-12-09 10:02:17]
sending 5 signals using command: 'killall -2 smith_waterman' after 1.48371204077s
[INFO -- 2018-12-09 10:02:24]
Execution finished before waitTime
