[INFO -- 2018-12-03 19:26:12]
sending 5 signals using command: 'killall -2 smith_waterman' after 5.13087924994s
[INFO -- 2018-12-03 19:26:12]
Starting GDB script
[INFO -- 2018-12-03 19:26:12]
initSignal:0.0
[INFO -- 2018-12-03 19:26:12]
endSignal:6.0
[INFO -- 2018-12-03 19:26:15]
sending 5 signals using command: 'killall -2 smith_waterman' after 3.13357492033s
[INFO -- 2018-12-03 19:26:16]
sending 5 signals using command: 'killall -2 smith_waterman' after 4.12088312197s
[INFO -- 2018-12-03 19:26:17]
sending 5 signals using command: 'killall -2 smith_waterman' after 4.97971812378s
[INFO -- 2018-12-03 19:26:17]
Execution finished before waitTime
