[INFO -- 2018-09-24 00:39:30]
Starting GDB script
[INFO -- 2018-09-24 00:39:30]
initSignal:0.0
[INFO -- 2018-09-24 00:39:30]
endSignal:2.0
[INFO -- 2018-09-24 00:39:31]
sending 5 signals using command: 'killall -2 smith_waterman' after 0.180217107394s
[INFO -- 2018-09-24 00:39:31]
sending 5 signals using command: 'killall -2 smith_waterman' after 0.252927477866s
[INFO -- 2018-09-24 00:39:31]
sending 5 signals using command: 'killall -2 smith_waterman' after 0.791028787181s
[INFO -- 2018-09-24 00:39:36]
Execution finished before waitTime
