[INFO -- 2018-12-08 22:05:47]
sending 5 signals using command: 'killall -2 smith_waterman' after 4.48355044175s
[INFO -- 2018-12-08 22:05:48]
Starting GDB script
[INFO -- 2018-12-08 22:05:48]
initSignal:0.0
[INFO -- 2018-12-08 22:05:48]
endSignal:6.0
[INFO -- 2018-12-08 22:05:49]
sending 5 signals using command: 'killall -2 smith_waterman' after 1.3789513243s
[INFO -- 2018-12-08 22:05:50]
sending 5 signals using command: 'killall -2 smith_waterman' after 2.47195453927s
[INFO -- 2018-12-08 22:05:51]
sending 5 signals using command: 'killall -2 smith_waterman' after 3.83977243975s
[INFO -- 2018-12-08 22:05:54]
Execution finished before waitTime
