[INFO -- 2018-12-04 05:54:59]
Starting GDB script
[INFO -- 2018-12-04 05:54:59]
initSignal:0.0
[INFO -- 2018-12-04 05:54:59]
endSignal:6.0
[INFO -- 2018-12-04 05:54:59]
sending 5 signals using command: 'killall -2 smith_waterman' after 0.320291237188s
[INFO -- 2018-12-04 05:55:01]
sending 5 signals using command: 'killall -2 smith_waterman' after 2.42512397199s
[INFO -- 2018-12-04 05:55:02]
sending 5 signals using command: 'killall -2 smith_waterman' after 2.78109802625s
[INFO -- 2018-12-04 05:55:19]
Execution did not finish before waitTime
