[INFO -- 2018-12-05 22:10:06]
Starting GDB script
[INFO -- 2018-12-05 22:10:06]
initSignal:0.0
[INFO -- 2018-12-05 22:10:06]
endSignal:6.0
[INFO -- 2018-12-05 22:10:06]
sending 5 signals using command: 'killall -2 smith_waterman' after 0.23895348416s
[INFO -- 2018-12-05 22:10:10]
sending 5 signals using command: 'killall -2 smith_waterman' after 4.11180960649s
[INFO -- 2018-12-05 22:10:11]
sending 5 signals using command: 'killall -2 smith_waterman' after 4.74692639925s
[INFO -- 2018-12-05 22:10:11]
Execution finished before waitTime
