[INFO -- 2018-09-26 23:06:30]
Starting GDB script
[INFO -- 2018-09-26 23:06:30]
initSignal:0.0
[INFO -- 2018-09-26 23:06:30]
endSignal:2.0
[INFO -- 2018-09-26 23:06:30]
sending 5 signals using command: 'killall -2 smith_waterman' after 0.44599767922s
[INFO -- 2018-09-26 23:06:31]
sending 5 signals using command: 'killall -2 smith_waterman' after 0.928499006406s
[INFO -- 2018-09-26 23:06:31]
sending 5 signals using command: 'killall -2 smith_waterman' after 1.24753451037s
[INFO -- 2018-09-26 23:06:36]
Execution finished before waitTime
