[INFO -- 2018-09-26 07:42:48]
Starting GDB script
[INFO -- 2018-09-26 07:42:48]
initSignal:0.0
[INFO -- 2018-09-26 07:42:48]
endSignal:2.0
[INFO -- 2018-09-26 07:42:49]
sending 5 signals using command: 'killall -2 smith_waterman' after 0.225816129104s
[INFO -- 2018-09-26 07:42:49]
sending 5 signals using command: 'killall -2 smith_waterman' after 0.796815576704s
[INFO -- 2018-09-26 07:42:50]
sending 5 signals using command: 'killall -2 smith_waterman' after 1.88907039484s
[INFO -- 2018-09-26 07:42:56]
Execution finished before waitTime
