[INFO -- 2018-09-24 00:27:31]
Starting GDB script
[INFO -- 2018-09-24 00:27:31]
initSignal:0.0
[INFO -- 2018-09-24 00:27:31]
endSignal:2.0
[INFO -- 2018-09-24 00:27:31]
sending 5 signals using command: 'killall -2 smith_waterman' after 0.262751174291s
[INFO -- 2018-09-24 00:27:32]
Execution finished before waitTime
