[INFO -- 2018-12-09 09:04:23]
Starting GDB script
[INFO -- 2018-12-09 09:04:23]
initSignal:0.0
[INFO -- 2018-12-09 09:04:23]
endSignal:6.0
[INFO -- 2018-12-09 09:04:26]
sending 5 signals using command: 'killall -2 smith_waterman' after 3.16243550309s
[INFO -- 2018-12-09 09:04:26]
sending 5 signals using command: 'killall -2 smith_waterman' after 3.6561814695s
[INFO -- 2018-12-09 09:04:27]
sending 5 signals using command: 'killall -2 smith_waterman' after 4.10094019932s
[INFO -- 2018-12-09 09:04:31]
Execution finished before waitTime
