[INFO -- 2018-09-27 05:10:05]
Starting GDB script
[INFO -- 2018-09-27 05:10:05]
initSignal:0.0
[INFO -- 2018-09-27 05:10:05]
endSignal:2.0
[INFO -- 2018-09-27 05:10:05]
sending 5 signals using command: 'killall -2 smith_waterman' after 0.0480529353473s
[INFO -- 2018-09-27 05:10:05]
sending 5 signals using command: 'killall -2 smith_waterman' after 0.265338046994s
[INFO -- 2018-09-27 05:10:05]
sending 5 signals using command: 'killall -2 smith_waterman' after 0.473830449806s
[INFO -- 2018-09-27 05:10:10]
Execution finished before waitTime
