[INFO -- 2018-09-25 05:09:19]
Starting GDB script
[INFO -- 2018-09-25 05:09:19]
initSignal:0.0
[INFO -- 2018-09-25 05:09:19]
endSignal:2.0
[INFO -- 2018-09-25 05:09:19]
sending 5 signals using command: 'killall -2 smith_waterman' after 0.386143594082s
[INFO -- 2018-09-25 05:09:20]
sending 5 signals using command: 'killall -2 smith_waterman' after 1.81645396859s
[INFO -- 2018-09-25 05:09:21]
sending 5 signals using command: 'killall -2 smith_waterman' after 1.98596394016s
[INFO -- 2018-09-25 05:09:25]
Execution finished before waitTime
