[INFO -- 2018-11-08 21:38:31]
sending 5 signals using command: 'killall -2 smith_waterman' after 4.71663491416s
[INFO -- 2018-11-08 21:38:33]
sending 5 signals using command: 'killall -2 smith_waterman' after 5.97142400127s
[INFO -- 2018-11-08 21:38:33]
Starting GDB script
[INFO -- 2018-11-08 21:38:33]
initSignal:0.0
[INFO -- 2018-11-08 21:38:33]
endSignal:6.0
[INFO -- 2018-11-08 21:38:33]
sending 5 signals using command: 'killall -2 smith_waterman' after 0.361717224558s
[INFO -- 2018-11-08 21:38:35]
sending 5 signals using command: 'killall -2 smith_waterman' after 2.5044034651s
[INFO -- 2018-11-08 21:38:36]
sending 5 signals using command: 'killall -2 smith_waterman' after 2.96788909775s
[INFO -- 2018-11-08 21:38:36]
Execution finished before waitTime
