[INFO -- 2018-12-03 12:42:02]
Starting GDB script
[INFO -- 2018-12-03 12:42:02]
initSignal:0.0
[INFO -- 2018-12-03 12:42:02]
endSignal:6.0
[INFO -- 2018-12-03 12:42:03]
sending 5 signals using command: 'killall -2 smith_waterman' after 0.795327541342s
[INFO -- 2018-12-03 12:42:04]
sending 5 signals using command: 'killall -2 smith_waterman' after 1.52409814817s
[INFO -- 2018-12-03 12:42:05]
Execution finished before waitTime
