[INFO -- 2018-12-04 04:02:41]
Starting GDB script
[INFO -- 2018-12-04 04:02:41]
initSignal:0.0
[INFO -- 2018-12-04 04:02:41]
endSignal:6.0
[INFO -- 2018-12-04 04:02:42]
sending 5 signals using command: 'killall -2 smith_waterman' after 0.5658721247s
[INFO -- 2018-12-04 04:02:44]
sending 5 signals using command: 'killall -2 smith_waterman' after 2.67154995308s
[INFO -- 2018-12-04 04:02:45]
sending 5 signals using command: 'killall -2 smith_waterman' after 3.89466393873s
[INFO -- 2018-12-04 04:02:47]
Execution finished before waitTime
