[INFO -- 2018-11-08 21:31:12]
Starting GDB script
[INFO -- 2018-11-08 21:31:12]
initSignal:0.0
[INFO -- 2018-11-08 21:31:12]
endSignal:6.0
[INFO -- 2018-11-08 21:31:13]
sending 5 signals using command: 'killall -2 smith_waterman' after 0.958901286054s
[INFO -- 2018-11-08 21:31:14]
sending 5 signals using command: 'killall -2 smith_waterman' after 1.51396680815s
[INFO -- 2018-11-08 21:31:15]
Execution finished before waitTime
