[INFO -- 2018-12-08 20:14:59]
sending 5 signals using command: 'killall -2 smith_waterman' after 4.12450165624s
[INFO -- 2018-12-08 20:15:00]
sending 5 signals using command: 'killall -2 smith_waterman' after 4.70910211606s
[INFO -- 2018-12-08 20:15:00]
Starting GDB script
[INFO -- 2018-12-08 20:15:00]
initSignal:0.0
[INFO -- 2018-12-08 20:15:00]
endSignal:6.0
[INFO -- 2018-12-08 20:15:01]
sending 5 signals using command: 'killall -2 smith_waterman' after 1.03005207107s
[INFO -- 2018-12-08 20:15:02]
sending 5 signals using command: 'killall -2 smith_waterman' after 1.51366229882s
[INFO -- 2018-12-08 20:15:02]
sending 5 signals using command: 'killall -2 smith_waterman' after 1.77779782833s
[INFO -- 2018-12-08 20:15:02]
Execution finished before waitTime
