[INFO -- 2018-11-07 18:24:59]
Starting GDB script
[INFO -- 2018-11-07 18:24:59]
initSignal:0.0
[INFO -- 2018-11-07 18:24:59]
endSignal:2.0
[INFO -- 2018-11-07 18:25:00]
sending 5 signals using command: 'killall -2 smith_waterman' after 1.37072604952s
[INFO -- 2018-11-07 18:25:00]
sending 5 signals using command: 'killall -2 smith_waterman' after 1.60097962648s
[INFO -- 2018-11-07 18:25:00]
sending 5 signals using command: 'killall -2 smith_waterman' after 1.61166331603s
[INFO -- 2018-11-07 18:25:19]
Execution did not finish before waitTime
