[INFO -- 2018-09-25 03:29:23]
Starting GDB script
[INFO -- 2018-09-25 03:29:23]
initSignal:0.0
[INFO -- 2018-09-25 03:29:23]
endSignal:2.0
[INFO -- 2018-09-25 03:29:24]
sending 5 signals using command: 'killall -2 smith_waterman' after 0.244336246813s
[INFO -- 2018-09-25 03:29:24]
sending 5 signals using command: 'killall -2 smith_waterman' after 0.394201219685s
[INFO -- 2018-09-25 03:29:24]
sending 5 signals using command: 'killall -2 smith_waterman' after 0.590754845058s
[INFO -- 2018-09-25 03:29:29]
Execution finished before waitTime
