[INFO -- 2018-09-23 12:49:16]
Starting GDB script
[INFO -- 2018-09-23 12:49:16]
initSignal:0.0
[INFO -- 2018-09-23 12:49:16]
endSignal:2.0
[INFO -- 2018-09-23 12:49:17]
sending 5 signals using command: 'killall -2 smith_waterman' after 0.996013771035s
[INFO -- 2018-09-23 12:49:17]
sending 5 signals using command: 'killall -2 smith_waterman' after 1.28908695577s
[INFO -- 2018-09-23 12:49:17]
sending 5 signals using command: 'killall -2 smith_waterman' after 1.58909072583s
[INFO -- 2018-09-23 12:49:22]
Execution finished before waitTime
