[INFO -- 2018-09-27 09:39:43]
Starting GDB script
[INFO -- 2018-09-27 09:39:43]
initSignal:0.0
[INFO -- 2018-09-27 09:39:43]
endSignal:2.0
[INFO -- 2018-09-27 09:39:43]
sending 5 signals using command: 'killall -2 smith_waterman' after 0.0677242088044s
[INFO -- 2018-09-27 09:39:43]
sending 5 signals using command: 'killall -2 smith_waterman' after 0.560341780672s
[INFO -- 2018-09-27 09:39:44]
sending 5 signals using command: 'killall -2 smith_waterman' after 1.18603010948s
[INFO -- 2018-09-27 09:39:49]
Execution finished before waitTime
