[INFO -- 2018-12-08 01:16:18]
Starting GDB script
[INFO -- 2018-12-08 01:16:18]
initSignal:0.0
[INFO -- 2018-12-08 01:16:18]
endSignal:6.0
[INFO -- 2018-12-08 01:16:20]
sending 5 signals using command: 'killall -2 smith_waterman' after 2.8451158748s
[INFO -- 2018-12-08 01:16:22]
Execution finished before waitTime
