[INFO -- 2018-12-05 08:08:17]
Starting GDB script
[INFO -- 2018-12-05 08:08:17]
initSignal:0.0
[INFO -- 2018-12-05 08:08:17]
endSignal:6.0
[INFO -- 2018-12-05 08:08:17]
sending 5 signals using command: 'killall -2 smith_waterman' after 0.375053082805s
[INFO -- 2018-12-05 08:08:18]
sending 5 signals using command: 'killall -2 smith_waterman' after 1.45853283373s
[INFO -- 2018-12-05 08:08:20]
sending 5 signals using command: 'killall -2 smith_waterman' after 3.63643501439s
[INFO -- 2018-12-05 08:08:23]
Execution finished before waitTime
