[INFO -- 2018-11-07 18:48:53]
Starting GDB script
[INFO -- 2018-11-07 18:48:53]
initSignal:0.0
[INFO -- 2018-11-07 18:48:53]
endSignal:2.0
[INFO -- 2018-11-07 18:48:53]
sending 5 signals using command: 'killall -2 smith_waterman' after 0.148290943303s
[INFO -- 2018-11-07 18:48:53]
sending 5 signals using command: 'killall -2 smith_waterman' after 0.266083304676s
[INFO -- 2018-11-07 18:48:54]
sending 5 signals using command: 'killall -2 smith_waterman' after 0.993812155628s
[INFO -- 2018-11-07 18:48:54]
Execution finished before waitTime
