[INFO -- 2018-11-08 21:33:01]
Starting flip_value script
version: 1.1
[INFO -- 2018-11-08 21:33:01]
Initialization strings:
[INFO -- 2018-11-08 21:33:01]
(1) file /tmp/smith_waterman/smith_waterman
[INFO -- 2018-11-08 21:33:01]
(2) set args -x /tmp/smith_waterman/randInputX -y /tmp/smith_waterman/randInputY -o /tmp/smith_waterman/output
[INFO -- 2018-11-08 21:33:01]
initSignal:0
[INFO -- 2018-11-08 21:33:01]
endSignal:6
[INFO -- 2018-11-08 21:33:01]
faultModel:0
[INFO -- 2018-11-08 21:33:03]
Backtrace BEGIN:
#0  0x00005555555550e6 in smith_waterman (x_num=15000, y_num=13650, str_x=0x5555557586c0 "NZPJOUKFYJFFHEGCNGKERGLVCNVICJIPKXAATKGSULXDPDFFLRJEYWZCJUMLGUCQUETNPZFLMCOEHVJSMSWMQVOZSBMAXOQRULFJKMWXRKDYHMTUGRGWPXVJAJJXXBRTNYDZKZYDMBCVNXPTOYRFXOOXXXWWBNQOLTPYUOBIPDEDCVYTVQYSEPRCOOYPBQFPJVNGJOOY"..., str_y=0x55555575c170 "ZZPOOKKYJJFFHGGCGGKERGVVCNIICIPPKXAAKGGUUXXDDDFFLRJEYZZJUUMLGUCQUTNPZZLLMCOEVVSSSSWMQVZZBBMXOOQUULJKKWWXRKYYMTTGGRGPPVVAAJJXXRRTYYDKKZYMMCVVNXPOORFFOOOXXXWWNNQOLPPYUBIIDEDDCVTVVQYSPRRCOOYPQFFJVNGGJOYY"..., fo=0x555555758260) at smith_waterman.c:99
#1  0x0000555555555e38 in main (argc=7, argv=0x7fffffffde98) at smith_waterman.c:298

94	    for(i=1; i<x_num+1; i++){
95	        for(j=1; j<y_num+1; j++){
96	            if(str_x[i-1]==str_y[j-1]){diff=match_score;}
97	            else{diff=mismatch_score;}
98	            matrix[i][j]=my_maxof(matrix[i-1][j-1]+diff, matrix[i-1][j]+gap_score, matrix[i][j-1]+gap_score,0);
99	            if(matrix[i][j]>max_score)
100	                max_score=matrix[i][j];
101	        }
102	    }
103	

Backtrace END
Fliping a bit of the pointer
Memory content before bitflip:0xc00x860x750x550x550x550x000x00
Fault Model: Single bit-flip
base address to flip value: 0x7fffffffdc58
address max offset: 8
Memory content after  bitflip:0xc00x860x750x550x550x550x800x00
frame name: smith_waterman
symbol name: str_x
symbol filename: smith_waterman.c
symbol line: 79
value: 0x5555557586c0 "NZPJOUKFYJFFHEGCNGKERGLVCNVICJIPKXAATKGSULXDPDFFLRJEYWZCJUMLGUCQUETNPZFLMCOEHVJSMSWMQVOZSBMAXOQRULFJKMWXRKDYHMTUGRGWPXVJAJJXXBRTNYDZKZYDMBCVNXPTOYRFXOOXXXWWBNQOLTPYUOBIPDEDCVYTVQYSEPRCOOYPBQFPJVNGJOOY"...
value address: 0x7fffffffdc58
Type: The type is a pointer.
Type sizeof: 8

[INFO -- 2018-11-08 21:33:03]
Fault Injection Successful after 2.1435792446136475s
[INFO -- 2018-11-08 21:33:03]
event type: exit
[EXCEPTION -- 2018-11-08 21:33:03]
exit code: no exit code available
