[INFO -- 2018-12-03 16:01:46]
sending 5 signals using command: 'killall -2 smith_waterman' after 3.94652087073s
[INFO -- 2018-12-03 16:01:46]
Starting GDB script
[INFO -- 2018-12-03 16:01:46]
initSignal:0.0
[INFO -- 2018-12-03 16:01:46]
endSignal:6.0
[INFO -- 2018-12-03 16:01:50]
sending 5 signals using command: 'killall -2 smith_waterman' after 3.72190758456s
[INFO -- 2018-12-03 16:01:51]
sending 5 signals using command: 'killall -2 smith_waterman' after 4.37277801535s
[INFO -- 2018-12-03 16:01:51]
sending 5 signals using command: 'killall -2 smith_waterman' after 4.7093875406s
[INFO -- 2018-12-03 16:01:52]
Execution finished before waitTime
