[INFO -- 2018-12-03 10:04:39]
Starting GDB script
[INFO -- 2018-12-03 10:04:39]
initSignal:0.0
[INFO -- 2018-12-03 10:04:39]
endSignal:6.0
[INFO -- 2018-12-03 10:04:41]
sending 5 signals using command: 'killall -2 smith_waterman' after 1.75979062158s
[INFO -- 2018-12-03 10:04:44]
sending 5 signals using command: 'killall -2 smith_waterman' after 4.60716291004s
[INFO -- 2018-12-03 10:04:44]
sending 5 signals using command: 'killall -2 smith_waterman' after 5.01720365087s
[INFO -- 2018-12-03 10:04:44]
Execution finished before waitTime
