[INFO -- 2018-12-05 09:46:43]
Starting GDB script
[INFO -- 2018-12-05 09:46:43]
initSignal:0.0
[INFO -- 2018-12-05 09:46:43]
endSignal:6.0
[INFO -- 2018-12-05 09:46:44]
sending 5 signals using command: 'killall -2 smith_waterman' after 0.615308403695s
[INFO -- 2018-12-05 09:46:47]
sending 5 signals using command: 'killall -2 smith_waterman' after 3.99423375931s
[INFO -- 2018-12-05 09:46:49]
sending 5 signals using command: 'killall -2 smith_waterman' after 5.33053322819s
[INFO -- 2018-12-05 09:46:50]
Execution finished before waitTime
