[INFO -- 2018-12-04 03:49:10]
sending 5 signals using command: 'killall -2 smith_waterman' after 4.54628765229s
[INFO -- 2018-12-04 03:49:10]
sending 5 signals using command: 'killall -2 smith_waterman' after 4.75588958403s
[INFO -- 2018-12-04 03:49:10]
Starting GDB script
[INFO -- 2018-12-04 03:49:10]
initSignal:0.0
[INFO -- 2018-12-04 03:49:10]
endSignal:6.0
[INFO -- 2018-12-04 03:49:11]
sending 5 signals using command: 'killall -2 smith_waterman' after 1.3045809541s
[INFO -- 2018-12-04 03:49:13]
sending 5 signals using command: 'killall -2 smith_waterman' after 3.01314046681s
[INFO -- 2018-12-04 03:49:16]
sending 5 signals using command: 'killall -2 smith_waterman' after 5.95116980134s
[INFO -- 2018-12-04 03:49:16]
Execution finished before waitTime
