[INFO -- 2018-12-09 14:33:45]
Starting GDB script
[INFO -- 2018-12-09 14:33:45]
initSignal:0.0
[INFO -- 2018-12-09 14:33:45]
endSignal:6.0
[INFO -- 2018-12-09 14:33:48]
sending 5 signals using command: 'killall -2 smith_waterman' after 2.13673035337s
[INFO -- 2018-12-09 14:33:48]
Execution finished before waitTime
