[INFO -- 2018-12-08 00:55:53]
sending 5 signals using command: 'killall -2 smith_waterman' after 4.08143796353s
[INFO -- 2018-12-08 00:55:53]
Starting GDB script
[INFO -- 2018-12-08 00:55:53]
initSignal:0.0
[INFO -- 2018-12-08 00:55:53]
endSignal:6.0
[INFO -- 2018-12-08 00:55:54]
sending 5 signals using command: 'killall -2 smith_waterman' after 1.02703238615s
[INFO -- 2018-12-08 00:55:54]
sending 5 signals using command: 'killall -2 smith_waterman' after 1.13567163472s
[INFO -- 2018-12-08 00:55:58]
sending 5 signals using command: 'killall -2 smith_waterman' after 4.96225485891s
[INFO -- 2018-12-08 00:56:00]
Execution finished before waitTime
