[INFO -- 2018-12-09 00:04:14]
Starting GDB script
[INFO -- 2018-12-09 00:04:14]
initSignal:0.0
[INFO -- 2018-12-09 00:04:14]
endSignal:6.0
[INFO -- 2018-12-09 00:04:16]
sending 5 signals using command: 'killall -2 smith_waterman' after 1.41199544678s
[INFO -- 2018-12-09 00:04:17]
sending 5 signals using command: 'killall -2 smith_waterman' after 2.32875120765s
[INFO -- 2018-12-09 00:04:19]
sending 5 signals using command: 'killall -2 smith_waterman' after 4.90609354911s
[INFO -- 2018-12-09 00:04:20]
Execution finished before waitTime
