[INFO -- 2018-09-27 07:49:55]
Starting GDB script
[INFO -- 2018-09-27 07:49:55]
initSignal:0.0
[INFO -- 2018-09-27 07:49:55]
endSignal:2.0
[INFO -- 2018-09-27 07:49:55]
sending 5 signals using command: 'killall -2 smith_waterman' after 0.171497287107s
[INFO -- 2018-09-27 07:49:55]
sending 5 signals using command: 'killall -2 smith_waterman' after 0.704922323651s
[INFO -- 2018-09-27 07:49:56]
sending 5 signals using command: 'killall -2 smith_waterman' after 1.1383208737s
[INFO -- 2018-09-27 07:50:01]
Execution finished before waitTime
