[INFO -- 2018-09-27 08:55:29]
Starting GDB script
[INFO -- 2018-09-27 08:55:29]
initSignal:0.0
[INFO -- 2018-09-27 08:55:29]
endSignal:2.0
[INFO -- 2018-09-27 08:55:29]
sending 5 signals using command: 'killall -2 smith_waterman' after 0.623276338834s
[INFO -- 2018-09-27 08:55:30]
sending 5 signals using command: 'killall -2 smith_waterman' after 1.36333204677s
[INFO -- 2018-09-27 08:55:30]
sending 5 signals using command: 'killall -2 smith_waterman' after 1.67992460099s
[INFO -- 2018-09-27 08:55:35]
Execution finished before waitTime
