[INFO -- 2018-09-23 11:12:10]
Starting GDB script
[INFO -- 2018-09-23 11:12:10]
initSignal:0.0
[INFO -- 2018-09-23 11:12:10]
endSignal:2.0
[INFO -- 2018-09-23 11:12:10]
sending 5 signals using command: 'killall -2 smith_waterman' after 0.270852794749s
[INFO -- 2018-09-23 11:12:11]
sending 5 signals using command: 'killall -2 smith_waterman' after 0.822080178053s
[INFO -- 2018-09-23 11:12:11]
Execution finished before waitTime
