[INFO -- 2018-12-04 13:11:41]
Starting flip_value script
version: 1.1
[INFO -- 2018-12-04 13:11:41]
Initialization strings:
[INFO -- 2018-12-04 13:11:41]
(1) file /tmp/smith_waterman/smith_waterman
[INFO -- 2018-12-04 13:11:41]
(2) set args -x /tmp/smith_waterman/randInputX -y /tmp/smith_waterman/randInputY -o /tmp/smith_waterman/output -z /tmp/smith_waterman/detected.log
[INFO -- 2018-12-04 13:11:41]
initSignal:0
[INFO -- 2018-12-04 13:11:41]
endSignal:6
[INFO -- 2018-12-04 13:11:41]
faultModel:0
[INFO -- 2018-12-04 13:11:42]
Backtrace BEGIN:
#0  dl_main (phdr=<optimized out>, phnum=<optimized out>, user_entry=<optimized out>, auxv=<optimized out>) at rtld.c:2289
#1  0x00007ffff7defdd0 in _dl_sysdep_start (start_argptr=start_argptr@entry=0x7fffffffde70, dl_main=dl_main@entry=0x7ffff7dd7660 <dl_main>) at ../elf/dl-sysdep.c:253
#2  0x00007ffff7dd7128 in _dl_start_final (arg=0x7fffffffde70) at rtld.c:414
#3  _dl_start (arg=0x7fffffffde70) at rtld.c:521
#4  0x00007ffff7dd6098 in _start () from /lib64/ld-linux-x86-64.so.2
#5  0x0000000000000009 in ?? ()
#6  0x00007fffffffe206 in ?? ()
#7  0x00007fffffffe229 in ?? ()
#8  0x00007fffffffe22c in ?? ()
#9  0x00007fffffffe24b in ?? ()
#10 0x00007fffffffe24e in ?? ()
#11 0x00007fffffffe26d in ?? ()
#12 0x00007fffffffe270 in ?? ()
#13 0x00007fffffffe28b in ?? ()
#14 0x00007fffffffe28e in ?? ()
#15 0x0000000000000000 in ?? ()

2284	rtld.c: No such file or directory.

Backtrace END
Fliping a bit of the pointer
Memory content before bitflip:0x000x000x000x000x000x000x000x00
Fault Model: Single bit-flip
base address to flip value: 0x7ffff7ffc688 
address max offset: 8
Memory content after  bitflip:0x000x000x000x000x020x000x000x00
frame name: _dl_start_final
symbol name: preloadlist
symbol filename: rtld.c
symbol line: 825
value: 0x0
value address: 0x7ffff7ffc688 <preloadlist>
Type: The type is a pointer.
Type sizeof: 8

[INFO -- 2018-12-04 13:11:42]
Fault Injection Successful after 1.016641616821289s
[INFO -- 2018-12-04 13:11:47]
event type: exit
[INFO -- 2018-12-04 13:11:47]
exit code: 0
