[INFO -- 2018-09-25 19:51:52]
Starting GDB script
[INFO -- 2018-09-25 19:51:52]
initSignal:0.0
[INFO -- 2018-09-25 19:51:52]
endSignal:2.0
[INFO -- 2018-09-25 19:51:53]
sending 5 signals using command: 'killall -2 smith_waterman' after 0.257079862234s
[INFO -- 2018-09-25 19:51:53]
sending 5 signals using command: 'killall -2 smith_waterman' after 0.446401844739s
[INFO -- 2018-09-25 19:51:53]
sending 5 signals using command: 'killall -2 smith_waterman' after 0.477303789474s
[INFO -- 2018-09-25 19:51:59]
Execution finished before waitTime
