[INFO -- 2018-09-24 21:57:21]
Starting GDB script
[INFO -- 2018-09-24 21:57:21]
initSignal:0.0
[INFO -- 2018-09-24 21:57:21]
endSignal:2.0
[INFO -- 2018-09-24 21:57:21]
sending 5 signals using command: 'killall -2 smith_waterman' after 0.316635570817s
[INFO -- 2018-09-24 21:57:22]
sending 5 signals using command: 'killall -2 smith_waterman' after 0.587049828353s
[INFO -- 2018-09-24 21:57:22]
sending 5 signals using command: 'killall -2 smith_waterman' after 0.656500228089s
[INFO -- 2018-09-24 21:57:22]
Execution finished before waitTime
