[INFO -- 2018-09-26 15:30:42]
Starting GDB script
[INFO -- 2018-09-26 15:30:42]
initSignal:0.0
[INFO -- 2018-09-26 15:30:42]
endSignal:2.0
[INFO -- 2018-09-26 15:30:43]
sending 5 signals using command: 'killall -2 smith_waterman' after 0.886398800033s
[INFO -- 2018-09-26 15:30:43]
sending 5 signals using command: 'killall -2 smith_waterman' after 1.12735310776s
[INFO -- 2018-09-26 15:30:43]
sending 5 signals using command: 'killall -2 smith_waterman' after 1.80669174469s
[INFO -- 2018-09-26 15:30:48]
Execution finished before waitTime
