[INFO -- 2018-09-25 04:51:57]
Starting GDB script
[INFO -- 2018-09-25 04:51:57]
initSignal:0.0
[INFO -- 2018-09-25 04:51:57]
endSignal:2.0
[INFO -- 2018-09-25 04:51:58]
sending 5 signals using command: 'killall -2 smith_waterman' after 0.418493626259s
[INFO -- 2018-09-25 04:51:58]
sending 5 signals using command: 'killall -2 smith_waterman' after 0.648426716903s
[INFO -- 2018-09-25 04:51:59]
sending 5 signals using command: 'killall -2 smith_waterman' after 1.70735024103s
[INFO -- 2018-09-25 04:52:04]
Execution finished before waitTime
