[INFO -- 2018-09-24 14:31:11]
Starting GDB script
[INFO -- 2018-09-24 14:31:11]
initSignal:0.0
[INFO -- 2018-09-24 14:31:11]
endSignal:2.0
[INFO -- 2018-09-24 14:31:11]
sending 5 signals using command: 'killall -2 smith_waterman' after 0.556254613483s
[INFO -- 2018-09-24 14:31:11]
sending 5 signals using command: 'killall -2 smith_waterman' after 0.576418201826s
[INFO -- 2018-09-24 14:31:12]
sending 5 signals using command: 'killall -2 smith_waterman' after 1.41080187701s
[INFO -- 2018-09-24 14:31:31]
Execution did not finish before waitTime
