[INFO -- 2018-11-09 02:04:16]
sending 5 signals using command: 'killall -2 smith_waterman' after 5.91601344537s
[INFO -- 2018-11-09 02:04:16]
Starting GDB script
[INFO -- 2018-11-09 02:04:16]
initSignal:0.0
[INFO -- 2018-11-09 02:04:16]
endSignal:6.0
[INFO -- 2018-11-09 02:04:17]
sending 5 signals using command: 'killall -2 smith_waterman' after 0.74947901587s
[INFO -- 2018-11-09 02:04:18]
sending 5 signals using command: 'killall -2 smith_waterman' after 1.64310708485s
[INFO -- 2018-11-09 02:04:19]
Execution finished before waitTime
