[INFO -- 2018-12-04 05:17:11]
Starting GDB script
[INFO -- 2018-12-04 05:17:11]
initSignal:0.0
[INFO -- 2018-12-04 05:17:11]
endSignal:6.0
[INFO -- 2018-12-04 05:17:11]
sending 5 signals using command: 'killall -2 smith_waterman' after 0.196527859772s
[INFO -- 2018-12-04 05:17:12]
sending 5 signals using command: 'killall -2 smith_waterman' after 0.74341210026s
[INFO -- 2018-12-04 05:17:14]
sending 5 signals using command: 'killall -2 smith_waterman' after 3.27038343699s
[INFO -- 2018-12-04 05:17:17]
Execution finished before waitTime
