[INFO -- 2018-12-04 05:08:56]
sending 5 signals using command: 'killall -2 smith_waterman' after 5.61355837191s
[INFO -- 2018-12-04 05:08:56]
Starting GDB script
[INFO -- 2018-12-04 05:08:56]
initSignal:0.0
[INFO -- 2018-12-04 05:08:56]
endSignal:6.0
[INFO -- 2018-12-04 05:08:58]
sending 5 signals using command: 'killall -2 smith_waterman' after 2.07558317685s
[INFO -- 2018-12-04 05:09:01]
sending 5 signals using command: 'killall -2 smith_waterman' after 4.91177215782s
[INFO -- 2018-12-04 05:09:01]
sending 5 signals using command: 'killall -2 smith_waterman' after 5.61640511562s
[INFO -- 2018-12-04 05:09:02]
Execution finished before waitTime
