[INFO -- 2018-11-08 21:16:36]
Starting GDB script
[INFO -- 2018-11-08 21:16:36]
initSignal:0.0
[INFO -- 2018-11-08 21:16:36]
endSignal:6.0
[INFO -- 2018-11-08 21:16:39]
sending 5 signals using command: 'killall -2 smith_waterman' after 2.60457567448s
[INFO -- 2018-11-08 21:16:39]
Execution finished before waitTime
