[INFO -- 2018-09-27 03:38:09]
Starting GDB script
[INFO -- 2018-09-27 03:38:09]
initSignal:0.0
[INFO -- 2018-09-27 03:38:09]
endSignal:2.0
[INFO -- 2018-09-27 03:38:10]
sending 5 signals using command: 'killall -2 smith_waterman' after 0.601551952101s
[INFO -- 2018-09-27 03:38:10]
sending 5 signals using command: 'killall -2 smith_waterman' after 1.02556203934s
[INFO -- 2018-09-27 03:38:11]
sending 5 signals using command: 'killall -2 smith_waterman' after 1.47345584746s
[INFO -- 2018-09-27 03:38:15]
Execution finished before waitTime
