[INFO -- 2018-09-27 13:44:35]
Starting flip_value script
version: 1.1
[INFO -- 2018-09-27 13:44:35]
Initialization strings:
[INFO -- 2018-09-27 13:44:35]
(1) file /tmp/smith_waterman/smith_waterman
[INFO -- 2018-09-27 13:44:35]
(2) set args -x /tmp/smith_waterman/randInputX -y /tmp/smith_waterman/randInputY -o /tmp/smith_waterman/output
[INFO -- 2018-09-27 13:44:35]
initSignal:0
[INFO -- 2018-09-27 13:44:35]
endSignal:2
[INFO -- 2018-09-27 13:44:35]
faultModel:1
[INFO -- 2018-09-27 13:44:35]
Backtrace BEGIN:
#0  0x00005555555550f8 in smith_waterman (x_num=13950, y_num=15000, str_x=0x5555557586c0 "HIISTTJXWVVITTIDMHHGHHGGJBBBOLWTTGJNTTHHRJZZXCRRKUUSUZZRASSSQJIIUUXNNKIEZZGZZKSJOOSSHDJJFEDUODDJJAUYMCFGLLGXXMMPPQQTTZIADLVAAVLCCQJPSOUUBFZZKKWVARRWMZWNNTTTPPYFHHPXYMUZRRADDXUELAAZYTTAMMPNBPIIXAIOOCYV"..., str_y=0x55555575bd50 "BHIQSTJXFWVIITIDMLHDGHWGUJBBOLWRTGJNATMHRJPZDXCRKLUSURZRCASSNQJIXUXZNKIETZGYZKSJYOCSHDJJFEDUUODTJAUYMCFGCLGBXYMVPQQWTZIADLVAAAVLCQJPSOXUBFXZGKWVAMRWMZWRNTTNTPYYFHPXYMUZTRAZDXUELMAZNYTASMPNBPLIXAIXOCYI"..., fo=0x555555758260) at smith_waterman.c:99
#1  0x0000555555555e38 in main (argc=7, argv=0x7fffffffdcb8) at smith_waterman.c:298

94	    for(i=1; i<x_num+1; i++){
95	        for(j=1; j<y_num+1; j++){
96	            if(str_x[i-1]==str_y[j-1]){diff=match_score;}
97	            else{diff=mismatch_score;}
98	            matrix[i][j]=my_maxof(matrix[i-1][j-1]+diff, matrix[i-1][j]+gap_score, matrix[i][j-1]+gap_score,0);
99	            if(matrix[i][j]>max_score)
100	                max_score=matrix[i][j];
101	        }
102	    }
103	

Backtrace END
Memory content before bitflip:0xdd0x2c0x000x000x000x000x000x00
Fault Model: Double bit-flip
base address to flip value: 0x7fffffffda98
address max offset: 8
Memory content after  bitflip:0x950x2c0x000x000x000x000x000x00
frame name: smith_waterman
symbol name: j
symbol filename: smith_waterman.c
symbol line: 88
value: 11413
value address: 0x7fffffffda98
Type: The type is an integer type.
Type sizeof: 8

[INFO -- 2018-09-27 13:44:35]
Fault Injection Successful after 0.9390668869018555s
[INFO -- 2018-09-27 13:44:41]
event type: exit
[INFO -- 2018-09-27 13:44:41]
exit code: 0
