[INFO -- 2018-09-24 11:31:41]
Starting flip_value script
version: 1.1
[INFO -- 2018-09-24 11:31:41]
Initialization strings:
[INFO -- 2018-09-24 11:31:41]
(1) file /tmp/smith_waterman/smith_waterman
[INFO -- 2018-09-24 11:31:41]
(2) set args -x /tmp/smith_waterman/randInputX -y /tmp/smith_waterman/randInputY -o /tmp/smith_waterman/output
[INFO -- 2018-09-24 11:31:41]
initSignal:0
[INFO -- 2018-09-24 11:31:41]
endSignal:2
[INFO -- 2018-09-24 11:31:41]
faultModel:1
[INFO -- 2018-09-24 11:31:41]
Backtrace BEGIN:
#0  0x0000555555555093 in smith_waterman (x_num=12150, y_num=15000, str_x=0x5555557586c0 "GWFFISSZZEHHNAUHHEKGUUGKQQZZNOVMQBUAAJJFNNJCCZZRLTXHZDDPPURKEBBYCSSYDWWFSMMSLDJYYZJGYAAITTVXXWTTZNZQOOGJSSOFFADIJJIZLLZHUEEEQAAKQQQCYLLQQTTXCTBMEODCVVPPUUPFTZFFHHMQVVQGJESSCEIVAAZXDDMMYTSNSXXMMJJCCKQJ"..., str_y=0x55555575b640 "GWDFIKSMZJEHYNAUHEKKGUFGKQOZNOKVMQBUAVJAFNJFCLZJRLTXHZDSPUREKEBYUCSWYDWFSHMUSLDJYZJGYOAPITVUXWSTZNQZQOGJWSFOFJADIJLIZLZKHUEEQXARKQQCEYLCQTTXCTBMEOWDCVPJPUPFTPZFHRHMQVQGOJESCHEIVAOZXDIMZYTSNSXVMFJCCZKQ"..., fo=0x555555758260) at smith_waterman.c:98
#1  0x0000555555555e38 in main (argc=7, argv=0x7fffffffdcb8) at smith_waterman.c:298

93	    double max_score=0.0;
94	    for(i=1; i<x_num+1; i++){
95	        for(j=1; j<y_num+1; j++){
96	            if(str_x[i-1]==str_y[j-1]){diff=match_score;}
97	            else{diff=mismatch_score;}
98	            matrix[i][j]=my_maxof(matrix[i-1][j-1]+diff, matrix[i-1][j]+gap_score, matrix[i][j-1]+gap_score,0);
99	            if(matrix[i][j]>max_score)
100	                max_score=matrix[i][j];
101	        }
102	    }

Backtrace END
Fliping a bit of the value pointed by a pointer
Memory content before bitflip:0x2f
Fault Model: Double bit-flip
base address to flip value: 0x7fffffffe0d0 
address max offset: 1
Memory content after  bitflip:0xbf
frame name: main
symbol name: file_x_name
symbol filename: smith_waterman.c
symbol line: 247
value: 0x7fffffffe0d0 "\277tmp/smith_waterman/randInputX"
value address: 0x7fffffffdb88
Type: The type is a pointer.
Type sizeof: 8

[INFO -- 2018-09-24 11:31:41]
Fault Injection Successful after 0.9124376773834229s
[INFO -- 2018-09-24 11:31:46]
event type: exit
[INFO -- 2018-09-24 11:31:46]
exit code: 0
