[INFO -- 2018-09-24 21:54:23]
Starting GDB script
[INFO -- 2018-09-24 21:54:23]
initSignal:0.0
[INFO -- 2018-09-24 21:54:23]
endSignal:2.0
[INFO -- 2018-09-24 21:54:24]
sending 5 signals using command: 'killall -2 smith_waterman' after 0.582302256368s
[INFO -- 2018-09-24 21:54:25]
sending 5 signals using command: 'killall -2 smith_waterman' after 1.7241319623s
[INFO -- 2018-09-24 21:54:25]
sending 5 signals using command: 'killall -2 smith_waterman' after 1.96188019936s
[INFO -- 2018-09-24 21:54:28]
Execution finished before waitTime
