[INFO -- 2018-12-08 08:56:27]
Starting GDB script
[INFO -- 2018-12-08 08:56:27]
initSignal:0.0
[INFO -- 2018-12-08 08:56:27]
endSignal:6.0
[INFO -- 2018-12-08 08:56:28]
sending 5 signals using command: 'killall -2 smith_waterman' after 0.17234270518s
[INFO -- 2018-12-08 08:56:28]
sending 5 signals using command: 'killall -2 smith_waterman' after 0.269333405833s
[INFO -- 2018-12-08 08:56:33]
sending 5 signals using command: 'killall -2 smith_waterman' after 5.15164361181s
[INFO -- 2018-12-08 08:56:36]
Execution finished before waitTime
