[INFO -- 2018-12-04 14:29:52]
Starting GDB script
[INFO -- 2018-12-04 14:29:52]
initSignal:0.0
[INFO -- 2018-12-04 14:29:52]
endSignal:6.0
[INFO -- 2018-12-04 14:29:56]
sending 5 signals using command: 'killall -2 smith_waterman' after 3.65057694743s
[INFO -- 2018-12-04 14:29:57]
sending 5 signals using command: 'killall -2 smith_waterman' after 4.60631262927s
[INFO -- 2018-12-04 14:29:58]
sending 5 signals using command: 'killall -2 smith_waterman' after 5.51087644483s
[INFO -- 2018-12-04 14:29:58]
Execution finished before waitTime
