[INFO -- 2018-12-04 18:00:04]
Starting GDB script
[INFO -- 2018-12-04 18:00:04]
initSignal:0.0
[INFO -- 2018-12-04 18:00:04]
endSignal:6.0
[INFO -- 2018-12-04 18:00:05]
sending 5 signals using command: 'killall -2 smith_waterman' after 1.71961327755s
[INFO -- 2018-12-04 18:00:07]
Execution finished before waitTime
