[INFO -- 2018-09-26 06:02:05]
Starting flip_value script
version: 1.1
[INFO -- 2018-09-26 06:02:05]
Initialization strings:
[INFO -- 2018-09-26 06:02:05]
(1) file /tmp/smith_waterman/smith_waterman
[INFO -- 2018-09-26 06:02:05]
(2) set args -x /tmp/smith_waterman/randInputX -y /tmp/smith_waterman/randInputY -o /tmp/smith_waterman/output
[INFO -- 2018-09-26 06:02:05]
initSignal:0
[INFO -- 2018-09-26 06:02:05]
endSignal:2
[INFO -- 2018-09-26 06:02:05]
faultModel:2
[INFO -- 2018-09-26 06:02:05]
Backtrace BEGIN:
#0  0x0000555555554f05 in smith_waterman (x_num=15000, y_num=14100, str_x=0x5555557586c0 "WPPDOWKMKBKMEBENYIDSFHLFKERIDWDBLVECRPQEQAQWCWJAEPULWITIMKQPJWTWRXYKOOOHRGDTCPVJGRWEZPMNCEFLAYHTVIEMYUTPDYKHNHQVZPBAENOGUVTWTDQQNWCLSVDVUNDJVVFWKGWRWMXQJTOCYEVLCXYVVBQRPTAMRHIBQGSOVSEENSJLZEYBDWWYYPPP"..., str_y=0x55555575c170 "PPPOWKKKBKMEEENYIDDFHLFFERRDWDBLVECRPQEEAAQCWJAAEULLITTIKKPJJTWWXYKOOOORGGTTPVVJRWWEPPNNEFLLYHTVIEMYUUPDYKKNHQQZZPBENNOUVTTTTDQNWWLLSDVVNNJVVVFKGWWWMXXJTOCCEELLCYYVBQQPTAMRHIBBQSOVSEEENSJZEYBBWWYYYPPP"..., fo=0x555555758260) at smith_waterman.c:89
#1  0x0000555555555e38 in main (argc=7, argv=0x7fffffffdcb8) at smith_waterman.c:298

84	    for(i=1; i<x_num+1; i++){
85	        matrix[i]=matrix[0]+(y_num+1)*i;
86	    }
87	
88	    long j;
89	    for(i=0; i<x_num+1; i++){matrix[i][0]=0.0;}
90	    for(i=0; i<y_num+1; i++){matrix[0][i]=0.0;}
91	
92	    double diff=0.0;
93	    double max_score=0.0;

Backtrace END
Memory content before bitflip:0x000x000x000x000x000x000x000x00
Fault Model: Random bit-flip
base address to flip value: 0x7fffffffdb10
address max offset: 8
Memory content after  bitflip:0x5e0x7c0x1a0xbb0x0d0x5a0xae0xc5
frame name: smith_waterman
symbol name: scoreUp
symbol filename: smith_waterman.c
symbol line: 136
value: -4.6967092303097957e+27
value address: 0x7fffffffdb10
Type: A floating point type.
Type sizeof: 8

[INFO -- 2018-09-26 06:02:05]
Fault Injection Successful after 0.8001360893249512s
[INFO -- 2018-09-26 06:02:11]
event type: exit
[INFO -- 2018-09-26 06:02:11]
exit code: 0
