[INFO -- 2018-12-08 01:20:37]
Starting GDB script
[INFO -- 2018-12-08 01:20:37]
initSignal:0.0
[INFO -- 2018-12-08 01:20:37]
endSignal:6.0
[INFO -- 2018-12-08 01:20:39]
sending 5 signals using command: 'killall -2 smith_waterman' after 2.28544305691s
[INFO -- 2018-12-08 01:20:40]
Execution finished before waitTime
