[INFO -- 2018-09-24 03:40:14]
Starting GDB script
[INFO -- 2018-09-24 03:40:14]
initSignal:0.0
[INFO -- 2018-09-24 03:40:14]
endSignal:2.0
[INFO -- 2018-09-24 03:40:14]
sending 5 signals using command: 'killall -2 smith_waterman' after 0.721497360257s
[INFO -- 2018-09-24 03:40:15]
sending 5 signals using command: 'killall -2 smith_waterman' after 1.24007971057s
[INFO -- 2018-09-24 03:40:15]
sending 5 signals using command: 'killall -2 smith_waterman' after 1.64632400505s
[INFO -- 2018-09-24 03:40:20]
Execution finished before waitTime
