[INFO -- 2018-09-24 13:04:05]
Starting GDB script
[INFO -- 2018-09-24 13:04:05]
initSignal:0.0
[INFO -- 2018-09-24 13:04:05]
endSignal:2.0
[INFO -- 2018-09-24 13:04:06]
sending 5 signals using command: 'killall -2 smith_waterman' after 0.326047318969s
[INFO -- 2018-09-24 13:04:07]
sending 5 signals using command: 'killall -2 smith_waterman' after 1.81830861397s
[INFO -- 2018-09-24 13:04:07]
sending 5 signals using command: 'killall -2 smith_waterman' after 1.97234039546s
[INFO -- 2018-09-24 13:04:11]
Execution finished before waitTime
