[INFO -- 2018-11-08 20:47:14]
Starting flip_value script
version: 1.1
[INFO -- 2018-11-08 20:47:14]
Initialization strings:
[INFO -- 2018-11-08 20:47:14]
(1) file /tmp/smith_waterman/smith_waterman
[INFO -- 2018-11-08 20:47:14]
(2) set args -x /tmp/smith_waterman/randInputX -y /tmp/smith_waterman/randInputY -o /tmp/smith_waterman/output
[INFO -- 2018-11-08 20:47:14]
initSignal:0
[INFO -- 2018-11-08 20:47:14]
endSignal:6
[INFO -- 2018-11-08 20:47:14]
faultModel:0
[EXCEPTION -- 2018-11-08 20:47:16]
gdbException: Attempt to dereference a generic pointer.
[INFO -- 2018-11-08 20:47:16]
Backtrace BEGIN:
#0  0x0000555555555260 in smith_waterman (x_num=9900, y_num=15000, str_x=0x5555557586c0 "DWODJDCCKKOEERGGLXXRRHHFNNMAJHHMWPPAACHWMPSSGYYTYYQQQGGYNTWWHHJPFWWHCFDUPPCCMXXKOODCOLBGGYZZMJOTJMBMRFFNQQKKERXOHARXMTSWWYUJKKCRFFFQMGGEEWWQQWXYYQMMVVHVVRRFWWKKDDDRRJBVIAGWWGWWVJJSSTTTTKEEIQRVUUBODFNN"..., str_y=0x55555575ad80 "DWODJDMCTKGOERLGLZXVRSHOFNMAJYHMWXPFACHWMPKSGXYTWYQQQYGYNTAWTHJPFYWHCFDRUPLCMMXLKODCOLABGDYZMJOTJMBMRGFNWQRKERXOHARXMTYSWYUJHKCRXFFQMMGKEZWJQWXXYQUMKVHIVBRFLWYKBDDPRJBVIAGBWGYWYVJISQTNTKSEIQRKVUBODFMN"..., fo=0x555555758260) at smith_waterman.c:126
#1  0x0000555555555e38 in main (argc=7, argv=0x7fffffffde98) at smith_waterman.c:298

121	            if(i==0 && j==0){
122	                maxValue = matrix[i][j];
123	                y = i;
124	                x = j;
125	            }
126	            if(maxValue < matrix[i][j]){
127	                maxValue = matrix[i][j];
128	                y = i;
129	                x = j;
130	            }

Backtrace END
Memory content before bitflip:0x000x000x000x000x000x3c0x9d0x40
Fault Model: Single bit-flip
base address to flip value: 0x7fffffffdc90
address max offset: 8
Memory content after  bitflip:0x000x200x000x000x000x3c0x9d0x40
frame name: smith_waterman
symbol name: maxValue
symbol filename: smith_waterman.c
symbol line: 114
value: 1871.0000000018626
value address: 0x7fffffffdc90
Type: A floating point type.
Type sizeof: 8

[INFO -- 2018-11-08 20:47:16]
Fault Injection Successful after 2.509235382080078s
[INFO -- 2018-11-08 20:47:16]
event type: exit
[INFO -- 2018-11-08 20:47:16]
exit code: 0
