[INFO -- 2018-12-04 13:13:17]
sending 5 signals using command: 'killall -2 smith_waterman' after 5.31888562886s
[INFO -- 2018-12-04 13:13:17]
Starting GDB script
[INFO -- 2018-12-04 13:13:17]
initSignal:0.0
[INFO -- 2018-12-04 13:13:17]
endSignal:6.0
[INFO -- 2018-12-04 13:13:19]
sending 5 signals using command: 'killall -2 smith_waterman' after 2.21394244646s
[INFO -- 2018-12-04 13:13:19]
sending 5 signals using command: 'killall -2 smith_waterman' after 2.37446562809s
[INFO -- 2018-12-04 13:13:21]
sending 5 signals using command: 'killall -2 smith_waterman' after 4.23790632622s
[INFO -- 2018-12-04 13:13:23]
Execution finished before waitTime
