[INFO -- 2018-09-23 16:08:59]
Starting GDB script
[INFO -- 2018-09-23 16:08:59]
initSignal:0.0
[INFO -- 2018-09-23 16:08:59]
endSignal:2.0
[INFO -- 2018-09-23 16:08:59]
sending 5 signals using command: 'killall -2 smith_waterman' after 0.213284094291s
[INFO -- 2018-09-23 16:08:59]
sending 5 signals using command: 'killall -2 smith_waterman' after 0.37147175445s
[INFO -- 2018-09-23 16:09:01]
sending 5 signals using command: 'killall -2 smith_waterman' after 1.96102459688s
[INFO -- 2018-09-23 16:09:04]
Execution finished before waitTime
