[INFO -- 2018-12-03 22:26:43]
sending 5 signals using command: 'killall -2 smith_waterman' after 5.38760509025s
[INFO -- 2018-12-03 22:26:43]
Starting GDB script
[INFO -- 2018-12-03 22:26:43]
initSignal:0.0
[INFO -- 2018-12-03 22:26:43]
endSignal:6.0
[INFO -- 2018-12-03 22:26:44]
sending 5 signals using command: 'killall -2 smith_waterman' after 0.692956123498s
[INFO -- 2018-12-03 22:26:47]
sending 5 signals using command: 'killall -2 smith_waterman' after 4.20348680402s
[INFO -- 2018-12-03 22:26:48]
Execution finished before waitTime
