[INFO -- 2018-12-03 15:43:49]
Starting GDB script
[INFO -- 2018-12-03 15:43:49]
initSignal:0.0
[INFO -- 2018-12-03 15:43:49]
endSignal:6.0
[INFO -- 2018-12-03 15:43:50]
sending 5 signals using command: 'killall -2 smith_waterman' after 0.63473941161s
[INFO -- 2018-12-03 15:43:54]
Execution finished before waitTime
