[INFO -- 2018-09-27 16:32:57]
Starting GDB script
[INFO -- 2018-09-27 16:32:57]
initSignal:0.0
[INFO -- 2018-09-27 16:32:57]
endSignal:2.0
[INFO -- 2018-09-27 16:32:58]
sending 5 signals using command: 'killall -2 smith_waterman' after 0.415249086923s
[INFO -- 2018-09-27 16:32:58]
sending 5 signals using command: 'killall -2 smith_waterman' after 0.819185219075s
[INFO -- 2018-09-27 16:32:58]
sending 5 signals using command: 'killall -2 smith_waterman' after 1.0083190608s
[INFO -- 2018-09-27 16:32:58]
Execution finished before waitTime
