[INFO -- 2018-09-23 16:51:40]
Starting GDB script
[INFO -- 2018-09-23 16:51:40]
initSignal:0.0
[INFO -- 2018-09-23 16:51:40]
endSignal:2.0
[INFO -- 2018-09-23 16:51:40]
sending 5 signals using command: 'killall -2 smith_waterman' after 0.0987503212822s
[INFO -- 2018-09-23 16:51:40]
sending 5 signals using command: 'killall -2 smith_waterman' after 0.408477184854s
[INFO -- 2018-09-23 16:51:41]
sending 5 signals using command: 'killall -2 smith_waterman' after 0.725611649475s
[INFO -- 2018-09-23 16:51:45]
Execution finished before waitTime
