[INFO -- 2018-09-27 20:31:40]
Starting GDB script
[INFO -- 2018-09-27 20:31:40]
initSignal:0.0
[INFO -- 2018-09-27 20:31:40]
endSignal:2.0
[INFO -- 2018-09-27 20:31:40]
sending 5 signals using command: 'killall -2 smith_waterman' after 0.109446019454s
[INFO -- 2018-09-27 20:31:40]
sending 5 signals using command: 'killall -2 smith_waterman' after 0.408666500145s
[INFO -- 2018-09-27 20:31:41]
sending 5 signals using command: 'killall -2 smith_waterman' after 1.39318239693s
[INFO -- 2018-09-27 20:31:45]
Execution finished before waitTime
