[INFO -- 2018-12-04 06:04:36]
Starting GDB script
[INFO -- 2018-12-04 06:04:36]
initSignal:0.0
[INFO -- 2018-12-04 06:04:36]
endSignal:6.0
[INFO -- 2018-12-04 06:04:37]
sending 5 signals using command: 'killall -2 smith_waterman' after 0.63546927413s
[INFO -- 2018-12-04 06:04:38]
sending 5 signals using command: 'killall -2 smith_waterman' after 2.21948384984s
[INFO -- 2018-12-04 06:04:41]
sending 5 signals using command: 'killall -2 smith_waterman' after 5.31301648402s
[INFO -- 2018-12-04 06:04:42]
Execution finished before waitTime
