[INFO -- 2018-12-08 12:54:48]
Starting GDB script
[INFO -- 2018-12-08 12:54:48]
initSignal:0.0
[INFO -- 2018-12-08 12:54:48]
endSignal:6.0
[INFO -- 2018-12-08 12:54:50]
sending 5 signals using command: 'killall -2 smith_waterman' after 1.33737279613s
[INFO -- 2018-12-08 12:54:50]
sending 5 signals using command: 'killall -2 smith_waterman' after 1.72887684012s
[INFO -- 2018-12-08 12:54:50]
Execution finished before waitTime
