[INFO -- 2018-09-27 19:32:58]
Starting GDB script
[INFO -- 2018-09-27 19:32:58]
initSignal:0.0
[INFO -- 2018-09-27 19:32:58]
endSignal:2.0
[INFO -- 2018-09-27 19:32:58]
sending 5 signals using command: 'killall -2 smith_waterman' after 0.000203474706524s
[INFO -- 2018-09-27 19:32:59]
sending 5 signals using command: 'killall -2 smith_waterman' after 0.349763167821s
[INFO -- 2018-09-27 19:32:59]
sending 5 signals using command: 'killall -2 smith_waterman' after 0.540865971581s
[INFO -- 2018-09-27 19:33:04]
Execution finished before waitTime
