[INFO -- 2018-12-09 09:53:19]
sending 5 signals using command: 'killall -2 smith_waterman' after 1.31753417436s
[INFO -- 2018-12-09 09:53:22]
sending 5 signals using command: 'killall -2 smith_waterman' after 5.01887946507s
[INFO -- 2018-12-09 09:53:22]
Starting GDB script
[INFO -- 2018-12-09 09:53:22]
initSignal:0.0
[INFO -- 2018-12-09 09:53:22]
endSignal:6.0
[INFO -- 2018-12-09 09:53:23]
sending 5 signals using command: 'killall -2 smith_waterman' after 0.260197863043s
[INFO -- 2018-12-09 09:53:23]
sending 5 signals using command: 'killall -2 smith_waterman' after 0.745199090766s
[INFO -- 2018-12-09 09:53:28]
sending 5 signals using command: 'killall -2 smith_waterman' after 5.28833772479s
[INFO -- 2018-12-09 09:53:31]
Execution finished before waitTime
