[INFO -- 2018-12-04 01:58:52]
Starting GDB script
[INFO -- 2018-12-04 01:58:52]
initSignal:0.0
[INFO -- 2018-12-04 01:58:52]
endSignal:6.0
[INFO -- 2018-12-04 01:58:55]
sending 5 signals using command: 'killall -2 smith_waterman' after 2.91428674538s
[INFO -- 2018-12-04 01:58:56]
sending 5 signals using command: 'killall -2 smith_waterman' after 3.69385303739s
[INFO -- 2018-12-04 01:58:58]
sending 5 signals using command: 'killall -2 smith_waterman' after 5.92810110954s
[INFO -- 2018-12-04 01:59:00]
Execution finished before waitTime
