[INFO -- 2018-09-24 22:40:58]
Starting GDB script
[INFO -- 2018-09-24 22:40:58]
initSignal:0.0
[INFO -- 2018-09-24 22:40:58]
endSignal:2.0
[INFO -- 2018-09-24 22:40:58]
sending 5 signals using command: 'killall -2 smith_waterman' after 0.256148781242s
[INFO -- 2018-09-24 22:40:59]
sending 5 signals using command: 'killall -2 smith_waterman' after 0.470778969697s
[INFO -- 2018-09-24 22:40:59]
sending 5 signals using command: 'killall -2 smith_waterman' after 1.35682272047s
[INFO -- 2018-09-24 22:41:03]
Execution finished before waitTime
