[INFO -- 2018-12-03 18:27:15]
Starting flip_value script
version: 1.1
[INFO -- 2018-12-03 18:27:15]
Initialization strings:
[INFO -- 2018-12-03 18:27:15]
(1) file /tmp/smith_waterman/smith_waterman
[INFO -- 2018-12-03 18:27:15]
(2) set args -x /tmp/smith_waterman/randInputX -y /tmp/smith_waterman/randInputY -o /tmp/smith_waterman/output -z /tmp/smith_waterman/detected.log
[INFO -- 2018-12-03 18:27:15]
initSignal:0
[INFO -- 2018-12-03 18:27:15]
endSignal:6
[INFO -- 2018-12-03 18:27:15]
faultModel:1
[INFO -- 2018-12-03 18:27:17]
Backtrace BEGIN:
#0  0x0000555555555262 in smith_waterman (x_num=12000, y_num=15000, str_x=0x5555557586c0 "EAACFHVVGNBDZZIIKXXWWAANJBBVJPAPCARLFBIOOMQYKKXXIINHHPUCCLNOONDRUCCUVHHWWAMJKWHSEWZLMVBQPPFCIAAFCCCOUUONWCYGZHAGGRRUSKPPHPYKYCFCQQSSYYGGCOOBPPFVQPNNBEAATEMTEQAGJJTTIBMMQQFHHUBSSSLLUQNWZIIAPIIXJJFFRSRJ"..., str_y=0x55555575b5b0 "ELACIFHVGNBDJZRIKWXQWXANJMBVJPAPCARLFBINOMQYLKIXIINGHPUQCXLNONDRNUCUVKHMWAMJKWHSEWZLMVBQSPFHCIAQFCMCOUONWCYGZHADGZRUWSKPHPYKAYCFCQJSKYHGCGOBPPFVQYPNQBEATEMTEQAGGJATJIBMQQNFHUBXSSMLUQNNWZIAPIIXTJQFRSRJ"...) at smith_waterman.c:130
#1  0x0000555555555cbf in execute (file_x_name=0x7fffffffe1f3 "/tmp/smith_waterman/randInputX", file_y_name=0x7fffffffe215 "/tmp/smith_waterman/randInputY") at smith_waterman.c:263
#2  0x0000555555555f08 in main (argc=9, argv=0x7fffffffde38) at smith_waterman.c:314

125	            if(i==0 && j==0){
126	                maxValue = matrix[i][j];
127	                y = i;
128	                x = j;
129	            }
130	            if(maxValue < matrix[i][j]){
131	                maxValue = matrix[i][j];
132	                y = i;
133	                x = j;
134	            }

Backtrace END
Fliping a bit of the pointer
Memory content before bitflip:0xf30xe10xff0xff0xff0x7f0x000x00
Fault Model: Double bit-flip
base address to flip value: 0x7fffffffdd00
address max offset: 8
Memory content after  bitflip:0xf30xe10xff0xb70xff0x7f0x000x00
frame name: main
symbol name: file_x_name
symbol filename: smith_waterman.c
symbol line: 273
value: 0x7fffffffe1f3 "/tmp/smith_waterman/randInputX"
value address: 0x7fffffffdd00
Type: The type is a pointer.
Type sizeof: 8

[INFO -- 2018-12-03 18:27:17]
Fault Injection Successful after 2.4312305450439453s
[INFO -- 2018-12-03 18:27:20]
event type: exit
[INFO -- 2018-12-03 18:27:20]
exit code: 0
