[INFO -- 2018-11-08 19:55:02]
Starting GDB script
[INFO -- 2018-11-08 19:55:02]
initSignal:0.0
[INFO -- 2018-11-08 19:55:02]
endSignal:6.0
[INFO -- 2018-11-08 19:55:02]
sending 5 signals using command: 'killall -2 smith_waterman' after 0.319839628513s
[INFO -- 2018-11-08 19:55:03]
sending 5 signals using command: 'killall -2 smith_waterman' after 0.575582822488s
[INFO -- 2018-11-08 19:55:03]
sending 5 signals using command: 'killall -2 smith_waterman' after 0.678048188946s
[INFO -- 2018-11-08 19:55:05]
Execution finished before waitTime
