[INFO -- 2018-12-03 13:59:21]
Starting GDB script
[INFO -- 2018-12-03 13:59:21]
initSignal:0.0
[INFO -- 2018-12-03 13:59:21]
endSignal:6.0
[INFO -- 2018-12-03 13:59:22]
sending 5 signals using command: 'killall -2 smith_waterman' after 1.18633600605s
[INFO -- 2018-12-03 13:59:26]
sending 5 signals using command: 'killall -2 smith_waterman' after 4.60129448159s
[INFO -- 2018-12-03 13:59:26]
sending 5 signals using command: 'killall -2 smith_waterman' after 5.54081430869s
[INFO -- 2018-12-03 13:59:27]
Execution finished before waitTime
