[INFO -- 2018-12-05 17:59:21]
Starting GDB script
[INFO -- 2018-12-05 17:59:21]
initSignal:0.0
[INFO -- 2018-12-05 17:59:21]
endSignal:6.0
[INFO -- 2018-12-05 17:59:22]
sending 5 signals using command: 'killall -2 smith_waterman' after 0.598605010566s
[INFO -- 2018-12-05 17:59:23]
sending 5 signals using command: 'killall -2 smith_waterman' after 1.4235405459s
[INFO -- 2018-12-05 17:59:24]
sending 5 signals using command: 'killall -2 smith_waterman' after 2.14658633503s
[INFO -- 2018-12-05 17:59:27]
Execution finished before waitTime
