[INFO -- 2018-09-24 03:09:34]
Starting GDB script
[INFO -- 2018-09-24 03:09:34]
initSignal:0.0
[INFO -- 2018-09-24 03:09:34]
endSignal:2.0
[INFO -- 2018-09-24 03:09:35]
sending 5 signals using command: 'killall -2 smith_waterman' after 0.876980429686s
[INFO -- 2018-09-24 03:09:35]
sending 5 signals using command: 'killall -2 smith_waterman' after 1.46075906221s
[INFO -- 2018-09-24 03:09:36]
sending 5 signals using command: 'killall -2 smith_waterman' after 1.48363841666s
[INFO -- 2018-09-24 03:09:40]
Execution finished before waitTime
