[INFO -- 2018-12-08 23:55:16]
Starting GDB script
[INFO -- 2018-12-08 23:55:16]
initSignal:0.0
[INFO -- 2018-12-08 23:55:16]
endSignal:6.0
[INFO -- 2018-12-08 23:55:17]
sending 5 signals using command: 'killall -2 smith_waterman' after 0.510253893873s
[INFO -- 2018-12-08 23:55:20]
sending 5 signals using command: 'killall -2 smith_waterman' after 4.13187494407s
[INFO -- 2018-12-08 23:55:21]
sending 5 signals using command: 'killall -2 smith_waterman' after 4.71525214835s
[INFO -- 2018-12-08 23:55:22]
Execution finished before waitTime
