[INFO -- 2018-09-24 12:03:14]
Starting GDB script
[INFO -- 2018-09-24 12:03:14]
initSignal:0.0
[INFO -- 2018-09-24 12:03:14]
endSignal:2.0
[INFO -- 2018-09-24 12:03:15]
sending 5 signals using command: 'killall -2 smith_waterman' after 0.275649229871s
[INFO -- 2018-09-24 12:03:15]
sending 5 signals using command: 'killall -2 smith_waterman' after 0.5107493772s
[INFO -- 2018-09-24 12:03:15]
Execution finished before waitTime
