[INFO -- 2018-09-24 02:27:43]
Starting GDB script
[INFO -- 2018-09-24 02:27:43]
initSignal:0.0
[INFO -- 2018-09-24 02:27:43]
endSignal:2.0
[INFO -- 2018-09-24 02:27:43]
sending 5 signals using command: 'killall -2 smith_waterman' after 0.348216034482s
[INFO -- 2018-09-24 02:27:43]
sending 5 signals using command: 'killall -2 smith_waterman' after 0.674981342228s
[INFO -- 2018-09-24 02:27:44]
sending 5 signals using command: 'killall -2 smith_waterman' after 0.970502302789s
[INFO -- 2018-09-24 02:27:49]
Execution finished before waitTime
