[INFO -- 2018-12-04 01:48:19]
Starting GDB script
[INFO -- 2018-12-04 01:48:19]
initSignal:0.0
[INFO -- 2018-12-04 01:48:19]
endSignal:6.0
[INFO -- 2018-12-04 01:48:20]
sending 5 signals using command: 'killall -2 smith_waterman' after 1.17106247346s
[INFO -- 2018-12-04 01:48:21]
sending 5 signals using command: 'killall -2 smith_waterman' after 1.68025234527s
[INFO -- 2018-12-04 01:48:21]
sending 5 signals using command: 'killall -2 smith_waterman' after 1.89454936429s
[INFO -- 2018-12-04 01:48:25]
Execution finished before waitTime
