[INFO -- 2018-09-26 06:23:37]
Starting GDB script
[INFO -- 2018-09-26 06:23:37]
initSignal:0.0
[INFO -- 2018-09-26 06:23:37]
endSignal:2.0
[INFO -- 2018-09-26 06:23:37]
sending 5 signals using command: 'killall -2 smith_waterman' after 0.351154879746s
[INFO -- 2018-09-26 06:23:37]
sending 5 signals using command: 'killall -2 smith_waterman' after 0.472077438904s
[INFO -- 2018-09-26 06:23:39]
sending 5 signals using command: 'killall -2 smith_waterman' after 1.93385129748s
[INFO -- 2018-09-26 06:23:44]
Execution finished before waitTime
