[INFO -- 2018-12-03 11:16:57]
Starting GDB script
[INFO -- 2018-12-03 11:16:57]
initSignal:0.0
[INFO -- 2018-12-03 11:16:57]
endSignal:6.0
[INFO -- 2018-12-03 11:16:58]
sending 5 signals using command: 'killall -2 smith_waterman' after 0.826670157638s
[INFO -- 2018-12-03 11:16:59]
sending 5 signals using command: 'killall -2 smith_waterman' after 2.00349193788s
[INFO -- 2018-12-03 11:17:02]
sending 5 signals using command: 'killall -2 smith_waterman' after 4.66751269601s
[INFO -- 2018-12-03 11:17:17]
Execution did not finish before waitTime
