[INFO -- 2018-12-04 05:14:00]
Starting flip_value script
version: 1.1
[INFO -- 2018-12-04 05:14:00]
Initialization strings:
[INFO -- 2018-12-04 05:14:00]
(1) file /tmp/smith_waterman/smith_waterman
[INFO -- 2018-12-04 05:14:00]
(2) set args -x /tmp/smith_waterman/randInputX -y /tmp/smith_waterman/randInputY -o /tmp/smith_waterman/output -z /tmp/smith_waterman/detected.log
[INFO -- 2018-12-04 05:14:00]
initSignal:0
[INFO -- 2018-12-04 05:14:00]
endSignal:6
[INFO -- 2018-12-04 05:14:00]
faultModel:1
[INFO -- 2018-12-04 05:14:01]
Backtrace BEGIN:
#0  0x0000555555554d71 in my_maxof (a=2230, b=2227, c=2230, d=0) at smith_waterman.c:68
#1  0x00005555555550d0 in smith_waterman (x_num=15000, y_num=13350, str_x=0x5555557586c0 "MZTTEQTQYANMTYGDLPMGAKGCFKKCEUVQVOLZEEREHHQAFWEQNSYOEEQLQCNVZINWWBWCFPGOWZRDXXVLPTZVARHQWUNVFBRDCPGJHOYFNRJLOEYFAXAAQHSMEGHLHBOJSWUZNUHCLQPBWNGWMHYDQRPWXZJEAAPUYLULGBQRTFTPTBOFKMIBDAZCZJIBJZVHLRVRSLKN"..., str_y=0x55555575c170 "ZTTEQTQYYAMMTYGLLPMAAKCFKKKCEUQVVLZEERREHHAFWEEQNYOEEQLQCNNVZNNWWBWFFPOWZZRXXVLPTZZARHQQUUNVBBDDCGJHHOFNRRLLOYFAXAAAHHMMEHLHBOJJSUZNUHCLQPPWWNWMHYDQRPWWXJEEAAPUYUULGBQTTFTPBOOKKMBDAZCCJIIBZVHLRRRRLKNQ"...) at smith_waterman.c:102
#2  0x0000555555555cbf in execute (file_x_name=0x7fffffffe22c "/tmp/smith_waterman/randInputX", file_y_name=0x7fffffffe24e "/tmp/smith_waterman/randInputY") at smith_waterman.c:263
#3  0x0000555555555f08 in main (argc=9, argv=0x7fffffffde78) at smith_waterman.c:314

63	}
64	
65	double my_maxof(double a, double b, double c, double d)
66	{
67	    double ans=a;
68	    if(ans<b) ans=b;
69	    if(ans<c) ans=c;
70	    if(ans<d) ans=d;
71	    return ans;
72	}

Backtrace END
Memory content before bitflip:0x000x000x000x000x000x6c0xa10x40
Fault Model: Double bit-flip
base address to flip value: 0x7fffffffdbc8
address max offset: 8
Memory content after  bitflip:0x600x000x000x000x000x6c0xa10x40
frame name: my_maxof
symbol name: ans
symbol filename: smith_waterman.c
symbol line: 67
value: 2230.0000000000437
value address: 0x7fffffffdbc8
Type: A floating point type.
Type sizeof: 8

[INFO -- 2018-12-04 05:14:01]
Fault Injection Successful after 1.8021471500396729s
[INFO -- 2018-12-04 05:14:05]
event type: exit
[INFO -- 2018-12-04 05:14:05]
exit code: 0
