[INFO -- 2018-12-04 05:14:00]
sending 5 signals using command: 'killall -2 smith_waterman' after 3.80355489879s
[INFO -- 2018-12-04 05:14:00]
Starting GDB script
[INFO -- 2018-12-04 05:14:00]
initSignal:0.0
[INFO -- 2018-12-04 05:14:00]
endSignal:6.0
[INFO -- 2018-12-04 05:14:01]
sending 5 signals using command: 'killall -2 smith_waterman' after 1.23684557968s
[INFO -- 2018-12-04 05:14:02]
sending 5 signals using command: 'killall -2 smith_waterman' after 1.7652749229s
[INFO -- 2018-12-04 05:14:05]
sending 5 signals using command: 'killall -2 smith_waterman' after 4.84994022091s
[INFO -- 2018-12-04 05:14:06]
Execution finished before waitTime
