[INFO -- 2018-12-08 04:53:30]
Starting GDB script
[INFO -- 2018-12-08 04:53:30]
initSignal:0.0
[INFO -- 2018-12-08 04:53:30]
endSignal:6.0
[INFO -- 2018-12-08 04:53:31]
sending 5 signals using command: 'killall -2 smith_waterman' after 0.861961130862s
[INFO -- 2018-12-08 04:53:33]
sending 5 signals using command: 'killall -2 smith_waterman' after 2.58774633592s
[INFO -- 2018-12-08 04:53:33]
sending 5 signals using command: 'killall -2 smith_waterman' after 2.87739870774s
[INFO -- 2018-12-08 04:53:38]
Execution finished before waitTime
