[INFO -- 2018-09-24 20:04:38]
Starting GDB script
[INFO -- 2018-09-24 20:04:38]
initSignal:0.0
[INFO -- 2018-09-24 20:04:38]
endSignal:2.0
[INFO -- 2018-09-24 20:04:38]
sending 5 signals using command: 'killall -2 smith_waterman' after 0.358004062157s
[INFO -- 2018-09-24 20:04:39]
sending 5 signals using command: 'killall -2 smith_waterman' after 1.50208508737s
[INFO -- 2018-09-24 20:04:40]
sending 5 signals using command: 'killall -2 smith_waterman' after 1.76750515877s
[INFO -- 2018-09-24 20:04:45]
Execution finished before waitTime
