[INFO -- 2018-12-05 08:04:24]
Starting GDB script
[INFO -- 2018-12-05 08:04:24]
initSignal:0.0
[INFO -- 2018-12-05 08:04:24]
endSignal:6.0
[INFO -- 2018-12-05 08:04:25]
sending 5 signals using command: 'killall -2 smith_waterman' after 1.00303542427s
[INFO -- 2018-12-05 08:04:26]
Execution finished before waitTime
