[INFO -- 2018-11-07 18:23:01]
Starting flip_value script
version: 1.1
[INFO -- 2018-11-07 18:23:01]
Initialization strings:
[INFO -- 2018-11-07 18:23:01]
(1) file /tmp/smith_waterman/smith_waterman
[INFO -- 2018-11-07 18:23:01]
(2) set args -x /tmp/smith_waterman/randInputX -y /tmp/smith_waterman/randInputY -o /tmp/smith_waterman/output
[INFO -- 2018-11-07 18:23:01]
initSignal:0
[INFO -- 2018-11-07 18:23:01]
endSignal:6
[INFO -- 2018-11-07 18:23:01]
faultModel:1
[INFO -- 2018-11-07 18:23:03]
event type: exit
[INFO -- 2018-11-07 18:23:03]
exit code: 0
