[INFO -- 2018-09-27 18:15:45]
Starting GDB script
[INFO -- 2018-09-27 18:15:45]
initSignal:0.0
[INFO -- 2018-09-27 18:15:45]
endSignal:2.0
[INFO -- 2018-09-27 18:15:45]
sending 5 signals using command: 'killall -2 smith_waterman' after 0.629025068971s
[INFO -- 2018-09-27 18:15:46]
sending 5 signals using command: 'killall -2 smith_waterman' after 0.945922255788s
[INFO -- 2018-09-27 18:15:46]
sending 5 signals using command: 'killall -2 smith_waterman' after 1.66425546534s
[INFO -- 2018-09-27 18:15:51]
Execution finished before waitTime
