[INFO -- 2018-12-04 03:06:01]
Starting GDB script
[INFO -- 2018-12-04 03:06:01]
initSignal:0.0
[INFO -- 2018-12-04 03:06:01]
endSignal:6.0
[INFO -- 2018-12-04 03:06:02]
sending 5 signals using command: 'killall -2 smith_waterman' after 0.365416529658s
[INFO -- 2018-12-04 03:06:02]
sending 5 signals using command: 'killall -2 smith_waterman' after 0.582776722577s
[INFO -- 2018-12-04 03:06:04]
sending 5 signals using command: 'killall -2 smith_waterman' after 2.82948085387s
[INFO -- 2018-12-04 03:06:07]
Execution finished before waitTime
