[INFO -- 2018-09-27 02:20:20]
Starting GDB script
[INFO -- 2018-09-27 02:20:20]
initSignal:0.0
[INFO -- 2018-09-27 02:20:20]
endSignal:2.0
[INFO -- 2018-09-27 02:20:21]
sending 5 signals using command: 'killall -2 smith_waterman' after 0.666347106535s
[INFO -- 2018-09-27 02:20:21]
sending 5 signals using command: 'killall -2 smith_waterman' after 1.04821700408s
[INFO -- 2018-09-27 02:20:22]
sending 5 signals using command: 'killall -2 smith_waterman' after 1.68785727757s
[INFO -- 2018-09-27 02:20:26]
Execution finished before waitTime
