[INFO -- 2018-09-25 04:59:29]
Starting GDB script
[INFO -- 2018-09-25 04:59:29]
initSignal:0.0
[INFO -- 2018-09-25 04:59:29]
endSignal:2.0
[INFO -- 2018-09-25 04:59:29]
sending 5 signals using command: 'killall -2 smith_waterman' after 0.614624877474s
[INFO -- 2018-09-25 04:59:30]
sending 5 signals using command: 'killall -2 smith_waterman' after 0.993717980444s
[INFO -- 2018-09-25 04:59:30]
sending 5 signals using command: 'killall -2 smith_waterman' after 1.17428749965s
[INFO -- 2018-09-25 04:59:35]
Execution finished before waitTime
