[INFO -- 2018-12-03 08:53:31]
Starting GDB script
[INFO -- 2018-12-03 08:53:31]
initSignal:0.0
[INFO -- 2018-12-03 08:53:31]
endSignal:6.0
[INFO -- 2018-12-03 08:53:33]
sending 5 signals using command: 'killall -2 smith_waterman' after 2.88332904889s
[INFO -- 2018-12-03 08:53:34]
sending 5 signals using command: 'killall -2 smith_waterman' after 2.8992581743s
[INFO -- 2018-12-03 08:53:36]
sending 5 signals using command: 'killall -2 smith_waterman' after 4.89843783997s
[INFO -- 2018-12-03 08:53:37]
Execution finished before waitTime
