[INFO -- 2018-12-08 22:37:40]
sending 5 signals using command: 'killall -2 smith_waterman' after 5.00763862168s
[INFO -- 2018-12-08 22:37:40]
sending 5 signals using command: 'killall -2 smith_waterman' after 5.78547826591s
[INFO -- 2018-12-08 22:37:41]
Starting GDB script
[INFO -- 2018-12-08 22:37:41]
initSignal:0.0
[INFO -- 2018-12-08 22:37:41]
endSignal:6.0
[INFO -- 2018-12-08 22:37:42]
sending 5 signals using command: 'killall -2 smith_waterman' after 1.59549403503s
[INFO -- 2018-12-08 22:37:43]
Execution finished before waitTime
