[INFO -- 2018-09-26 13:41:15]
Starting GDB script
[INFO -- 2018-09-26 13:41:15]
initSignal:0.0
[INFO -- 2018-09-26 13:41:15]
endSignal:2.0
[INFO -- 2018-09-26 13:41:15]
sending 5 signals using command: 'killall -2 smith_waterman' after 0.531604991276s
[INFO -- 2018-09-26 13:41:16]
sending 5 signals using command: 'killall -2 smith_waterman' after 1.06282848842s
[INFO -- 2018-09-26 13:41:16]
sending 5 signals using command: 'killall -2 smith_waterman' after 1.69056511467s
[INFO -- 2018-09-26 13:41:21]
Execution finished before waitTime
