[INFO -- 2018-12-05 04:43:19]
Starting GDB script
[INFO -- 2018-12-05 04:43:19]
initSignal:0.0
[INFO -- 2018-12-05 04:43:19]
endSignal:6.0
[INFO -- 2018-12-05 04:43:20]
sending 5 signals using command: 'killall -2 smith_waterman' after 1.19828328023s
[INFO -- 2018-12-05 04:43:23]
sending 5 signals using command: 'killall -2 smith_waterman' after 4.34636634879s
[INFO -- 2018-12-05 04:43:24]
sending 5 signals using command: 'killall -2 smith_waterman' after 4.86939660786s
[INFO -- 2018-12-05 04:43:26]
Execution finished before waitTime
