[INFO -- 2018-11-08 21:50:08]
sending 5 signals using command: 'killall -2 smith_waterman' after 4.7618903943s
[INFO -- 2018-11-08 21:50:08]
sending 5 signals using command: 'killall -2 smith_waterman' after 5.11571382164s
[INFO -- 2018-11-08 21:50:08]
Starting GDB script
[INFO -- 2018-11-08 21:50:08]
initSignal:0.0
[INFO -- 2018-11-08 21:50:08]
endSignal:6.0
[INFO -- 2018-11-08 21:50:09]
sending 5 signals using command: 'killall -2 smith_waterman' after 1.33116310659s
[INFO -- 2018-11-08 21:50:11]
Execution finished before waitTime
