[INFO -- 2018-12-08 04:04:34]
sending 5 signals using command: 'killall -2 smith_waterman' after 3.48619303015s
[INFO -- 2018-12-08 04:04:34]
Starting GDB script
[INFO -- 2018-12-08 04:04:34]
initSignal:0.0
[INFO -- 2018-12-08 04:04:34]
endSignal:6.0
[INFO -- 2018-12-08 04:04:35]
sending 5 signals using command: 'killall -2 smith_waterman' after 1.16625433772s
[INFO -- 2018-12-08 04:04:37]
sending 5 signals using command: 'killall -2 smith_waterman' after 3.27207871586s
[INFO -- 2018-12-08 04:04:38]
sending 5 signals using command: 'killall -2 smith_waterman' after 4.29154560182s
[INFO -- 2018-12-08 04:04:41]
Execution finished before waitTime
