[INFO -- 2018-12-03 21:16:02]
sending 5 signals using command: 'killall -2 smith_waterman' after 5.91651304359s
[INFO -- 2018-12-03 21:16:02]
Starting GDB script
[INFO -- 2018-12-03 21:16:02]
initSignal:0.0
[INFO -- 2018-12-03 21:16:02]
endSignal:6.0
[INFO -- 2018-12-03 21:16:03]
sending 5 signals using command: 'killall -2 smith_waterman' after 0.56897578916s
[INFO -- 2018-12-03 21:16:03]
sending 5 signals using command: 'killall -2 smith_waterman' after 0.813914121927s
[INFO -- 2018-12-03 21:16:04]
sending 5 signals using command: 'killall -2 smith_waterman' after 1.57877225937s
[INFO -- 2018-12-03 21:16:07]
Execution finished before waitTime
