[INFO -- 2018-09-23 23:29:11]
Starting GDB script
[INFO -- 2018-09-23 23:29:11]
initSignal:0.0
[INFO -- 2018-09-23 23:29:11]
endSignal:2.0
[INFO -- 2018-09-23 23:29:12]
sending 5 signals using command: 'killall -2 smith_waterman' after 0.995702586717s
[INFO -- 2018-09-23 23:29:12]
sending 5 signals using command: 'killall -2 smith_waterman' after 1.13350378001s
[INFO -- 2018-09-23 23:29:12]
sending 5 signals using command: 'killall -2 smith_waterman' after 1.66838822358s
[INFO -- 2018-09-23 23:29:17]
Execution finished before waitTime
