[INFO -- 2018-12-09 00:41:47]
sending 5 signals using command: 'killall -2 smith_waterman' after 2.71997494975s
[INFO -- 2018-12-09 00:41:50]
sending 5 signals using command: 'killall -2 smith_waterman' after 5.06895426032s
[INFO -- 2018-12-09 00:41:50]
Starting GDB script
[INFO -- 2018-12-09 00:41:50]
initSignal:0.0
[INFO -- 2018-12-09 00:41:50]
endSignal:6.0
[INFO -- 2018-12-09 00:41:51]
sending 5 signals using command: 'killall -2 smith_waterman' after 1.05229370487s
[INFO -- 2018-12-09 00:41:54]
sending 5 signals using command: 'killall -2 smith_waterman' after 4.41687796749s
[INFO -- 2018-12-09 00:41:55]
sending 5 signals using command: 'killall -2 smith_waterman' after 5.08294830541s
[INFO -- 2018-12-09 00:41:56]
Execution finished before waitTime
