[INFO -- 2018-09-24 14:23:28]
Starting flip_value script
version: 1.1
[INFO -- 2018-09-24 14:23:28]
Initialization strings:
[INFO -- 2018-09-24 14:23:28]
(1) file /tmp/smith_waterman/smith_waterman
[INFO -- 2018-09-24 14:23:28]
(2) set args -x /tmp/smith_waterman/randInputX -y /tmp/smith_waterman/randInputY -o /tmp/smith_waterman/output
[INFO -- 2018-09-24 14:23:28]
initSignal:0
[INFO -- 2018-09-24 14:23:28]
endSignal:2
[INFO -- 2018-09-24 14:23:28]
faultModel:2
[EXCEPTION -- 2018-09-24 14:23:29]
pythonException: invalid literal for int() with base 16: '0x55555575b640 ...'
[INFO -- 2018-09-24 14:23:29]
Backtrace BEGIN:
#0  0x00005555555550bc in smith_waterman (x_num=12150, y_num=15000, str_x=0x5555557586c0 "GWFFISSZZEHHNAUHHEKGUUGKQQZZNOVMQBUAAJJFNNJCCZZRLTXHZDDPPURKEBBYCSSYDWWFSMMSLDJYYZJGYAAITTVXXWTTZNZQOOGJSSOFFADIJJIZLLZHUEEEQAAKQQQCYLLQQTTXCTBMEODCVVPPUUPFTZFFHHMQVVQGJESSCEIVAAZXDDMMYTSNSXXMMJJCCKQJ"..., str_y=0x55555575b640 "GWDFIKSMZJEHYNAUHEKKGUFGKQOZNOKVMQBUAVJAFNJFCLZJRLTXHZDSPUREKEBYUCSWYDWFSHMUSLDJYZJGYOAPITVUXWSTZNQZQOGJWSFOFJADIJLIZLZKHUEEQXARKQQCEYLCQTTXCTBMEOWDCVPJPUPFTPZFHRHMQVQGOJESCHEIVAOZXDIMZYTSNSXVMFJCCZKQ"..., fo=0x555555758260) at smith_waterman.c:98
#1  0x0000555555555e38 in main (argc=7, argv=0x7fffffffdcb8) at smith_waterman.c:298

93	    double max_score=0.0;
94	    for(i=1; i<x_num+1; i++){
95	        for(j=1; j<y_num+1; j++){
96	            if(str_x[i-1]==str_y[j-1]){diff=match_score;}
97	            else{diff=mismatch_score;}
98	            matrix[i][j]=my_maxof(matrix[i-1][j-1]+diff, matrix[i-1][j]+gap_score, matrix[i][j-1]+gap_score,0);
99	            if(matrix[i][j]>max_score)
100	                max_score=matrix[i][j];
101	        }
102	    }

Backtrace END
Memory content before bitflip:0x7c0x090x000x000x000x000x000x00
Fault Model: Random bit-flip
base address to flip value: 0x7fffffffda90
address max offset: 8
Memory content after  bitflip:0x070xb30x710xe70x4c0x910xe60xfe
frame name: smith_waterman
symbol name: i
symbol filename: smith_waterman.c
symbol line: 83
value: -79216183945874681
value address: 0x7fffffffda90
Type: The type is an integer type.
Type sizeof: 8

[INFO -- 2018-09-24 14:23:29]
Fault Injection Successful after 1.1158616542816162s
[INFO -- 2018-09-24 14:23:29]
event type: exit
[EXCEPTION -- 2018-09-24 14:23:29]
exit code: no exit code available
