[INFO -- 2018-12-03 11:08:36]
Starting GDB script
[INFO -- 2018-12-03 11:08:36]
initSignal:0.0
[INFO -- 2018-12-03 11:08:36]
endSignal:6.0
[INFO -- 2018-12-03 11:08:38]
sending 5 signals using command: 'killall -2 smith_waterman' after 1.44350163312s
[INFO -- 2018-12-03 11:08:40]
sending 5 signals using command: 'killall -2 smith_waterman' after 4.06324955851s
[INFO -- 2018-12-03 11:08:41]
Execution finished before waitTime
