[INFO -- 2018-09-26 03:48:20]
Starting GDB script
[INFO -- 2018-09-26 03:48:20]
initSignal:0.0
[INFO -- 2018-09-26 03:48:20]
endSignal:2.0
[INFO -- 2018-09-26 03:48:21]
sending 5 signals using command: 'killall -2 smith_waterman' after 0.39650345796s
[INFO -- 2018-09-26 03:48:22]
sending 5 signals using command: 'killall -2 smith_waterman' after 1.42476722718s
[INFO -- 2018-09-26 03:48:22]
sending 5 signals using command: 'killall -2 smith_waterman' after 1.94247458164s
[INFO -- 2018-09-26 03:48:27]
Execution finished before waitTime
