[INFO -- 2018-12-03 23:52:47]
Starting GDB script
[INFO -- 2018-12-03 23:52:47]
initSignal:0.0
[INFO -- 2018-12-03 23:52:47]
endSignal:6.0
[INFO -- 2018-12-03 23:52:48]
sending 5 signals using command: 'killall -2 smith_waterman' after 0.866273760606s
[INFO -- 2018-12-03 23:52:50]
sending 5 signals using command: 'killall -2 smith_waterman' after 3.05485909032s
[INFO -- 2018-12-03 23:52:53]
sending 5 signals using command: 'killall -2 smith_waterman' after 5.63377828618s
[INFO -- 2018-12-03 23:52:53]
Execution finished before waitTime
