[INFO -- 2018-09-25 17:22:43]
Starting GDB script
[INFO -- 2018-09-25 17:22:43]
initSignal:0.0
[INFO -- 2018-09-25 17:22:43]
endSignal:2.0
[INFO -- 2018-09-25 17:22:43]
sending 5 signals using command: 'killall -2 smith_waterman' after 0.0695597770208s
[INFO -- 2018-09-25 17:22:43]
sending 5 signals using command: 'killall -2 smith_waterman' after 0.340805907036s
[INFO -- 2018-09-25 17:22:45]
sending 5 signals using command: 'killall -2 smith_waterman' after 1.7109940078s
[INFO -- 2018-09-25 17:22:48]
Execution finished before waitTime
