[INFO -- 2018-12-03 12:15:21]
Starting GDB script
[INFO -- 2018-12-03 12:15:21]
initSignal:0.0
[INFO -- 2018-12-03 12:15:21]
endSignal:6.0
[INFO -- 2018-12-03 12:15:21]
sending 5 signals using command: 'killall -2 smith_waterman' after 0.0830641731761s
[INFO -- 2018-12-03 12:15:23]
sending 5 signals using command: 'killall -2 smith_waterman' after 1.43134110307s
[INFO -- 2018-12-03 12:15:25]
sending 5 signals using command: 'killall -2 smith_waterman' after 4.03236619265s
[INFO -- 2018-12-03 12:15:27]
Execution finished before waitTime
