[INFO -- 2018-12-09 01:50:28]
sending 5 signals using command: 'killall -2 smith_waterman' after 4.49300943193s
[INFO -- 2018-12-09 01:50:28]
sending 5 signals using command: 'killall -2 smith_waterman' after 4.67660269193s
[INFO -- 2018-12-09 01:50:28]
Starting GDB script
[INFO -- 2018-12-09 01:50:28]
initSignal:0.0
[INFO -- 2018-12-09 01:50:28]
endSignal:6.0
[INFO -- 2018-12-09 01:50:31]
sending 5 signals using command: 'killall -2 smith_waterman' after 2.71636532789s
[INFO -- 2018-12-09 01:50:31]
sending 5 signals using command: 'killall -2 smith_waterman' after 3.28139928909s
[INFO -- 2018-12-09 01:50:32]
sending 5 signals using command: 'killall -2 smith_waterman' after 4.10318457617s
[INFO -- 2018-12-09 01:50:34]
Execution finished before waitTime
