[INFO -- 2018-09-27 19:42:13]
Starting GDB script
[INFO -- 2018-09-27 19:42:13]
initSignal:0.0
[INFO -- 2018-09-27 19:42:13]
endSignal:2.0
[INFO -- 2018-09-27 19:42:13]
sending 5 signals using command: 'killall -2 smith_waterman' after 0.0446401176751s
[INFO -- 2018-09-27 19:42:14]
sending 5 signals using command: 'killall -2 smith_waterman' after 0.918603225675s
[INFO -- 2018-09-27 19:42:14]
sending 5 signals using command: 'killall -2 smith_waterman' after 1.48139222989s
[INFO -- 2018-09-27 19:42:18]
Execution finished before waitTime
