[INFO -- 2018-09-25 01:53:55]
sending 5 signals using command: 'killall -2 smith_waterman' after 1.71126064616s
[INFO -- 2018-09-25 01:53:55]
Starting GDB script
[INFO -- 2018-09-25 01:53:55]
initSignal:0.0
[INFO -- 2018-09-25 01:53:55]
endSignal:2.0
[INFO -- 2018-09-25 01:53:56]
sending 5 signals using command: 'killall -2 smith_waterman' after 0.679105442817s
[INFO -- 2018-09-25 01:53:57]
sending 5 signals using command: 'killall -2 smith_waterman' after 1.59124943708s
[INFO -- 2018-09-25 01:53:57]
sending 5 signals using command: 'killall -2 smith_waterman' after 1.92385937101s
[INFO -- 2018-09-25 01:54:00]
Execution finished before waitTime
