[INFO -- 2018-09-26 20:44:56]
Starting GDB script
[INFO -- 2018-09-26 20:44:56]
initSignal:0.0
[INFO -- 2018-09-26 20:44:56]
endSignal:2.0
[INFO -- 2018-09-26 20:44:56]
sending 5 signals using command: 'killall -2 smith_waterman' after 0.178506185935s
[INFO -- 2018-09-26 20:44:56]
sending 5 signals using command: 'killall -2 smith_waterman' after 0.49098557214s
[INFO -- 2018-09-26 20:44:56]
sending 5 signals using command: 'killall -2 smith_waterman' after 0.86242927529s
[INFO -- 2018-09-26 20:45:01]
Execution finished before waitTime
