[INFO -- 2018-09-27 02:29:43]
Starting GDB script
[INFO -- 2018-09-27 02:29:43]
initSignal:0.0
[INFO -- 2018-09-27 02:29:43]
endSignal:2.0
[INFO -- 2018-09-27 02:29:44]
sending 5 signals using command: 'killall -2 smith_waterman' after 1.47856936768s
[INFO -- 2018-09-27 02:29:44]
sending 5 signals using command: 'killall -2 smith_waterman' after 1.67912889396s
[INFO -- 2018-09-27 02:29:44]
sending 5 signals using command: 'killall -2 smith_waterman' after 1.72976909234s
[INFO -- 2018-09-27 02:29:48]
Execution finished before waitTime
