[INFO -- 2018-09-24 12:45:23]
Starting GDB script
[INFO -- 2018-09-24 12:45:23]
initSignal:0.0
[INFO -- 2018-09-24 12:45:23]
endSignal:2.0
[INFO -- 2018-09-24 12:45:23]
sending 5 signals using command: 'killall -2 smith_waterman' after 0.27023005049s
[INFO -- 2018-09-24 12:45:24]
sending 5 signals using command: 'killall -2 smith_waterman' after 1.23980828987s
[INFO -- 2018-09-24 12:45:25]
sending 5 signals using command: 'killall -2 smith_waterman' after 1.84859323713s
[INFO -- 2018-09-24 12:45:29]
Execution finished before waitTime
