[INFO -- 2018-09-26 07:13:40]
Starting GDB script
[INFO -- 2018-09-26 07:13:40]
initSignal:0.0
[INFO -- 2018-09-26 07:13:40]
endSignal:2.0
[INFO -- 2018-09-26 07:13:41]
sending 5 signals using command: 'killall -2 smith_waterman' after 0.391255311303s
[INFO -- 2018-09-26 07:13:41]
sending 5 signals using command: 'killall -2 smith_waterman' after 0.396478777478s
[INFO -- 2018-09-26 07:13:42]
Execution finished before waitTime
