[INFO -- 2018-11-07 20:16:31]
sending 5 signals using command: 'killall -2 smith_waterman' after 3.91650622461s
[INFO -- 2018-11-07 20:16:32]
sending 5 signals using command: 'killall -2 smith_waterman' after 5.32796563433s
[INFO -- 2018-11-07 20:16:32]
Starting GDB script
[INFO -- 2018-11-07 20:16:32]
initSignal:0.0
[INFO -- 2018-11-07 20:16:32]
endSignal:6.0
[INFO -- 2018-11-07 20:16:33]
sending 5 signals using command: 'killall -2 smith_waterman' after 0.100480595472s
[INFO -- 2018-11-07 20:16:36]
Execution finished before waitTime
