[INFO -- 2018-12-05 07:21:25]
Starting GDB script
[INFO -- 2018-12-05 07:21:25]
initSignal:0.0
[INFO -- 2018-12-05 07:21:25]
endSignal:6.0
[INFO -- 2018-12-05 07:21:26]
sending 5 signals using command: 'killall -2 smith_waterman' after 1.29911465647s
[INFO -- 2018-12-05 07:21:28]
sending 5 signals using command: 'killall -2 smith_waterman' after 3.40239806106s
[INFO -- 2018-12-05 07:21:29]
sending 5 signals using command: 'killall -2 smith_waterman' after 4.33755408969s
[INFO -- 2018-12-05 07:21:31]
Execution finished before waitTime
