[INFO -- 2018-11-07 19:24:48]
Starting GDB script
[INFO -- 2018-11-07 19:24:48]
initSignal:0.0
[INFO -- 2018-11-07 19:24:48]
endSignal:6.0
[INFO -- 2018-11-07 19:24:50]
sending 5 signals using command: 'killall -2 smith_waterman' after 1.44343836175s
[INFO -- 2018-11-07 19:24:50]
sending 5 signals using command: 'killall -2 smith_waterman' after 1.9232485583s
[INFO -- 2018-11-07 19:24:51]
Execution finished before waitTime
