[INFO -- 2018-12-05 05:54:14]
Starting GDB script
[INFO -- 2018-12-05 05:54:14]
initSignal:0.0
[INFO -- 2018-12-05 05:54:14]
endSignal:6.0
[INFO -- 2018-12-05 05:54:17]
sending 5 signals using command: 'killall -2 smith_waterman' after 2.67219796581s
[INFO -- 2018-12-05 05:54:17]
sending 5 signals using command: 'killall -2 smith_waterman' after 3.16675063988s
[INFO -- 2018-12-05 05:54:18]
sending 5 signals using command: 'killall -2 smith_waterman' after 4.39764082165s
[INFO -- 2018-12-05 05:54:21]
Execution finished before waitTime
