[INFO -- 2018-12-03 23:09:44]
sending 5 signals using command: 'killall -2 smith_waterman' after 5.40886658214s
[INFO -- 2018-12-03 23:09:44]
Starting GDB script
[INFO -- 2018-12-03 23:09:44]
initSignal:0.0
[INFO -- 2018-12-03 23:09:44]
endSignal:6.0
[INFO -- 2018-12-03 23:09:45]
sending 5 signals using command: 'killall -2 smith_waterman' after 0.990327673644s
[INFO -- 2018-12-03 23:09:47]
sending 5 signals using command: 'killall -2 smith_waterman' after 2.26460481717s
[INFO -- 2018-12-03 23:09:49]
sending 5 signals using command: 'killall -2 smith_waterman' after 4.83382663062s
[INFO -- 2018-12-03 23:09:49]
Execution finished before waitTime
