[INFO -- 2018-09-25 00:32:33]
Starting GDB script
[INFO -- 2018-09-25 00:32:33]
initSignal:0.0
[INFO -- 2018-09-25 00:32:33]
endSignal:2.0
[INFO -- 2018-09-25 00:32:33]
sending 5 signals using command: 'killall -2 smith_waterman' after 0.401353812382s
[INFO -- 2018-09-25 00:32:34]
Execution finished before waitTime
