[INFO -- 2018-12-08 01:57:30]
sending 5 signals using command: 'killall -2 smith_waterman' after 4.67830897755s
[INFO -- 2018-12-08 01:57:31]
Starting GDB script
[INFO -- 2018-12-08 01:57:31]
initSignal:0.0
[INFO -- 2018-12-08 01:57:31]
endSignal:6.0
[INFO -- 2018-12-08 01:57:33]
sending 5 signals using command: 'killall -2 smith_waterman' after 1.93094999709s
[INFO -- 2018-12-08 01:57:33]
sending 5 signals using command: 'killall -2 smith_waterman' after 1.99392754872s
[INFO -- 2018-12-08 01:57:34]
Execution finished before waitTime
