[INFO -- 2018-09-23 11:35:31]
Starting GDB script
[INFO -- 2018-09-23 11:35:31]
initSignal:0.0
[INFO -- 2018-09-23 11:35:31]
endSignal:2.0
[INFO -- 2018-09-23 11:35:32]
sending 5 signals using command: 'killall -2 smith_waterman' after 1.10840861207s
[INFO -- 2018-09-23 11:35:33]
sending 5 signals using command: 'killall -2 smith_waterman' after 1.67206112923s
[INFO -- 2018-09-23 11:35:33]
sending 5 signals using command: 'killall -2 smith_waterman' after 1.86899547461s
[INFO -- 2018-09-23 11:35:37]
Execution finished before waitTime
