[INFO -- 2018-12-04 14:47:01]
Starting GDB script
[INFO -- 2018-12-04 14:47:01]
initSignal:0.0
[INFO -- 2018-12-04 14:47:01]
endSignal:6.0
[INFO -- 2018-12-04 14:47:03]
sending 5 signals using command: 'killall -2 smith_waterman' after 1.78647738757s
[INFO -- 2018-12-04 14:47:04]
Execution finished before waitTime
