[INFO -- 2018-09-24 19:43:54]
Starting GDB script
[INFO -- 2018-09-24 19:43:54]
initSignal:0.0
[INFO -- 2018-09-24 19:43:54]
endSignal:2.0
[INFO -- 2018-09-24 19:43:56]
sending 5 signals using command: 'killall -2 smith_waterman' after 1.28470358186s
[INFO -- 2018-09-24 19:43:56]
sending 5 signals using command: 'killall -2 smith_waterman' after 1.56659001598s
[INFO -- 2018-09-24 19:43:56]
sending 5 signals using command: 'killall -2 smith_waterman' after 1.64411897504s
[INFO -- 2018-09-24 19:44:01]
Execution finished before waitTime
