[INFO -- 2018-12-04 19:04:24]
Starting GDB script
[INFO -- 2018-12-04 19:04:24]
initSignal:0.0
[INFO -- 2018-12-04 19:04:24]
endSignal:6.0
[INFO -- 2018-12-04 19:04:25]
sending 5 signals using command: 'killall -2 smith_waterman' after 1.76537388639s
[INFO -- 2018-12-04 19:04:27]
sending 5 signals using command: 'killall -2 smith_waterman' after 3.85918551371s
[INFO -- 2018-12-04 19:04:28]
sending 5 signals using command: 'killall -2 smith_waterman' after 4.46726685947s
[INFO -- 2018-12-04 19:04:30]
Execution finished before waitTime
