[INFO -- 2018-12-03 10:41:43]
Starting flip_value script
version: 1.1
[INFO -- 2018-12-03 10:41:43]
Initialization strings:
[INFO -- 2018-12-03 10:41:43]
(1) file /tmp/smith_waterman/smith_waterman
[INFO -- 2018-12-03 10:41:43]
(2) set args -x /tmp/smith_waterman/randInputX -y /tmp/smith_waterman/randInputY -o /tmp/smith_waterman/output -z /tmp/smith_waterman/detected.log
[INFO -- 2018-12-03 10:41:43]
initSignal:0
[INFO -- 2018-12-03 10:41:43]
endSignal:6
[INFO -- 2018-12-03 10:41:43]
faultModel:2
[INFO -- 2018-12-03 10:41:43]
Backtrace BEGIN:
#0  0x0000555555554efe in smith_waterman (x_num=15000, y_num=12000, str_x=0x5555557586c0 "EWCQVZGWKMDWYHODFCKQIEQROWLVWYGAULQRMYNWNSULCKQHMAXUFPLVLWSJWYJQLBJXBYVORRZVBPCNSBJZSUUDSMOOMXGYARXBQTQJMRGOJIDBLNADHWICKWSWVZWVSUWKPOVBGBPRLVSWIUZRQJTAFMYANVXFRUSGKNJQPBJAWBXEXYXPKRPPFQSULRBENTMYHVQY"..., str_y=0x55555575c170 "ECQQZZWWMDDYHODFCKQIEQROOLVVYYGULQRMYNNNSULCKQHMAAXFFLLLLWJWYJQLBBXBYVORRRZBBCNSBBZSSUUSMOOMMGYARXBQTQJMRGOJIDDLNAAHHIIKWSWVZWVSUWKPOVBGBPRLLVWIUZRQJTAFFMAAVXXRRSGKNNQPBJAABXEEXXXKRRPPFSUURBENTMYHHQYW"...) at smith_waterman.c:93
#1  0x0000555555555cbf in execute (file_x_name=0x7fffffffe1f3 "/tmp/smith_waterman/randInputX", file_y_name=0x7fffffffe215 "/tmp/smith_waterman/randInputY") at smith_waterman.c:263
#2  0x0000555555555f08 in main (argc=9, argv=0x7fffffffde38) at smith_waterman.c:314

88	        matrix[i]=matrix[0]+(y_num+1)*i;
89	    }
90	
91	    long j;
92		
93	    for(i=0; i<x_num+1; i++){matrix[i][0]=0.0;}
94	    for(i=0; i<y_num+1; i++){matrix[0][i]=0.0;}
95		
96	    double diff=0.0;
97	    double max_score=0.0;

Backtrace END
Fliping a bit of the pointer
Memory content before bitflip:0x700xc10x750x550x550x550x000x00
Fault Model: Random bit-flip
base address to flip value: 0x7fffffffdba0
address max offset: 8
Memory content after  bitflip:0x900x260x230x850x690x7b0x6d0xc3
frame name: smith_waterman
symbol name: str_y
symbol filename: smith_waterman.c
symbol line: 82
value: 0x55555575c170 "ECQQZZWWMDDYHODFCKQIEQROOLVVYYGULQRMYNNNSULCKQHMAAXFFLLLLWJWYJQLBBXBYVORRRZBBCNSBBZSSUUSMOOMMGYARXBQTQJMRGOJIDDLNAAHHIIKWSWVZWVSUWKPOVBGBPRLLVWIUZRQJTAFFMAAVXXRRSGKNNQPBJAABXEEXXXKRRPPFSUURBENTMYHHQYW"...
value address: 0x7fffffffdba0
Type: The type is a pointer.
Type sizeof: 8

[INFO -- 2018-12-03 10:41:43]
Fault Injection Successful after 0.7628161907196045s
[INFO -- 2018-12-03 10:41:43]
event type: exit
[EXCEPTION -- 2018-12-03 10:41:43]
exit code: no exit code available
