[INFO -- 2018-09-25 17:44:44]
Starting GDB script
[INFO -- 2018-09-25 17:44:44]
initSignal:0.0
[INFO -- 2018-09-25 17:44:44]
endSignal:2.0
[INFO -- 2018-09-25 17:44:44]
sending 5 signals using command: 'killall -2 smith_waterman' after 0.611421028174s
[INFO -- 2018-09-25 17:44:45]
sending 5 signals using command: 'killall -2 smith_waterman' after 1.60419392028s
[INFO -- 2018-09-25 17:44:46]
sending 5 signals using command: 'killall -2 smith_waterman' after 1.85596041044s
[INFO -- 2018-09-25 17:44:49]
Execution finished before waitTime
