[INFO -- 2018-09-26 04:07:23]
Starting GDB script
[INFO -- 2018-09-26 04:07:23]
initSignal:0.0
[INFO -- 2018-09-26 04:07:23]
endSignal:2.0
[INFO -- 2018-09-26 04:07:23]
sending 5 signals using command: 'killall -2 smith_waterman' after 0.424048996619s
[INFO -- 2018-09-26 04:07:24]
sending 5 signals using command: 'killall -2 smith_waterman' after 0.813056716081s
[INFO -- 2018-09-26 04:07:24]
sending 5 signals using command: 'killall -2 smith_waterman' after 1.39515140984s
[INFO -- 2018-09-26 04:07:29]
Execution finished before waitTime
