[INFO -- 2018-09-24 23:16:15]
Starting GDB script
[INFO -- 2018-09-24 23:16:15]
initSignal:0.0
[INFO -- 2018-09-24 23:16:15]
endSignal:2.0
[INFO -- 2018-09-24 23:16:15]
sending 5 signals using command: 'killall -2 smith_waterman' after 0.0137998020225s
[INFO -- 2018-09-24 23:16:15]
sending 5 signals using command: 'killall -2 smith_waterman' after 0.671112166736s
[INFO -- 2018-09-24 23:16:16]
sending 5 signals using command: 'killall -2 smith_waterman' after 1.03131182166s
[INFO -- 2018-09-24 23:16:20]
Execution finished before waitTime
