[INFO -- 2018-12-04 08:24:33]
Starting GDB script
[INFO -- 2018-12-04 08:24:33]
initSignal:0.0
[INFO -- 2018-12-04 08:24:33]
endSignal:6.0
[INFO -- 2018-12-04 08:24:35]
sending 5 signals using command: 'killall -2 smith_waterman' after 2.13136746883s
[INFO -- 2018-12-04 08:24:36]
sending 5 signals using command: 'killall -2 smith_waterman' after 3.38651185051s
[INFO -- 2018-12-04 08:24:38]
sending 5 signals using command: 'killall -2 smith_waterman' after 4.96138204554s
[INFO -- 2018-12-04 08:24:39]
Execution finished before waitTime
