[INFO -- 2018-09-27 09:19:54]
Starting GDB script
[INFO -- 2018-09-27 09:19:54]
initSignal:0.0
[INFO -- 2018-09-27 09:19:54]
endSignal:2.0
[INFO -- 2018-09-27 09:19:55]
sending 5 signals using command: 'killall -2 smith_waterman' after 0.174757399912s
[INFO -- 2018-09-27 09:19:55]
sending 5 signals using command: 'killall -2 smith_waterman' after 1.02890195661s
[INFO -- 2018-09-27 09:19:56]
sending 5 signals using command: 'killall -2 smith_waterman' after 1.30342667649s
[INFO -- 2018-09-27 09:20:00]
Execution finished before waitTime
