[INFO -- 2018-09-24 23:56:53]
Starting GDB script
[INFO -- 2018-09-24 23:56:53]
initSignal:0.0
[INFO -- 2018-09-24 23:56:53]
endSignal:2.0
[INFO -- 2018-09-24 23:56:53]
sending 5 signals using command: 'killall -2 smith_waterman' after 0.443755685988s
[INFO -- 2018-09-24 23:56:54]
sending 5 signals using command: 'killall -2 smith_waterman' after 1.19015948117s
[INFO -- 2018-09-24 23:56:55]
sending 5 signals using command: 'killall -2 smith_waterman' after 1.94640178865s
[INFO -- 2018-09-24 23:56:58]
Execution finished before waitTime
