[INFO -- 2018-12-04 08:44:24]
Starting GDB script
[INFO -- 2018-12-04 08:44:24]
initSignal:0.0
[INFO -- 2018-12-04 08:44:24]
endSignal:6.0
[INFO -- 2018-12-04 08:44:24]
sending 5 signals using command: 'killall -2 smith_waterman' after 0.268079974317s
[INFO -- 2018-12-04 08:44:24]
sending 5 signals using command: 'killall -2 smith_waterman' after 0.325917793931s
[INFO -- 2018-12-04 08:44:29]
sending 5 signals using command: 'killall -2 smith_waterman' after 5.35238288459s
[INFO -- 2018-12-04 08:44:30]
Execution finished before waitTime
