[INFO -- 2018-12-04 07:25:53]
Starting GDB script
[INFO -- 2018-12-04 07:25:53]
initSignal:0.0
[INFO -- 2018-12-04 07:25:53]
endSignal:6.0
[INFO -- 2018-12-04 07:25:57]
sending 5 signals using command: 'killall -2 smith_waterman' after 3.53769263139s
[INFO -- 2018-12-04 07:25:57]
sending 5 signals using command: 'killall -2 smith_waterman' after 4.31812841664s
[INFO -- 2018-12-04 07:25:59]
sending 5 signals using command: 'killall -2 smith_waterman' after 5.61532088978s
[INFO -- 2018-12-04 07:25:59]
Execution finished before waitTime
