[INFO -- 2018-12-08 14:20:05]
Starting GDB script
[INFO -- 2018-12-08 14:20:05]
initSignal:0.0
[INFO -- 2018-12-08 14:20:05]
endSignal:6.0
[INFO -- 2018-12-08 14:20:06]
sending 5 signals using command: 'killall -2 smith_waterman' after 1.00296752875s
[INFO -- 2018-12-08 14:20:10]
sending 5 signals using command: 'killall -2 smith_waterman' after 5.03118883168s
[INFO -- 2018-12-08 14:20:10]
sending 5 signals using command: 'killall -2 smith_waterman' after 5.41528247461s
[INFO -- 2018-12-08 14:20:12]
Execution finished before waitTime
