[INFO -- 2018-11-08 23:35:48]
sending 5 signals using command: 'killall -2 smith_waterman' after 4.79524788442s
[INFO -- 2018-11-08 23:35:49]
sending 5 signals using command: 'killall -2 smith_waterman' after 5.76962985384s
[INFO -- 2018-11-08 23:35:49]
Starting GDB script
[INFO -- 2018-11-08 23:35:49]
initSignal:0.0
[INFO -- 2018-11-08 23:35:49]
endSignal:6.0
[INFO -- 2018-11-08 23:35:50]
sending 5 signals using command: 'killall -2 smith_waterman' after 0.994968321621s
[INFO -- 2018-11-08 23:35:52]
sending 5 signals using command: 'killall -2 smith_waterman' after 3.41256788524s
[INFO -- 2018-11-08 23:35:53]
sending 5 signals using command: 'killall -2 smith_waterman' after 4.42143462373s
[INFO -- 2018-11-08 23:36:09]
Execution did not finish before waitTime
