[INFO -- 2018-12-09 06:02:28]
Starting GDB script
[INFO -- 2018-12-09 06:02:28]
initSignal:0.0
[INFO -- 2018-12-09 06:02:28]
endSignal:6.0
[INFO -- 2018-12-09 06:02:29]
sending 5 signals using command: 'killall -2 smith_waterman' after 1.478714158s
[INFO -- 2018-12-09 06:02:30]
Execution finished before waitTime
