[INFO -- 2018-09-24 12:46:13]
Starting GDB script
[INFO -- 2018-09-24 12:46:13]
initSignal:0.0
[INFO -- 2018-09-24 12:46:13]
endSignal:2.0
[INFO -- 2018-09-24 12:46:14]
sending 5 signals using command: 'killall -2 smith_waterman' after 1.18610649483s
[INFO -- 2018-09-24 12:46:14]
sending 5 signals using command: 'killall -2 smith_waterman' after 1.20260303312s
[INFO -- 2018-09-24 12:46:14]
sending 5 signals using command: 'killall -2 smith_waterman' after 1.5998281594s
[INFO -- 2018-09-24 12:46:19]
Execution finished before waitTime
