[INFO -- 2018-09-24 00:09:03]
Starting GDB script
[INFO -- 2018-09-24 00:09:03]
initSignal:0.0
[INFO -- 2018-09-24 00:09:03]
endSignal:2.0
[INFO -- 2018-09-24 00:09:04]
sending 5 signals using command: 'killall -2 smith_waterman' after 0.663812259442s
[INFO -- 2018-09-24 00:09:05]
sending 5 signals using command: 'killall -2 smith_waterman' after 1.18235424128s
[INFO -- 2018-09-24 00:09:05]
sending 5 signals using command: 'killall -2 smith_waterman' after 1.69277642096s
[INFO -- 2018-09-24 00:09:09]
Execution finished before waitTime
