[INFO -- 2018-12-04 03:34:11]
Starting flip_value script
version: 1.1
[INFO -- 2018-12-04 03:34:11]
Initialization strings:
[INFO -- 2018-12-04 03:34:11]
(1) file /tmp/smith_waterman/smith_waterman
[INFO -- 2018-12-04 03:34:11]
(2) set args -x /tmp/smith_waterman/randInputX -y /tmp/smith_waterman/randInputY -o /tmp/smith_waterman/output -z /tmp/smith_waterman/detected.log
[INFO -- 2018-12-04 03:34:11]
initSignal:0
[INFO -- 2018-12-04 03:34:11]
endSignal:6
[INFO -- 2018-12-04 03:34:11]
faultModel:2
[INFO -- 2018-12-04 03:34:14]
Backtrace BEGIN:
#0  0x00005555555550d5 in smith_waterman (x_num=15000, y_num=13350, str_x=0x555555795810 "MZTTEQTQYANMTYGDLPMGAKGCFKKCEUVQVOLZEEREHHQAFWEQNSYOEEQLQCNVZINWWBWCFPGOWZRDXXVLPTZVARHQWUNVFBRDCPGJHOYFNRJLOEYFAXAAQHSMEGHLHBOJSWUZNUHCLQPBWNGWMHYDQRPWXZJEAAPUYLULGBQRTFTPTBOFKMIBDAZCZJIBJZVHLRVRSLKN"..., str_y=0x5555557992c0 "ZTTEQTQYYAMMTYGLLPMAAKCFKKKCEUQVVLZEERREHHAFWEEQNYOEEQLQCNNVZNNWWBWFFPOWZZRXXVLPTZZARHQQUUNVBBDDCGJHHOFNRRLLOYFAXAAAHHMMEHLHBOJJSUZNUHCLQPPWWNWMHYDQRPWWXJEEAAPUYUULGBQTTFTPBOOKKMBDAZCCJIIBZVHLRRRRLKNQ"...) at smith_waterman.c:102
#1  0x0000555555555cbf in execute (file_x_name=0x7fffffffe22c "/tmp/smith_waterman/randInputX", file_y_name=0x7fffffffe24e "/tmp/smith_waterman/randInputY") at smith_waterman.c:263
#2  0x0000555555555f1f in main (argc=9, argv=0x7fffffffde78) at smith_waterman.c:315

97	    double max_score=0.0;
98	    for(i=1; i<x_num+1; i++){
99	        for(j=1; j<y_num+1; j++){
100	            if(str_x[i-1]==str_y[j-1]){diff=match_score;}
101	            else{diff=mismatch_score;}
102	            matrix[i][j]=my_maxof(matrix[i-1][j-1]+diff, matrix[i-1][j]+gap_score, matrix[i][j-1]+gap_score,0);
103	            if(matrix[i][j]>max_score)
104	                max_score=matrix[i][j];
105	        }
106	    }

Backtrace END
Memory content before bitflip:0x000x000x000x000x000x000x000xc0
Fault Model: Random bit-flip
base address to flip value: 0x555555757030 
address max offset: 8
Memory content after  bitflip:0xa40x060xb50xd50x9d0x170xfe0x1f
frame name: execute
symbol name: gap_score
symbol filename: smith_waterman.c
symbol line: 11
value: 1.4027391853992912e-154
value address: 0x555555757030 <gap_score>
Type: A floating point type.
Type sizeof: 8

[INFO -- 2018-12-04 03:34:14]
Fault Injection Successful after 3.8628835678100586s
