[INFO -- 2018-09-24 14:31:37]
Starting flip_value script
version: 1.1
[INFO -- 2018-09-24 14:31:37]
Initialization strings:
[INFO -- 2018-09-24 14:31:37]
(1) file /tmp/smith_waterman/smith_waterman
[INFO -- 2018-09-24 14:31:37]
(2) set args -x /tmp/smith_waterman/randInputX -y /tmp/smith_waterman/randInputY -o /tmp/smith_waterman/output
[INFO -- 2018-09-24 14:31:37]
initSignal:0
[INFO -- 2018-09-24 14:31:37]
endSignal:2
[INFO -- 2018-09-24 14:31:37]
faultModel:2
[EXCEPTION -- 2018-09-24 14:31:38]
pythonException: invalid literal for int() with base 16: '0x55555575b640 ...'
[EXCEPTION -- 2018-09-24 14:31:38]
gdbException: Attempt to dereference a generic pointer.
[INFO -- 2018-09-24 14:31:38]
Backtrace BEGIN:
#0  0x00005555555550ee in smith_waterman (x_num=12150, y_num=15000, str_x=0x5555557586c0 "GWFFISSZZEHHNAUHHEKGUUGKQQZZNOVMQBUAAJJFNNJCCZZRLTXHZDDPPURKEBBYCSSYDWWFSMMSLDJYYZJGYAAITTVXXWTTZNZQOOGJSSOFFADIJJIZLLZHUEEEQAAKQQQCYLLQQTTXCTBMEODCVVPPUUPFTZFFHHMQVVQGJESSCEIVAAZXDDMMYTSNSXXMMJJCCKQJ"..., str_y=0x55555575b640 "GWDFIKSMZJEHYNAUHEKKGUFGKQOZNOKVMQBUAVJAFNJFCLZJRLTXHZDSPUREKEBYUCSWYDWFSHMUSLDJYZJGYOAPITVUXWSTZNQZQOGJWSFOFJADIJLIZLZKHUEEQXARKQQCEYLCQTTXCTBMEOWDCVPJPUPFTPZFHRHMQVQGOJESCHEIVAOZXDIMZYTSNSXVMFJCCZKQ"..., fo=0x555555758260) at smith_waterman.c:99
#1  0x0000555555555e38 in main (argc=7, argv=0x7fffffffdcb8) at smith_waterman.c:298

94	    for(i=1; i<x_num+1; i++){
95	        for(j=1; j<y_num+1; j++){
96	            if(str_x[i-1]==str_y[j-1]){diff=match_score;}
97	            else{diff=mismatch_score;}
98	            matrix[i][j]=my_maxof(matrix[i-1][j-1]+diff, matrix[i-1][j]+gap_score, matrix[i][j-1]+gap_score,0);
99	            if(matrix[i][j]>max_score)
100	                max_score=matrix[i][j];
101	        }
102	    }
103	

Backtrace END
Fliping a bit of the pointer
Memory content before bitflip:0xd00xe00xff0xff0xff0x7f0x000x00
Fault Model: Random bit-flip
base address to flip value: 0x7fffffffdb88
address max offset: 8
Memory content after  bitflip:0x750x750x890x390xe00x940x390xa8
frame name: main
symbol name: file_x_name
symbol filename: smith_waterman.c
symbol line: 247
value: 0x7fffffffe0d0 "/tmp/smith_waterman/randInputX"
value address: 0x7fffffffdb88
Type: The type is a pointer.
Type sizeof: 8

[INFO -- 2018-09-24 14:31:38]
Fault Injection Successful after 1.2770333290100098s
[INFO -- 2018-09-24 14:31:43]
event type: exit
[INFO -- 2018-09-24 14:31:43]
exit code: 0
