[INFO -- 2018-09-26 11:36:18]
Starting GDB script
[INFO -- 2018-09-26 11:36:18]
initSignal:0.0
[INFO -- 2018-09-26 11:36:18]
endSignal:2.0
[INFO -- 2018-09-26 11:36:18]
sending 5 signals using command: 'killall -2 smith_waterman' after 0.359630020643s
[INFO -- 2018-09-26 11:36:19]
sending 5 signals using command: 'killall -2 smith_waterman' after 0.812469722428s
[INFO -- 2018-09-26 11:36:19]
sending 5 signals using command: 'killall -2 smith_waterman' after 1.10507074152s
[INFO -- 2018-09-26 11:36:25]
Execution finished before waitTime
