[INFO -- 2018-11-08 22:30:35]
Starting flip_value script
version: 1.1
[INFO -- 2018-11-08 22:30:35]
Initialization strings:
[INFO -- 2018-11-08 22:30:35]
(1) file /tmp/smith_waterman/smith_waterman
[INFO -- 2018-11-08 22:30:35]
(2) set args -x /tmp/smith_waterman/randInputX -y /tmp/smith_waterman/randInputY -o /tmp/smith_waterman/output
[INFO -- 2018-11-08 22:30:35]
initSignal:0
[INFO -- 2018-11-08 22:30:35]
endSignal:6
[INFO -- 2018-11-08 22:30:35]
faultModel:0
[INFO -- 2018-11-08 22:30:37]
Backtrace BEGIN:
#0  smith_waterman (x_num=15000, y_num=13650, str_x=0x5555557586c0 "NZPJOUKFYJFFHEGCNGKERGLVCNVICJIPKXAATKGSULXDPDFFLRJEYWZCJUMLGUCQUETNPZFLMCOEHVJSMSWMQVOZSBMAXOQRULFJKMWXRKDYHMTUGRGWPXVJAJJXXBRTNYDZKZYDMBCVNXPTOYRFXOOXXXWWBNQOLTPYUOBIPDEDCVYTVQYSEPRCOOYPBQFPJVNGJOOY"..., str_y=0x55555575c170 "ZZPOOKKYJJFFHGGCGGKERGVVCNIICIPPKXAAKGGUUXXDDDFFLRJEYZZJUUMLGUCQUTNPZZLLMCOEVVSSSSWMQVZZBBMXOOQUULJKKWWXRKYYMTTGGRGPPVVAAJJXXRRTYYDKKZYMMCVVNXPOORFFOOOXXXWWNNQOLPPYUBIIDEDDCVTVVQYSPRRCOOYPQFFJVNGGJOYY"..., fo=0x555555758260) at smith_waterman.c:126
#1  0x0000555555555e38 in main (argc=7, argv=0x7fffffffde98) at smith_waterman.c:298

121	            if(i==0 && j==0){
122	                maxValue = matrix[i][j];
123	                y = i;
124	                x = j;
125	            }
126	            if(maxValue < matrix[i][j]){
127	                maxValue = matrix[i][j];
128	                y = i;
129	                x = j;
130	            }

Backtrace END
Fliping a bit of the value pointed by a pointer
Memory content before bitflip:0x2f
Fault Model: Single bit-flip
base address to flip value: 0x7fffffffe27e 
address max offset: 1
Memory content after  bitflip:0xaf
frame name: main
symbol name: output_file_name
symbol filename: smith_waterman.c
symbol line: 249
value: 0x7fffffffe27e "\257tmp/smith_waterman/output"
value address: 0x7fffffffdd78
Type: The type is a pointer.
Type sizeof: 8

[INFO -- 2018-11-08 22:30:37]
Fault Injection Successful after 2.5954301357269287s
[INFO -- 2018-11-08 22:30:37]
event type: exit
[INFO -- 2018-11-08 22:30:37]
exit code: 0
