[INFO -- 2018-11-08 19:20:22]
Starting flip_value script
version: 1.1
[INFO -- 2018-11-08 19:20:22]
Initialization strings:
[INFO -- 2018-11-08 19:20:22]
(1) file /tmp/smith_waterman/smith_waterman
[INFO -- 2018-11-08 19:20:22]
(2) set args -x /tmp/smith_waterman/randInputX -y /tmp/smith_waterman/randInputY -o /tmp/smith_waterman/output
[INFO -- 2018-11-08 19:20:22]
initSignal:0
[INFO -- 2018-11-08 19:20:22]
endSignal:6
[INFO -- 2018-11-08 19:20:22]
faultModel:2
[INFO -- 2018-11-08 19:20:23]
Backtrace BEGIN:
#0  0x0000555555554fb8 in smith_waterman (x_num=9900, y_num=15000, str_x=0x5555557586c0 "DWODJDCCKKOEERGGLXXRRHHFNNMAJHHMWPPAACHWMPSSGYYTYYQQQGGYNTWWHHJPFWWHCFDUPPCCMXXKOODCOLBGGYZZMJOTJMBMRFFNQQKKERXOHARXMTSWWYUJKKCRFFFQMGGEEWWQQWXYYQMMVVHVVRRFWWKKDDDRRJBVIAGWWGWWVJJSSTTTTKEEIQRVUUBODFNN"..., str_y=0x55555575ad80 "DWODJDMCTKGOERLGLZXVRSHOFNMAJYHMWXPFACHWMPKSGXYTWYQQQYGYNTAWTHJPFYWHCFDRUPLCMMXLKODCOLABGDYZMJOTJMBMRGFNWQRKERXOHARXMTYSWYUJHKCRXFFQMMGKEZWJQWXXYQUMKVHIVBRFLWYKBDDPRJBVIAGBWGYWYVJISQTNTKSEIQRKVUBODFMN"..., fo=0x555555758260) at smith_waterman.c:96
#1  0x0000555555555e38 in main (argc=7, argv=0x7fffffffde98) at smith_waterman.c:298

91	
92	    double diff=0.0;
93	    double max_score=0.0;
94	    for(i=1; i<x_num+1; i++){
95	        for(j=1; j<y_num+1; j++){
96	            if(str_x[i-1]==str_y[j-1]){diff=match_score;}
97	            else{diff=mismatch_score;}
98	            matrix[i][j]=my_maxof(matrix[i-1][j-1]+diff, matrix[i-1][j]+gap_score, matrix[i][j-1]+gap_score,0);
99	            if(matrix[i][j]>max_score)
100	                max_score=matrix[i][j];

Backtrace END
Memory content before bitflip:0x000x000x000x000x000x000xf00xbf
Fault Model: Random bit-flip
base address to flip value: 0x7fffffffdc80
address max offset: 8
Memory content after  bitflip:0x340xd30x340x0c0x060x200xc90x05
frame name: smith_waterman
symbol name: diff
symbol filename: smith_waterman.c
symbol line: 92
value: 8.6509085230757256e-281
value address: 0x7fffffffdc80
Type: A floating point type.
Type sizeof: 8

[INFO -- 2018-11-08 19:20:23]
Fault Injection Successful after 1.5865981578826904s
[INFO -- 2018-11-08 19:20:24]
event type: exit
[INFO -- 2018-11-08 19:20:24]
exit code: 0
