[INFO -- 2018-09-23 18:41:08]
Starting GDB script
[INFO -- 2018-09-23 18:41:08]
initSignal:0.0
[INFO -- 2018-09-23 18:41:08]
endSignal:2.0
[INFO -- 2018-09-23 18:41:08]
sending 5 signals using command: 'killall -2 smith_waterman' after 0.323916631843s
[INFO -- 2018-09-23 18:41:09]
sending 5 signals using command: 'killall -2 smith_waterman' after 1.52637719727s
[INFO -- 2018-09-23 18:41:09]
sending 5 signals using command: 'killall -2 smith_waterman' after 1.53777704607s
[INFO -- 2018-09-23 18:41:13]
Execution finished before waitTime
