[INFO -- 2018-12-08 03:50:11]
Starting flip_value script
version: 1.1
[INFO -- 2018-12-08 03:50:11]
Initialization strings:
[INFO -- 2018-12-08 03:50:11]
(1) file /tmp/smith_waterman/smith_waterman
[INFO -- 2018-12-08 03:50:11]
(2) set args -x /tmp/smith_waterman/randInputX -y /tmp/smith_waterman/randInputY -o /tmp/smith_waterman/output -z /tmp/smith_waterman/detected.log
[INFO -- 2018-12-08 03:50:11]
initSignal:0
[INFO -- 2018-12-08 03:50:11]
endSignal:6
[INFO -- 2018-12-08 03:50:11]
faultModel:0
[INFO -- 2018-12-08 03:50:11]
Backtrace BEGIN:
#0  dl_main (phdr=<optimized out>, phnum=<optimized out>, user_entry=<optimized out>, auxv=<optimized out>) at rtld.c:2289
#1  0x00007ffff7defdd0 in _dl_sysdep_start (start_argptr=start_argptr@entry=0x7fffffffdc30, dl_main=dl_main@entry=0x7ffff7dd7660 <dl_main>) at ../elf/dl-sysdep.c:253
#2  0x00007ffff7dd7128 in _dl_start_final (arg=0x7fffffffdc30) at rtld.c:414
#3  _dl_start (arg=0x7fffffffdc30) at rtld.c:521
#4  0x00007ffff7dd6098 in _start () from /lib64/ld-linux-x86-64.so.2
#5  0x0000000000000009 in ?? ()
#6  0x00007fffffffe03f in ?? ()
#7  0x00007fffffffe062 in ?? ()
#8  0x00007fffffffe065 in ?? ()
#9  0x00007fffffffe084 in ?? ()
#10 0x00007fffffffe087 in ?? ()
#11 0x00007fffffffe0a6 in ?? ()
#12 0x00007fffffffe0a9 in ?? ()
#13 0x00007fffffffe0c4 in ?? ()
#14 0x00007fffffffe0c7 in ?? ()
#15 0x0000000000000000 in ?? ()

2284	rtld.c: No such file or directory.

Backtrace END
Memory content before bitflip:0xf20x280x7a0xc50xf80xde0x8c0x6a
Fault Model: Single bit-flip
base address to flip value: 0x7ffff7ffc730 
address max offset: 8
Memory content after  bitflip:0xf20x200x7a0xc50xf80xde0x8c0x6a
frame name: dl_main
symbol name: __pointer_chk_guard_local
symbol filename: rtld.c
symbol line: 96
value: 7677756624806224114
value address: 0x7ffff7ffc730 <__pointer_chk_guard_local>
Type: The type is an integer type.
Type sizeof: 8

[INFO -- 2018-12-08 03:50:11]
Fault Injection Successful after 0.8811831474304199s
[INFO -- 2018-12-08 03:50:18]
event type: exit
[INFO -- 2018-12-08 03:50:18]
exit code: 0
