[INFO -- 2018-12-03 18:57:16]
Starting GDB script
[INFO -- 2018-12-03 18:57:16]
initSignal:0.0
[INFO -- 2018-12-03 18:57:16]
endSignal:6.0
[INFO -- 2018-12-03 18:57:16]
sending 5 signals using command: 'killall -2 smith_waterman' after 0.0922502954884s
[INFO -- 2018-12-03 18:57:17]
sending 5 signals using command: 'killall -2 smith_waterman' after 1.33802640518s
[INFO -- 2018-12-03 18:57:20]
sending 5 signals using command: 'killall -2 smith_waterman' after 4.44681116268s
[INFO -- 2018-12-03 18:57:21]
Execution finished before waitTime
