[INFO -- 2018-12-04 14:29:00]
Starting GDB script
[INFO -- 2018-12-04 14:29:00]
initSignal:0.0
[INFO -- 2018-12-04 14:29:00]
endSignal:6.0
[INFO -- 2018-12-04 14:29:03]
sending 5 signals using command: 'killall -2 smith_waterman' after 3.24760792873s
[INFO -- 2018-12-04 14:29:04]
sending 5 signals using command: 'killall -2 smith_waterman' after 4.29263665964s
[INFO -- 2018-12-04 14:29:06]
sending 5 signals using command: 'killall -2 smith_waterman' after 5.73644845434s
[INFO -- 2018-12-04 14:29:20]
Execution did not finish before waitTime
