[INFO -- 2018-12-04 01:18:46]
Starting GDB script
[INFO -- 2018-12-04 01:18:46]
initSignal:0.0
[INFO -- 2018-12-04 01:18:46]
endSignal:6.0
[INFO -- 2018-12-04 01:18:46]
sending 5 signals using command: 'killall -2 smith_waterman' after 0.275171223994s
[INFO -- 2018-12-04 01:18:47]
sending 5 signals using command: 'killall -2 smith_waterman' after 0.731132323129s
[INFO -- 2018-12-04 01:18:47]
Execution finished before waitTime
