[INFO -- 2018-09-26 05:19:47]
Starting GDB script
[INFO -- 2018-09-26 05:19:47]
initSignal:0.0
[INFO -- 2018-09-26 05:19:47]
endSignal:2.0
[INFO -- 2018-09-26 05:19:47]
sending 5 signals using command: 'killall -2 smith_waterman' after 0.190058827003s
[INFO -- 2018-09-26 05:19:47]
sending 5 signals using command: 'killall -2 smith_waterman' after 0.575244805099s
[INFO -- 2018-09-26 05:19:48]
sending 5 signals using command: 'killall -2 smith_waterman' after 1.38869548083s
[INFO -- 2018-09-26 05:19:54]
Execution finished before waitTime
