[INFO -- 2018-09-28 06:08:06]
Starting GDB script
[INFO -- 2018-09-28 06:08:06]
initSignal:0.0
[INFO -- 2018-09-28 06:08:06]
endSignal:2.0
[INFO -- 2018-09-28 06:08:06]
sending 5 signals using command: 'killall -2 smith_waterman' after 0.61447160399s
[INFO -- 2018-09-28 06:08:07]
Execution finished before waitTime
