[INFO -- 2018-09-25 15:40:36]
Starting GDB script
[INFO -- 2018-09-25 15:40:36]
initSignal:0.0
[INFO -- 2018-09-25 15:40:36]
endSignal:2.0
[INFO -- 2018-09-25 15:40:36]
sending 5 signals using command: 'killall -2 smith_waterman' after 0.224791401984s
[INFO -- 2018-09-25 15:40:37]
sending 5 signals using command: 'killall -2 smith_waterman' after 1.34096616411s
[INFO -- 2018-09-25 15:40:37]
sending 5 signals using command: 'killall -2 smith_waterman' after 1.34582411607s
[INFO -- 2018-09-25 15:40:41]
Execution finished before waitTime
