[INFO -- 2018-09-26 06:02:54]
Starting GDB script
[INFO -- 2018-09-26 06:02:54]
initSignal:0.0
[INFO -- 2018-09-26 06:02:54]
endSignal:2.0
[INFO -- 2018-09-26 06:02:54]
sending 5 signals using command: 'killall -2 smith_waterman' after 0.0331453797422s
[INFO -- 2018-09-26 06:02:55]
sending 5 signals using command: 'killall -2 smith_waterman' after 0.963407287789s
[INFO -- 2018-09-26 06:02:55]
sending 5 signals using command: 'killall -2 smith_waterman' after 1.1120089449s
[INFO -- 2018-09-26 06:03:01]
Execution finished before waitTime
