[INFO -- 2018-11-07 19:53:14]
Starting GDB script
[INFO -- 2018-11-07 19:53:14]
initSignal:0.0
[INFO -- 2018-11-07 19:53:14]
endSignal:6.0
[INFO -- 2018-11-07 19:53:16]
sending 5 signals using command: 'killall -2 smith_waterman' after 2.47227348716s
[INFO -- 2018-11-07 19:53:17]
Execution finished before waitTime
