[INFO -- 2018-09-26 14:40:06]
Starting GDB script
[INFO -- 2018-09-26 14:40:06]
initSignal:0.0
[INFO -- 2018-09-26 14:40:06]
endSignal:2.0
[INFO -- 2018-09-26 14:40:06]
sending 5 signals using command: 'killall -2 smith_waterman' after 0.586456698881s
[INFO -- 2018-09-26 14:40:06]
sending 5 signals using command: 'killall -2 smith_waterman' after 0.779536133682s
[INFO -- 2018-09-26 14:40:07]
sending 5 signals using command: 'killall -2 smith_waterman' after 1.33824203775s
[INFO -- 2018-09-26 14:40:26]
Execution did not finish before waitTime
