[INFO -- 2018-09-28 06:45:46]
Starting GDB script
[INFO -- 2018-09-28 06:45:46]
initSignal:0.0
[INFO -- 2018-09-28 06:45:46]
endSignal:2.0
[INFO -- 2018-09-28 06:45:46]
sending 5 signals using command: 'killall -2 smith_waterman' after 0.151242753698s
[INFO -- 2018-09-28 06:45:47]
sending 5 signals using command: 'killall -2 smith_waterman' after 0.833878027534s
[INFO -- 2018-09-28 06:45:48]
sending 5 signals using command: 'killall -2 smith_waterman' after 1.71885141289s
[INFO -- 2018-09-28 06:45:53]
Execution finished before waitTime
