[INFO -- 2018-09-24 22:37:27]
Starting GDB script
[INFO -- 2018-09-24 22:37:27]
initSignal:0.0
[INFO -- 2018-09-24 22:37:27]
endSignal:2.0
[INFO -- 2018-09-24 22:37:28]
sending 5 signals using command: 'killall -2 smith_waterman' after 0.30963277486s
[INFO -- 2018-09-24 22:37:28]
sending 5 signals using command: 'killall -2 smith_waterman' after 0.717113538211s
[INFO -- 2018-09-24 22:37:29]
sending 5 signals using command: 'killall -2 smith_waterman' after 1.52181022327s
[INFO -- 2018-09-24 22:37:33]
Execution finished before waitTime
