[INFO -- 2018-12-08 08:54:23]
Starting GDB script
[INFO -- 2018-12-08 08:54:23]
initSignal:0.0
[INFO -- 2018-12-08 08:54:23]
endSignal:6.0
[INFO -- 2018-12-08 08:54:25]
sending 5 signals using command: 'killall -2 smith_waterman' after 1.46973723505s
[INFO -- 2018-12-08 08:54:26]
sending 5 signals using command: 'killall -2 smith_waterman' after 2.40494323539s
[INFO -- 2018-12-08 08:54:28]
sending 5 signals using command: 'killall -2 smith_waterman' after 4.4638025813s
[INFO -- 2018-12-08 08:54:32]
Execution finished before waitTime
