[INFO -- 2018-12-08 03:09:11]
Starting GDB script
[INFO -- 2018-12-08 03:09:11]
initSignal:0.0
[INFO -- 2018-12-08 03:09:11]
endSignal:6.0
[INFO -- 2018-12-08 03:09:12]
sending 5 signals using command: 'killall -2 smith_waterman' after 0.202548431999s
[INFO -- 2018-12-08 03:09:12]
sending 5 signals using command: 'killall -2 smith_waterman' after 0.603178842493s
[INFO -- 2018-12-08 03:09:13]
sending 5 signals using command: 'killall -2 smith_waterman' after 1.69242802889s
[INFO -- 2018-12-08 03:09:18]
Execution finished before waitTime
