[INFO -- 2018-12-08 08:00:54]
sending 5 signals using command: 'killall -2 smith_waterman' after 5.65487409324s
[INFO -- 2018-12-08 08:00:54]
Starting GDB script
[INFO -- 2018-12-08 08:00:54]
initSignal:0.0
[INFO -- 2018-12-08 08:00:54]
endSignal:6.0
[INFO -- 2018-12-08 08:00:54]
sending 5 signals using command: 'killall -2 smith_waterman' after 0.588990694253s
[INFO -- 2018-12-08 08:00:55]
Execution finished before waitTime
