[INFO -- 2018-09-26 14:13:56]
Starting GDB script
[INFO -- 2018-09-26 14:13:56]
initSignal:0.0
[INFO -- 2018-09-26 14:13:56]
endSignal:2.0
[INFO -- 2018-09-26 14:13:57]
sending 5 signals using command: 'killall -2 smith_waterman' after 0.426747972986s
[INFO -- 2018-09-26 14:13:57]
sending 5 signals using command: 'killall -2 smith_waterman' after 0.436112357695s
[INFO -- 2018-09-26 14:13:57]
sending 5 signals using command: 'killall -2 smith_waterman' after 0.587044845162s
[INFO -- 2018-09-26 14:14:16]
Execution did not finish before waitTime
