[INFO -- 2018-12-04 08:21:06]
Starting GDB script
[INFO -- 2018-12-04 08:21:06]
initSignal:0.0
[INFO -- 2018-12-04 08:21:06]
endSignal:6.0
[INFO -- 2018-12-04 08:21:09]
sending 5 signals using command: 'killall -2 smith_waterman' after 3.45800865452s
[INFO -- 2018-12-04 08:21:10]
sending 5 signals using command: 'killall -2 smith_waterman' after 3.57897620034s
[INFO -- 2018-12-04 08:21:10]
sending 5 signals using command: 'killall -2 smith_waterman' after 3.74047084547s
[INFO -- 2018-12-04 08:21:12]
Execution finished before waitTime
