[INFO -- 2018-12-05 21:27:43]
sending 5 signals using command: 'killall -2 smith_waterman' after 5.21820542931s
[INFO -- 2018-12-05 21:27:43]
Starting GDB script
[INFO -- 2018-12-05 21:27:43]
initSignal:0.0
[INFO -- 2018-12-05 21:27:43]
endSignal:6.0
[INFO -- 2018-12-05 21:27:44]
sending 5 signals using command: 'killall -2 smith_waterman' after 0.598022888895s
[INFO -- 2018-12-05 21:27:44]
sending 5 signals using command: 'killall -2 smith_waterman' after 1.07143056083s
[INFO -- 2018-12-05 21:27:48]
sending 5 signals using command: 'killall -2 smith_waterman' after 4.84568133357s
[INFO -- 2018-12-05 21:27:48]
Execution finished before waitTime
