[INFO -- 2018-12-04 00:09:23]
Starting GDB script
[INFO -- 2018-12-04 00:09:23]
initSignal:0.0
[INFO -- 2018-12-04 00:09:23]
endSignal:6.0
[INFO -- 2018-12-04 00:09:23]
sending 5 signals using command: 'killall -2 smith_waterman' after 0.216303668099s
[INFO -- 2018-12-04 00:09:27]
sending 5 signals using command: 'killall -2 smith_waterman' after 4.02797680832s
[INFO -- 2018-12-04 00:09:28]
sending 5 signals using command: 'killall -2 smith_waterman' after 5.43920687366s
[INFO -- 2018-12-04 00:09:29]
Execution finished before waitTime
