[INFO -- 2018-09-27 02:31:21]
Starting GDB script
[INFO -- 2018-09-27 02:31:21]
initSignal:0.0
[INFO -- 2018-09-27 02:31:21]
endSignal:2.0
[INFO -- 2018-09-27 02:31:21]
sending 5 signals using command: 'killall -2 smith_waterman' after 0.116451032943s
[INFO -- 2018-09-27 02:31:22]
sending 5 signals using command: 'killall -2 smith_waterman' after 0.229992991763s
[INFO -- 2018-09-27 02:31:23]
sending 5 signals using command: 'killall -2 smith_waterman' after 1.21399781978s
[INFO -- 2018-09-27 02:31:27]
Execution finished before waitTime
