[INFO -- 2018-09-23 11:39:19]
Starting GDB script
[INFO -- 2018-09-23 11:39:19]
initSignal:0.0
[INFO -- 2018-09-23 11:39:19]
endSignal:2.0
[INFO -- 2018-09-23 11:39:19]
sending 5 signals using command: 'killall -2 smith_waterman' after 0.113521058373s
[INFO -- 2018-09-23 11:39:21]
sending 5 signals using command: 'killall -2 smith_waterman' after 1.60725500682s
[INFO -- 2018-09-23 11:39:21]
sending 5 signals using command: 'killall -2 smith_waterman' after 1.76085815024s
[INFO -- 2018-09-23 11:39:25]
Execution finished before waitTime
