[INFO -- 2018-11-08 23:24:22]
Starting flip_value script
version: 1.1
[INFO -- 2018-11-08 23:24:22]
Initialization strings:
[INFO -- 2018-11-08 23:24:22]
(1) file /tmp/smith_waterman/smith_waterman
[INFO -- 2018-11-08 23:24:22]
(2) set args -x /tmp/smith_waterman/randInputX -y /tmp/smith_waterman/randInputY -o /tmp/smith_waterman/output
[INFO -- 2018-11-08 23:24:22]
initSignal:0
[INFO -- 2018-11-08 23:24:22]
endSignal:6
[INFO -- 2018-11-08 23:24:22]
faultModel:2
[INFO -- 2018-11-08 23:24:23]
Backtrace BEGIN:
#0  my_maxof (a=0, b=-1, c=-2, d=0) at smith_waterman.c:66
#1  0x00005555555550d7 in smith_waterman (x_num=15000, y_num=13650, str_x=0x5555557586c0 "NZPJOUKFYJFFHEGCNGKERGLVCNVICJIPKXAATKGSULXDPDFFLRJEYWZCJUMLGUCQUETNPZFLMCOEHVJSMSWMQVOZSBMAXOQRULFJKMWXRKDYHMTUGRGWPXVJAJJXXBRTNYDZKZYDMBCVNXPTOYRFXOOXXXWWBNQOLTPYUOBIPDEDCVYTVQYSEPRCOOYPBQFPJVNGJOOY"..., str_y=0x55555575c170 "ZZPOOKKYJJFFHGGCGGKERGVVCNIICIPPKXAAKGGUUXXDDDFFLRJEYZZJUUMLGUCQUTNPZZLLMCOEVVSSSSWMQVZZBBMXOOQUULJKKWWXRKYYMTTGGRGPPVVAAJJXXRRTYYDKKZYMMCVVNXPOORFFOOOXXXWWNNQOLPPYUBIIDEDDCVTVVQYSPRRCOOYPQFFJVNGGJOYY"..., fo=0x555555758260) at smith_waterman.c:98
#2  0x0000555555555e38 in main (argc=7, argv=0x7fffffffde98) at smith_waterman.c:298

61	
62	double my_maxof(double a, double b, double c, double d)
63	{
64	    double ans=a;
65	    if(ans<b) ans=b;
66	    if(ans<c) ans=c;
67	    if(ans<d) ans=d;
68	    return ans;
69	}
70	

Backtrace END
Memory content before bitflip:0x000x000x000x000x000x000xf00xbf
Fault Model: Random bit-flip
base address to flip value: 0x555555757018 
address max offset: 8
Memory content after  bitflip:0xed0x0c0xf90x690xd70xd70xc20xf9
frame name: my_maxof
symbol name: mismatch_score
symbol filename: smith_waterman.c
symbol line: 8
value: -3.3402507267786741e+278
value address: 0x555555757018 <mismatch_score>
Type: A floating point type.
Type sizeof: 8

[INFO -- 2018-11-08 23:24:23]
Fault Injection Successful after 1.47560715675354s
