[INFO -- 2018-09-25 05:52:43]
Starting GDB script
[INFO -- 2018-09-25 05:52:43]
initSignal:0.0
[INFO -- 2018-09-25 05:52:43]
endSignal:2.0
[INFO -- 2018-09-25 05:52:43]
sending 5 signals using command: 'killall -2 smith_waterman' after 0.0255872876658s
[INFO -- 2018-09-25 05:52:43]
sending 5 signals using command: 'killall -2 smith_waterman' after 0.104752681173s
[INFO -- 2018-09-25 05:52:44]
sending 5 signals using command: 'killall -2 smith_waterman' after 1.37948039568s
[INFO -- 2018-09-25 05:52:49]
Execution finished before waitTime
