[INFO -- 2018-12-05 05:31:07]
Starting GDB script
[INFO -- 2018-12-05 05:31:07]
initSignal:0.0
[INFO -- 2018-12-05 05:31:07]
endSignal:6.0
[INFO -- 2018-12-05 05:31:08]
sending 5 signals using command: 'killall -2 smith_waterman' after 0.488145679279s
[INFO -- 2018-12-05 05:31:09]
sending 5 signals using command: 'killall -2 smith_waterman' after 1.7957150138s
[INFO -- 2018-12-05 05:31:12]
sending 5 signals using command: 'killall -2 smith_waterman' after 5.27503572236s
[INFO -- 2018-12-05 05:31:14]
Execution finished before waitTime
