[INFO -- 2018-12-04 12:30:20]
sending 5 signals using command: 'killall -2 smith_waterman' after 5.34268173309s
[INFO -- 2018-12-04 12:30:21]
sending 5 signals using command: 'killall -2 smith_waterman' after 5.89406030511s
[INFO -- 2018-12-04 12:30:21]
Starting GDB script
[INFO -- 2018-12-04 12:30:21]
initSignal:0.0
[INFO -- 2018-12-04 12:30:21]
endSignal:6.0
[INFO -- 2018-12-04 12:30:21]
sending 5 signals using command: 'killall -2 smith_waterman' after 0.386842962303s
[INFO -- 2018-12-04 12:30:25]
sending 5 signals using command: 'killall -2 smith_waterman' after 3.90774396057s
[INFO -- 2018-12-04 12:30:25]
sending 5 signals using command: 'killall -2 smith_waterman' after 4.41270070829s
[INFO -- 2018-12-04 12:30:26]
Execution finished before waitTime
