[INFO -- 2018-12-09 09:36:58]
sending 5 signals using command: 'killall -2 smith_waterman' after 3.65597572144s
[INFO -- 2018-12-09 09:36:59]
sending 5 signals using command: 'killall -2 smith_waterman' after 5.00266365565s
[INFO -- 2018-12-09 09:36:59]
Starting GDB script
[INFO -- 2018-12-09 09:36:59]
initSignal:0.0
[INFO -- 2018-12-09 09:36:59]
endSignal:6.0
[INFO -- 2018-12-09 09:37:00]
sending 5 signals using command: 'killall -2 smith_waterman' after 0.274221968334s
[INFO -- 2018-12-09 09:37:04]
sending 5 signals using command: 'killall -2 smith_waterman' after 4.46992145373s
[INFO -- 2018-12-09 09:37:05]
sending 5 signals using command: 'killall -2 smith_waterman' after 5.8414477543s
[INFO -- 2018-12-09 09:37:08]
Execution finished before waitTime
