[INFO -- 2018-12-05 15:16:47]
sending 5 signals using command: 'killall -2 smith_waterman' after 5.1657867413s
[INFO -- 2018-12-05 15:16:48]
sending 5 signals using command: 'killall -2 smith_waterman' after 5.51119597315s
[INFO -- 2018-12-05 15:16:48]
Starting GDB script
[INFO -- 2018-12-05 15:16:48]
initSignal:0.0
[INFO -- 2018-12-05 15:16:48]
endSignal:6.0
[INFO -- 2018-12-05 15:16:49]
sending 5 signals using command: 'killall -2 smith_waterman' after 0.952079758538s
[INFO -- 2018-12-05 15:16:50]
sending 5 signals using command: 'killall -2 smith_waterman' after 2.05647977269s
[INFO -- 2018-12-05 15:16:53]
Execution finished before waitTime
