[INFO -- 2018-09-26 06:07:18]
sending 5 signals using command: 'killall -2 smith_waterman' after 1.31853162333s
[INFO -- 2018-09-26 06:07:19]
Starting GDB script
[INFO -- 2018-09-26 06:07:19]
initSignal:0.0
[INFO -- 2018-09-26 06:07:19]
endSignal:2.0
[INFO -- 2018-09-26 06:07:19]
sending 5 signals using command: 'killall -2 smith_waterman' after 0.207200904552s
[INFO -- 2018-09-26 06:07:19]
sending 5 signals using command: 'killall -2 smith_waterman' after 0.290817762278s
[INFO -- 2018-09-26 06:07:20]
sending 5 signals using command: 'killall -2 smith_waterman' after 1.0818988793s
[INFO -- 2018-09-26 06:07:26]
Execution finished before waitTime
