[INFO -- 2018-09-27 03:47:53]
Starting GDB script
[INFO -- 2018-09-27 03:47:53]
initSignal:0.0
[INFO -- 2018-09-27 03:47:53]
endSignal:2.0
[INFO -- 2018-09-27 03:47:53]
sending 5 signals using command: 'killall -2 smith_waterman' after 0.674685664709s
[INFO -- 2018-09-27 03:47:54]
sending 5 signals using command: 'killall -2 smith_waterman' after 0.82255063223s
[INFO -- 2018-09-27 03:47:55]
sending 5 signals using command: 'killall -2 smith_waterman' after 1.72248371464s
[INFO -- 2018-09-27 03:47:58]
Execution finished before waitTime
