[INFO -- 2018-09-23 23:30:28]
Starting GDB script
[INFO -- 2018-09-23 23:30:28]
initSignal:0.0
[INFO -- 2018-09-23 23:30:28]
endSignal:2.0
[INFO -- 2018-09-23 23:30:28]
sending 5 signals using command: 'killall -2 smith_waterman' after 0.579827745832s
[INFO -- 2018-09-23 23:30:29]
sending 5 signals using command: 'killall -2 smith_waterman' after 0.935767271305s
[INFO -- 2018-09-23 23:30:29]
sending 5 signals using command: 'killall -2 smith_waterman' after 1.65497762607s
[INFO -- 2018-09-23 23:30:48]
Execution did not finish before waitTime
