[INFO -- 2018-12-09 00:50:26]
Starting GDB script
[INFO -- 2018-12-09 00:50:26]
initSignal:0.0
[INFO -- 2018-12-09 00:50:26]
endSignal:6.0
[INFO -- 2018-12-09 00:50:26]
sending 5 signals using command: 'killall -2 smith_waterman' after 0.26076237732s
[INFO -- 2018-12-09 00:50:26]
sending 5 signals using command: 'killall -2 smith_waterman' after 0.361630332864s
[INFO -- 2018-12-09 00:50:30]
sending 5 signals using command: 'killall -2 smith_waterman' after 3.40871097107s
[INFO -- 2018-12-09 00:50:32]
Execution finished before waitTime
