[INFO -- 2018-12-05 19:08:29]
Starting GDB script
[INFO -- 2018-12-05 19:08:29]
initSignal:0.0
[INFO -- 2018-12-05 19:08:29]
endSignal:6.0
[INFO -- 2018-12-05 19:08:30]
sending 5 signals using command: 'killall -2 smith_waterman' after 0.891655856162s
[INFO -- 2018-12-05 19:08:32]
sending 5 signals using command: 'killall -2 smith_waterman' after 3.58411083728s
[INFO -- 2018-12-05 19:08:34]
sending 5 signals using command: 'killall -2 smith_waterman' after 5.75367724024s
[INFO -- 2018-12-05 19:08:35]
Execution finished before waitTime
