[INFO -- 2018-09-26 01:15:34]
Starting GDB script
[INFO -- 2018-09-26 01:15:34]
initSignal:0.0
[INFO -- 2018-09-26 01:15:34]
endSignal:2.0
[INFO -- 2018-09-26 01:15:35]
sending 5 signals using command: 'killall -2 smith_waterman' after 0.682140837466s
[INFO -- 2018-09-26 01:15:36]
sending 5 signals using command: 'killall -2 smith_waterman' after 1.32595487763s
[INFO -- 2018-09-26 01:15:36]
sending 5 signals using command: 'killall -2 smith_waterman' after 1.38702898584s
[INFO -- 2018-09-26 01:15:39]
Execution finished before waitTime
