[INFO -- 2018-12-04 08:09:39]
Starting flip_value script
version: 1.1
[INFO -- 2018-12-04 08:09:39]
Initialization strings:
[INFO -- 2018-12-04 08:09:39]
(1) file /tmp/smith_waterman/smith_waterman
[INFO -- 2018-12-04 08:09:39]
(2) set args -x /tmp/smith_waterman/randInputX -y /tmp/smith_waterman/randInputY -o /tmp/smith_waterman/output -z /tmp/smith_waterman/detected.log
[INFO -- 2018-12-04 08:09:39]
initSignal:0
[INFO -- 2018-12-04 08:09:39]
endSignal:6
[INFO -- 2018-12-04 08:09:39]
faultModel:2
[INFO -- 2018-12-04 08:09:42]
Backtrace BEGIN:
#0  0x0000555555554d9f in my_maxof (a=-1, b=-2, c=-2, d=0) at smith_waterman.c:70
#1  0x00005555555550d0 in smith_waterman (x_num=15000, y_num=14850, str_x=0x555555795df0 "KYVNBSEOYDMSTAHMLDXDHEYGJKZBPPJZNGMRYTFZYTRRWADHDDLNJLTVXTWNIHOXODOMWVNUPEOLETUKYHXISQFSLDHVLVTZYHNWFBRUHHHOABYZJVJDNOVBRCWCARDYZTVEUOADVHRXIRWTOFXEVUFNZBRZTXXUQUAKKCPHJJFTABNRJMVEGARFDLEYIEUYAWKLYZUJ"..., str_y=0x5555557998a0 "KVVNBEOYYMMTAAMMDDDHEYGJKZBPPPZNGGRRTFZZTTRWAADHDLLJLLVXTWNIHOXODDMWWNUPPELETUUYHXIIQQFLLHHVLVZZHNWFBRUHHHOAAYZJJJJDNOBRCCCCADYYTTEEUAAVHRXIIWTTFXEVUFNZZRRTTXXUQUAKCPPHJFFABNNJJVEEAAFFDEEIIUYAWKLYZZJI"...) at smith_waterman.c:102
#2  0x0000555555555cbf in execute (file_x_name=0x7fffffffe22c "/tmp/smith_waterman/randInputX", file_y_name=0x7fffffffe24e "/tmp/smith_waterman/randInputY") at smith_waterman.c:263
#3  0x0000555555555f1f in main (argc=9, argv=0x7fffffffde78) at smith_waterman.c:315

65	double my_maxof(double a, double b, double c, double d)
66	{
67	    double ans=a;
68	    if(ans<b) ans=b;
69	    if(ans<c) ans=c;
70	    if(ans<d) ans=d;
71	    return ans;
72	}
73	
74	double matchMisScore(long i, long j, char* str_y, char* str_x)

Backtrace END
Memory content before bitflip:0x000x000x000x000x000x000x000xc0
Fault Model: Random bit-flip
base address to flip value: 0x7fffffffdba8
address max offset: 8
Memory content after  bitflip:0xb70x7d0x4a0x560x960xa30x620xbc
frame name: my_maxof
symbol name: c
symbol filename: smith_waterman.c
symbol line: 65
value: -8.08338323000517e-18
value address: 0x7fffffffdba8
Type: A floating point type.
Type sizeof: 8

[INFO -- 2018-12-04 08:09:42]
Fault Injection Successful after 3.075197219848633s
[INFO -- 2018-12-04 08:09:44]
event type: exit
[INFO -- 2018-12-04 08:09:44]
exit code: 0
