[INFO -- 2018-12-09 12:26:05]
Starting GDB script
[INFO -- 2018-12-09 12:26:05]
initSignal:0.0
[INFO -- 2018-12-09 12:26:05]
endSignal:6.0
[INFO -- 2018-12-09 12:26:08]
sending 5 signals using command: 'killall -2 smith_waterman' after 2.95569435205s
[INFO -- 2018-12-09 12:26:09]
Execution finished before waitTime
