[INFO -- 2018-09-25 19:24:58]
Starting GDB script
[INFO -- 2018-09-25 19:24:58]
initSignal:0.0
[INFO -- 2018-09-25 19:24:58]
endSignal:2.0
[INFO -- 2018-09-25 19:24:59]
sending 5 signals using command: 'killall -2 smith_waterman' after 0.588194380363s
[INFO -- 2018-09-25 19:24:59]
sending 5 signals using command: 'killall -2 smith_waterman' after 0.606447076658s
[INFO -- 2018-09-25 19:24:59]
sending 5 signals using command: 'killall -2 smith_waterman' after 0.664153057681s
[INFO -- 2018-09-25 19:25:05]
Execution finished before waitTime
