[INFO -- 2018-12-08 02:54:41]
Starting GDB script
[INFO -- 2018-12-08 02:54:41]
initSignal:0.0
[INFO -- 2018-12-08 02:54:41]
endSignal:6.0
[INFO -- 2018-12-08 02:54:42]
sending 5 signals using command: 'killall -2 smith_waterman' after 1.61778153s
[INFO -- 2018-12-08 02:54:43]
Execution finished before waitTime
