[INFO -- 2018-09-25 18:14:57]
Starting GDB script
[INFO -- 2018-09-25 18:14:57]
initSignal:0.0
[INFO -- 2018-09-25 18:14:57]
endSignal:2.0
[INFO -- 2018-09-25 18:14:58]
sending 5 signals using command: 'killall -2 smith_waterman' after 1.02401913069s
[INFO -- 2018-09-25 18:14:59]
sending 5 signals using command: 'killall -2 smith_waterman' after 1.40994511174s
[INFO -- 2018-09-25 18:14:59]
sending 5 signals using command: 'killall -2 smith_waterman' after 1.84211564832s
[INFO -- 2018-09-25 18:15:17]
Execution did not finish before waitTime
