[INFO -- 2018-11-07 18:18:15]
Starting flip_value script
version: 1.1
[INFO -- 2018-11-07 18:18:15]
Initialization strings:
[INFO -- 2018-11-07 18:18:15]
(1) file /tmp/smith_waterman/smith_waterman
[INFO -- 2018-11-07 18:18:15]
(2) set args -x /tmp/smith_waterman/randInputX -y /tmp/smith_waterman/randInputY -o /tmp/smith_waterman/output
[INFO -- 2018-11-07 18:18:15]
initSignal:0
[INFO -- 2018-11-07 18:18:15]
endSignal:6
[INFO -- 2018-11-07 18:18:15]
faultModel:2
[INFO -- 2018-11-07 18:18:17]
event type: exit
[INFO -- 2018-11-07 18:18:17]
exit code: 0
