[INFO -- 2018-12-03 22:47:56]
sending 5 signals using command: 'killall -2 smith_waterman' after 5.4352058345s
[INFO -- 2018-12-03 22:47:56]
Starting GDB script
[INFO -- 2018-12-03 22:47:56]
initSignal:0.0
[INFO -- 2018-12-03 22:47:56]
endSignal:6.0
[INFO -- 2018-12-03 22:47:56]
sending 5 signals using command: 'killall -2 smith_waterman' after 0.0567559199076s
[INFO -- 2018-12-03 22:47:57]
sending 5 signals using command: 'killall -2 smith_waterman' after 1.47996715368s
[INFO -- 2018-12-03 22:47:57]
sending 5 signals using command: 'killall -2 smith_waterman' after 1.66367403052s
[INFO -- 2018-12-03 22:48:01]
Execution finished before waitTime
