[INFO -- 2018-11-07 20:44:07]
sending 5 signals using command: 'killall -2 smith_waterman' after 5.0788008301s
[INFO -- 2018-11-07 20:44:07]
Starting GDB script
[INFO -- 2018-11-07 20:44:07]
initSignal:0.0
[INFO -- 2018-11-07 20:44:07]
endSignal:2.0
[INFO -- 2018-11-07 20:44:08]
sending 5 signals using command: 'killall -2 smith_waterman' after 0.874403563718s
[INFO -- 2018-11-07 20:44:08]
sending 5 signals using command: 'killall -2 smith_waterman' after 1.00261994432s
[INFO -- 2018-11-07 20:44:09]
sending 5 signals using command: 'killall -2 smith_waterman' after 1.60035505035s
[INFO -- 2018-11-07 20:44:11]
Execution finished before waitTime
