[INFO -- 2018-12-08 03:05:09]
Starting GDB script
[INFO -- 2018-12-08 03:05:09]
initSignal:0.0
[INFO -- 2018-12-08 03:05:09]
endSignal:6.0
[INFO -- 2018-12-08 03:05:10]
sending 5 signals using command: 'killall -2 smith_waterman' after 0.249878569465s
[INFO -- 2018-12-08 03:05:12]
sending 5 signals using command: 'killall -2 smith_waterman' after 2.78164633121s
[INFO -- 2018-12-08 03:05:15]
sending 5 signals using command: 'killall -2 smith_waterman' after 5.45173741078s
[INFO -- 2018-12-08 03:05:16]
Execution finished before waitTime
