[INFO -- 2018-12-04 03:43:21]
Starting GDB script
[INFO -- 2018-12-04 03:43:21]
initSignal:0.0
[INFO -- 2018-12-04 03:43:21]
endSignal:6.0
[INFO -- 2018-12-04 03:43:23]
sending 5 signals using command: 'killall -2 smith_waterman' after 2.65831770273s
[INFO -- 2018-12-04 03:43:26]
sending 5 signals using command: 'killall -2 smith_waterman' after 5.21167449544s
[INFO -- 2018-12-04 03:43:26]
sending 5 signals using command: 'killall -2 smith_waterman' after 5.83657574802s
[INFO -- 2018-12-04 03:43:27]
Execution finished before waitTime
