[INFO -- 2018-11-08 20:10:02]
sending 5 signals using command: 'killall -2 smith_waterman' after 5.61272109573s
[INFO -- 2018-11-08 20:10:02]
Starting GDB script
[INFO -- 2018-11-08 20:10:02]
initSignal:0.0
[INFO -- 2018-11-08 20:10:02]
endSignal:6.0
[INFO -- 2018-11-08 20:10:05]
sending 5 signals using command: 'killall -2 smith_waterman' after 2.6650214282s
[INFO -- 2018-11-08 20:10:05]
Execution finished before waitTime
