[INFO -- 2018-12-05 08:21:44]
Starting GDB script
[INFO -- 2018-12-05 08:21:44]
initSignal:0.0
[INFO -- 2018-12-05 08:21:44]
endSignal:6.0
[INFO -- 2018-12-05 08:21:45]
sending 5 signals using command: 'killall -2 smith_waterman' after 1.55295638623s
[INFO -- 2018-12-05 08:21:47]
sending 5 signals using command: 'killall -2 smith_waterman' after 3.25451160453s
[INFO -- 2018-12-05 08:21:48]
sending 5 signals using command: 'killall -2 smith_waterman' after 4.36848293202s
[INFO -- 2018-12-05 08:21:50]
Execution finished before waitTime
