[INFO -- 2018-09-23 13:11:29]
Starting GDB script
[INFO -- 2018-09-23 13:11:29]
initSignal:0.0
[INFO -- 2018-09-23 13:11:29]
endSignal:2.0
[INFO -- 2018-09-23 13:11:30]
sending 5 signals using command: 'killall -2 smith_waterman' after 0.477018438015s
[INFO -- 2018-09-23 13:11:30]
sending 5 signals using command: 'killall -2 smith_waterman' after 0.819746129885s
[INFO -- 2018-09-23 13:11:31]
sending 5 signals using command: 'killall -2 smith_waterman' after 1.33169587638s
[INFO -- 2018-09-23 13:11:35]
Execution finished before waitTime
