[INFO -- 2018-12-04 14:34:50]
Starting GDB script
[INFO -- 2018-12-04 14:34:50]
initSignal:0.0
[INFO -- 2018-12-04 14:34:50]
endSignal:6.0
[INFO -- 2018-12-04 14:34:50]
sending 5 signals using command: 'killall -2 smith_waterman' after 0.459742477131s
[INFO -- 2018-12-04 14:34:51]
sending 5 signals using command: 'killall -2 smith_waterman' after 1.01316688151s
[INFO -- 2018-12-04 14:34:54]
sending 5 signals using command: 'killall -2 smith_waterman' after 3.9661744432s
[INFO -- 2018-12-04 14:34:56]
Execution finished before waitTime
