[INFO -- 2018-12-03 22:17:07]
Starting GDB script
[INFO -- 2018-12-03 22:17:07]
initSignal:0.0
[INFO -- 2018-12-03 22:17:07]
endSignal:6.0
[INFO -- 2018-12-03 22:17:09]
sending 5 signals using command: 'killall -2 smith_waterman' after 2.11603192763s
[INFO -- 2018-12-03 22:17:10]
Execution finished before waitTime
