[INFO -- 2018-09-26 02:03:13]
Starting GDB script
[INFO -- 2018-09-26 02:03:13]
initSignal:0.0
[INFO -- 2018-09-26 02:03:13]
endSignal:2.0
[INFO -- 2018-09-26 02:03:13]
sending 5 signals using command: 'killall -2 smith_waterman' after 0.20256956621s
[INFO -- 2018-09-26 02:03:13]
sending 5 signals using command: 'killall -2 smith_waterman' after 0.239186517784s
[INFO -- 2018-09-26 02:03:13]
sending 5 signals using command: 'killall -2 smith_waterman' after 0.395336539141s
[INFO -- 2018-09-26 02:03:14]
Execution finished before waitTime
