[INFO -- 2018-11-08 21:57:27]
sending 5 signals using command: 'killall -2 smith_waterman' after 3.96778435308s
[INFO -- 2018-11-08 21:57:27]
Starting GDB script
[INFO -- 2018-11-08 21:57:27]
initSignal:0.0
[INFO -- 2018-11-08 21:57:27]
endSignal:6.0
[INFO -- 2018-11-08 21:57:29]
sending 5 signals using command: 'killall -2 smith_waterman' after 1.79025824575s
[INFO -- 2018-11-08 21:57:29]
sending 5 signals using command: 'killall -2 smith_waterman' after 2.38077884686s
[INFO -- 2018-11-08 21:57:30]
Execution finished before waitTime
