[INFO -- 2018-09-23 11:49:18]
Starting GDB script
[INFO -- 2018-09-23 11:49:18]
initSignal:0.0
[INFO -- 2018-09-23 11:49:18]
endSignal:2.0
[INFO -- 2018-09-23 11:49:19]
sending 5 signals using command: 'killall -2 smith_waterman' after 0.216784978401s
[INFO -- 2018-09-23 11:49:19]
sending 5 signals using command: 'killall -2 smith_waterman' after 0.650096078663s
[INFO -- 2018-09-23 11:49:19]
sending 5 signals using command: 'killall -2 smith_waterman' after 0.81432817561s
[INFO -- 2018-09-23 11:49:24]
Execution finished before waitTime
