[INFO -- 2018-11-07 19:17:15]
Starting GDB script
[INFO -- 2018-11-07 19:17:15]
initSignal:0.0
[INFO -- 2018-11-07 19:17:15]
endSignal:2.0
[INFO -- 2018-11-07 19:17:15]
sending 5 signals using command: 'killall -2 smith_waterman' after 0.297181084556s
[INFO -- 2018-11-07 19:17:16]
sending 5 signals using command: 'killall -2 smith_waterman' after 1.39429963281s
[INFO -- 2018-11-07 19:17:16]
sending 5 signals using command: 'killall -2 smith_waterman' after 1.66052839118s
[INFO -- 2018-11-07 19:17:35]
Execution did not finish before waitTime
