[INFO -- 2018-12-05 21:34:17]
Starting GDB script
[INFO -- 2018-12-05 21:34:17]
initSignal:0.0
[INFO -- 2018-12-05 21:34:17]
endSignal:6.0
[INFO -- 2018-12-05 21:34:20]
sending 5 signals using command: 'killall -2 smith_waterman' after 2.69623029835s
[INFO -- 2018-12-05 21:34:20]
sending 5 signals using command: 'killall -2 smith_waterman' after 3.10179157808s
[INFO -- 2018-12-05 21:34:22]
sending 5 signals using command: 'killall -2 smith_waterman' after 5.42498938997s
[INFO -- 2018-12-05 21:34:37]
Execution did not finish before waitTime
