[INFO -- 2018-09-27 21:26:12]
Starting GDB script
[INFO -- 2018-09-27 21:26:12]
initSignal:0.0
[INFO -- 2018-09-27 21:26:12]
endSignal:2.0
[INFO -- 2018-09-27 21:26:12]
sending 5 signals using command: 'killall -2 smith_waterman' after 0.00934883882159s
[INFO -- 2018-09-27 21:26:13]
sending 5 signals using command: 'killall -2 smith_waterman' after 0.630384047046s
[INFO -- 2018-09-27 21:26:14]
sending 5 signals using command: 'killall -2 smith_waterman' after 1.912914855s
[INFO -- 2018-09-27 21:26:32]
Execution did not finish before waitTime
