[INFO -- 2018-09-27 00:02:28]
Starting GDB script
[INFO -- 2018-09-27 00:02:28]
initSignal:0.0
[INFO -- 2018-09-27 00:02:28]
endSignal:2.0
[INFO -- 2018-09-27 00:02:29]
sending 5 signals using command: 'killall -2 smith_waterman' after 1.1584412194s
[INFO -- 2018-09-27 00:02:29]
sending 5 signals using command: 'killall -2 smith_waterman' after 1.33920474773s
[INFO -- 2018-09-27 00:02:30]
sending 5 signals using command: 'killall -2 smith_waterman' after 1.57352491387s
[INFO -- 2018-09-27 00:02:34]
Execution finished before waitTime
