[INFO -- 2018-12-08 11:34:20]
sending 5 signals using command: 'killall -2 smith_waterman' after 1.05268950059s
[INFO -- 2018-12-08 11:34:21]
sending 5 signals using command: 'killall -2 smith_waterman' after 2.26297083489s
[INFO -- 2018-12-08 11:34:21]
Starting GDB script
[INFO -- 2018-12-08 11:34:21]
initSignal:0.0
[INFO -- 2018-12-08 11:34:21]
endSignal:6.0
[INFO -- 2018-12-08 11:34:23]
sending 5 signals using command: 'killall -2 smith_waterman' after 1.36347204863s
[INFO -- 2018-12-08 11:34:23]
Execution finished before waitTime
