[INFO -- 2018-11-08 22:22:12]
Starting flip_value script
version: 1.1
[INFO -- 2018-11-08 22:22:12]
Initialization strings:
[INFO -- 2018-11-08 22:22:12]
(1) file /tmp/smith_waterman/smith_waterman
[INFO -- 2018-11-08 22:22:12]
(2) set args -x /tmp/smith_waterman/randInputX -y /tmp/smith_waterman/randInputY -o /tmp/smith_waterman/output
[INFO -- 2018-11-08 22:22:12]
initSignal:0
[INFO -- 2018-11-08 22:22:12]
endSignal:6
[INFO -- 2018-11-08 22:22:12]
faultModel:0
[INFO -- 2018-11-08 22:22:15]
event type: exit
[INFO -- 2018-11-08 22:22:15]
exit code: 0
