[INFO -- 2018-11-08 22:17:09]
sending 5 signals using command: 'killall -2 smith_waterman' after 4.86090961283s
[INFO -- 2018-11-08 22:17:10]
sending 5 signals using command: 'killall -2 smith_waterman' after 5.86252918256s
[INFO -- 2018-11-08 22:17:10]
Starting GDB script
[INFO -- 2018-11-08 22:17:10]
initSignal:0.0
[INFO -- 2018-11-08 22:17:10]
endSignal:6.0
[INFO -- 2018-11-08 22:17:11]
sending 5 signals using command: 'killall -2 smith_waterman' after 0.828332632434s
[INFO -- 2018-11-08 22:17:12]
Execution finished before waitTime
