[INFO -- 2018-12-04 07:32:27]
Starting GDB script
[INFO -- 2018-12-04 07:32:27]
initSignal:0.0
[INFO -- 2018-12-04 07:32:27]
endSignal:6.0
[INFO -- 2018-12-04 07:32:29]
sending 5 signals using command: 'killall -2 smith_waterman' after 2.20622416028s
[INFO -- 2018-12-04 07:32:32]
sending 5 signals using command: 'killall -2 smith_waterman' after 4.63021761433s
[INFO -- 2018-12-04 07:32:32]
sending 5 signals using command: 'killall -2 smith_waterman' after 4.97141185982s
[INFO -- 2018-12-04 07:32:33]
Execution finished before waitTime
