[INFO -- 2018-12-09 05:07:27]
Starting GDB script
[INFO -- 2018-12-09 05:07:27]
initSignal:0.0
[INFO -- 2018-12-09 05:07:27]
endSignal:6.0
[INFO -- 2018-12-09 05:07:30]
sending 5 signals using command: 'killall -2 smith_waterman' after 3.03142953238s
[INFO -- 2018-12-09 05:07:30]
sending 5 signals using command: 'killall -2 smith_waterman' after 3.45374247593s
[INFO -- 2018-12-09 05:07:31]
sending 5 signals using command: 'killall -2 smith_waterman' after 4.37721198786s
[INFO -- 2018-12-09 05:07:34]
Execution finished before waitTime
