[INFO -- 2018-12-04 13:36:00]
Starting GDB script
[INFO -- 2018-12-04 13:36:00]
initSignal:0.0
[INFO -- 2018-12-04 13:36:00]
endSignal:6.0
[INFO -- 2018-12-04 13:36:00]
sending 5 signals using command: 'killall -2 smith_waterman' after 0.083273028966s
[INFO -- 2018-12-04 13:36:02]
sending 5 signals using command: 'killall -2 smith_waterman' after 2.17146983677s
[INFO -- 2018-12-04 13:36:06]
sending 5 signals using command: 'killall -2 smith_waterman' after 5.74243002497s
[INFO -- 2018-12-04 13:36:06]
Execution finished before waitTime
