[INFO -- 2018-12-05 08:21:31]
Starting GDB script
[INFO -- 2018-12-05 08:21:31]
initSignal:0.0
[INFO -- 2018-12-05 08:21:31]
endSignal:6.0
[INFO -- 2018-12-05 08:21:34]
sending 5 signals using command: 'killall -2 smith_waterman' after 2.56441507828s
[INFO -- 2018-12-05 08:21:35]
sending 5 signals using command: 'killall -2 smith_waterman' after 4.15179543806s
[INFO -- 2018-12-05 08:21:37]
sending 5 signals using command: 'killall -2 smith_waterman' after 5.91484362136s
[INFO -- 2018-12-05 08:21:37]
Execution finished before waitTime
