[INFO -- 2018-12-04 06:56:44]
Starting GDB script
[INFO -- 2018-12-04 06:56:44]
initSignal:0.0
[INFO -- 2018-12-04 06:56:44]
endSignal:6.0
[INFO -- 2018-12-04 06:56:45]
sending 5 signals using command: 'killall -2 smith_waterman' after 0.262120284171s
[INFO -- 2018-12-04 06:56:46]
sending 5 signals using command: 'killall -2 smith_waterman' after 2.04981354315s
[INFO -- 2018-12-04 06:56:50]
sending 5 signals using command: 'killall -2 smith_waterman' after 5.40657987206s
[INFO -- 2018-12-04 06:56:50]
Execution finished before waitTime
