[INFO -- 2018-12-07 23:45:29]
sending 5 signals using command: 'killall -2 smith_waterman' after 2.84529188615s
[INFO -- 2018-12-07 23:45:32]
sending 5 signals using command: 'killall -2 smith_waterman' after 5.64002592406s
[INFO -- 2018-12-07 23:45:32]
Starting GDB script
[INFO -- 2018-12-07 23:45:32]
initSignal:0.0
[INFO -- 2018-12-07 23:45:32]
endSignal:6.0
[INFO -- 2018-12-07 23:45:33]
sending 5 signals using command: 'killall -2 smith_waterman' after 1.11096373014s
[INFO -- 2018-12-07 23:45:34]
Execution finished before waitTime
