[INFO -- 2018-12-05 04:57:18]
Starting GDB script
[INFO -- 2018-12-05 04:57:18]
initSignal:0.0
[INFO -- 2018-12-05 04:57:18]
endSignal:6.0
[INFO -- 2018-12-05 04:57:20]
sending 5 signals using command: 'killall -2 smith_waterman' after 1.82226082976s
[INFO -- 2018-12-05 04:57:20]
sending 5 signals using command: 'killall -2 smith_waterman' after 2.06046263802s
[INFO -- 2018-12-05 04:57:23]
sending 5 signals using command: 'killall -2 smith_waterman' after 5.0016182721s
[INFO -- 2018-12-05 04:57:25]
Execution finished before waitTime
