[INFO -- 2018-12-03 18:59:37]
Starting GDB script
[INFO -- 2018-12-03 18:59:37]
initSignal:0.0
[INFO -- 2018-12-03 18:59:37]
endSignal:6.0
[INFO -- 2018-12-03 18:59:38]
sending 5 signals using command: 'killall -2 smith_waterman' after 1.2194799727s
[INFO -- 2018-12-03 18:59:38]
sending 5 signals using command: 'killall -2 smith_waterman' after 1.41541198139s
[INFO -- 2018-12-03 18:59:42]
sending 5 signals using command: 'killall -2 smith_waterman' after 4.97337743484s
[INFO -- 2018-12-03 18:59:42]
Execution finished before waitTime
