[INFO -- 2018-12-03 18:35:31]
Starting GDB script
[INFO -- 2018-12-03 18:35:31]
initSignal:0.0
[INFO -- 2018-12-03 18:35:31]
endSignal:6.0
[INFO -- 2018-12-03 18:35:32]
sending 5 signals using command: 'killall -2 smith_waterman' after 1.1442443663s
[INFO -- 2018-12-03 18:35:33]
sending 5 signals using command: 'killall -2 smith_waterman' after 1.7509310048s
[INFO -- 2018-12-03 18:35:35]
sending 5 signals using command: 'killall -2 smith_waterman' after 3.50026147755s
[INFO -- 2018-12-03 18:35:38]
Execution finished before waitTime
