[INFO -- 2018-09-26 10:58:51]
Starting GDB script
[INFO -- 2018-09-26 10:58:51]
initSignal:0.0
[INFO -- 2018-09-26 10:58:51]
endSignal:2.0
[INFO -- 2018-09-26 10:58:52]
sending 5 signals using command: 'killall -2 smith_waterman' after 0.77659105818s
[INFO -- 2018-09-26 10:58:52]
sending 5 signals using command: 'killall -2 smith_waterman' after 0.892705821796s
[INFO -- 2018-09-26 10:58:53]
sending 5 signals using command: 'killall -2 smith_waterman' after 1.70398478665s
[INFO -- 2018-09-26 10:58:58]
Execution finished before waitTime
