[INFO -- 2018-09-26 11:07:51]
Starting GDB script
[INFO -- 2018-09-26 11:07:51]
initSignal:0.0
[INFO -- 2018-09-26 11:07:51]
endSignal:2.0
[INFO -- 2018-09-26 11:07:51]
sending 5 signals using command: 'killall -2 smith_waterman' after 0.105818547757s
[INFO -- 2018-09-26 11:07:52]
sending 5 signals using command: 'killall -2 smith_waterman' after 0.976983838688s
[INFO -- 2018-09-26 11:07:52]
sending 5 signals using command: 'killall -2 smith_waterman' after 0.980797101809s
[INFO -- 2018-09-26 11:07:58]
Execution finished before waitTime
