[INFO -- 2018-09-24 16:21:10]
Starting GDB script
[INFO -- 2018-09-24 16:21:10]
initSignal:0.0
[INFO -- 2018-09-24 16:21:10]
endSignal:2.0
[INFO -- 2018-09-24 16:21:10]
sending 5 signals using command: 'killall -2 smith_waterman' after 0.138665470853s
[INFO -- 2018-09-24 16:21:11]
sending 5 signals using command: 'killall -2 smith_waterman' after 1.22807481773s
[INFO -- 2018-09-24 16:21:12]
sending 5 signals using command: 'killall -2 smith_waterman' after 1.46731708998s
[INFO -- 2018-09-24 16:21:16]
Execution finished before waitTime
