[INFO -- 2018-09-25 03:41:44]
Starting GDB script
[INFO -- 2018-09-25 03:41:44]
initSignal:0.0
[INFO -- 2018-09-25 03:41:44]
endSignal:2.0
[INFO -- 2018-09-25 03:41:44]
sending 5 signals using command: 'killall -2 smith_waterman' after 0.19780486793s
[INFO -- 2018-09-25 03:41:44]
sending 5 signals using command: 'killall -2 smith_waterman' after 0.498511146181s
[INFO -- 2018-09-25 03:41:45]
sending 5 signals using command: 'killall -2 smith_waterman' after 0.944153599989s
[INFO -- 2018-09-25 03:41:50]
Execution finished before waitTime
