[INFO -- 2018-09-28 01:44:27]
Starting GDB script
[INFO -- 2018-09-28 01:44:27]
initSignal:0.0
[INFO -- 2018-09-28 01:44:27]
endSignal:2.0
[INFO -- 2018-09-28 01:44:27]
sending 5 signals using command: 'killall -2 smith_waterman' after 0.155904239151s
[INFO -- 2018-09-28 01:44:27]
sending 5 signals using command: 'killall -2 smith_waterman' after 0.296826311224s
[INFO -- 2018-09-28 01:44:28]
sending 5 signals using command: 'killall -2 smith_waterman' after 1.42358402874s
[INFO -- 2018-09-28 01:44:34]
Execution finished before waitTime
