[INFO -- 2018-09-25 15:43:27]
Starting GDB script
[INFO -- 2018-09-25 15:43:27]
initSignal:0.0
[INFO -- 2018-09-25 15:43:27]
endSignal:2.0
[INFO -- 2018-09-25 15:43:27]
sending 5 signals using command: 'killall -2 smith_waterman' after 0.0761244857989s
[INFO -- 2018-09-25 15:43:28]
Execution finished before waitTime
