[INFO -- 2018-12-09 01:22:35]
Starting GDB script
[INFO -- 2018-12-09 01:22:35]
initSignal:0.0
[INFO -- 2018-12-09 01:22:35]
endSignal:6.0
[INFO -- 2018-12-09 01:22:37]
sending 5 signals using command: 'killall -2 smith_waterman' after 1.25904356245s
[INFO -- 2018-12-09 01:22:37]
sending 5 signals using command: 'killall -2 smith_waterman' after 2.04979323494s
[INFO -- 2018-12-09 01:22:39]
sending 5 signals using command: 'killall -2 smith_waterman' after 3.5706762582s
[INFO -- 2018-12-09 01:22:41]
Execution finished before waitTime
