[INFO -- 2018-09-26 08:21:14]
Starting GDB script
[INFO -- 2018-09-26 08:21:14]
initSignal:0.0
[INFO -- 2018-09-26 08:21:14]
endSignal:2.0
[INFO -- 2018-09-26 08:21:15]
sending 5 signals using command: 'killall -2 smith_waterman' after 0.840684323084s
[INFO -- 2018-09-26 08:21:15]
sending 5 signals using command: 'killall -2 smith_waterman' after 1.12160457961s
[INFO -- 2018-09-26 08:21:16]
sending 5 signals using command: 'killall -2 smith_waterman' after 1.87351676109s
[INFO -- 2018-09-26 08:21:16]
Execution finished before waitTime
