[INFO -- 2018-12-04 09:25:44]
Starting GDB script
[INFO -- 2018-12-04 09:25:44]
initSignal:0.0
[INFO -- 2018-12-04 09:25:44]
endSignal:6.0
[INFO -- 2018-12-04 09:25:45]
sending 5 signals using command: 'killall -2 smith_waterman' after 1.24262323702s
[INFO -- 2018-12-04 09:25:47]
sending 5 signals using command: 'killall -2 smith_waterman' after 2.56765526255s
[INFO -- 2018-12-04 09:25:49]
sending 5 signals using command: 'killall -2 smith_waterman' after 5.03049028606s
[INFO -- 2018-12-04 09:25:50]
Execution finished before waitTime
