[INFO -- 2018-12-08 13:41:10]
sending 5 signals using command: 'killall -2 smith_waterman' after 3.38150180153s
[INFO -- 2018-12-08 13:41:11]
sending 5 signals using command: 'killall -2 smith_waterman' after 4.39951836798s
[INFO -- 2018-12-08 13:41:11]
Starting GDB script
[INFO -- 2018-12-08 13:41:11]
initSignal:0.0
[INFO -- 2018-12-08 13:41:11]
endSignal:6.0
[INFO -- 2018-12-08 13:41:12]
sending 5 signals using command: 'killall -2 smith_waterman' after 0.331787867849s
[INFO -- 2018-12-08 13:41:13]
sending 5 signals using command: 'killall -2 smith_waterman' after 1.23717397506s
[INFO -- 2018-12-08 13:41:16]
sending 5 signals using command: 'killall -2 smith_waterman' after 5.04868353167s
[INFO -- 2018-12-08 13:41:20]
Execution finished before waitTime
