[INFO -- 2018-09-23 13:01:12]
Starting GDB script
[INFO -- 2018-09-23 13:01:12]
initSignal:0.0
[INFO -- 2018-09-23 13:01:12]
endSignal:2.0
[INFO -- 2018-09-23 13:01:12]
sending 5 signals using command: 'killall -2 smith_waterman' after 0.39395220499s
[INFO -- 2018-09-23 13:01:14]
sending 5 signals using command: 'killall -2 smith_waterman' after 1.62989301694s
[INFO -- 2018-09-23 13:01:14]
sending 5 signals using command: 'killall -2 smith_waterman' after 1.68911157565s
[INFO -- 2018-09-23 13:01:18]
Execution finished before waitTime
