[INFO -- 2018-09-27 02:55:17]
Starting GDB script
[INFO -- 2018-09-27 02:55:17]
initSignal:0.0
[INFO -- 2018-09-27 02:55:17]
endSignal:2.0
[INFO -- 2018-09-27 02:55:18]
sending 5 signals using command: 'killall -2 smith_waterman' after 0.685357405365s
[INFO -- 2018-09-27 02:55:18]
sending 5 signals using command: 'killall -2 smith_waterman' after 0.70032433863s
[INFO -- 2018-09-27 02:55:19]
sending 5 signals using command: 'killall -2 smith_waterman' after 1.5074703957s
[INFO -- 2018-09-27 02:55:19]
Execution finished before waitTime
