[INFO -- 2018-09-25 20:54:46]
Starting GDB script
[INFO -- 2018-09-25 20:54:46]
initSignal:0.0
[INFO -- 2018-09-25 20:54:46]
endSignal:2.0
[INFO -- 2018-09-25 20:54:47]
sending 5 signals using command: 'killall -2 smith_waterman' after 0.307195461703s
[INFO -- 2018-09-25 20:54:47]
sending 5 signals using command: 'killall -2 smith_waterman' after 0.319309676474s
[INFO -- 2018-09-25 20:54:48]
sending 5 signals using command: 'killall -2 smith_waterman' after 1.44813442262s
[INFO -- 2018-09-25 20:54:53]
Execution finished before waitTime
