[INFO -- 2018-12-09 12:31:32]
Starting GDB script
[INFO -- 2018-12-09 12:31:32]
initSignal:0.0
[INFO -- 2018-12-09 12:31:32]
endSignal:6.0
[INFO -- 2018-12-09 12:31:33]
sending 5 signals using command: 'killall -2 smith_waterman' after 1.1818380255s
[INFO -- 2018-12-09 12:31:34]
Execution finished before waitTime
