[INFO -- 2018-12-08 15:59:27]
Starting GDB script
[INFO -- 2018-12-08 15:59:27]
initSignal:0.0
[INFO -- 2018-12-08 15:59:27]
endSignal:6.0
[INFO -- 2018-12-08 15:59:28]
sending 5 signals using command: 'killall -2 smith_waterman' after 1.18261060476s
[INFO -- 2018-12-08 15:59:28]
sending 5 signals using command: 'killall -2 smith_waterman' after 1.65284933023s
[INFO -- 2018-12-08 15:59:31]
sending 5 signals using command: 'killall -2 smith_waterman' after 4.53037495009s
[INFO -- 2018-12-08 15:59:34]
Execution finished before waitTime
