[INFO -- 2018-09-28 05:17:25]
Starting GDB script
[INFO -- 2018-09-28 05:17:25]
initSignal:0.0
[INFO -- 2018-09-28 05:17:25]
endSignal:2.0
[INFO -- 2018-09-28 05:17:27]
sending 5 signals using command: 'killall -2 smith_waterman' after 1.75669420544s
[INFO -- 2018-09-28 05:17:27]
sending 5 signals using command: 'killall -2 smith_waterman' after 1.79861171123s
[INFO -- 2018-09-28 05:17:27]
sending 5 signals using command: 'killall -2 smith_waterman' after 1.96768947283s
[INFO -- 2018-09-28 05:17:32]
Execution finished before waitTime
