[INFO -- 2018-09-26 10:36:34]
Starting GDB script
[INFO -- 2018-09-26 10:36:34]
initSignal:0.0
[INFO -- 2018-09-26 10:36:34]
endSignal:2.0
[INFO -- 2018-09-26 10:36:34]
sending 5 signals using command: 'killall -2 smith_waterman' after 0.160421038332s
[INFO -- 2018-09-26 10:36:34]
sending 5 signals using command: 'killall -2 smith_waterman' after 0.214282409691s
[INFO -- 2018-09-26 10:36:35]
sending 5 signals using command: 'killall -2 smith_waterman' after 0.710362683983s
[INFO -- 2018-09-26 10:36:41]
Execution finished before waitTime
