[INFO -- 2018-09-24 11:33:04]
Starting flip_value script
version: 1.1
[INFO -- 2018-09-24 11:33:04]
Initialization strings:
[INFO -- 2018-09-24 11:33:04]
(1) file /tmp/smith_waterman/smith_waterman
[INFO -- 2018-09-24 11:33:04]
(2) set args -x /tmp/smith_waterman/randInputX -y /tmp/smith_waterman/randInputY -o /tmp/smith_waterman/output
[INFO -- 2018-09-24 11:33:04]
initSignal:0
[INFO -- 2018-09-24 11:33:04]
endSignal:2
[INFO -- 2018-09-24 11:33:04]
faultModel:1
[INFO -- 2018-09-24 11:33:05]
Backtrace BEGIN:
#0  0x0000555555554d62 in my_maxof (a=-1, b=-2, c=-2, d=0) at smith_waterman.c:64
#1  0x00005555555550d7 in smith_waterman (x_num=12150, y_num=15000, str_x=0x5555557586c0 "GWFFISSZZEHHNAUHHEKGUUGKQQZZNOVMQBUAAJJFNNJCCZZRLTXHZDDPPURKEBBYCSSYDWWFSMMSLDJYYZJGYAAITTVXXWTTZNZQOOGJSSOFFADIJJIZLLZHUEEEQAAKQQQCYLLQQTTXCTBMEODCVVPPUUPFTZFFHHMQVVQGJESSCEIVAAZXDDMMYTSNSXXMMJJCCKQJ"..., str_y=0x55555575b640 "GWDFIKSMZJEHYNAUHEKKGUFGKQOZNOKVMQBUAVJAFNJFCLZJRLTXHZDSPUREKEBYUCSWYDWFSHMUSLDJYZJGYOAPITVUXWSTZNQZQOGJWSFOFJADIJLIZLZKHUEEQXARKQQCEYLCQTTXCTBMEOWDCVPJPUPFTPZFHRHMQVQGOJESCHEIVAOZXDIMZYTSNSXVMFJCCZKQ"..., fo=0x555555758260) at smith_waterman.c:98
#2  0x0000555555555e38 in main (argc=7, argv=0x7fffffffdcb8) at smith_waterman.c:298

59	    }
60	}
61	
62	double my_maxof(double a, double b, double c, double d)
63	{
64	    double ans=a;
65	    if(ans<b) ans=b;
66	    if(ans<c) ans=c;
67	    if(ans<d) ans=d;
68	    return ans;

Backtrace END
Memory content before bitflip:0x980x3a0x000x000x000x000x000x00
Fault Model: Double bit-flip
base address to flip value: 0x7fffffffdb80
address max offset: 8
Memory content after  bitflip:0x980x3a0x000x000x000x000x000x0a
frame name: main
symbol name: y_num
symbol filename: smith_waterman.c
symbol line: 281
value: 720575940379294360
value address: 0x7fffffffdb80
Type: The type is an integer type.
Type sizeof: 8

[INFO -- 2018-09-24 11:33:05]
Fault Injection Successful after 1.2909080982208252s
[INFO -- 2018-09-24 11:33:09]
event type: exit
[INFO -- 2018-09-24 11:33:09]
exit code: 0
