[INFO -- 2018-12-05 14:15:18]
Starting GDB script
[INFO -- 2018-12-05 14:15:18]
initSignal:0.0
[INFO -- 2018-12-05 14:15:18]
endSignal:6.0
[INFO -- 2018-12-05 14:15:19]
sending 5 signals using command: 'killall -2 smith_waterman' after 0.183824210454s
[INFO -- 2018-12-05 14:15:21]
sending 5 signals using command: 'killall -2 smith_waterman' after 2.17832556834s
[INFO -- 2018-12-05 14:15:23]
Execution finished before waitTime
