[INFO -- 2018-12-03 18:24:03]
Starting GDB script
[INFO -- 2018-12-03 18:24:03]
initSignal:0.0
[INFO -- 2018-12-03 18:24:03]
endSignal:6.0
[INFO -- 2018-12-03 18:24:05]
sending 5 signals using command: 'killall -2 smith_waterman' after 2.18325284583s
[INFO -- 2018-12-03 18:24:08]
sending 5 signals using command: 'killall -2 smith_waterman' after 4.422647171s
[INFO -- 2018-12-03 18:24:08]
sending 5 signals using command: 'killall -2 smith_waterman' after 5.04172703085s
[INFO -- 2018-12-03 18:24:10]
Execution finished before waitTime
