[INFO -- 2018-09-27 12:44:32]
Starting GDB script
[INFO -- 2018-09-27 12:44:32]
initSignal:0.0
[INFO -- 2018-09-27 12:44:32]
endSignal:2.0
[INFO -- 2018-09-27 12:44:32]
sending 5 signals using command: 'killall -2 smith_waterman' after 0.0507485899676s
[INFO -- 2018-09-27 12:44:33]
sending 5 signals using command: 'killall -2 smith_waterman' after 1.05558193716s
[INFO -- 2018-09-27 12:44:34]
sending 5 signals using command: 'killall -2 smith_waterman' after 1.56164964926s
[INFO -- 2018-09-27 12:44:39]
Execution finished before waitTime
