[INFO -- 2018-09-25 03:36:54]
Starting GDB script
[INFO -- 2018-09-25 03:36:54]
initSignal:0.0
[INFO -- 2018-09-25 03:36:54]
endSignal:2.0
[INFO -- 2018-09-25 03:36:54]
sending 5 signals using command: 'killall -2 smith_waterman' after 0.120046211341s
[INFO -- 2018-09-25 03:36:54]
sending 5 signals using command: 'killall -2 smith_waterman' after 0.445256884195s
[INFO -- 2018-09-25 03:36:56]
sending 5 signals using command: 'killall -2 smith_waterman' after 1.83146821332s
[INFO -- 2018-09-25 03:37:00]
Execution finished before waitTime
