[INFO -- 2018-12-04 20:54:59]
Starting GDB script
[INFO -- 2018-12-04 20:54:59]
initSignal:0.0
[INFO -- 2018-12-04 20:54:59]
endSignal:6.0
[INFO -- 2018-12-04 20:55:02]
sending 5 signals using command: 'killall -2 smith_waterman' after 3.51199227337s
[INFO -- 2018-12-04 20:55:03]
sending 5 signals using command: 'killall -2 smith_waterman' after 4.70295611139s
[INFO -- 2018-12-04 20:55:04]
sending 5 signals using command: 'killall -2 smith_waterman' after 5.2529150352s
[INFO -- 2018-12-04 20:55:05]
Execution finished before waitTime
