[INFO -- 2018-09-24 19:45:43]
sending 5 signals using command: 'killall -2 smith_waterman' after 1.13242860017s
[INFO -- 2018-09-24 19:45:44]
sending 5 signals using command: 'killall -2 smith_waterman' after 1.61018123018s
[INFO -- 2018-09-24 19:45:44]
Starting GDB script
[INFO -- 2018-09-24 19:45:44]
initSignal:0.0
[INFO -- 2018-09-24 19:45:44]
endSignal:2.0
[INFO -- 2018-09-24 19:45:45]
sending 5 signals using command: 'killall -2 smith_waterman' after 1.40716707479s
[INFO -- 2018-09-24 19:45:45]
sending 5 signals using command: 'killall -2 smith_waterman' after 1.51247365476s
[INFO -- 2018-09-24 19:45:46]
sending 5 signals using command: 'killall -2 smith_waterman' after 1.81158599395s
[INFO -- 2018-09-24 19:45:51]
Execution finished before waitTime
