[INFO -- 2018-09-26 16:38:03]
Starting GDB script
[INFO -- 2018-09-26 16:38:03]
initSignal:0.0
[INFO -- 2018-09-26 16:38:03]
endSignal:2.0
[INFO -- 2018-09-26 16:38:03]
sending 5 signals using command: 'killall -2 smith_waterman' after 0.266972606187s
[INFO -- 2018-09-26 16:38:03]
sending 5 signals using command: 'killall -2 smith_waterman' after 0.290803436773s
[INFO -- 2018-09-26 16:38:03]
sending 5 signals using command: 'killall -2 smith_waterman' after 0.527324000934s
[INFO -- 2018-09-26 16:38:08]
Execution finished before waitTime
