[INFO -- 2018-12-04 09:22:16]
Starting GDB script
[INFO -- 2018-12-04 09:22:16]
initSignal:0.0
[INFO -- 2018-12-04 09:22:16]
endSignal:6.0
[INFO -- 2018-12-04 09:22:21]
sending 5 signals using command: 'killall -2 smith_waterman' after 4.93537461889s
[INFO -- 2018-12-04 09:22:22]
sending 5 signals using command: 'killall -2 smith_waterman' after 5.04854633822s
[INFO -- 2018-12-04 09:22:22]
sending 5 signals using command: 'killall -2 smith_waterman' after 5.28392960012s
[INFO -- 2018-12-04 09:22:23]
Execution finished before waitTime
