[INFO -- 2018-09-28 05:20:40]
Starting GDB script
[INFO -- 2018-09-28 05:20:40]
initSignal:0.0
[INFO -- 2018-09-28 05:20:40]
endSignal:2.0
[INFO -- 2018-09-28 05:20:41]
sending 5 signals using command: 'killall -2 smith_waterman' after 0.545724619124s
[INFO -- 2018-09-28 05:20:41]
sending 5 signals using command: 'killall -2 smith_waterman' after 1.30982029743s
[INFO -- 2018-09-28 05:20:42]
sending 5 signals using command: 'killall -2 smith_waterman' after 1.80585134407s
[INFO -- 2018-09-28 05:20:47]
Execution finished before waitTime
