[INFO -- 2018-12-08 04:51:05]
Starting GDB script
[INFO -- 2018-12-08 04:51:05]
initSignal:0.0
[INFO -- 2018-12-08 04:51:05]
endSignal:6.0
[INFO -- 2018-12-08 04:51:06]
sending 5 signals using command: 'killall -2 smith_waterman' after 0.433953946559s
[INFO -- 2018-12-08 04:51:06]
sending 5 signals using command: 'killall -2 smith_waterman' after 0.500552486565s
[INFO -- 2018-12-08 04:51:06]
Execution finished before waitTime
