[INFO -- 2018-09-27 01:34:14]
Starting GDB script
[INFO -- 2018-09-27 01:34:14]
initSignal:0.0
[INFO -- 2018-09-27 01:34:14]
endSignal:2.0
[INFO -- 2018-09-27 01:34:15]
sending 5 signals using command: 'killall -2 smith_waterman' after 0.520237945054s
[INFO -- 2018-09-27 01:34:15]
sending 5 signals using command: 'killall -2 smith_waterman' after 0.863578969192s
[INFO -- 2018-09-27 01:34:16]
sending 5 signals using command: 'killall -2 smith_waterman' after 1.27686121544s
[INFO -- 2018-09-27 01:34:21]
Execution finished before waitTime
