[INFO -- 2018-12-04 07:25:15]
Starting GDB script
[INFO -- 2018-12-04 07:25:15]
initSignal:0.0
[INFO -- 2018-12-04 07:25:15]
endSignal:6.0
[INFO -- 2018-12-04 07:25:18]
sending 5 signals using command: 'killall -2 smith_waterman' after 2.95820908498s
[INFO -- 2018-12-04 07:25:21]
sending 5 signals using command: 'killall -2 smith_waterman' after 5.1953386742s
[INFO -- 2018-12-04 07:25:21]
sending 5 signals using command: 'killall -2 smith_waterman' after 5.56332775337s
[INFO -- 2018-12-04 07:25:35]
Execution did not finish before waitTime
