[INFO -- 2018-09-24 14:29:25]
Starting GDB script
[INFO -- 2018-09-24 14:29:25]
initSignal:0.0
[INFO -- 2018-09-24 14:29:25]
endSignal:2.0
[INFO -- 2018-09-24 14:29:25]
sending 5 signals using command: 'killall -2 smith_waterman' after 0.177898140266s
[INFO -- 2018-09-24 14:29:25]
sending 5 signals using command: 'killall -2 smith_waterman' after 0.192239803418s
[INFO -- 2018-09-24 14:29:26]
sending 5 signals using command: 'killall -2 smith_waterman' after 0.806169260655s
[INFO -- 2018-09-24 14:29:31]
Execution finished before waitTime
