[INFO -- 2018-09-27 05:34:43]
Starting GDB script
[INFO -- 2018-09-27 05:34:43]
initSignal:0.0
[INFO -- 2018-09-27 05:34:43]
endSignal:2.0
[INFO -- 2018-09-27 05:34:44]
sending 5 signals using command: 'killall -2 smith_waterman' after 0.578742551925s
[INFO -- 2018-09-27 05:34:44]
sending 5 signals using command: 'killall -2 smith_waterman' after 1.16394186875s
[INFO -- 2018-09-27 05:34:45]
sending 5 signals using command: 'killall -2 smith_waterman' after 1.61704899722s
[INFO -- 2018-09-27 05:34:48]
Execution finished before waitTime
