[INFO -- 2018-09-27 20:41:13]
Starting GDB script
[INFO -- 2018-09-27 20:41:13]
initSignal:0.0
[INFO -- 2018-09-27 20:41:13]
endSignal:2.0
[INFO -- 2018-09-27 20:41:14]
sending 5 signals using command: 'killall -2 smith_waterman' after 1.28361633066s
[INFO -- 2018-09-27 20:41:14]
sending 5 signals using command: 'killall -2 smith_waterman' after 1.40265437739s
[INFO -- 2018-09-27 20:41:15]
sending 5 signals using command: 'killall -2 smith_waterman' after 1.86851301953s
[INFO -- 2018-09-27 20:41:18]
Execution finished before waitTime
