[INFO -- 2018-12-04 19:59:49]
Starting GDB script
[INFO -- 2018-12-04 19:59:49]
initSignal:0.0
[INFO -- 2018-12-04 19:59:49]
endSignal:6.0
[INFO -- 2018-12-04 19:59:50]
sending 5 signals using command: 'killall -2 smith_waterman' after 0.3902034327s
[INFO -- 2018-12-04 19:59:52]
sending 5 signals using command: 'killall -2 smith_waterman' after 2.67932877136s
[INFO -- 2018-12-04 19:59:52]
sending 5 signals using command: 'killall -2 smith_waterman' after 3.2164671286s
[INFO -- 2018-12-04 20:00:09]
Execution did not finish before waitTime
