[INFO -- 2018-11-08 20:08:22]
Starting GDB script
[INFO -- 2018-11-08 20:08:22]
initSignal:0.0
[INFO -- 2018-11-08 20:08:22]
endSignal:6.0
[INFO -- 2018-11-08 20:08:24]
sending 5 signals using command: 'killall -2 smith_waterman' after 2.03546835052s
[INFO -- 2018-11-08 20:08:25]
Execution finished before waitTime
