[INFO -- 2018-09-23 20:56:24]
Starting flip_value script
version: 1.1
[INFO -- 2018-09-23 20:56:24]
Initialization strings:
[INFO -- 2018-09-23 20:56:24]
(1) file /tmp/smith_waterman/smith_waterman
[INFO -- 2018-09-23 20:56:24]
(2) set args -x /tmp/smith_waterman/randInputX -y /tmp/smith_waterman/randInputY -o /tmp/smith_waterman/output
[INFO -- 2018-09-23 20:56:24]
initSignal:0
[INFO -- 2018-09-23 20:56:24]
endSignal:2
[INFO -- 2018-09-23 20:56:24]
faultModel:0
[INFO -- 2018-09-23 20:56:25]
Backtrace BEGIN:
#0  0x00005555555550ce in smith_waterman (x_num=15000, y_num=15000, str_x=0x5555557586c0 "ZTTOPPYFRVVXFAAUKKTTSSPGGSJVIIVNNONBFMBFFDAUKBVVLQFFSUUYHFKNFFACNDBBBMEHPBCCFZSSTYLLIURAAWPPDXAAXDDQJXBMMADVEEMVVMDIIPINNRASQUVCYYDDGRGULLNPBJJMNMRENNTTGIWWEAYYHVDNOJKKUBBJAKQZZOODBWWHHKFTTFLCCOQZCCTB"..., str_y=0x55555575c170 "ZDTPOPYFVRVXPFAUKKHTUSXPGSJJVIVWNONBFMGBFDAUKBRVLYQFSPUYHFKENFACVNDBBMEHPEBCFUZSTRYLIUMRAWVPDXSAMXDQJHXBMADTVEMQVMDDIPUINRASQUVCTYUDGRGUULNRPBJMNMRWENGTGIMWEJAYHVDNOJJKUZBJAKXQZOODBWWHHKFLTFLDCOQRZCBT"..., fo=0x555555758260) at smith_waterman.c:98
#1  0x0000555555555e38 in main (argc=7, argv=0x7fffffffdcb8) at smith_waterman.c:298

93	    double max_score=0.0;
94	    for(i=1; i<x_num+1; i++){
95	        for(j=1; j<y_num+1; j++){
96	            if(str_x[i-1]==str_y[j-1]){diff=match_score;}
97	            else{diff=mismatch_score;}
98	            matrix[i][j]=my_maxof(matrix[i-1][j-1]+diff, matrix[i-1][j]+gap_score, matrix[i][j-1]+gap_score,0);
99	            if(matrix[i][j]>max_score)
100	                max_score=matrix[i][j];
101	        }
102	    }

Backtrace END
Memory content before bitflip:0x650x070x000x000x000x000x000x00
Fault Model: Single bit-flip
base address to flip value: 0x7fffffffda90
address max offset: 8
Memory content after  bitflip:0x650x070x020x000x000x000x000x00
frame name: smith_waterman
symbol name: i
symbol filename: smith_waterman.c
symbol line: 83
value: 132965
value address: 0x7fffffffda90
Type: The type is an integer type.
Type sizeof: 8

[INFO -- 2018-09-23 20:56:25]
Fault Injection Successful after 1.6006522178649902s
[INFO -- 2018-09-23 20:56:25]
event type: exit
[EXCEPTION -- 2018-09-23 20:56:25]
exit code: no exit code available
