[INFO -- 2018-12-04 16:34:38]
Starting GDB script
[INFO -- 2018-12-04 16:34:38]
initSignal:0.0
[INFO -- 2018-12-04 16:34:38]
endSignal:6.0
[INFO -- 2018-12-04 16:34:40]
sending 5 signals using command: 'killall -2 smith_waterman' after 2.28009690328s
[INFO -- 2018-12-04 16:34:40]
sending 5 signals using command: 'killall -2 smith_waterman' after 2.28744700425s
[INFO -- 2018-12-04 16:34:42]
sending 5 signals using command: 'killall -2 smith_waterman' after 3.4591261142s
[INFO -- 2018-12-04 16:34:44]
Execution finished before waitTime
