[INFO -- 2018-09-23 10:50:48]
Starting flip_value script
version: 1.1
[INFO -- 2018-09-23 10:50:48]
Initialization strings:
[INFO -- 2018-09-23 10:50:48]
(1) file /tmp/smith_waterman/smith_waterman
[INFO -- 2018-09-23 10:50:48]
(2) set args -x /tmp/smith_waterman/randInputX -y /tmp/smith_waterman/randInputY -o /tmp/smith_waterman/output
[INFO -- 2018-09-23 10:50:48]
initSignal:0
[INFO -- 2018-09-23 10:50:48]
endSignal:2
[INFO -- 2018-09-23 10:50:48]
faultModel:2
[INFO -- 2018-09-23 10:50:48]
Backtrace BEGIN:
#0  dl_main (phdr=<optimized out>, phnum=<optimized out>, user_entry=<optimized out>, auxv=<optimized out>) at rtld.c:2289
#1  0x00007ffff7defdd0 in _dl_sysdep_start (start_argptr=start_argptr@entry=0x7fffffffdcb0, dl_main=dl_main@entry=0x7ffff7dd7660 <dl_main>) at ../elf/dl-sysdep.c:253
#2  0x00007ffff7dd7128 in _dl_start_final (arg=0x7fffffffdcb0) at rtld.c:414
#3  _dl_start (arg=0x7fffffffdcb0) at rtld.c:521
#4  0x00007ffff7dd6098 in _start () from /lib64/ld-linux-x86-64.so.2
#5  0x0000000000000007 in ?? ()
#6  0x00007fffffffe0aa in ?? ()
#7  0x00007fffffffe0cd in ?? ()
#8  0x00007fffffffe0d0 in ?? ()
#9  0x00007fffffffe0ef in ?? ()
#10 0x00007fffffffe0f2 in ?? ()
#11 0x00007fffffffe111 in ?? ()
#12 0x00007fffffffe114 in ?? ()
#13 0x0000000000000000 in ?? ()

2284	rtld.c: No such file or directory.

Backtrace END
Fliping a bit of the value pointed by a pointer
Fliping a bit of the value pointed by a pointer
Memory content before bitflip:0x2f
Fault Model: Random bit-flip
base address to flip value: 0x7fffffffe0aa 
address max offset: 1
Memory content after  bitflip:0x95
frame name: _dl_start_final
symbol name: __GI__dl_argv
symbol filename: rtld.c
symbol line: 83
value: 0x7fffffffdcb8
value address: 0x7ffff7ffc740 <_dl_argv>
Type: The type is a pointer.
Type sizeof: 8

[INFO -- 2018-09-23 10:50:48]
Fault Injection Successful after 0.7280519008636475s
[INFO -- 2018-09-23 10:50:54]
event type: exit
[INFO -- 2018-09-23 10:50:54]
exit code: 0
