[INFO -- 2018-09-26 21:05:02]
Starting GDB script
[INFO -- 2018-09-26 21:05:02]
initSignal:0.0
[INFO -- 2018-09-26 21:05:02]
endSignal:2.0
[INFO -- 2018-09-26 21:05:02]
sending 5 signals using command: 'killall -2 smith_waterman' after 0.513271190607s
[INFO -- 2018-09-26 21:05:03]
sending 5 signals using command: 'killall -2 smith_waterman' after 1.42921438285s
[INFO -- 2018-09-26 21:05:03]
sending 5 signals using command: 'killall -2 smith_waterman' after 1.76049428691s
[INFO -- 2018-09-26 21:05:08]
Execution finished before waitTime
