[INFO -- 2018-12-09 00:40:55]
Starting GDB script
[INFO -- 2018-12-09 00:40:55]
initSignal:0.0
[INFO -- 2018-12-09 00:40:55]
endSignal:6.0
[INFO -- 2018-12-09 00:40:56]
sending 5 signals using command: 'killall -2 smith_waterman' after 1.38622525259s
[INFO -- 2018-12-09 00:40:57]
sending 5 signals using command: 'killall -2 smith_waterman' after 1.80878771217s
[INFO -- 2018-12-09 00:40:57]
sending 5 signals using command: 'killall -2 smith_waterman' after 2.50337562561s
[INFO -- 2018-12-09 00:41:01]
Execution finished before waitTime
