[INFO -- 2018-09-27 00:33:58]
Starting GDB script
[INFO -- 2018-09-27 00:33:58]
initSignal:0.0
[INFO -- 2018-09-27 00:33:58]
endSignal:2.0
[INFO -- 2018-09-27 00:33:59]
sending 5 signals using command: 'killall -2 smith_waterman' after 0.489135744447s
[INFO -- 2018-09-27 00:34:00]
sending 5 signals using command: 'killall -2 smith_waterman' after 1.49367480576s
[INFO -- 2018-09-27 00:34:00]
sending 5 signals using command: 'killall -2 smith_waterman' after 1.85352980516s
[INFO -- 2018-09-27 00:34:04]
Execution finished before waitTime
