[INFO -- 2018-12-08 09:00:35]
Starting GDB script
[INFO -- 2018-12-08 09:00:35]
initSignal:0.0
[INFO -- 2018-12-08 09:00:35]
endSignal:6.0
[INFO -- 2018-12-08 09:00:35]
sending 5 signals using command: 'killall -2 smith_waterman' after 0.0150812193749s
[INFO -- 2018-12-08 09:00:37]
sending 5 signals using command: 'killall -2 smith_waterman' after 1.38811179532s
[INFO -- 2018-12-08 09:00:37]
Execution finished before waitTime
