[INFO -- 2018-12-08 02:45:46]
Starting GDB script
[INFO -- 2018-12-08 02:45:46]
initSignal:0.0
[INFO -- 2018-12-08 02:45:46]
endSignal:6.0
[INFO -- 2018-12-08 02:45:47]
sending 5 signals using command: 'killall -2 smith_waterman' after 0.783460615272s
[INFO -- 2018-12-08 02:45:47]
Execution finished before waitTime
