[INFO -- 2018-12-09 06:34:17]
Starting GDB script
[INFO -- 2018-12-09 06:34:17]
initSignal:0.0
[INFO -- 2018-12-09 06:34:17]
endSignal:6.0
[INFO -- 2018-12-09 06:34:20]
sending 5 signals using command: 'killall -2 smith_waterman' after 2.66784799183s
[INFO -- 2018-12-09 06:34:20]
sending 5 signals using command: 'killall -2 smith_waterman' after 3.19398579755s
[INFO -- 2018-12-09 06:34:22]
sending 5 signals using command: 'killall -2 smith_waterman' after 4.96990674261s
[INFO -- 2018-12-09 06:34:25]
Execution finished before waitTime
