[INFO -- 2018-12-08 08:52:27]
Starting GDB script
[INFO -- 2018-12-08 08:52:27]
initSignal:0.0
[INFO -- 2018-12-08 08:52:27]
endSignal:6.0
[INFO -- 2018-12-08 08:52:29]
sending 5 signals using command: 'killall -2 smith_waterman' after 2.29518823917s
[INFO -- 2018-12-08 08:52:29]
sending 5 signals using command: 'killall -2 smith_waterman' after 2.32528291188s
[INFO -- 2018-12-08 08:52:30]
Execution finished before waitTime
