[INFO -- 2018-12-03 17:26:50]
Starting GDB script
[INFO -- 2018-12-03 17:26:50]
initSignal:0.0
[INFO -- 2018-12-03 17:26:50]
endSignal:6.0
[INFO -- 2018-12-03 17:26:51]
sending 5 signals using command: 'killall -2 smith_waterman' after 0.827593164127s
[INFO -- 2018-12-03 17:26:51]
sending 5 signals using command: 'killall -2 smith_waterman' after 1.26174070255s
[INFO -- 2018-12-03 17:26:56]
sending 5 signals using command: 'killall -2 smith_waterman' after 5.62695150468s
[INFO -- 2018-12-03 17:26:56]
Execution finished before waitTime
