[INFO -- 2018-09-24 11:40:58]
Starting GDB script
[INFO -- 2018-09-24 11:40:58]
initSignal:0.0
[INFO -- 2018-09-24 11:40:58]
endSignal:2.0
[INFO -- 2018-09-24 11:41:00]
sending 5 signals using command: 'killall -2 smith_waterman' after 1.20101636147s
[INFO -- 2018-09-24 11:41:00]
sending 5 signals using command: 'killall -2 smith_waterman' after 1.22616291819s
[INFO -- 2018-09-24 11:41:00]
sending 5 signals using command: 'killall -2 smith_waterman' after 1.22866235578s
[INFO -- 2018-09-24 11:41:05]
Execution finished before waitTime
