[INFO -- 2018-09-25 16:07:17]
Starting GDB script
[INFO -- 2018-09-25 16:07:17]
initSignal:0.0
[INFO -- 2018-09-25 16:07:17]
endSignal:2.0
[INFO -- 2018-09-25 16:07:17]
sending 5 signals using command: 'killall -2 smith_waterman' after 0.214345427161s
[INFO -- 2018-09-25 16:07:19]
sending 5 signals using command: 'killall -2 smith_waterman' after 1.6324210152s
[INFO -- 2018-09-25 16:07:19]
sending 5 signals using command: 'killall -2 smith_waterman' after 1.72395171991s
[INFO -- 2018-09-25 16:07:22]
Execution finished before waitTime
