[INFO -- 2018-09-25 01:48:10]
Starting GDB script
[INFO -- 2018-09-25 01:48:10]
initSignal:0.0
[INFO -- 2018-09-25 01:48:10]
endSignal:2.0
[INFO -- 2018-09-25 01:48:10]
sending 5 signals using command: 'killall -2 smith_waterman' after 0.507106235751s
[INFO -- 2018-09-25 01:48:11]
sending 5 signals using command: 'killall -2 smith_waterman' after 0.613113126979s
[INFO -- 2018-09-25 01:48:11]
sending 5 signals using command: 'killall -2 smith_waterman' after 0.875342595387s
[INFO -- 2018-09-25 01:48:30]
Execution did not finish before waitTime
