[INFO -- 2018-12-08 19:40:19]
Starting GDB script
[INFO -- 2018-12-08 19:40:19]
initSignal:0.0
[INFO -- 2018-12-08 19:40:19]
endSignal:6.0
[INFO -- 2018-12-08 19:40:21]
sending 5 signals using command: 'killall -2 smith_waterman' after 2.14384991538s
[INFO -- 2018-12-08 19:40:24]
sending 5 signals using command: 'killall -2 smith_waterman' after 5.41367376389s
[INFO -- 2018-12-08 19:40:25]
sending 5 signals using command: 'killall -2 smith_waterman' after 5.96090063908s
[INFO -- 2018-12-08 19:40:25]
Execution finished before waitTime
