[INFO -- 2018-12-08 03:38:33]
sending 5 signals using command: 'killall -2 smith_waterman' after 3.45929033031s
[INFO -- 2018-12-08 03:38:33]
Starting GDB script
[INFO -- 2018-12-08 03:38:33]
initSignal:0.0
[INFO -- 2018-12-08 03:38:33]
endSignal:6.0
[INFO -- 2018-12-08 03:38:36]
sending 5 signals using command: 'killall -2 smith_waterman' after 2.71222143671s
[INFO -- 2018-12-08 03:38:38]
sending 5 signals using command: 'killall -2 smith_waterman' after 4.09176829266s
[INFO -- 2018-12-08 03:38:38]
sending 5 signals using command: 'killall -2 smith_waterman' after 4.12476114011s
[INFO -- 2018-12-08 03:38:41]
Execution finished before waitTime
