[INFO -- 2018-09-26 10:29:16]
Starting GDB script
[INFO -- 2018-09-26 10:29:16]
initSignal:0.0
[INFO -- 2018-09-26 10:29:16]
endSignal:2.0
[INFO -- 2018-09-26 10:29:16]
sending 5 signals using command: 'killall -2 smith_waterman' after 0.4834285135s
[INFO -- 2018-09-26 10:29:16]
sending 5 signals using command: 'killall -2 smith_waterman' after 0.568562262571s
[INFO -- 2018-09-26 10:29:18]
sending 5 signals using command: 'killall -2 smith_waterman' after 1.76585102189s
[INFO -- 2018-09-26 10:29:21]
Execution finished before waitTime
