[INFO -- 2018-12-05 07:51:51]
Starting GDB script
[INFO -- 2018-12-05 07:51:51]
initSignal:0.0
[INFO -- 2018-12-05 07:51:51]
endSignal:6.0
[INFO -- 2018-12-05 07:51:52]
sending 5 signals using command: 'killall -2 smith_waterman' after 0.782079305144s
[INFO -- 2018-12-05 07:51:53]
sending 5 signals using command: 'killall -2 smith_waterman' after 2.59565218413s
[INFO -- 2018-12-05 07:51:55]
sending 5 signals using command: 'killall -2 smith_waterman' after 4.31337093088s
[INFO -- 2018-12-05 07:51:57]
Execution finished before waitTime
