[INFO -- 2018-12-03 17:27:25]
Starting GDB script
[INFO -- 2018-12-03 17:27:25]
initSignal:0.0
[INFO -- 2018-12-03 17:27:25]
endSignal:6.0
[INFO -- 2018-12-03 17:27:26]
sending 5 signals using command: 'killall -2 smith_waterman' after 1.48056359053s
[INFO -- 2018-12-03 17:27:27]
sending 5 signals using command: 'killall -2 smith_waterman' after 2.77082109522s
[INFO -- 2018-12-03 17:27:29]
sending 5 signals using command: 'killall -2 smith_waterman' after 4.52540486994s
[INFO -- 2018-12-03 17:27:32]
Execution finished before waitTime
