[INFO -- 2018-12-04 13:36:31]
Starting GDB script
[INFO -- 2018-12-04 13:36:31]
initSignal:0.0
[INFO -- 2018-12-04 13:36:31]
endSignal:6.0
[INFO -- 2018-12-04 13:36:34]
sending 5 signals using command: 'killall -2 smith_waterman' after 3.29564845957s
[INFO -- 2018-12-04 13:36:36]
sending 5 signals using command: 'killall -2 smith_waterman' after 4.78204054048s
[INFO -- 2018-12-04 13:36:37]
sending 5 signals using command: 'killall -2 smith_waterman' after 5.96047093258s
[INFO -- 2018-12-04 13:36:37]
Execution finished before waitTime
