[INFO -- 2018-12-05 13:48:39]
sending 5 signals using command: 'killall -2 smith_waterman' after 5.26497714794s
[INFO -- 2018-12-05 13:48:39]
sending 5 signals using command: 'killall -2 smith_waterman' after 5.96325194382s
[INFO -- 2018-12-05 13:48:40]
Starting GDB script
[INFO -- 2018-12-05 13:48:40]
initSignal:0.0
[INFO -- 2018-12-05 13:48:40]
endSignal:6.0
[INFO -- 2018-12-05 13:48:40]
sending 5 signals using command: 'killall -2 smith_waterman' after 0.0896649554439s
[INFO -- 2018-12-05 13:48:40]
sending 5 signals using command: 'killall -2 smith_waterman' after 0.219097252265s
[INFO -- 2018-12-05 13:48:44]
sending 5 signals using command: 'killall -2 smith_waterman' after 4.29872035853s
[INFO -- 2018-12-05 13:48:45]
Execution finished before waitTime
