[INFO -- 2018-12-05 05:16:53]
Starting GDB script
[INFO -- 2018-12-05 05:16:53]
initSignal:0.0
[INFO -- 2018-12-05 05:16:53]
endSignal:6.0
[INFO -- 2018-12-05 05:16:54]
sending 5 signals using command: 'killall -2 smith_waterman' after 1.05106983708s
[INFO -- 2018-12-05 05:16:55]
sending 5 signals using command: 'killall -2 smith_waterman' after 1.87907092787s
[INFO -- 2018-12-05 05:16:55]
sending 5 signals using command: 'killall -2 smith_waterman' after 2.56057241003s
[INFO -- 2018-12-05 05:17:00]
Execution finished before waitTime
