[INFO -- 2018-11-08 19:31:30]
Starting flip_value script
version: 1.1
[INFO -- 2018-11-08 19:31:30]
Initialization strings:
[INFO -- 2018-11-08 19:31:30]
(1) file /tmp/smith_waterman/smith_waterman
[INFO -- 2018-11-08 19:31:30]
(2) set args -x /tmp/smith_waterman/randInputX -y /tmp/smith_waterman/randInputY -o /tmp/smith_waterman/output
[INFO -- 2018-11-08 19:31:30]
initSignal:0
[INFO -- 2018-11-08 19:31:30]
endSignal:6
[INFO -- 2018-11-08 19:31:30]
faultModel:1
[INFO -- 2018-11-08 19:31:31]
Backtrace BEGIN:
#0  0x0000555555554d71 in my_maxof (a=-1, b=-2, c=-1, d=0) at smith_waterman.c:65
#1  0x00005555555550d7 in smith_waterman (x_num=9900, y_num=15000, str_x=0x5555557586c0 "DWODJDCCKKOEERGGLXXRRHHFNNMAJHHMWPPAACHWMPSSGYYTYYQQQGGYNTWWHHJPFWWHCFDUPPCCMXXKOODCOLBGGYZZMJOTJMBMRFFNQQKKERXOHARXMTSWWYUJKKCRFFFQMGGEEWWQQWXYYQMMVVHVVRRFWWKKDDDRRJBVIAGWWGWWVJJSSTTTTKEEIQRVUUBODFNN"..., str_y=0x55555575ad80 "DWODJDMCTKGOERLGLZXVRSHOFNMAJYHMWXPFACHWMPKSGXYTWYQQQYGYNTAWTHJPFYWHCFDRUPLCMMXLKODCOLABGDYZMJOTJMBMRGFNWQRKERXOHARXMTYSWYUJHKCRXFFQMMGKEZWJQWXXYQUMKVHIVBRFLWYKBDDPRJBVIAGBWGYWYVJISQTNTKSEIQRKVUBODFMN"..., fo=0x555555758260) at smith_waterman.c:98
#2  0x0000555555555e38 in main (argc=7, argv=0x7fffffffde98) at smith_waterman.c:298

60	}
61	
62	double my_maxof(double a, double b, double c, double d)
63	{
64	    double ans=a;
65	    if(ans<b) ans=b;
66	    if(ans<c) ans=c;
67	    if(ans<d) ans=d;
68	    return ans;
69	}

Backtrace END
Fliping a bit of the pointer
Memory content before bitflip:0x900x840x750x550x550x550x000x00
Fault Model: Double bit-flip
base address to flip value: 0x7fffffffdd48
address max offset: 8
Memory content after  bitflip:0x900x840x750x550x7d0x550x000x00
frame name: main
symbol name: fpx
symbol filename: smith_waterman.c
symbol line: 278
value: 0x555555758490
value address: 0x7fffffffdd48
Type: The type is a pointer.
Type sizeof: 8

[INFO -- 2018-11-08 19:31:31]
Fault Injection Successful after 1.7043402194976807s
[INFO -- 2018-11-08 19:31:32]
event type: exit
[INFO -- 2018-11-08 19:31:32]
exit code: 0
