[INFO -- 2018-09-25 19:03:47]
Starting GDB script
[INFO -- 2018-09-25 19:03:47]
initSignal:0.0
[INFO -- 2018-09-25 19:03:47]
endSignal:2.0
[INFO -- 2018-09-25 19:03:47]
sending 5 signals using command: 'killall -2 smith_waterman' after 0.357168142109s
[INFO -- 2018-09-25 19:03:48]
sending 5 signals using command: 'killall -2 smith_waterman' after 0.586238972863s
[INFO -- 2018-09-25 19:03:48]
sending 5 signals using command: 'killall -2 smith_waterman' after 1.08271450421s
[INFO -- 2018-09-25 19:03:54]
Execution finished before waitTime
