[INFO -- 2018-12-03 16:57:38]
Starting GDB script
[INFO -- 2018-12-03 16:57:38]
initSignal:0.0
[INFO -- 2018-12-03 16:57:38]
endSignal:6.0
[INFO -- 2018-12-03 16:57:42]
sending 5 signals using command: 'killall -2 smith_waterman' after 3.3627153353s
[INFO -- 2018-12-03 16:57:42]
sending 5 signals using command: 'killall -2 smith_waterman' after 3.65125531679s
[INFO -- 2018-12-03 16:57:44]
sending 5 signals using command: 'killall -2 smith_waterman' after 5.44092641321s
[INFO -- 2018-12-03 16:57:58]
Execution did not finish before waitTime
