[INFO -- 2018-12-03 14:11:56]
sending 5 signals using command: 'killall -2 smith_waterman' after 3.65089392557s
[INFO -- 2018-12-03 14:11:56]
Starting GDB script
[INFO -- 2018-12-03 14:11:56]
initSignal:0.0
[INFO -- 2018-12-03 14:11:56]
endSignal:6.0
[INFO -- 2018-12-03 14:11:58]
sending 5 signals using command: 'killall -2 smith_waterman' after 1.83280466594s
[INFO -- 2018-12-03 14:11:59]
Execution finished before waitTime
