[INFO -- 2018-09-25 18:00:09]
Starting GDB script
[INFO -- 2018-09-25 18:00:09]
initSignal:0.0
[INFO -- 2018-09-25 18:00:09]
endSignal:2.0
[INFO -- 2018-09-25 18:00:10]
sending 5 signals using command: 'killall -2 smith_waterman' after 0.712704859571s
[INFO -- 2018-09-25 18:00:10]
sending 5 signals using command: 'killall -2 smith_waterman' after 0.793371445102s
[INFO -- 2018-09-25 18:00:11]
sending 5 signals using command: 'killall -2 smith_waterman' after 1.88531638089s
[INFO -- 2018-09-25 18:00:14]
Execution finished before waitTime
