[INFO -- 2018-09-26 15:41:35]
Starting GDB script
[INFO -- 2018-09-26 15:41:35]
initSignal:0.0
[INFO -- 2018-09-26 15:41:35]
endSignal:2.0
[INFO -- 2018-09-26 15:41:35]
sending 5 signals using command: 'killall -2 smith_waterman' after 0.0898700679241s
[INFO -- 2018-09-26 15:41:37]
sending 5 signals using command: 'killall -2 smith_waterman' after 1.64072636691s
[INFO -- 2018-09-26 15:41:37]
sending 5 signals using command: 'killall -2 smith_waterman' after 1.93439856248s
[INFO -- 2018-09-26 15:41:41]
Execution finished before waitTime
