[INFO -- 2018-12-03 16:12:08]
Starting GDB script
[INFO -- 2018-12-03 16:12:08]
initSignal:0.0
[INFO -- 2018-12-03 16:12:08]
endSignal:6.0
[INFO -- 2018-12-03 16:12:08]
sending 5 signals using command: 'killall -2 smith_waterman' after 0.118046745943s
[INFO -- 2018-12-03 16:12:09]
sending 5 signals using command: 'killall -2 smith_waterman' after 1.04905978875s
[INFO -- 2018-12-03 16:12:11]
sending 5 signals using command: 'killall -2 smith_waterman' after 2.68419777796s
[INFO -- 2018-12-03 16:12:13]
Execution finished before waitTime
