[INFO -- 2018-09-26 07:17:40]
Starting GDB script
[INFO -- 2018-09-26 07:17:40]
initSignal:0.0
[INFO -- 2018-09-26 07:17:40]
endSignal:2.0
[INFO -- 2018-09-26 07:17:40]
sending 5 signals using command: 'killall -2 smith_waterman' after 0.352302411651s
[INFO -- 2018-09-26 07:17:40]
sending 5 signals using command: 'killall -2 smith_waterman' after 0.354070375175s
[INFO -- 2018-09-26 07:17:42]
sending 5 signals using command: 'killall -2 smith_waterman' after 1.78325365297s
[INFO -- 2018-09-26 07:17:47]
Execution finished before waitTime
