[INFO -- 2018-12-05 22:11:33]
Starting GDB script
[INFO -- 2018-12-05 22:11:33]
initSignal:0.0
[INFO -- 2018-12-05 22:11:33]
endSignal:6.0
[INFO -- 2018-12-05 22:11:34]
sending 5 signals using command: 'killall -2 smith_waterman' after 0.76046908318s
[INFO -- 2018-12-05 22:11:37]
sending 5 signals using command: 'killall -2 smith_waterman' after 4.32907661801s
[INFO -- 2018-12-05 22:11:38]
sending 5 signals using command: 'killall -2 smith_waterman' after 5.06487438402s
[INFO -- 2018-12-05 22:11:53]
Execution did not finish before waitTime
