[INFO -- 2018-11-08 21:01:19]
sending 5 signals using command: 'killall -2 smith_waterman' after 3.1574427894s
[INFO -- 2018-11-08 21:01:20]
sending 5 signals using command: 'killall -2 smith_waterman' after 3.891493068s
[INFO -- 2018-11-08 21:01:20]
Starting GDB script
[INFO -- 2018-11-08 21:01:20]
initSignal:0.0
[INFO -- 2018-11-08 21:01:20]
endSignal:6.0
[INFO -- 2018-11-08 21:01:21]
sending 5 signals using command: 'killall -2 smith_waterman' after 0.884821291202s
[INFO -- 2018-11-08 21:01:23]
Execution finished before waitTime
