[INFO -- 2018-12-05 15:54:54]
Starting GDB script
[INFO -- 2018-12-05 15:54:54]
initSignal:0.0
[INFO -- 2018-12-05 15:54:54]
endSignal:6.0
[INFO -- 2018-12-05 15:54:55]
sending 5 signals using command: 'killall -2 smith_waterman' after 1.77484177701s
[INFO -- 2018-12-05 15:54:57]
sending 5 signals using command: 'killall -2 smith_waterman' after 3.73993239765s
[INFO -- 2018-12-05 15:54:59]
Execution finished before waitTime
