[INFO -- 2018-12-04 11:38:52]
Starting GDB script
[INFO -- 2018-12-04 11:38:52]
initSignal:0.0
[INFO -- 2018-12-04 11:38:52]
endSignal:6.0
[INFO -- 2018-12-04 11:38:52]
sending 5 signals using command: 'killall -2 smith_waterman' after 0.179753504556s
[INFO -- 2018-12-04 11:38:54]
sending 5 signals using command: 'killall -2 smith_waterman' after 2.15428977148s
[INFO -- 2018-12-04 11:38:56]
sending 5 signals using command: 'killall -2 smith_waterman' after 4.50419021431s
[INFO -- 2018-12-04 11:38:58]
Execution finished before waitTime
