[INFO -- 2018-09-27 02:21:59]
sending 5 signals using command: 'killall -2 smith_waterman' after 1.45110311462s
[INFO -- 2018-09-27 02:21:59]
sending 5 signals using command: 'killall -2 smith_waterman' after 1.46770601175s
[INFO -- 2018-09-27 02:21:59]
Starting GDB script
[INFO -- 2018-09-27 02:21:59]
initSignal:0.0
[INFO -- 2018-09-27 02:21:59]
endSignal:2.0
[INFO -- 2018-09-27 02:21:59]
sending 5 signals using command: 'killall -2 smith_waterman' after 0.0241054110819s
[INFO -- 2018-09-27 02:21:59]
sending 5 signals using command: 'killall -2 smith_waterman' after 0.0961631787844s
[INFO -- 2018-09-27 02:22:01]
sending 5 signals using command: 'killall -2 smith_waterman' after 1.98368213082s
[INFO -- 2018-09-27 02:22:05]
Execution finished before waitTime
