[INFO -- 2018-12-04 11:11:19]
Starting GDB script
[INFO -- 2018-12-04 11:11:19]
initSignal:0.0
[INFO -- 2018-12-04 11:11:19]
endSignal:6.0
[INFO -- 2018-12-04 11:11:20]
sending 5 signals using command: 'killall -2 smith_waterman' after 0.684645474149s
[INFO -- 2018-12-04 11:11:20]
sending 5 signals using command: 'killall -2 smith_waterman' after 1.3194056665s
[INFO -- 2018-12-04 11:11:24]
sending 5 signals using command: 'killall -2 smith_waterman' after 4.78171896007s
[INFO -- 2018-12-04 11:11:24]
Execution finished before waitTime
