[INFO -- 2018-09-26 15:04:54]
Starting flip_value script
version: 1.1
[INFO -- 2018-09-26 15:04:54]
Initialization strings:
[INFO -- 2018-09-26 15:04:54]
(1) file /tmp/smith_waterman/smith_waterman
[INFO -- 2018-09-26 15:04:54]
(2) set args -x /tmp/smith_waterman/randInputX -y /tmp/smith_waterman/randInputY -o /tmp/smith_waterman/output
[INFO -- 2018-09-26 15:04:54]
initSignal:0
[INFO -- 2018-09-26 15:04:54]
endSignal:2
[INFO -- 2018-09-26 15:04:54]
faultModel:1
[INFO -- 2018-09-26 15:04:54]
Backtrace BEGIN:
#0  dl_main (phdr=<optimized out>, phnum=<optimized out>, user_entry=<optimized out>, auxv=<optimized out>) at rtld.c:2289
#1  0x00007ffff7defdd0 in _dl_sysdep_start (start_argptr=start_argptr@entry=0x7fffffffdcb0, dl_main=dl_main@entry=0x7ffff7dd7660 <dl_main>) at ../elf/dl-sysdep.c:253
#2  0x00007ffff7dd7128 in _dl_start_final (arg=0x7fffffffdcb0) at rtld.c:414
#3  _dl_start (arg=0x7fffffffdcb0) at rtld.c:521
#4  0x00007ffff7dd6098 in _start () from /lib64/ld-linux-x86-64.so.2
#5  0x0000000000000007 in ?? ()
#6  0x00007fffffffe0a8 in ?? ()
#7  0x00007fffffffe0cb in ?? ()
#8  0x00007fffffffe0ce in ?? ()
#9  0x00007fffffffe0ed in ?? ()
#10 0x00007fffffffe0f0 in ?? ()
#11 0x00007fffffffe10f in ?? ()
#12 0x00007fffffffe112 in ?? ()
#13 0x0000000000000000 in ?? ()

2284	rtld.c: No such file or directory.

Backtrace END
Memory content before bitflip:0xee0x790x9d0xe60x5b0xe80xa90x61
Fault Model: Double bit-flip
base address to flip value: 0x7ffff7ffc730 
address max offset: 8
Memory content after  bitflip:0xee0x790x9d0xa20x5b0xe80xa90x61
frame name: _dl_start_final
symbol name: __pointer_chk_guard_local
symbol filename: rtld.c
symbol line: 96
value: 7037411373011007982
value address: 0x7ffff7ffc730 <__pointer_chk_guard_local>
Type: The type is an integer type.
Type sizeof: 8

[INFO -- 2018-09-26 15:04:54]
Fault Injection Successful after 0.6143920421600342s
[INFO -- 2018-09-26 15:04:59]
event type: exit
[INFO -- 2018-09-26 15:04:59]
exit code: 0
