[INFO -- 2018-09-27 16:52:46]
Starting GDB script
[INFO -- 2018-09-27 16:52:46]
initSignal:0.0
[INFO -- 2018-09-27 16:52:46]
endSignal:2.0
[INFO -- 2018-09-27 16:52:47]
sending 5 signals using command: 'killall -2 smith_waterman' after 0.486829229899s
[INFO -- 2018-09-27 16:52:48]
sending 5 signals using command: 'killall -2 smith_waterman' after 1.71447391852s
[INFO -- 2018-09-27 16:52:48]
sending 5 signals using command: 'killall -2 smith_waterman' after 1.71955587271s
[INFO -- 2018-09-27 16:52:52]
Execution finished before waitTime
