[INFO -- 2018-09-28 06:39:45]
Starting GDB script
[INFO -- 2018-09-28 06:39:45]
initSignal:0.0
[INFO -- 2018-09-28 06:39:45]
endSignal:2.0
[INFO -- 2018-09-28 06:39:46]
sending 5 signals using command: 'killall -2 smith_waterman' after 0.488337589685s
[INFO -- 2018-09-28 06:39:47]
sending 5 signals using command: 'killall -2 smith_waterman' after 1.65666466109s
[INFO -- 2018-09-28 06:39:47]
sending 5 signals using command: 'killall -2 smith_waterman' after 1.84417474008s
[INFO -- 2018-09-28 06:39:52]
Execution finished before waitTime
