[INFO -- 2018-12-03 12:03:54]
Starting GDB script
[INFO -- 2018-12-03 12:03:54]
initSignal:0.0
[INFO -- 2018-12-03 12:03:54]
endSignal:6.0
[INFO -- 2018-12-03 12:03:54]
sending 5 signals using command: 'killall -2 smith_waterman' after 0.166167735903s
[INFO -- 2018-12-03 12:03:58]
sending 5 signals using command: 'killall -2 smith_waterman' after 4.35969282797s
[INFO -- 2018-12-03 12:03:58]
sending 5 signals using command: 'killall -2 smith_waterman' after 4.79283595298s
[INFO -- 2018-12-03 12:04:00]
Execution finished before waitTime
