[INFO -- 2018-09-26 05:41:21]
Starting GDB script
[INFO -- 2018-09-26 05:41:21]
initSignal:0.0
[INFO -- 2018-09-26 05:41:21]
endSignal:2.0
[INFO -- 2018-09-26 05:41:21]
sending 5 signals using command: 'killall -2 smith_waterman' after 8.72645572016e-05s
[INFO -- 2018-09-26 05:41:22]
sending 5 signals using command: 'killall -2 smith_waterman' after 0.74034217332s
[INFO -- 2018-09-26 05:41:23]
sending 5 signals using command: 'killall -2 smith_waterman' after 1.44200930803s
[INFO -- 2018-09-26 05:41:28]
Execution finished before waitTime
