[INFO -- 2018-12-04 09:06:19]
Starting GDB script
[INFO -- 2018-12-04 09:06:19]
initSignal:0.0
[INFO -- 2018-12-04 09:06:19]
endSignal:6.0
[INFO -- 2018-12-04 09:06:19]
sending 5 signals using command: 'killall -2 smith_waterman' after 0.805835349556s
[INFO -- 2018-12-04 09:06:21]
Execution finished before waitTime
