[INFO -- 2018-12-04 05:51:04]
Starting GDB script
[INFO -- 2018-12-04 05:51:04]
initSignal:0.0
[INFO -- 2018-12-04 05:51:04]
endSignal:6.0
[INFO -- 2018-12-04 05:51:06]
sending 5 signals using command: 'killall -2 smith_waterman' after 1.80875987763s
[INFO -- 2018-12-04 05:51:08]
sending 5 signals using command: 'killall -2 smith_waterman' after 3.62318043681s
[INFO -- 2018-12-04 05:51:08]
sending 5 signals using command: 'killall -2 smith_waterman' after 3.80392002128s
[INFO -- 2018-12-04 05:51:10]
Execution finished before waitTime
