[INFO -- 2018-12-04 08:06:46]
Starting GDB script
[INFO -- 2018-12-04 08:06:46]
initSignal:0.0
[INFO -- 2018-12-04 08:06:46]
endSignal:6.0
[INFO -- 2018-12-04 08:06:47]
sending 5 signals using command: 'killall -2 smith_waterman' after 1.07372830322s
[INFO -- 2018-12-04 08:06:51]
sending 5 signals using command: 'killall -2 smith_waterman' after 5.03765114409s
[INFO -- 2018-12-04 08:06:51]
sending 5 signals using command: 'killall -2 smith_waterman' after 5.54874992917s
[INFO -- 2018-12-04 08:06:52]
Execution finished before waitTime
