[INFO -- 2018-12-04 12:15:28]
Starting GDB script
[INFO -- 2018-12-04 12:15:28]
initSignal:0.0
[INFO -- 2018-12-04 12:15:28]
endSignal:6.0
[INFO -- 2018-12-04 12:15:28]
sending 5 signals using command: 'killall -2 smith_waterman' after 0.302274495186s
[INFO -- 2018-12-04 12:15:29]
Execution finished before waitTime
