[INFO -- 2018-09-28 04:03:13]
Starting GDB script
[INFO -- 2018-09-28 04:03:13]
initSignal:0.0
[INFO -- 2018-09-28 04:03:13]
endSignal:2.0
[INFO -- 2018-09-28 04:03:14]
sending 5 signals using command: 'killall -2 smith_waterman' after 1.01402589135s
[INFO -- 2018-09-28 04:03:14]
sending 5 signals using command: 'killall -2 smith_waterman' after 1.0190187328s
[INFO -- 2018-09-28 04:03:15]
sending 5 signals using command: 'killall -2 smith_waterman' after 1.90865337971s
[INFO -- 2018-09-28 04:03:33]
Execution did not finish before waitTime
