[INFO -- 2018-12-09 08:46:41]
sending 5 signals using command: 'killall -2 smith_waterman' after 5.28208807906s
[INFO -- 2018-12-09 08:46:41]
sending 5 signals using command: 'killall -2 smith_waterman' after 5.77518362397s
[INFO -- 2018-12-09 08:46:41]
Starting GDB script
[INFO -- 2018-12-09 08:46:41]
initSignal:0.0
[INFO -- 2018-12-09 08:46:41]
endSignal:6.0
[INFO -- 2018-12-09 08:46:43]
sending 5 signals using command: 'killall -2 smith_waterman' after 1.5123099857s
[INFO -- 2018-12-09 08:46:43]
sending 5 signals using command: 'killall -2 smith_waterman' after 1.52133057484s
[INFO -- 2018-12-09 08:46:45]
sending 5 signals using command: 'killall -2 smith_waterman' after 3.90340298323s
[INFO -- 2018-12-09 08:46:49]
Execution finished before waitTime
