[INFO -- 2018-12-08 20:21:36]
Starting GDB script
[INFO -- 2018-12-08 20:21:36]
initSignal:0.0
[INFO -- 2018-12-08 20:21:36]
endSignal:6.0
[INFO -- 2018-12-08 20:21:38]
sending 5 signals using command: 'killall -2 smith_waterman' after 1.94589702023s
[INFO -- 2018-12-08 20:21:41]
sending 5 signals using command: 'killall -2 smith_waterman' after 4.59033421045s
[INFO -- 2018-12-08 20:21:42]
sending 5 signals using command: 'killall -2 smith_waterman' after 5.71783209375s
[INFO -- 2018-12-08 20:21:42]
Execution finished before waitTime
