[INFO -- 2018-12-05 03:23:38]
Starting GDB script
[INFO -- 2018-12-05 03:23:38]
initSignal:0.0
[INFO -- 2018-12-05 03:23:38]
endSignal:6.0
[INFO -- 2018-12-05 03:23:40]
sending 5 signals using command: 'killall -2 smith_waterman' after 1.77633261701s
[INFO -- 2018-12-05 03:23:40]
sending 5 signals using command: 'killall -2 smith_waterman' after 1.8753933034s
[INFO -- 2018-12-05 03:23:43]
sending 5 signals using command: 'killall -2 smith_waterman' after 4.94627548991s
[INFO -- 2018-12-05 03:23:46]
Execution finished before waitTime
