[INFO -- 2018-09-27 09:22:09]
sending 5 signals using command: 'killall -2 smith_waterman' after 1.72988227199s
[INFO -- 2018-09-27 09:22:09]
Starting GDB script
[INFO -- 2018-09-27 09:22:09]
initSignal:0.0
[INFO -- 2018-09-27 09:22:09]
endSignal:2.0
[INFO -- 2018-09-27 09:22:10]
sending 5 signals using command: 'killall -2 smith_waterman' after 0.516008589446s
[INFO -- 2018-09-27 09:22:11]
sending 5 signals using command: 'killall -2 smith_waterman' after 1.79603588388s
[INFO -- 2018-09-27 09:22:11]
sending 5 signals using command: 'killall -2 smith_waterman' after 1.98949802481s
[INFO -- 2018-09-27 09:22:29]
Execution did not finish before waitTime
