[INFO -- 2018-09-26 13:38:20]
Starting flip_value script
version: 1.1
[INFO -- 2018-09-26 13:38:20]
Initialization strings:
[INFO -- 2018-09-26 13:38:20]
(1) file /tmp/smith_waterman/smith_waterman
[INFO -- 2018-09-26 13:38:20]
(2) set args -x /tmp/smith_waterman/randInputX -y /tmp/smith_waterman/randInputY -o /tmp/smith_waterman/output
[INFO -- 2018-09-26 13:38:20]
initSignal:0
[INFO -- 2018-09-26 13:38:20]
endSignal:2
[INFO -- 2018-09-26 13:38:20]
faultModel:0
[INFO -- 2018-09-26 13:38:21]
Backtrace BEGIN:
#0  my_maxof (a=-1, b=-2, c=-2, d=0) at smith_waterman.c:66
#1  0x00005555555550d7 in smith_waterman (x_num=15000, y_num=12600, str_x=0x5555557586c0 "ZQFOWDZAJZGYMSPGNMXYWYTMYGXPLTNKJUAFYZHJBPINHXVULTUHTPVSWVJHOWTXTWCRXLCYAKOHJJDUEZDYOZSMUDTKAPHTLLMIWOJWBXFMGKJNJOLZPFMLIHVKYCFLNTULIFJLCQZKAIXLZKLORZAAIXMJASUPLQDVVMIXDKKFUHRTUEILFKNNHAWJURBHJEFFQPEV"..., str_y=0x55555575c170 "ZFFWDZZJZZGYSPGGMXXYWYMYGXPLTNKKUAFYZHJBPPNHHVUUTTUHPPVWWJJHWTXTWCCXXLYYAKHJJJDEZZYOZSSMUTKKPHTLLLMWOJJBXFFGGKJJOOZPPFMIIVVYCFLNTULIFFLCQQKAIXLZZLORZAAAIMMASUPLQDDVMMIDKKFUHHTUUILLKNNNAWWUURBJEFFFPEEV"..., fo=0x555555758260) at smith_waterman.c:98
#2  0x0000555555555e38 in main (argc=7, argv=0x7fffffffdcb8) at smith_waterman.c:298

61	
62	double my_maxof(double a, double b, double c, double d)
63	{
64	    double ans=a;
65	    if(ans<b) ans=b;
66	    if(ans<c) ans=c;
67	    if(ans<d) ans=d;
68	    return ans;
69	}
70	

Backtrace END
Fliping a bit of the pointer
Memory content before bitflip:0xb80xdc0xff0xff0xff0x7f0x000x00
Fault Model: Single bit-flip
base address to flip value: 0x7fffffffdb50
address max offset: 8
Memory content after  bitflip:0xbc0xdc0xff0xff0xff0x7f0x000x00
frame name: main
symbol name: argv
symbol filename: smith_waterman.c
symbol line: 242
value: 0x7fffffffdcb8
value address: 0x7fffffffdb50
Type: The type is a pointer.
Type sizeof: 8

[INFO -- 2018-09-26 13:38:21]
Fault Injection Successful after 1.2030727863311768s
[INFO -- 2018-09-26 13:38:25]
event type: exit
[INFO -- 2018-09-26 13:38:25]
exit code: 0
