[INFO -- 2018-09-28 04:09:23]
Starting GDB script
[INFO -- 2018-09-28 04:09:23]
initSignal:0.0
[INFO -- 2018-09-28 04:09:23]
endSignal:2.0
[INFO -- 2018-09-28 04:09:23]
sending 5 signals using command: 'killall -2 smith_waterman' after 0.205751697641s
[INFO -- 2018-09-28 04:09:23]
sending 5 signals using command: 'killall -2 smith_waterman' after 0.233303064647s
[INFO -- 2018-09-28 04:09:24]
sending 5 signals using command: 'killall -2 smith_waterman' after 1.45409457467s
[INFO -- 2018-09-28 04:09:30]
Execution finished before waitTime
