[INFO -- 2018-12-08 16:18:05]
Starting GDB script
[INFO -- 2018-12-08 16:18:05]
initSignal:0.0
[INFO -- 2018-12-08 16:18:05]
endSignal:6.0
[INFO -- 2018-12-08 16:18:05]
sending 5 signals using command: 'killall -2 smith_waterman' after 0.118378435219s
[INFO -- 2018-12-08 16:18:08]
sending 5 signals using command: 'killall -2 smith_waterman' after 3.14699526801s
[INFO -- 2018-12-08 16:18:08]
sending 5 signals using command: 'killall -2 smith_waterman' after 3.48361109478s
[INFO -- 2018-12-08 16:18:12]
Execution finished before waitTime
