[INFO -- 2018-12-04 00:42:41]
Starting flip_value script
version: 1.1
[INFO -- 2018-12-04 00:42:41]
Initialization strings:
[INFO -- 2018-12-04 00:42:41]
(1) file /tmp/smith_waterman/smith_waterman
[INFO -- 2018-12-04 00:42:41]
(2) set args -x /tmp/smith_waterman/randInputX -y /tmp/smith_waterman/randInputY -o /tmp/smith_waterman/output -z /tmp/smith_waterman/detected.log
[INFO -- 2018-12-04 00:42:41]
initSignal:0
[INFO -- 2018-12-04 00:42:41]
endSignal:6
[INFO -- 2018-12-04 00:42:41]
faultModel:0
[INFO -- 2018-12-04 00:42:44]
Backtrace BEGIN:
#0  0x0000555555555245 in smith_waterman (x_num=15000, y_num=13950, str_x=0x5555557586c0 "QNRZJUZKTNDSTDRMYBOWTTGLUDBRFQMYGFXRZWBTLENEKHSKIIGBCNOYQPPYIBWQIVHITLDERQLDXDOIMWJQLYOEPGCZHYRSTBAMODSFVDJVJZDXVOPHMDNELPFVPZNKCNYQSQXNWIIFHLEFATOOYBUKSCFHBSRFHPVZHSODDZKKMQROJHFIIZSCDZJGTCLATGBBBPGE"..., str_y=0x55555575c170 "NRZJUUKTTDDTDRRYBBOTTGLLDBRFFQYGGXRRWWBLEENKHSKIIGBCNOYYQPPYBBQQVVHTLDDRRLLXDDIMWJQQYOEPGGZHYRSTBAMOOSFFVJJJZDXVVOHMMNELLFFPZNNCCYQSQXNWIIFHLEFATOOOBBUSSFFBBRFHPVZHHODDZKKKQRRJJFIIZZCDZJGGCLLTGBBBPPEE"...) at smith_waterman.c:130
#1  0x0000555555555cbf in execute (file_x_name=0x7fffffffe22c "/tmp/smith_waterman/randInputX", file_y_name=0x7fffffffe24e "/tmp/smith_waterman/randInputY") at smith_waterman.c:263
#2  0x0000555555555f08 in main (argc=9, argv=0x7fffffffde78) at smith_waterman.c:314

125	            if(i==0 && j==0){
126	                maxValue = matrix[i][j];
127	                y = i;
128	                x = j;
129	            }
130	            if(maxValue < matrix[i][j]){
131	                maxValue = matrix[i][j];
132	                y = i;
133	                x = j;
134	            }

Backtrace END
Fliping a bit of the value pointed by a pointer
Fliping value of field: _IO_buf_base
Fliping a bit of the pointer
Memory content before bitflip:0x000x000x000x000x000x000x000x00
Fault Model: Single bit-flip
base address to flip value: 0x555555758298
address max offset: 8
Memory content after  bitflip:0x020x000x000x000x000x000x000x00
frame name: execute
symbol name: fpy
symbol filename: smith_waterman.c
symbol line: 250
value: 0x555555758260
value address: 0x7fffffffdcd8
Type: The type is a pointer.
Type sizeof: 8

[INFO -- 2018-12-04 00:42:44]
Fault Injection Successful after 3.102510452270508s
[INFO -- 2018-12-04 00:42:47]
event type: exit
[INFO -- 2018-12-04 00:42:47]
exit code: 0
