[INFO -- 2018-12-04 00:14:27]
Starting GDB script
[INFO -- 2018-12-04 00:14:27]
initSignal:0.0
[INFO -- 2018-12-04 00:14:27]
endSignal:6.0
[INFO -- 2018-12-04 00:14:28]
sending 5 signals using command: 'killall -2 smith_waterman' after 1.56224378531s
[INFO -- 2018-12-04 00:14:30]
sending 5 signals using command: 'killall -2 smith_waterman' after 3.45993701633s
[INFO -- 2018-12-04 00:14:32]
sending 5 signals using command: 'killall -2 smith_waterman' after 4.87958731191s
[INFO -- 2018-12-04 00:14:34]
Execution finished before waitTime
