[INFO -- 2018-12-04 11:45:05]
Starting GDB script
[INFO -- 2018-12-04 11:45:05]
initSignal:0.0
[INFO -- 2018-12-04 11:45:05]
endSignal:6.0
[INFO -- 2018-12-04 11:45:05]
sending 5 signals using command: 'killall -2 smith_waterman' after 0.325469651956s
[INFO -- 2018-12-04 11:45:06]
sending 5 signals using command: 'killall -2 smith_waterman' after 0.825952128377s
[INFO -- 2018-12-04 11:45:07]
sending 5 signals using command: 'killall -2 smith_waterman' after 1.57697290972s
[INFO -- 2018-12-04 11:45:08]
Execution finished before waitTime
