[INFO -- 2018-12-09 00:14:12]
sending 5 signals using command: 'killall -2 smith_waterman' after 2.39140108437s
[INFO -- 2018-12-09 00:14:14]
sending 5 signals using command: 'killall -2 smith_waterman' after 4.48243424287s
[INFO -- 2018-12-09 00:14:14]
Starting GDB script
[INFO -- 2018-12-09 00:14:14]
initSignal:0.0
[INFO -- 2018-12-09 00:14:14]
endSignal:6.0
[INFO -- 2018-12-09 00:14:14]
sending 5 signals using command: 'killall -2 smith_waterman' after 0.643045394582s
[INFO -- 2018-12-09 00:14:17]
sending 5 signals using command: 'killall -2 smith_waterman' after 2.93670879303s
[INFO -- 2018-12-09 00:14:19]
sending 5 signals using command: 'killall -2 smith_waterman' after 5.2604598191s
[INFO -- 2018-12-09 00:14:20]
Execution finished before waitTime
