[INFO -- 2018-12-08 06:01:43]
sending 5 signals using command: 'killall -2 smith_waterman' after 4.13155943478s
[INFO -- 2018-12-08 06:01:43]
Starting GDB script
[INFO -- 2018-12-08 06:01:43]
initSignal:0.0
[INFO -- 2018-12-08 06:01:43]
endSignal:6.0
[INFO -- 2018-12-08 06:01:46]
sending 5 signals using command: 'killall -2 smith_waterman' after 2.79178323545s
[INFO -- 2018-12-08 06:01:46]
sending 5 signals using command: 'killall -2 smith_waterman' after 3.42627343901s
[INFO -- 2018-12-08 06:01:49]
sending 5 signals using command: 'killall -2 smith_waterman' after 5.80493333867s
[INFO -- 2018-12-08 06:01:51]
Execution finished before waitTime
