[INFO -- 2018-09-26 23:45:23]
Starting GDB script
[INFO -- 2018-09-26 23:45:23]
initSignal:0.0
[INFO -- 2018-09-26 23:45:23]
endSignal:2.0
[INFO -- 2018-09-26 23:45:23]
sending 5 signals using command: 'killall -2 smith_waterman' after 0.358730806929s
[INFO -- 2018-09-26 23:45:23]
sending 5 signals using command: 'killall -2 smith_waterman' after 0.522052224685s
[INFO -- 2018-09-26 23:45:24]
sending 5 signals using command: 'killall -2 smith_waterman' after 1.4918768425s
[INFO -- 2018-09-26 23:45:30]
Execution finished before waitTime
