[INFO -- 2018-12-09 00:19:55]
Starting GDB script
[INFO -- 2018-12-09 00:19:55]
initSignal:0.0
[INFO -- 2018-12-09 00:19:55]
endSignal:6.0
[INFO -- 2018-12-09 00:19:56]
sending 5 signals using command: 'killall -2 smith_waterman' after 0.28898327898s
[INFO -- 2018-12-09 00:19:57]
sending 5 signals using command: 'killall -2 smith_waterman' after 1.9171034634s
[INFO -- 2018-12-09 00:19:59]
sending 5 signals using command: 'killall -2 smith_waterman' after 3.31523264248s
[INFO -- 2018-12-09 00:20:01]
Execution finished before waitTime
