[INFO -- 2018-09-27 19:43:58]
Starting GDB script
[INFO -- 2018-09-27 19:43:58]
initSignal:0.0
[INFO -- 2018-09-27 19:43:58]
endSignal:2.0
[INFO -- 2018-09-27 19:43:58]
sending 5 signals using command: 'killall -2 smith_waterman' after 0.0365078351543s
[INFO -- 2018-09-27 19:43:58]
sending 5 signals using command: 'killall -2 smith_waterman' after 0.792002462971s
[INFO -- 2018-09-27 19:43:59]
sending 5 signals using command: 'killall -2 smith_waterman' after 0.848929795896s
[INFO -- 2018-09-27 19:44:18]
Execution did not finish before waitTime
