[INFO -- 2018-11-08 21:19:14]
Starting GDB script
[INFO -- 2018-11-08 21:19:14]
initSignal:0.0
[INFO -- 2018-11-08 21:19:14]
endSignal:6.0
[INFO -- 2018-11-08 21:19:16]
sending 5 signals using command: 'killall -2 smith_waterman' after 1.54832528579s
[INFO -- 2018-11-08 21:19:16]
sending 5 signals using command: 'killall -2 smith_waterman' after 1.71851459119s
[INFO -- 2018-11-08 21:19:17]
sending 5 signals using command: 'killall -2 smith_waterman' after 2.50311177396s
[INFO -- 2018-11-08 21:19:17]
Execution finished before waitTime
