[INFO -- 2018-12-03 11:45:22]
sending 5 signals using command: 'killall -2 smith_waterman' after 5.63969130196s
[INFO -- 2018-12-03 11:45:22]
sending 5 signals using command: 'killall -2 smith_waterman' after 5.76323901042s
[INFO -- 2018-12-03 11:45:22]
Starting GDB script
[INFO -- 2018-12-03 11:45:22]
initSignal:0.0
[INFO -- 2018-12-03 11:45:22]
endSignal:6.0
[INFO -- 2018-12-03 11:45:23]
sending 5 signals using command: 'killall -2 smith_waterman' after 1.30749418324s
[INFO -- 2018-12-03 11:45:24]
Execution finished before waitTime
