[INFO -- 2018-12-08 11:19:20]
Starting flip_value script
version: 1.1
[INFO -- 2018-12-08 11:19:20]
Initialization strings:
[INFO -- 2018-12-08 11:19:20]
(1) file /tmp/smith_waterman/smith_waterman
[INFO -- 2018-12-08 11:19:20]
(2) set args -x /tmp/smith_waterman/randInputX -y /tmp/smith_waterman/randInputY -o /tmp/smith_waterman/output -z /tmp/smith_waterman/detected.log
[INFO -- 2018-12-08 11:19:20]
initSignal:0
[INFO -- 2018-12-08 11:19:20]
endSignal:6
[INFO -- 2018-12-08 11:19:20]
faultModel:2
[INFO -- 2018-12-08 11:19:22]
Backtrace BEGIN:
#0  0x00005555555553d6 in smith_waterman (x_num=13050, x_num2=13050, y_num=15000, y_num2=15000, str_x=0x5555557586c0 "OPPIVRYRVVLVBQXXMLTUOOROOWWGGBWTRWDOOBGGOBBMTTGGWZANNOOHKBBNNMJJIMOOQWIEEWRRTXZZWBBTMWWBZZRRYCFFOVVGGQLQOEEWWMCYOOXFTJJSVCYVEFFEUNBTDOOUSXQWJUXXRKKKVQESSENNYSSLLVVKLSGERWAASZZCJJJIIAATEQTTKNDRJKKUEEAA"..., str_y=0x55555575b9d0 "OQPZIVRYRVLVBUQXTMLTUORLOPWYGBCWTRWDONBGKOBMLTLGGWZANQOBHKBONGMJZIMOXQWIEZWRTHXZGWBTMPWWBZMRFYCFJOVGGRQLQOELWCMCYOXNFTJJSVCYVEFEUANBTDOLUSXQWJUXZRKHKVQESSENYJSSLHVGKLSGERWAASZCJLJVIZAATEQTQKNDRJKDUEKA"...) at smith_waterman.c:205
#1  0x0000555555556178 in execute (file_x_name=0x7fffffffe065 "/tmp/smith_waterman/randInputX", file_y_name=0x7fffffffe087 "/tmp/smith_waterman/randInputY") at smith_waterman.c:379
#2  0x0000555555556393 in main (argc=9, argv=0x7fffffffdc38) at smith_waterman.c:425

200	        for(j=1; j<y_num+1; j++){
201	            check_index(j, j2);
202				test_globals();
203	            if(str_x[i-1]==str_y[j-1]){diff=match_score;}
204	            else{diff=mismatch_score;}
205	            matrix[i][j]=my_maxof(matrix[i-1][j-1]+diff, matrix[i-1][j]+gap_score, matrix[i][j-1]+gap_score,0);
206	            if(matrix[i][j]>max_score)
207	                max_score=matrix[i][j];
208	            j2++;
209	        }

Backtrace END
Memory content before bitflip:0x980x3a0x000x000x000x000x000x00
Fault Model: Random bit-flip
base address to flip value: 0x7fffffffd9c8
address max offset: 8
Memory content after  bitflip:0x470x630x7d0x920xf10xa10x010x6e
frame name: smith_waterman
symbol name: y_num
symbol filename: smith_waterman.c
symbol line: 156
value: 7926794878065664839
value address: 0x7fffffffd9c8
Type: The type is an integer type.
Type sizeof: 8

[INFO -- 2018-12-08 11:19:22]
Fault Injection Successful after 2.907074451446533s
[INFO -- 2018-12-08 11:19:23]
event type: exit
[EXCEPTION -- 2018-12-08 11:19:23]
exit code: no exit code available
