[INFO -- 2018-09-23 10:46:53]
Starting flip_value script
version: 1.1
[INFO -- 2018-09-23 10:46:53]
Initialization strings:
[INFO -- 2018-09-23 10:46:53]
(1) file /tmp/smith_waterman/smith_waterman
[INFO -- 2018-09-23 10:46:53]
(2) set args -x /tmp/smith_waterman/randInputX -y /tmp/smith_waterman/randInputY -o /tmp/smith_waterman/output
[INFO -- 2018-09-23 10:46:53]
initSignal:0
[INFO -- 2018-09-23 10:46:53]
endSignal:2
[INFO -- 2018-09-23 10:46:53]
faultModel:1
[INFO -- 2018-09-23 10:46:53]
Backtrace BEGIN:
#0  0x0000555555554d71 in my_maxof (a=-1, b=-2, c=-1, d=0) at smith_waterman.c:65
#1  0x00005555555550d7 in smith_waterman (x_num=15000, y_num=13650, str_x=0x5555557586c0 "HWSGMTGFLZNMTWDCKEIUOQOZUWZGZJGJFYPURVZCUORNLURXBBSPRGRLCQTBBZMJXBDQWCVSSMHFIADLBXBUDUHHKBKMCXVAAYSXCNRUBZAKZFVDCYXHSFODIARKZOMAMFXQUQMWPOGRTDWXCVEUAUZKXSVWGJWUQVKLOZHDPPWLSSIUOPRQJSDILAFRJDMABYLPXUUN"..., str_y=0x55555575c170 "WSSMMTGLLZMMTWDKKEIUOOOUWWZZZGGJFPPURZZCUORNUURBBSSPGGLLCQTBBMJJBDDQCVVSMHHFIDLLXBBDDUHKKBKCCXVAASXCNRRBBAKKZFVCYYHHSFODARRKOOMAMFQUUMMWOORRTDWXVEUUAZKKXVWWGWWQQKKOZZDPPWWLSSUUPRQQJDIIAFFRDDMABYLPUUUJ"..., fo=0x555555758260) at smith_waterman.c:98
#2  0x0000555555555e38 in main (argc=7, argv=0x7fffffffdcb8) at smith_waterman.c:298

60	}
61	
62	double my_maxof(double a, double b, double c, double d)
63	{
64	    double ans=a;
65	    if(ans<b) ans=b;
66	    if(ans<c) ans=c;
67	    if(ans<d) ans=d;
68	    return ans;
69	}

Backtrace END
Memory content before bitflip:0xff0xff0xff0xff
Fault Model: Double bit-flip
base address to flip value: 0x7fffffffdb64
address max offset: 4
Memory content after  bitflip:0xde0xff0xff0xff
frame name: main
symbol name: opt
symbol filename: smith_waterman.c
symbol line: 246
value: -34
value address: 0x7fffffffdb64
Type: The type is an integer type.
Type sizeof: 4

[INFO -- 2018-09-23 10:46:53]
Fault Injection Successful after 0.9876456260681152s
[INFO -- 2018-09-23 10:46:59]
event type: exit
[INFO -- 2018-09-23 10:46:59]
exit code: 0
