[INFO -- 2018-12-03 19:22:40]
Starting GDB script
[INFO -- 2018-12-03 19:22:40]
initSignal:0.0
[INFO -- 2018-12-03 19:22:40]
endSignal:6.0
[INFO -- 2018-12-03 19:22:42]
sending 5 signals using command: 'killall -2 smith_waterman' after 2.48942460969s
[INFO -- 2018-12-03 19:22:44]
sending 5 signals using command: 'killall -2 smith_waterman' after 4.53366978883s
[INFO -- 2018-12-03 19:22:45]
Execution finished before waitTime
