[INFO -- 2018-09-23 15:20:15]
Starting GDB script
[INFO -- 2018-09-23 15:20:15]
initSignal:0.0
[INFO -- 2018-09-23 15:20:15]
endSignal:2.0
[INFO -- 2018-09-23 15:20:15]
sending 5 signals using command: 'killall -2 smith_waterman' after 0.643264108126s
[INFO -- 2018-09-23 15:20:15]
sending 5 signals using command: 'killall -2 smith_waterman' after 0.748047275111s
[INFO -- 2018-09-23 15:20:16]
sending 5 signals using command: 'killall -2 smith_waterman' after 1.20522232264s
[INFO -- 2018-09-23 15:20:20]
Execution finished before waitTime
