[INFO -- 2018-09-25 20:35:04]
Starting GDB script
[INFO -- 2018-09-25 20:35:04]
initSignal:0.0
[INFO -- 2018-09-25 20:35:04]
endSignal:2.0
[INFO -- 2018-09-25 20:35:04]
sending 5 signals using command: 'killall -2 smith_waterman' after 0.092240637684s
[INFO -- 2018-09-25 20:35:05]
sending 5 signals using command: 'killall -2 smith_waterman' after 0.78042060237s
[INFO -- 2018-09-25 20:35:06]
sending 5 signals using command: 'killall -2 smith_waterman' after 1.91538404129s
[INFO -- 2018-09-25 20:35:11]
Execution finished before waitTime
