[INFO -- 2018-12-09 12:25:46]
sending 5 signals using command: 'killall -2 smith_waterman' after 5.35418002805s
[INFO -- 2018-12-09 12:25:46]
Starting GDB script
[INFO -- 2018-12-09 12:25:46]
initSignal:0.0
[INFO -- 2018-12-09 12:25:46]
endSignal:6.0
[INFO -- 2018-12-09 12:25:47]
sending 5 signals using command: 'killall -2 smith_waterman' after 0.751415024432s
[INFO -- 2018-12-09 12:25:47]
Execution finished before waitTime
