[INFO -- 2018-09-26 14:33:07]
Starting GDB script
[INFO -- 2018-09-26 14:33:07]
initSignal:0.0
[INFO -- 2018-09-26 14:33:07]
endSignal:2.0
[INFO -- 2018-09-26 14:33:08]
sending 5 signals using command: 'killall -2 smith_waterman' after 0.440222829004s
[INFO -- 2018-09-26 14:33:08]
sending 5 signals using command: 'killall -2 smith_waterman' after 1.11772545407s
[INFO -- 2018-09-26 14:33:09]
sending 5 signals using command: 'killall -2 smith_waterman' after 1.93655705936s
[INFO -- 2018-09-26 14:33:27]
Execution did not finish before waitTime
