[INFO -- 2018-12-08 16:24:34]
Starting GDB script
[INFO -- 2018-12-08 16:24:34]
initSignal:0.0
[INFO -- 2018-12-08 16:24:34]
endSignal:6.0
[INFO -- 2018-12-08 16:24:35]
sending 5 signals using command: 'killall -2 smith_waterman' after 0.725132939171s
[INFO -- 2018-12-08 16:24:36]
sending 5 signals using command: 'killall -2 smith_waterman' after 2.112754088s
[INFO -- 2018-12-08 16:24:37]
sending 5 signals using command: 'killall -2 smith_waterman' after 2.9440442303s
[INFO -- 2018-12-08 16:24:41]
Execution finished before waitTime
