[INFO -- 2018-12-09 07:20:24]
Starting GDB script
[INFO -- 2018-12-09 07:20:24]
initSignal:0.0
[INFO -- 2018-12-09 07:20:24]
endSignal:6.0
[INFO -- 2018-12-09 07:20:24]
sending 5 signals using command: 'killall -2 smith_waterman' after 0.366750310455s
[INFO -- 2018-12-09 07:20:27]
sending 5 signals using command: 'killall -2 smith_waterman' after 2.91722546534s
[INFO -- 2018-12-09 07:20:29]
sending 5 signals using command: 'killall -2 smith_waterman' after 4.41857639878s
[INFO -- 2018-12-09 07:20:32]
Execution finished before waitTime
