[INFO -- 2018-09-26 01:47:04]
Starting GDB script
[INFO -- 2018-09-26 01:47:04]
initSignal:0.0
[INFO -- 2018-09-26 01:47:04]
endSignal:2.0
[INFO -- 2018-09-26 01:47:04]
sending 5 signals using command: 'killall -2 smith_waterman' after 0.406888851885s
[INFO -- 2018-09-26 01:47:04]
sending 5 signals using command: 'killall -2 smith_waterman' after 0.72815625041s
[INFO -- 2018-09-26 01:47:05]
sending 5 signals using command: 'killall -2 smith_waterman' after 1.64143254797s
[INFO -- 2018-09-26 01:47:09]
Execution finished before waitTime
