[INFO -- 2018-09-24 04:59:31]
Starting GDB script
[INFO -- 2018-09-24 04:59:31]
initSignal:0.0
[INFO -- 2018-09-24 04:59:31]
endSignal:2.0
[INFO -- 2018-09-24 04:59:31]
sending 5 signals using command: 'killall -2 smith_waterman' after 0.167834298553s
[INFO -- 2018-09-24 04:59:31]
sending 5 signals using command: 'killall -2 smith_waterman' after 0.556428211553s
[INFO -- 2018-09-24 04:59:32]
sending 5 signals using command: 'killall -2 smith_waterman' after 1.6618222553s
[INFO -- 2018-09-24 04:59:37]
Execution finished before waitTime
