[INFO -- 2018-09-24 02:24:30]
Starting GDB script
[INFO -- 2018-09-24 02:24:30]
initSignal:0.0
[INFO -- 2018-09-24 02:24:30]
endSignal:2.0
[INFO -- 2018-09-24 02:24:31]
sending 5 signals using command: 'killall -2 smith_waterman' after 0.795773421994s
[INFO -- 2018-09-24 02:24:31]
sending 5 signals using command: 'killall -2 smith_waterman' after 1.61530173648s
[INFO -- 2018-09-24 02:24:32]
sending 5 signals using command: 'killall -2 smith_waterman' after 1.76608092117s
[INFO -- 2018-09-24 02:24:36]
Execution finished before waitTime
