[INFO -- 2018-09-27 19:56:00]
Starting GDB script
[INFO -- 2018-09-27 19:56:00]
initSignal:0.0
[INFO -- 2018-09-27 19:56:00]
endSignal:2.0
[INFO -- 2018-09-27 19:56:00]
sending 5 signals using command: 'killall -2 smith_waterman' after 0.141963605879s
[INFO -- 2018-09-27 19:56:01]
sending 5 signals using command: 'killall -2 smith_waterman' after 0.699628781421s
[INFO -- 2018-09-27 19:56:01]
Execution finished before waitTime
