[INFO -- 2018-12-08 06:31:05]
Starting GDB script
[INFO -- 2018-12-08 06:31:05]
initSignal:0.0
[INFO -- 2018-12-08 06:31:05]
endSignal:6.0
[INFO -- 2018-12-08 06:31:07]
sending 5 signals using command: 'killall -2 smith_waterman' after 2.33138688502s
[INFO -- 2018-12-08 06:31:07]
sending 5 signals using command: 'killall -2 smith_waterman' after 2.66666562023s
[INFO -- 2018-12-08 06:31:11]
sending 5 signals using command: 'killall -2 smith_waterman' after 5.95409385986s
[INFO -- 2018-12-08 06:31:13]
Execution finished before waitTime
