[INFO -- 2018-09-23 23:23:22]
sending 5 signals using command: 'killall -2 smith_waterman' after 1.05532764635s
[INFO -- 2018-09-23 23:23:23]
sending 5 signals using command: 'killall -2 smith_waterman' after 1.4632960478s
[INFO -- 2018-09-23 23:23:23]
Starting GDB script
[INFO -- 2018-09-23 23:23:23]
initSignal:0.0
[INFO -- 2018-09-23 23:23:23]
endSignal:2.0
[INFO -- 2018-09-23 23:23:23]
sending 5 signals using command: 'killall -2 smith_waterman' after 0.213766784861s
[INFO -- 2018-09-23 23:23:24]
sending 5 signals using command: 'killall -2 smith_waterman' after 1.33702332288s
[INFO -- 2018-09-23 23:23:24]
sending 5 signals using command: 'killall -2 smith_waterman' after 1.51592578635s
[INFO -- 2018-09-23 23:23:29]
Execution finished before waitTime
