[INFO -- 2018-11-08 20:56:28]
sending 5 signals using command: 'killall -2 smith_waterman' after 3.22694864624s
[INFO -- 2018-11-08 20:56:28]
Starting GDB script
[INFO -- 2018-11-08 20:56:28]
initSignal:0.0
[INFO -- 2018-11-08 20:56:28]
endSignal:6.0
[INFO -- 2018-11-08 20:56:30]
sending 5 signals using command: 'killall -2 smith_waterman' after 2.43636129319s
[INFO -- 2018-11-08 20:56:31]
sending 5 signals using command: 'killall -2 smith_waterman' after 2.78852771476s
[INFO -- 2018-11-08 20:56:31]
Execution finished before waitTime
