[INFO -- 2018-09-23 20:08:36]
Starting GDB script
[INFO -- 2018-09-23 20:08:36]
initSignal:0.0
[INFO -- 2018-09-23 20:08:36]
endSignal:2.0
[INFO -- 2018-09-23 20:08:36]
sending 5 signals using command: 'killall -2 smith_waterman' after 0.542217346855s
[INFO -- 2018-09-23 20:08:36]
sending 5 signals using command: 'killall -2 smith_waterman' after 0.591571746281s
[INFO -- 2018-09-23 20:08:38]
sending 5 signals using command: 'killall -2 smith_waterman' after 1.6557789007s
[INFO -- 2018-09-23 20:08:43]
Execution finished before waitTime
