[INFO -- 2018-12-05 11:08:46]
Starting GDB script
[INFO -- 2018-12-05 11:08:46]
initSignal:0.0
[INFO -- 2018-12-05 11:08:46]
endSignal:6.0
[INFO -- 2018-12-05 11:08:47]
sending 5 signals using command: 'killall -2 smith_waterman' after 0.287474703495s
[INFO -- 2018-12-05 11:08:49]
sending 5 signals using command: 'killall -2 smith_waterman' after 2.48283222077s
[INFO -- 2018-12-05 11:08:51]
sending 5 signals using command: 'killall -2 smith_waterman' after 4.61813394175s
[INFO -- 2018-12-05 11:08:54]
Execution finished before waitTime
