[INFO -- 2018-09-28 06:27:21]
Starting GDB script
[INFO -- 2018-09-28 06:27:21]
initSignal:0.0
[INFO -- 2018-09-28 06:27:21]
endSignal:2.0
[INFO -- 2018-09-28 06:27:21]
sending 5 signals using command: 'killall -2 smith_waterman' after 0.0904292675606s
[INFO -- 2018-09-28 06:27:21]
sending 5 signals using command: 'killall -2 smith_waterman' after 0.287529964877s
[INFO -- 2018-09-28 06:27:23]
sending 5 signals using command: 'killall -2 smith_waterman' after 1.59738917891s
[INFO -- 2018-09-28 06:27:28]
Execution finished before waitTime
