[INFO -- 2018-11-09 00:31:48]
sending 5 signals using command: 'killall -2 smith_waterman' after 5.50784872899s
[INFO -- 2018-11-09 00:31:48]
Starting GDB script
[INFO -- 2018-11-09 00:31:48]
initSignal:0.0
[INFO -- 2018-11-09 00:31:48]
endSignal:6.0
[INFO -- 2018-11-09 00:31:48]
sending 5 signals using command: 'killall -2 smith_waterman' after 0.0945120970831s
[INFO -- 2018-11-09 00:31:51]
Execution finished before waitTime
