[INFO -- 2018-12-09 03:02:16]
sending 5 signals using command: 'killall -2 smith_waterman' after 2.16031010302s
[INFO -- 2018-12-09 03:02:18]
sending 5 signals using command: 'killall -2 smith_waterman' after 4.77288981888s
[INFO -- 2018-12-09 03:02:18]
Starting GDB script
[INFO -- 2018-12-09 03:02:18]
initSignal:0.0
[INFO -- 2018-12-09 03:02:18]
endSignal:6.0
[INFO -- 2018-12-09 03:02:19]
sending 5 signals using command: 'killall -2 smith_waterman' after 0.769485499823s
[INFO -- 2018-12-09 03:02:21]
sending 5 signals using command: 'killall -2 smith_waterman' after 2.85572886507s
[INFO -- 2018-12-09 03:02:24]
sending 5 signals using command: 'killall -2 smith_waterman' after 5.79249203634s
[INFO -- 2018-12-09 03:02:28]
Execution finished before waitTime
