[INFO -- 2018-12-05 17:25:28]
Starting flip_value script
version: 1.1
[INFO -- 2018-12-05 17:25:28]
Initialization strings:
[INFO -- 2018-12-05 17:25:28]
(1) file /tmp/smith_waterman/smith_waterman
[INFO -- 2018-12-05 17:25:28]
(2) set args -x /tmp/smith_waterman/randInputX -y /tmp/smith_waterman/randInputY -o /tmp/smith_waterman/output -z /tmp/smith_waterman/detected.log
[INFO -- 2018-12-05 17:25:28]
initSignal:0
[INFO -- 2018-12-05 17:25:28]
endSignal:6
[INFO -- 2018-12-05 17:25:28]
faultModel:1
[INFO -- 2018-12-05 17:25:31]
Backtrace BEGIN:
#0  0x0000555555555207 in smith_waterman (x_num=15000, x_num2=15000, y_num=12000, y_num2=12000, str_x=0x5555557586c0 "CVUOAGGETRADLDNAMNINZBWZQWUTOLKTGGJINPOIIQLUTYWFOESNHPOYNITETDXBLILAYZJIPUCJVAQJFJWOAKMNTHROMQSYZDYXFHFUEKFZKWKRFGGHSUUNCOEOEWMDBLCGUKDYUIZGGJYNRGUKAPZEDDTHBHNFUPLRZOPVZREFAETUKNGMEFTHLOROVGTSVFJXVAUW"..., str_y=0x55555575c170 "VVUOAGEETAALDDAMMNNZBBZQQWTTOKKGGGJNPOIIQLUTTWFFESNNHOYNIIEETXBLILLYYZJIUUCVAAQJJWWAAMNTTHRMQSYYDDXFFFUEKFFKWWRFGGHHSUUNOOOEWMMBBCGUUDYYIZGGJYYRGUKAPZZEDTHBHHFFPLRROPPZREFAATUUNGMMFTHLOROOVTTVFJJVVUWR"...) at smith_waterman.c:141
#1  0x0000555555555e65 in execute (file_x_name=0x7fffffffe0b4 "/tmp/smith_waterman/randInputX", file_y_name=0x7fffffffe0d6 "/tmp/smith_waterman/randInputY") at smith_waterman.c:309
#2  0x0000555555556082 in main (argc=9, argv=0x7fffffffdc88) at smith_waterman.c:355

136	    for(i=1; i<x_num+1; i++){
137	        check_index(i, i2);
138	        for(j=1; j<y_num+1; j++){
139	            if(str_x[i-1]==str_y[j-1]){diff=match_score;}
140	            else{diff=mismatch_score;}
141	            matrix[i][j]=my_maxof(matrix[i-1][j-1]+diff, matrix[i-1][j]+gap_score, matrix[i][j-1]+gap_score,0);
142	            if(matrix[i][j]>max_score)
143	                max_score=matrix[i][j];
144	        }
145	        i2++;

Backtrace END
Memory content before bitflip:0xe00x2e0x000x000x000x000x000x00
Fault Model: Double bit-flip
base address to flip value: 0x7fffffffda00
address max offset: 8
Memory content after  bitflip:0xe00x2e0x000x000x000x000x210x00
frame name: smith_waterman
symbol name: y_num2
symbol filename: smith_waterman.c
symbol line: 93
value: 9288674231463648
value address: 0x7fffffffda00
Type: The type is an integer type.
Type sizeof: 8

[INFO -- 2018-12-05 17:25:31]
Fault Injection Successful after 3.342320203781128s
[INFO -- 2018-12-05 17:25:33]
event type: exit
[INFO -- 2018-12-05 17:25:33]
exit code: 0
