[INFO -- 2018-09-25 05:50:24]
sending 5 signals using command: 'killall -2 smith_waterman' after 1.13541754363s
[INFO -- 2018-09-25 05:50:24]
Starting GDB script
[INFO -- 2018-09-25 05:50:24]
initSignal:0.0
[INFO -- 2018-09-25 05:50:24]
endSignal:2.0
[INFO -- 2018-09-25 05:50:25]
sending 5 signals using command: 'killall -2 smith_waterman' after 0.751715887488s
[INFO -- 2018-09-25 05:50:26]
sending 5 signals using command: 'killall -2 smith_waterman' after 1.66128324705s
[INFO -- 2018-09-25 05:50:26]
sending 5 signals using command: 'killall -2 smith_waterman' after 1.74247557827s
[INFO -- 2018-09-25 05:50:30]
Execution finished before waitTime
