[INFO -- 2018-09-25 04:03:28]
Starting GDB script
[INFO -- 2018-09-25 04:03:28]
initSignal:0.0
[INFO -- 2018-09-25 04:03:28]
endSignal:2.0
[INFO -- 2018-09-25 04:03:30]
sending 5 signals using command: 'killall -2 smith_waterman' after 1.62685480781s
[INFO -- 2018-09-25 04:03:30]
sending 5 signals using command: 'killall -2 smith_waterman' after 1.67783566263s
[INFO -- 2018-09-25 04:03:30]
sending 5 signals using command: 'killall -2 smith_waterman' after 1.68700728976s
[INFO -- 2018-09-25 04:03:48]
Execution did not finish before waitTime
