[INFO -- 2018-12-09 00:53:07]
Starting GDB script
[INFO -- 2018-12-09 00:53:07]
initSignal:0.0
[INFO -- 2018-12-09 00:53:07]
endSignal:6.0
[INFO -- 2018-12-09 00:53:10]
sending 5 signals using command: 'killall -2 smith_waterman' after 2.61894206124s
[INFO -- 2018-12-09 00:53:10]
sending 5 signals using command: 'killall -2 smith_waterman' after 3.12109188105s
[INFO -- 2018-12-09 00:53:13]
sending 5 signals using command: 'killall -2 smith_waterman' after 5.9335833481s
[INFO -- 2018-12-09 00:53:13]
Execution finished before waitTime
