[INFO -- 2018-09-27 08:04:48]
Starting GDB script
[INFO -- 2018-09-27 08:04:48]
initSignal:0.0
[INFO -- 2018-09-27 08:04:48]
endSignal:2.0
[INFO -- 2018-09-27 08:04:48]
sending 5 signals using command: 'killall -2 smith_waterman' after 0.266787862035s
[INFO -- 2018-09-27 08:04:48]
sending 5 signals using command: 'killall -2 smith_waterman' after 0.669130001187s
[INFO -- 2018-09-27 08:04:49]
sending 5 signals using command: 'killall -2 smith_waterman' after 1.03704892935s
[INFO -- 2018-09-27 08:04:54]
Execution finished before waitTime
