[INFO -- 2018-11-09 00:37:11]
sending 5 signals using command: 'killall -2 smith_waterman' after 3.32645989016s
[INFO -- 2018-11-09 00:37:11]
Starting GDB script
[INFO -- 2018-11-09 00:37:11]
initSignal:0.0
[INFO -- 2018-11-09 00:37:11]
endSignal:6.0
[INFO -- 2018-11-09 00:37:12]
sending 5 signals using command: 'killall -2 smith_waterman' after 0.404023730288s
[INFO -- 2018-11-09 00:37:12]
sending 5 signals using command: 'killall -2 smith_waterman' after 1.08597723336s
[INFO -- 2018-11-09 00:37:14]
Execution finished before waitTime
