[INFO -- 2018-12-04 00:34:22]
Starting GDB script
[INFO -- 2018-12-04 00:34:22]
initSignal:0.0
[INFO -- 2018-12-04 00:34:22]
endSignal:6.0
[INFO -- 2018-12-04 00:34:24]
sending 5 signals using command: 'killall -2 smith_waterman' after 1.79976871623s
[INFO -- 2018-12-04 00:34:25]
sending 5 signals using command: 'killall -2 smith_waterman' after 3.03542861958s
[INFO -- 2018-12-04 00:34:27]
sending 5 signals using command: 'killall -2 smith_waterman' after 4.65319659593s
[INFO -- 2018-12-04 00:34:28]
Execution finished before waitTime
