[INFO -- 2018-09-28 06:31:38]
Starting GDB script
[INFO -- 2018-09-28 06:31:38]
initSignal:0.0
[INFO -- 2018-09-28 06:31:38]
endSignal:2.0
[INFO -- 2018-09-28 06:31:39]
sending 5 signals using command: 'killall -2 smith_waterman' after 0.440536056597s
[INFO -- 2018-09-28 06:31:40]
sending 5 signals using command: 'killall -2 smith_waterman' after 1.49447550211s
[INFO -- 2018-09-28 06:31:40]
sending 5 signals using command: 'killall -2 smith_waterman' after 1.94399340996s
[INFO -- 2018-09-28 06:31:45]
Execution finished before waitTime
