[INFO -- 2018-09-28 04:12:11]
Starting GDB script
[INFO -- 2018-09-28 04:12:11]
initSignal:0.0
[INFO -- 2018-09-28 04:12:11]
endSignal:2.0
[INFO -- 2018-09-28 04:12:12]
sending 5 signals using command: 'killall -2 smith_waterman' after 0.792838851245s
[INFO -- 2018-09-28 04:12:12]
sending 5 signals using command: 'killall -2 smith_waterman' after 1.29916856956s
[INFO -- 2018-09-28 04:12:12]
sending 5 signals using command: 'killall -2 smith_waterman' after 1.47571647453s
[INFO -- 2018-09-28 04:12:18]
Execution finished before waitTime
