[INFO -- 2018-12-09 03:24:42]
Starting GDB script
[INFO -- 2018-12-09 03:24:42]
initSignal:0.0
[INFO -- 2018-12-09 03:24:42]
endSignal:6.0
[INFO -- 2018-12-09 03:24:42]
sending 5 signals using command: 'killall -2 smith_waterman' after 0.33906517064s
[INFO -- 2018-12-09 03:24:43]
sending 5 signals using command: 'killall -2 smith_waterman' after 1.42042602113s
[INFO -- 2018-12-09 03:24:46]
sending 5 signals using command: 'killall -2 smith_waterman' after 4.08881439542s
[INFO -- 2018-12-09 03:24:51]
Execution finished before waitTime
