[INFO -- 2018-12-05 08:20:50]
sending 5 signals using command: 'killall -2 smith_waterman' after 2.55603396077s
[INFO -- 2018-12-05 08:20:52]
sending 5 signals using command: 'killall -2 smith_waterman' after 4.44330973247s
[INFO -- 2018-12-05 08:20:52]
Starting GDB script
[INFO -- 2018-12-05 08:20:52]
initSignal:0.0
[INFO -- 2018-12-05 08:20:52]
endSignal:6.0
[INFO -- 2018-12-05 08:20:53]
sending 5 signals using command: 'killall -2 smith_waterman' after 1.25219664302s
[INFO -- 2018-12-05 08:20:57]
sending 5 signals using command: 'killall -2 smith_waterman' after 4.98118301512s
[INFO -- 2018-12-05 08:20:57]
sending 5 signals using command: 'killall -2 smith_waterman' after 5.35043454704s
[INFO -- 2018-12-05 08:20:58]
Execution finished before waitTime
