[INFO -- 2018-09-23 13:32:17]
Starting GDB script
[INFO -- 2018-09-23 13:32:17]
initSignal:0.0
[INFO -- 2018-09-23 13:32:17]
endSignal:2.0
[INFO -- 2018-09-23 13:32:17]
sending 5 signals using command: 'killall -2 smith_waterman' after 0.47397390587s
[INFO -- 2018-09-23 13:32:18]
sending 5 signals using command: 'killall -2 smith_waterman' after 0.791398025098s
[INFO -- 2018-09-23 13:32:18]
sending 5 signals using command: 'killall -2 smith_waterman' after 1.63627648616s
[INFO -- 2018-09-23 13:32:22]
Execution finished before waitTime
