[INFO -- 2018-09-27 00:00:42]
Starting GDB script
[INFO -- 2018-09-27 00:00:42]
initSignal:0.0
[INFO -- 2018-09-27 00:00:42]
endSignal:2.0
[INFO -- 2018-09-27 00:00:42]
sending 5 signals using command: 'killall -2 smith_waterman' after 0.0504074823706s
[INFO -- 2018-09-27 00:00:42]
sending 5 signals using command: 'killall -2 smith_waterman' after 0.161992865708s
[INFO -- 2018-09-27 00:00:44]
sending 5 signals using command: 'killall -2 smith_waterman' after 1.90635115498s
[INFO -- 2018-09-27 00:00:48]
Execution finished before waitTime
